<?xml version="1.0"?>
<VTKFile type="UnstructuredGrid"  version="0.1"  >
<UnstructuredGrid>
<Piece  NumberOfPoints="540" NumberOfCells="1541">
<Points>
<DataArray  type="Float64"  NumberOfComponents="3"  format="ascii">-1 1 0  -1 0 0  0 0 0  0 1 0  -1 -1 0  0 -1 0  0 -0.6 0  0.7 0 0  1 -1 0  1 0 0  1 1 0  0.35 -0.3 0  0.2390227771353556 0 0  -0.5 0 0  0 0.5 0  -0.5 1 0  -1 0.5 0  -1 -0.5 0  -0.5 -1 0  0.5 1 0  1 0.5 0  1 -0.5 0  0.5 0.5 0  -0.5 0.5 0  0.5 -1 0  -0.49 -0.5 0  0.6102941176470589 -0.6102941176470588 0  -1 0.25 0  -0.75 0 0  -0.75 1 0  -1 0.75 0  0 0.75 0  -0.25 1 0  -0.75 -1 0  -1 -0.75 0  1 0.75 0  0.75 1 0  0 0.25 0  -0.25 0 0  0 -0.3695113885676778 0  0.175 -0.45 0  -0.25 -1 0  0.25 -1 0  0.7378320683111955 -0.3173007590132827 0  0.75 0.31 0  0.4695113885676778 0 0  0.5249999999999999 -0.15 0  -0.7055263157894737 -0.7055263157894737 0  0.2923670970362736 0.2902658059274527 0  -0.625 -0.2526 0  0.625 0.75 0  -0.2916666666666666 0.7083333333333334 0  0.25 1 0  -0.2916666666666667 0.2916666666666667 0  0.25 0.625 0  -0.75 0.625 0  -0.625 0.25 0  0.3266245422987303 -0.7094375624138095 0  -0.375 -0.7524 0  -0.2830919811987145 -0.2917158490246171 0  1 -0.75 0  0.75 -1 0  -0.2429232456140351 -0.5398239035087719 0  1 -0.25 0  1 0.25 0  -1 -0.25 0  0 -0.8 0  -0.5347222222222222 0.7430555555555556 0  -0.7260254892332834 -0.4682601497433033 0  0.5224784954811602 0.2701032835278424 0  0.7635747663551402 0.5516121495327102 0  0.375 0.8125 0  -0.7946428571428571 0.4017857142857143 0  0 -0.1847556942838389 0  -0.2916666666666667 0.5 0  0.7721609477124183 -0.7721609477124183 0  0.3755077109870476 -0.5068423294848889 0  0.557093558149208 -0.4128814215579547 0  0.5152934288323027 -0.7938677295807294 0  0.7940788714892627 -0.5160394635757869 0  0.85 0 0  0.18125 0.81875 0  -0.1810734673047909 -0.7255708033465671 0  -0.8128107046374187 -0.2961131688584605 0  -0.8125 0.1875 0  0.8125 0.7333780957737549 0  -0.8125 0.8125 0  0.1930599396312532 -0.1875293335285289 0  -0.375 -0.1335550001014089 0  0.1317408898871142 0.375 0  -0.5528827687379376 -0.8179494099667116 0  -0.8682832416161046 -0.625 0  -0.4473039215686274 0.1825980392156863 0  -0.130952380952381 0.375 0  -0.1458333333333334 0.6041666666666666 0  -0.375 0.8690476190476191 0  -0.1614583333333334 0.1614583333333334 0  -0.8363617603792088 -0.8363617603792088 0  -0.1614583333333333 0.8385416666666667 0  -0.8709339799071285 -0.1290660200928715 0  0.1607425867631654 0.1644207819892148 0  0.1481405202057069 -0.7 0  -0.4598652040056469 -0.3230231307225639 0  0.3542670828515168 0.1288553367414851 0  0.2784817973045915 0.4585566377359904 0  0.41796875 0.6484375 0  0.7749999999999999 -0.1519634354426363 0  0.375 -1 0  -0.625 1 0  0.3544035081185292 -0.1278444630025641 0  1 0.875 0  0.8487762237762237 0.1707342657342658 0  -0.5095814554955967 -0.661320314508691 0  0.6580268493535805 0.1658021210720032 0  1 -0.875 0  -0.4457323438634713 0.3459343228031954 0  -0.125 -1 0  0.125 -1 0  1 -0.375 0  0.1875 -0.8539284689172044 0  0.649206320899363 0.436850422236004 0  1 0.375 0  0.6515364700979547 -0.8754255886856394 0  1 -0.625 0  -0.1724144276409859 -0.1565361235955581 0  -0.6339285714285714 0.4107142857142857 0  -0.3523537956740429 -0.4323837128742908 0  0.2437745760100904 -0.5838318606484565 0  0.4656416944198555 -0.6518040112055697 0  1 0.625 0  0 -0.4847556942838389 0  0.08749999999999998 -0.5249999999999999 0  -0.1603815297388746 -0.3991546961287426 0  0.4069838424199306 0.3844408153639561 0  0.8534524920574496 0.4253750305482707 0  -0.3958333333333334 0.6041666666666667 0  0.3767704329210091 -0.8503970320943259 0  -0.37388109555312 -0.6057764982472361 0  1 -0.125 0  -0.6190471286479342 -0.5661845227758047 0  -0.3070249955045814 0.1362784921584264 0  -0.6799242424242424 0.7525252525252525 0  -0.6932253459032534 -0.8486627302654292 0  -0.2625426988579299 -0.8509792300373232 0  -0.7248309799262407 -0.1447733669468729 0  -0.5223332409248269 -0.1461766622501847 0  -0.596364003839754 -0.3975071160807065 0  0.1455187139535414 0.5214625720929171 0  -0.375 -1 0  -0.6307397959183674 0.5510204081632653 0  0.875 -1 0  0.875 1 0  0.556396484375 0.6280517578125 0  -0.5727211097204838 0.119889445139758 0  0.7287400674793139 0.8543799662603431 0  0.1263480392156863 0.6901960784313725 0  -0.8591269841269841 0.5307539682539683 0  0.5178571428571429 0.8526785714285714 0  -0.875 0.6875 0  -0.8690065121565475 -0.4323926055353359 0  0.4917787567658126 0.1358784333987464 0  -0.5625 0.8776276276276276 0  0.8647972128492224 0.8590703717416547 0  0.8789236101956097 -0.6875 0  0.625 1 0  0.5994547154338878 -0.2743100490121143 0  0.876321979436323 -0.3125 0  0.1195113885676778 0 0  0.6411941297862751 -0.7412609355732019 0  -0.100004441552848 -0.2771335414257584 0  -0.1243037610337384 -0.8613726493539136 0  -0.625 0 0  0.1310273234635535 -0.3151176893466217 0  -0.875 0 0  -1 0.125 0  -0.875 1 0  -1 0.875 0  0.6645579179557739 -0.4897957856644336 0  -0.7021617032392894 0.8798872344130965 0  0.8793421369229153 0.2980922371788138 0  0.7418837010354568 -0.6405713643240203 0  0 0.875 0  0.125 1 0  0.5019379036566913 -0.5287333226026359 0  -0.8788610038610039 0.3009169884169884 0  -0.4303987628844947 -0.8762 0  0.4374999999999999 -0.225 0  -0.1146409707456175 -0.5423778471419194 0  0.6124999999999999 -0.07499999999999998 0  0.5847556942838389 0 0  -1 0.625 0  -0.375 0 0  -0.125 0 0  0.625 -1 0  1 0.125 0  -1 -0.125 0  -0.625 -1 0  -0.125 1 0  0 0.625 0  0 0.125 0  -0.375 1 0  0 0.375 0  -0.875 -1 0  -1 -0.875 0  -1 -0.625 0  0.375 1 0  -1 -0.375 0  -1 0.375 0  0.8125 -0.8910818352068154 0  0.8915465624413113 -0.4375 0  -0.6946518160894539 0.1464554482683619 0  0.8897977479212327 0.5625 0  -0.5173611111111112 0.6215277777777778 0  -0.4098639455782312 0.7490079365079365 0  0.8933742279543562 -0.1875 0  0.7117761592654883 0.6630220600422287 0  -0.7029357235928712 -0.3432843895622844 0  -0.7495749221147144 -0.589813379269471 0  0.432636315469437 -0.3948032885245123 0  0 -0.9 0  0.34529649495827 0.5556485569657313 0  -0.1731770833333333 0.7200520833333334 0  0.9001997204680771 -0.8125 0  0.8961121751075972 -0.5722721328228725 0  0.5405284777018166 0.3879154400531414 0  0.6380008594382641 0.280005588372165 0  0.4039438989559617 0.2404804884832452 0  0.3542670828515168 0 0  0.2625 -0.375 0  -0.1165462293866963 0.4910019455252918 0  0.5082464841704736 0.7354101511840967 0  -0.7405929605429232 0.5070471635371561 0  -0.7098214285714286 0.3258928571428572 0  -0.2687243524708713 -0.6515859070495258 0  0.7551107388303694 0.1021652533587762 0  0.3235677083333333 0.7113715277777778 0  0.2803571428571429 0.8848214285714285 0  0 -0.09237784714191946 0  0.6466714176760878 0.553745757824589 0  0 -0.7 0  -0.3415656771968046 0.3958333333333334 0  0.9012999504488688 0.670625192947272 0  -0.2730654761904762 0.8199404761904763 0  -0.1800595238095238 0.2730654761904762 0  0.09721347747997311 -0.1385667707128792 0  0.6921377761291787 -0.2201823054216922 0  -0.8880430183235802 -0.7360756678822595 0  0.1110671009823674 0.2648660185082025 0  -0.2365885212778731 0.3820856855937212 0  0.6230138591018852 0.8888227128609667 0  -0.9025449465500486 0.4284398283122773 0  -0.6123994648681168 0.6699548383521738 0  0.2737119084362092 -0.483860285160751 0  0.3677533548275671 -0.6121663219824824 0  -0.2916666666666667 0.6041666666666666 0  -0.3958333333333334 0.4858641031877479 0  -0.4420356863916023 -0.2172690285911411 0  0.4233584729075008 -0.7462907164849356 0  0.4755866969373243 -0.8945552581089482 0  0.7456282862113516 -0.4224230878102548 0  0.5067903147638725 -0.3217431883080412 0  0.4375 0.917681277056277 0  0.7503539604430483 0.4137511300898359 0  0.6472455406047654 -0.3646802380318796 0  -0.2780102722530837 -0.1829783267841319 0  -0.5549158804490739 0.3344987209274324 0  -0.9161220451405196 -0.3125 0  -0.6233221600073572 -0.1079637567691885 0  -0.6111214524039817 -0.6676099334722239 0  0.2812548185313353 -0.8049770565363618 0  0.2254224841424944 -0.2821378910960597 0  0.2989678878390742 -0.2125605804840116 0  -0.7259586181874846 -0.2453607491514681 0  -0.4706532294590897 0.8317461120644527 0  0.2223360190676185 0.7252027096084609 0  0.1844812147480403 -0.08602937689670304 0  -0.9103831451023081 0.2063505646930757 0  -0.8976801067868649 0.1023198932131351 0  -0.8125 0.9166666666666666 0  -0.78125 0.71875 0  -0.7787948732778861 0.09456837557403797 0  -0.90625 0.78125 0  -0.8323002726806044 -0.5285598231605422 0  -0.08230824598861286 0.6803243885869564 0  0.2731395457330906 -0.9036924402690051 0  0.5507506744245172 -0.7017667252204225 0  0.2500542873256763 0.1060969263378213 0  -0.3979357672750659 0.09653227744036413 0  -0.5625 -0.9194491529435482 0  -0.09287184125823324 -0.7684663178960887 0  -0.2760968365648261 -0.7530073465282643 0  0.905470999854304 -0.08593480017483511 0  0.9056082472306644 0.08577010332320278 0  0.08712448764808918 -0.8500000000000001 0  -0.09693340790275543 -0.6499999999999999 0  -0.2522034284031928 -0.4398270182251208 0  0.07995689655172414 0.8125 0  0.1875 0.921937292358804 0  0.09099017293546874 0.9090098270645313 0  0.0795073212220786 -0.4271335414257583 0  -0.9092261904761905 0.9092261904761905 0  0.7524770876503586 0.2040210076877756 0  -0.5389076521305226 0.209034015149656 0  -0.3572671203363872 0.2196974308038731 0  0.8046705543776557 -0.2454797429534156 0  -0.4631822581133143 -0.7872347613629033 0  -0.6365375123232809 -0.7716942741342321 0  0.9075494261617957 -0.9089311919191411 0  0.2852398457484767 0.1949581673673236 0  -0.8770715244472519 -0.224836985526296 0  -0.7831564808728008 -0.3930841304158043 0  0.8040608640849473 0.6381821445436929 0  0.7202152951805411 0.7582180112722907 0  0.9038192651911999 0.7691084560633717 0  -0.1875 -0.9303706776597088 0  -0.3395230802224214 -0.909829491670464 0  -0.2439618231117366 0.2050614223385201 0  -0.5327619116959292 -0.23884916714812 0  0.09375490832898355 -0.6208390597171474 0  -0.2440463437917054 -0.09454444986761157 0  -0.7918992551577005 -0.749988821010982 0  -0.7702566957098327 -0.9060824065594879 0  0 -0.2771335414257584 0  -0.07073252688172045 0.1875 0  -0.09247530972417024 0.09218971500852072 0  -0.2242079462581538 0.09086269095877253 0  -0.09149793690169103 0.7746336640812301 0  -0.2300444962467745 0.9059366203377903 0  -0.08095672799284601 -0.1385667707128792 0  -0.1896113052619169 -0.30874343713269 0  0.197790396629253 0.3055941438821428 0  -0.4375 -0.06677750005070446 0  -0.1801223423759707 -0.6084196247708697 0  0.5625 -0.9299810233449481 0  0.3693139865761255 0.4675851649778924 0  -0.08694966860975585 -0.4546186377430944 0  0.7946175133419243 0.919124075863716 0  0.08118040847187201 0.4536355857548757 0  -0.9341416208080523 -0.5625 0  -0.08789497866209303 0.2781978201831694 0  0.6159349255258171 -0.16754907978012 0  0.6423778471419195 0.07362668813987326 0  -0.4375 0.9345238095238095 0  -0.7303023101095012 0.233801483537464 0  0.6914161750083979 -0.1184093376872694 0  0.1123773113569385 -0.2271760744941149 0  -0.502733853931465 -0.4067776978300178 0  -0.375827953415487 -0.2828112885089297 0  -0.2023769240148585 0.5291610269541351 0  0.2832181238875863 0.7934268192555846 0  0.07407026010285345 -0.75 0  0.2388367873480559 -0.6772157602193536 0  0.0710827515808115 0.1825854447345926 0  0.08778740913073273 0.08930087332228377 0  0.06512398331795584 0.5625 0  -0.926730405668448 -0.819472468194606 0  -0.9132992176800937 -0.9132992176800937 0  -0.06576425823753008 0.5645164743293771 0  -0.8125 -0.06262809350891692 0  -0.0625 1 0  0 0.9375 0  -0.09260416666666663 0.9073958333333334 0  -1 -0.0625 0  -0.9375 0 0  0.9255091844015657 0.9255091844015657 0  -0.4859964938412558 0.1032116985711225 0  0.2639724241745283 -0.1291648852645323 0  -0.3972799824190222 -0.5148387112440453 0  -0.5077058797872694 0.4106953217537177 0  0.3411920062458941 -0.4219027498118414 0  -0.6875 -0.937376296540659 0  0.257095475593056 0.372073861815047 0  0.4258548415450042 0.07691808273080897 0  -0.3125 1 0  0.4118892357095973 -0.06386081459296748 0  -0.7959705969411348 -0.1942758656722753 0  -0.6331794183364191 0.8263092467880355 0  0.5856473273135328 0.2119676592463144 0  -0.5473053567870512 -0.3250962918561511 0  -0.7947687310862986 0.3162983929875822 0  0.8088098149855281 -0.3648870766941713 0  0.9186517340301579 0.2213110385731986 0  -0.5788137340324616 -0.4857310880533087 0  0.1380343777590887 0.60606803072743 0  0.4200323012147491 0.7366360640086248 0  0.4344621306499846 0.5606669833855178 0  0.2023606538236518 -0.7681322624504097 0  -1 0.5625 0  -0.9189442208808406 0.59375 0  0.8204850197299977 -0.07992264257607305 0  0.6881762668030411 -0.5728992213550048 0  0.5221639721531501 -0.2375466489539752 0  0.1899505284811852 0.4434035137943905 0  0.2620458712011574 0.5414027056498353 0  0.6875 1 0  0.8153363364456254 -0.5981533798230106 0  0.1792670828515167 0.05983511273375056 0  0.5797682472451146 -0.4947319723997931 0  0.1603852758683835 -0.5683668059349962 0  -0.4696385271508077 0.6903492580260751 0  -0.6875 0 0  0.5625 1 0  -0.2266912774725274 0.65625 0  -0.7797172714151663 -0.6675282005084783 0  -0.4938637325445799 0.2785348455221465 0  0.5271335414257584 0.06032081968866715 0  0.9169275791404009 0.4819300050760495 0  0 0.4375 0  -0.5625 0 0  -0.1634543493710798 -0.07380118875011304 0  -0.374778720424128 0.3015416251432689 0  0.4353331750779699 -0.1427395610833521 0  -0.1776369585268653 -0.48358104574102 0  -0.08455392183640063 -0.3607267093703234 0  0.5777196311564732 0.1279142489343336 0  0.4491548064478229 0.3115380506939718 0  -0.5561214849655498 -0.7327540044572297 0  -0.4232436987249252 -0.6787158254537077 0  -0.5321413107316816 -0.5767333641354206 0  -0.65625 0.07492836752047363 0  -0.1796519227378375 0.439943456166356 0  0.5854027913779819 0.4939419802705168 0  0.6776662930840479 0.3559944644894162 0  0.7138290223357904 0.4868182984146583 0  0.7351538396671842 -0.8510162285212531 0  -0.3125 0 0  0.5271335414257583 -0.06394746499671804 0  -0.3414397433449802 -0.827549285458928 0  -0.715474132620332 0.4276415300231201 0  -0.5832270408163265 0.4797512755102041 0  -0.454878249513439 -0.6014287354127068 0  0.360848757214074 0.892068611733409 0  0.07653552138407113 -0.9324555982699111 0  -0.0625 -1 0  0.6367533005190678 0.633687017541216 0  0.1557732485700748 -0.9267602456036251 0  -0.6810555242688983 -0.6299704944290447 0  0.5744717787457727 -0.8495862957388445 0  0.6875 -1 0  -0.9369125831247376 -0.1729198854221553 0  0.4277308175817536 -0.3156621540712288 0  0.3690076216585303 0.3138248995652465 0  0.4389451229910805 -0.5770430015288281 0  0.8104682319245927 0.2583949020696551 0  -0.9341416208080523 -0.6705795550446483 0  0.3082456889028121 -0.06397141460031348 0  -0.8344080687830688 0.6124338624338624 0  0.3403930922416823 0.6343418085014123 0  -0.297514224712067 -0.3720000899920606 0  0.71875 -0.9278824552279387 0  0 0.3125 0  -0.3165453364403523 -0.5053608780110799 0  -0.0625 0 0  -0.6322073006882531 0.3272914202391792 0  0.9284244733566026 0.4051278791828374 0  0.7952003060121624 0.4790148311789553 0  0.8084296434380015 0.3616768285254893 0  -0.3474170918367346 0.795953798185941 0  0.53125 0.9290449134199135 0  -0.210294395822361 -0.229331457883139 0  -0.3897547746705029 -0.3616252380393761 0  0.3155060302834499 -0.555372224658719 0  -0.4314863387116704 -0.4427344631812605 0  -0.0751624662948573 -0.9225547085657142 0  0.4650004409418177 0.7979823809390079 0  -0.5535603080443078 -0.07615041920003318 0  0.8282916363536851 0.07498601138967437 0  0.6925497276599469 0.9227804217744255 0  0.0732379355959277 -0.06363121552800047 0  0.4880083056235892 -0.4510462012497933 0  0.5301925825107924 -0.6039538518755144 0  0.3319560928038748 0.3792701669779049 0  0.7749999999999999 0 0  0.925 0 0  -0.6617570364838685 0.4815360481390118 0  0.4472938878496748 -0.8252247604148573 0  0.3557035256716272 -0.7784921617386683 0  0.4024777796741918 -0.9255132180215062 0  -0.3027974218575627 0.8885734161730103 0  -0.2659435823481329 -0.9263037022416659 0  -0.2127403705875191 -0.7941656859899477 0  -0.6923609297029045 -0.07594630063806182 0  -0.3675387688090082 -0.2082268296020972 0  0.3125 1 0  0.3137456223315702 0.06442766837074253 0  -0.616528455993661 -0.8631243932041683 0  -0.4329210581720963 0.4202277065060049 0  0.5882574819180981 0.8188998879642265 0  0.4428421692907444 0.4507926298365979 0  -0.6496872208355842 -0.4539722392706063 0  -0.4486666204624135 -0.1398658311757968 0  -0.5878249721548106 -0.1857297472764813 0  -0.6220277728417452 -0.3272956663738922 0  -0.320342156063515 -0.07773171550440858 0  -0.8499978405962221 -0.360504876817488 0  -1 -0.4375 0  -0.9242280577300858 -0.4861051319803648 0  -0.3508179484061261 0.5450153849272074 0  -0.4408487182605406 0.5450153849272074 0  -0.3437499999999999 0.65625 0  0.7812868896694667 0.8012628435919775 0  0.6676684729903882 0.8113351339406563 0  -0.6716566452848897 -0.1956694914454253 0  0.8177410328445653 -0.4381531407308372 0  -0.3057251705932695 -0.5781157485741623 0  -0.3437779244017058 -0.6793222398906984 0  0.1778390217506051 0.2353820706833813 0  0.06587044494355712 0.34375 0  -0.6066694566061432 0.7578149650357694 0  -0.734393882159788 0.8086371546940998 0  -0.690251655817513 0.6751841031992525 0  0.5762018017939916 0.3221611398540296 0  -0.90625 -0.06558153844688287 0  0.3931386419720853 -0.6802306686911314 0  -0.06547619047619049 0.40625 0  -0.6765371503178839 -0.5215930913458374 0  0.7469210362020643 -0.06888448571000695 0  0.6687411177533071 -0.2954908465492938 0  0.5779591382853461 -0.3434994404947 0  0.8081718838692086 -0.6705528500484628 0  0.6997039143154178 -0.7862679980416506 0  0.7112914841052763 -0.7106687186430215 0  0.1954526399589531 -0.3479372162590097 0  0.2976497845799823 -0.633503074244423 0  -0.9259299344256502 0.4987329459149341 0  -0.8372354119916758 0.4610945955914637 0  -0.7986141908034426 -0.4641281466913708 0  -0.7640629719592172 -0.834011064371196 0  -0.7087121246876662 -0.7778968727985508 0  -0.841874009823241 -0.9077869682360615 0  1 0.3125 0  0.9359951813816633 0.8365092407261016 0  -0.9356221158042402 -0.40625 0  -0.6875 1 0  -0.65625 0.9352342010641231 0  0.6516702416281991 -0.6696605775166518 0  0.07234799321355573 0.6398191542767958 0  -0.48733843493723 -0.925653267271267 0  -0.927239663021229 0.3578926998516703 0  0.05762943475315633 -0.3233224649967181 0  </DataArray>
</Points>
<Cells>
<DataArray  type="UInt32"  Name="connectivity"  format="ascii">0 175  0 176  0 300  1 174  1 362  1 363  2 167  2 199  2 237  2 324  2 353  2 452  2 468  3 182  3 298  3 359  3 360  4 202  4 203  4 356  5 117  5 219  5 432  5 433  5 463  6 130  6 131  6 187  6 239  6 294  6 318  7 188  7 189  7 234  7 341  7 344  7 472  7 516  8 114  8 150  8 307  9 138  9 194  9 291  9 292  9 473  10 110  10 151  10 364  11 186  11 218  11 228  11 270  11 271  11 369  11 440  12 167  12 227  12 275  12 286  12 396  12 445  12 484  13 191  13 287  13 331  13 365  13 408  13 465  14 198  14 229  14 337  14 354  14 357  14 407  14 514  15 108  15 161  15 200  15 342  16 207  16 250  16 387  16 524  17 204  17 338  17 495  17 496  18 148  18 196  18 288  18 537  19 205  19 261  19 401  19 458  20 121  20 129  20 211  20 406  20 454  21 118  21 123  21 209  21 223  22 152  22 224  22 385  22 421  22 488  23 149  23 212  23 255  23 368  23 429  23 486  23 498  24 107  24 193  24 258  24 333  24 477  25 346  25 367  25 382  25 418  25 430  25 462  26 177  26 285  26 390  26 397  26 470  26 535  27 174  27 184  27 207  27 276  27 538  28 173  28 280  28 358  28 400  28 419  28 481  29 175  29 178  29 278  29 533  29 534  30 158  30 176  30 190  30 281  31 155  31 181  31 198  31 283  31 296  31 326  31 536  32 197  32 327  32 373  32 478  33 196  33 202  33 321  33 370  33 529  34 203  34 204  34 246  34 355  34 444  35 110  35 129  35 241  35 313  35 531  36 151  36 336  36 394  36 467  37 199  37 247  37 323  37 339  37 352  37 450  38 192  38 319  38 325  38 409  38 425  38 493  39 130  39 299  39 322  39 335  39 413  39 539  40 131  40 228  40 252  40 299  40 398  40 522  41 116  41 148  41 314  41 479  42 107  42 117  42 284  42 435  43 245  43 259  43 263  43 304  43 380  43 517  44 225  44 262  44 301  44 422  44 443  44 456  45 189  45 227  45 372  45 374  45 405  45 426  46 186  46 188  46 340  46 391  46 411  46 426  47 268  47 306  47 320  47 403  47 436  47 528  48 226  48 308  48 330  48 371  48 441  48 471  48 506  49 216  49 272  49 317  49 378  49 491  49 492  49 502  50 152  50 215  50 230  50 312  50 434  50 487  50 501  51 213  51 221  51 242  51 254  51 402  51 457  51 499  52 182  52 236  52 297  52 483  53 240  53 243  53 248  53 303  53 316  53 410  54 155  54 220  54 235  54 274  54 383  54 393  54 447  55 149  55 231  55 279  55 446  55 510  56 153  56 210  56 232  56 265  56 302  56 343  56 453  57 253  57 257  57 269  57 351  57 476  57 513  57 523  58 290  58 305  58 417  58 427  58 505  59 264  59 329  59 347  59 448  59 459  59 482  60 114  60 123  60 163  60 222  61 150  61 208  61 438  61 449  62 233  62 295  62 332  62 412  62 451  62 504  63 118  63 138  63 166  63 214  64 194  64 381  64 530  65 195  65 206  65 266  65 309  65 439  66 170  66 219  66 239  66 289  66 293  66 350  67 161  67 212  67 213  67 251  67 273  67 399  67 508  68 216  68 217  68 282  68 310  68 489  68 515  68 526  69 160  69 224  69 226  69 377  69 415  69 511  70 211  70 215  70 238  70 311  70 423  70 455  71 235  71 236  71 261  71 349  71 384  71 431  71 464  72 184  72 231  72 232  72 250  72 379  72 428  72 525  72 538  73 169  73 237  73 244  73 322  73 328  73 345  74 240  74 248  74 254  74 255  74 348  74 420  74 497  75 163  75 208  75 222  75 424  75 519  75 520  75 521  76 183  76 218  76 252  76 253  76 369  76 442  76 461  76 469  77 177  77 218  77 260  77 263  77 397  77 469  77 518  78 168  78 257  78 258  78 285  78 437  78 475  79 177  79 209  79 223  79 259  79 390  79 395  79 503  80 291  80 292  80 389  80 466  80 472  80 473  81 155  81 236  81 274  81 296  81 297  81 298  81 349  82 233  82 289  82 290  82 294  82 332  82 480  83 216  83 266  83 272  83 309  83 310  83 375  83 494  84 184  84 210  84 276  84 277  84 280  84 343  84 379  85 215  85 241  85 311  85 312  85 313  85 500  86 158  86 278  86 279  86 281  86 300  86 509  87 244  87 270  87 271  87 275  87 345  87 366  88 264  88 331  88 482  88 490  88 493  89 247  89 330  89 337  89 371  89 392  89 507  90 185  90 288  90 305  90 306  90 416  90 485  90 537  91 217  91 246  91 282  91 338  91 403  91 444  92 287  92 302  92 303  92 365  92 404  92 410  93 229  93 243  93 248  93 339  93 420  93 514  94 221  94 229  94 283  94 348  94 357  94 402  95 200  95 273  95 342  95 457  95 478  96 243  96 316  96 323  96 324  96 325  96 339  97 246  97 320  97 321  97 355  97 356  97 527  97 529  98 221  98 242  98 326  98 327  98 361  99 309  99 358  99 375  99 439  99 512  100 247  100 286  100 308  100 352  100 353  100 396  100 506  101 318  101 350  101 351  101 386  101 398  102 256  102 317  102 346  102 347  102 378  102 460  103 160  103 226  103 286  103 308  103 372  103 484  104 220  104 334  104 371  104 392  104 393  104 471  105 152  105 220  105 230  105 235  105 384  105 385  105 447  106 214  106 245  106 304  106 344  106 389  106 516  107 284  107 477  108 161  108 533  108 534  109 186  109 271  109 366  109 374  109 411  109 445  110 364  110 531  111 234  111 292  111 301  111 381  111 443  111 466  112 268  112 305  112 416  112 417  112 418  112 430  113 225  113 234  113 301  113 341  113 377  113 414  114 222  114 307  115 240  115 265  115 368  115 404  115 410  115 486  116 314  116 433  116 463  117 432  117 435  118 166  118 209  119 269  119 284  119 293  119 386  119 435  120 224  120 238  120 262  120 421  120 422  120 423  120 511  121 454  121 530  122 168  122 193  122 333  122 424  122 437  122 449  122 520  123 163  123 223  124 169  124 264  124 319  124 328  124 409  124 459  125 232  125 265  125 368  125 428  125 429  125 453  125 474  126 295  126 367  126 448  126 451  126 460  126 462  127 252  127 351  127 398  127 461  127 523  128 253  128 257  128 285  128 442  128 470  128 513  129 211  129 241  130 131  130 187  130 299  130 335  131 299  131 318  131 398  132 295  132 329  132 335  132 412  132 413  132 448  133 224  133 334  133 415  133 441  133 471  133 488  134 179  134 262  134 406  134 454  134 455  134 456  135 212  135 254  135 399  135 497  135 498  135 499  136 258  136 269  136 284  136 475  136 476  136 477  137 367  137 417  137 430  137 504  137 505  138 214  138 291  139 268  139 382  139 418  139 436  139 515  140 287  140 303  140 316  140 325  140 425  141 251  141 279  141 376  141 508  141 509  141 510  142 306  142 321  142 370  142 485  142 527  142 528  143 170  143 290  143 314  143 315  143 427  143 479  143 480  144 267  144 272  144 358  144 375  144 481  144 502  145 256  145 267  145 317  145 331  145 465  145 490  145 491  146 216  146 346  146 378  146 382  146 489  146 492  147 337  147 354  147 383  147 392  147 393  148 185  148 315  148 479  148 537  149 212  149 231  149 251  149 429  149 474  149 510  150 208  150 307  151 336  151 364  152 230  152 238  152 385  152 421  152 434  153 210  153 302  153 365  153 408  153 419  154 249  154 312  154 336  154 467  154 500  154 501  155 274  155 296  155 383  155 536  156 231  156 388  156 446  156 524  156 525  157 230  157 249  157 261  157 458  157 464  157 487  158 190  158 279  158 281  158 388  158 446  159 282  159 310  159 494  159 496  159 526  159 532  160 226  160 372  160 377  160 405  160 414  161 273  161 342  161 376  161 508  161 534  162 313  162 336  162 364  162 500  162 531  163 222  163 223  163 395  163 519  164 249  164 394  164 401  164 467  165 245  165 260  165 263  165 340  165 391  165 517  165 518  166 209  166 214  166 304  166 380  167 275  167 353  167 396  167 468  168 285  168 437  168 520  168 521  168 535  169 322  169 328  169 329  169 413  169 459  170 219  170 289  170 314  170 463  170 480  171 267  171 400  171 408  171 419  171 465  171 481  172 270  172 299  172 345  172 522  172 539  173 277  173 280  173 358  173 363  173 512  174 276  174 277  174 363  175 278  175 300  176 281  176 300  177 259  177 263  177 390  177 397  178 278  178 376  178 509  178 534  179 381  179 443  179 454  179 456  179 530  180 390  180 395  180 519  180 521  180 535  181 296  181 298  181 326  181 360  181 361  182 297  182 298  183 397  183 442  183 469  183 470  184 276  184 379  184 538  185 305  185 315  185 427  185 537  186 260  186 271  186 391  186 411  186 440  187 294  187 332  187 335  187 412  188 189  188 340  188 344  188 426  189 341  189 405  189 426  190 387  190 388  191 287  191 331  191 425  191 493  192 324  192 325  192 409  192 452  193 333  193 438  193 449  194 292  194 381  195 362  195 439  195 512  196 288  196 370  197 327  197 359  197 361  198 283  198 354  198 357  198 536  199 323  199 324  199 352  199 353  200 342  200 373  200 478  201 337  201 407  201 450  201 507  201 514  202 356  202 529  203 355  203 356  204 338  204 444  205 261  205 431  205 483  206 266  206 495  206 532  207 250  207 538  208 222  208 307  208 424  208 449  209 223  209 380  209 503  210 280  210 343  210 419  211 241  211 311  211 406  211 455  212 251  212 399  212 498  213 273  213 399  213 457  213 499  214 291  214 304  214 389  215 238  215 311  215 312  215 434  216 272  216 310  216 489  216 492  217 282  217 403  217 436  217 515  218 260  218 369  218 440  218 469  219 293  219 432  219 463  220 334  220 385  220 393  220 447  221 242  221 283  221 326  221 402  222 307  223 395  224 415  224 421  224 488  224 511  225 301  225 377  225 422  225 511  226 308  226 415  226 441  227 372  227 374  227 445  227 484  228 252  228 270  228 369  228 522  229 348  229 357  229 420  229 514  230 384  230 464  230 487  231 428  231 446  231 474  231 525  232 343  232 379  232 428  232 453  233 290  233 332  233 504  233 505  234 301  234 341  234 466  234 472  235 274  235 349  235 384  235 447  236 297  236 349  236 431  236 483  237 244  237 328  237 452  237 468  238 421  238 423  238 434  239 289  239 294  239 318  239 350  240 248  240 255  240 410  240 486  241 311  241 313  242 327  242 457  242 478  243 248  243 316  243 339  244 275  244 345  244 468  245 304  245 340  245 344  245 517  246 320  246 355  246 403  246 444  247 330  247 352  247 450  247 506  247 507  248 420  249 401  249 458  249 467  249 487  249 501  250 524  250 525  250 538  251 508  251 510  252 369  252 398  252 461  253 442  253 461  253 513  253 523  254 348  254 402  254 497  254 499  255 486  255 497  255 498  256 317  256 347  256 482  256 490  257 285  257 475  257 476  257 513  258 333  258 437  258 475  258 477  259 263  259 380  259 503  260 391  260 440  260 518  261 431  261 458  261 464  262 422  262 423  262 455  262 456  263 517  263 518  264 319  264 459  264 482  264 493  265 302  265 368  265 404  265 453  266 309  266 494  266 532  267 465  267 481  267 491  267 502  268 306  268 416  268 418  268 436  269 284  269 351  269 386  269 476  270 271  270 345  270 522  271 366  272 375  272 502  273 342  273 457  274 349  275 366  275 445  275 468  276 277  277 280  277 363  278 300  278 509  279 446  279 509  279 510  280 419  281 300  282 338  282 496  282 526  283 326  283 357  284 435  284 477  285 470  285 535  286 308  286 396  286 484  287 303  287 365  287 425  288 370  288 485  288 537  289 294  289 480  290 427  290 480  290 505  291 389  291 473  292 381  292 466  292 473  293 350  293 386  293 432  293 435  294 332  295 412  295 448  295 451  296 298  297 298  298 360  299 522  299 539  301 443  302 365  302 404  303 316  303 410  304 380  305 416  305 417  305 427  306 416  306 485  306 528  308 506  309 375  309 439  310 494  310 526  312 500  312 501  313 500  313 531  314 463  314 479  315 427  315 479  316 325  317 378  317 491  318 350  318 398  319 409  319 493  320 403  320 527  320 528  321 370  321 527  321 529  322 345  322 413  322 539  323 324  323 339  324 325  324 452  325 425  326 361  327 361  327 478  328 409  328 452  329 413  329 448  329 459  330 371  330 506  331 465  331 490  331 493  332 412  333 437  334 385  334 471  334 488  335 412  335 413  336 364  336 467  336 500  337 354  337 392  337 407  337 507  338 444  338 496  339 450  339 514  340 344  340 391  341 405  341 414  343 379  344 516  345 539  346 378  346 382  346 460  346 462  347 448  347 460  347 482  348 402  348 420  350 386  351 386  351 398  351 523  352 353  353 396  354 383  354 536  355 356  356 529  358 375  358 481  358 512  359 360  359 361  360 361  362 363  362 512  363 512  364 531  365 408  366 445  367 430  367 451  367 462  367 504  368 429  368 486  370 485  371 392  371 471  372 405  372 484  373 478  374 411  374 426  374 445  376 508  376 509  376 534  377 414  377 511  378 492  380 503  381 443  381 530  382 418  382 489  382 515  383 393  383 536  384 464  385 488  387 388  387 524  388 446  388 524  389 472  389 516  390 395  390 535  392 393  394 467  395 519  397 469  397 470  399 499  400 419  400 481  401 458  403 436  404 410  405 414  406 454  406 455  407 514  408 419  408 465  409 452  411 426  415 441  417 430  417 505  418 430  422 511  423 455  424 449  424 520  425 493  428 474  429 474  431 483  432 435  433 463  436 515  438 449  439 512  441 471  442 470  443 456  448 460  450 507  450 514  451 504  454 530  457 478  460 462  461 523  466 472  472 516  475 476  482 490  487 501  489 515  491 502  494 532  495 496  495 532  496 532  497 498  504 505  519 521  520 521  521 535  524 525  527 528  533 534  </DataArray>
<DataArray  type="UInt32"  Name="offsets"  format="ascii">2 4 6 8 10 12 14 16 18 20 22 24 26 28 30 32 34 36 38 40 42 44 46 48 50 52 54 56 58 60 62 64 66 68 70 72 74 76 78 80 82 84 86 88 90 92 94 96 98 100 102 104 106 108 110 112 114 116 118 120 122 124 126 128 130 132 134 136 138 140 142 144 146 148 150 152 154 156 158 160 162 164 166 168 170 172 174 176 178 180 182 184 186 188 190 192 194 196 198 200 202 204 206 208 210 212 214 216 218 220 222 224 226 228 230 232 234 236 238 240 242 244 246 248 250 252 254 256 258 260 262 264 266 268 270 272 274 276 278 280 282 284 286 288 290 292 294 296 298 300 302 304 306 308 310 312 314 316 318 320 322 324 326 328 330 332 334 336 338 340 342 344 346 348 350 352 354 356 358 360 362 364 366 368 370 372 374 376 378 380 382 384 386 388 390 392 394 396 398 400 402 404 406 408 410 412 414 416 418 420 422 424 426 428 430 432 434 436 438 440 442 444 446 448 450 452 454 456 458 460 462 464 466 468 470 472 474 476 478 480 482 484 486 488 490 492 494 496 498 500 502 504 506 508 510 512 514 516 518 520 522 524 526 528 530 532 534 536 538 540 542 544 546 548 550 552 554 556 558 560 562 564 566 568 570 572 574 576 578 580 582 584 586 588 590 592 594 596 598 600 602 604 606 608 610 612 614 616 618 620 622 624 626 628 630 632 634 636 638 640 642 644 646 648 650 652 654 656 658 660 662 664 666 668 670 672 674 676 678 680 682 684 686 688 690 692 694 696 698 700 702 704 706 708 710 712 714 716 718 720 722 724 726 728 730 732 734 736 738 740 742 744 746 748 750 752 754 756 758 760 762 764 766 768 770 772 774 776 778 780 782 784 786 788 790 792 794 796 798 800 802 804 806 808 810 812 814 816 818 820 822 824 826 828 830 832 834 836 838 840 842 844 846 848 850 852 854 856 858 860 862 864 866 868 870 872 874 876 878 880 882 884 886 888 890 892 894 896 898 900 902 904 906 908 910 912 914 916 918 920 922 924 926 928 930 932 934 936 938 940 942 944 946 948 950 952 954 956 958 960 962 964 966 968 970 972 974 976 978 980 982 984 986 988 990 992 994 996 998 1000 1002 1004 1006 1008 1010 1012 1014 1016 1018 1020 1022 1024 1026 1028 1030 1032 1034 1036 1038 1040 1042 1044 1046 1048 1050 1052 1054 1056 1058 1060 1062 1064 1066 1068 1070 1072 1074 1076 1078 1080 1082 1084 1086 1088 1090 1092 1094 1096 1098 1100 1102 1104 1106 1108 1110 1112 1114 1116 1118 1120 1122 1124 1126 1128 1130 1132 1134 1136 1138 1140 1142 1144 1146 1148 1150 1152 1154 1156 1158 1160 1162 1164 1166 1168 1170 1172 1174 1176 1178 1180 1182 1184 1186 1188 1190 1192 1194 1196 1198 1200 1202 1204 1206 1208 1210 1212 1214 1216 1218 1220 1222 1224 1226 1228 1230 1232 1234 1236 1238 1240 1242 1244 1246 1248 1250 1252 1254 1256 1258 1260 1262 1264 1266 1268 1270 1272 1274 1276 1278 1280 1282 1284 1286 1288 1290 1292 1294 1296 1298 1300 1302 1304 1306 1308 1310 1312 1314 1316 1318 1320 1322 1324 1326 1328 1330 1332 1334 1336 1338 1340 1342 1344 1346 1348 1350 1352 1354 1356 1358 1360 1362 1364 1366 1368 1370 1372 1374 1376 1378 1380 1382 1384 1386 1388 1390 1392 1394 1396 1398 1400 1402 1404 1406 1408 1410 1412 1414 1416 1418 1420 1422 1424 1426 1428 1430 1432 1434 1436 1438 1440 1442 1444 1446 1448 1450 1452 1454 1456 1458 1460 1462 1464 1466 1468 1470 1472 1474 1476 1478 1480 1482 1484 1486 1488 1490 1492 1494 1496 1498 1500 1502 1504 1506 1508 1510 1512 1514 1516 1518 1520 1522 1524 1526 1528 1530 1532 1534 1536 1538 1540 1542 1544 1546 1548 1550 1552 1554 1556 1558 1560 1562 1564 1566 1568 1570 1572 1574 1576 1578 1580 1582 1584 1586 1588 1590 1592 1594 1596 1598 1600 1602 1604 1606 1608 1610 1612 1614 1616 1618 1620 1622 1624 1626 1628 1630 1632 1634 1636 1638 1640 1642 1644 1646 1648 1650 1652 1654 1656 1658 1660 1662 1664 1666 1668 1670 1672 1674 1676 1678 1680 1682 1684 1686 1688 1690 1692 1694 1696 1698 1700 1702 1704 1706 1708 1710 1712 1714 1716 1718 1720 1722 1724 1726 1728 1730 1732 1734 1736 1738 1740 1742 1744 1746 1748 1750 1752 1754 1756 1758 1760 1762 1764 1766 1768 1770 1772 1774 1776 1778 1780 1782 1784 1786 1788 1790 1792 1794 1796 1798 1800 1802 1804 1806 1808 1810 1812 1814 1816 1818 1820 1822 1824 1826 1828 1830 1832 1834 1836 1838 1840 1842 1844 1846 1848 1850 1852 1854 1856 1858 1860 1862 1864 1866 1868 1870 1872 1874 1876 1878 1880 1882 1884 1886 1888 1890 1892 1894 1896 1898 1900 1902 1904 1906 1908 1910 1912 1914 1916 1918 1920 1922 1924 1926 1928 1930 1932 1934 1936 1938 1940 1942 1944 1946 1948 1950 1952 1954 1956 1958 1960 1962 1964 1966 1968 1970 1972 1974 1976 1978 1980 1982 1984 1986 1988 1990 1992 1994 1996 1998 2000 2002 2004 2006 2008 2010 2012 2014 2016 2018 2020 2022 2024 2026 2028 2030 2032 2034 2036 2038 2040 2042 2044 2046 2048 2050 2052 2054 2056 2058 2060 2062 2064 2066 2068 2070 2072 2074 2076 2078 2080 2082 2084 2086 2088 2090 2092 2094 2096 2098 2100 2102 2104 2106 2108 2110 2112 2114 2116 2118 2120 2122 2124 2126 2128 2130 2132 2134 2136 2138 2140 2142 2144 2146 2148 2150 2152 2154 2156 2158 2160 2162 2164 2166 2168 2170 2172 2174 2176 2178 2180 2182 2184 2186 2188 2190 2192 2194 2196 2198 2200 2202 2204 2206 2208 2210 2212 2214 2216 2218 2220 2222 2224 2226 2228 2230 2232 2234 2236 2238 2240 2242 2244 2246 2248 2250 2252 2254 2256 2258 2260 2262 2264 2266 2268 2270 2272 2274 2276 2278 2280 2282 2284 2286 2288 2290 2292 2294 2296 2298 2300 2302 2304 2306 2308 2310 2312 2314 2316 2318 2320 2322 2324 2326 2328 2330 2332 2334 2336 2338 2340 2342 2344 2346 2348 2350 2352 2354 2356 2358 2360 2362 2364 2366 2368 2370 2372 2374 2376 2378 2380 2382 2384 2386 2388 2390 2392 2394 2396 2398 2400 2402 2404 2406 2408 2410 2412 2414 2416 2418 2420 2422 2424 2426 2428 2430 2432 2434 2436 2438 2440 2442 2444 2446 2448 2450 2452 2454 2456 2458 2460 2462 2464 2466 2468 2470 2472 2474 2476 2478 2480 2482 2484 2486 2488 2490 2492 2494 2496 2498 2500 2502 2504 2506 2508 2510 2512 2514 2516 2518 2520 2522 2524 2526 2528 2530 2532 2534 2536 2538 2540 2542 2544 2546 2548 2550 2552 2554 2556 2558 2560 2562 2564 2566 2568 2570 2572 2574 2576 2578 2580 2582 2584 2586 2588 2590 2592 2594 2596 2598 2600 2602 2604 2606 2608 2610 2612 2614 2616 2618 2620 2622 2624 2626 2628 2630 2632 2634 2636 2638 2640 2642 2644 2646 2648 2650 2652 2654 2656 2658 2660 2662 2664 2666 2668 2670 2672 2674 2676 2678 2680 2682 2684 2686 2688 2690 2692 2694 2696 2698 2700 2702 2704 2706 2708 2710 2712 2714 2716 2718 2720 2722 2724 2726 2728 2730 2732 2734 2736 2738 2740 2742 2744 2746 2748 2750 2752 2754 2756 2758 2760 2762 2764 2766 2768 2770 2772 2774 2776 2778 2780 2782 2784 2786 2788 2790 2792 2794 2796 2798 2800 2802 2804 2806 2808 2810 2812 2814 2816 2818 2820 2822 2824 2826 2828 2830 2832 2834 2836 2838 2840 2842 2844 2846 2848 2850 2852 2854 2856 2858 2860 2862 2864 2866 2868 2870 2872 2874 2876 2878 2880 2882 2884 2886 2888 2890 2892 2894 2896 2898 2900 2902 2904 2906 2908 2910 2912 2914 2916 2918 2920 2922 2924 2926 2928 2930 2932 2934 2936 2938 2940 2942 2944 2946 2948 2950 2952 2954 2956 2958 2960 2962 2964 2966 2968 2970 2972 2974 2976 2978 2980 2982 2984 2986 2988 2990 2992 2994 2996 2998 3000 3002 3004 3006 3008 3010 3012 3014 3016 3018 3020 3022 3024 3026 3028 3030 3032 3034 3036 3038 3040 3042 3044 3046 3048 3050 3052 3054 3056 3058 3060 3062 3064 3066 3068 3070 3072 3074 3076 3078 3080 3082 </DataArray>
<DataArray  type="UInt8"  Name="types"  format="ascii">3 3 3 3 3 3 3 3 3 3 3 3 3 3 3 3 3 3 3 3 3 3 3 3 3 3 3 3 3 3 3 3 3 3 3 3 3 3 3 3 3 3 3 3 3 3 3 3 3 3 3 3 3 3 3 3 3 3 3 3 3 3 3 3 3 3 3 3 3 3 3 3 3 3 3 3 3 3 3 3 3 3 3 3 3 3 3 3 3 3 3 3 3 3 3 3 3 3 3 3 3 3 3 3 3 3 3 3 3 3 3 3 3 3 3 3 3 3 3 3 3 3 3 3 3 3 3 3 3 3 3 3 3 3 3 3 3 3 3 3 3 3 3 3 3 3 3 3 3 3 3 3 3 3 3 3 3 3 3 3 3 3 3 3 3 3 3 3 3 3 3 3 3 3 3 3 3 3 3 3 3 3 3 3 3 3 3 3 3 3 3 3 3 3 3 3 3 3 3 3 3 3 3 3 3 3 3 3 3 3 3 3 3 3 3 3 3 3 3 3 3 3 3 3 3 3 3 3 3 3 3 3 3 3 3 3 3 3 3 3 3 3 3 3 3 3 3 3 3 3 3 3 3 3 3 3 3 3 3 3 3 3 3 3 3 3 3 3 3 3 3 3 3 3 3 3 3 3 3 3 3 3 3 3 3 3 3 3 3 3 3 3 3 3 3 3 3 3 3 3 3 3 3 3 3 3 3 3 3 3 3 3 3 3 3 3 3 3 3 3 3 3 3 3 3 3 3 3 3 3 3 3 3 3 3 3 3 3 3 3 3 3 3 3 3 3 3 3 3 3 3 3 3 3 3 3 3 3 3 3 3 3 3 3 3 3 3 3 3 3 3 3 3 3 3 3 3 3 3 3 3 3 3 3 3 3 3 3 3 3 3 3 3 3 3 3 3 3 3 3 3 3 3 3 3 3 3 3 3 3 3 3 3 3 3 3 3 3 3 3 3 3 3 3 3 3 3 3 3 3 3 3 3 3 3 3 3 3 3 3 3 3 3 3 3 3 3 3 3 3 3 3 3 3 3 3 3 3 3 3 3 3 3 3 3 3 3 3 3 3 3 3 3 3 3 3 3 3 3 3 3 3 3 3 3 3 3 3 3 3 3 3 3 3 3 3 3 3 3 3 3 3 3 3 3 3 3 3 3 3 3 3 3 3 3 3 3 3 3 3 3 3 3 3 3 3 3 3 3 3 3 3 3 3 3 3 3 3 3 3 3 3 3 3 3 3 3 3 3 3 3 3 3 3 3 3 3 3 3 3 3 3 3 3 3 3 3 3 3 3 3 3 3 3 3 3 3 3 3 3 3 3 3 3 3 3 3 3 3 3 3 3 3 3 3 3 3 3 3 3 3 3 3 3 3 3 3 3 3 3 3 3 3 3 3 3 3 3 3 3 3 3 3 3 3 3 3 3 3 3 3 3 3 3 3 3 3 3 3 3 3 3 3 3 3 3 3 3 3 3 3 3 3 3 3 3 3 3 3 3 3 3 3 3 3 3 3 3 3 3 3 3 3 3 3 3 3 3 3 3 3 3 3 3 3 3 3 3 3 3 3 3 3 3 3 3 3 3 3 3 3 3 3 3 3 3 3 3 3 3 3 3 3 3 3 3 3 3 3 3 3 3 3 3 3 3 3 3 3 3 3 3 3 3 3 3 3 3 3 3 3 3 3 3 3 3 3 3 3 3 3 3 3 3 3 3 3 3 3 3 3 3 3 3 3 3 3 3 3 3 3 3 3 3 3 3 3 3 3 3 3 3 3 3 3 3 3 3 3 3 3 3 3 3 3 3 3 3 3 3 3 3 3 3 3 3 3 3 3 3 3 3 3 3 3 3 3 3 3 3 3 3 3 3 3 3 3 3 3 3 3 3 3 3 3 3 3 3 3 3 3 3 3 3 3 3 3 3 3 3 3 3 3 3 3 3 3 3 3 3 3 3 3 3 3 3 3 3 3 3 3 3 3 3 3 3 3 3 3 3 3 3 3 3 3 3 3 3 3 3 3 3 3 3 3 3 3 3 3 3 3 3 3 3 3 3 3 3 3 3 3 3 3 3 3 3 3 3 3 3 3 3 3 3 3 3 3 3 3 3 3 3 3 3 3 3 3 3 3 3 3 3 3 3 3 3 3 3 3 3 3 3 3 3 3 3 3 3 3 3 3 3 3 3 3 3 3 3 3 3 3 3 3 3 3 3 3 3 3 3 3 3 3 3 3 3 3 3 3 3 3 3 3 3 3 3 3 3 3 3 3 3 3 3 3 3 3 3 3 3 3 3 3 3 3 3 3 3 3 3 3 3 3 3 3 3 3 3 3 3 3 3 3 3 3 3 3 3 3 3 3 3 3 3 3 3 3 3 3 3 3 3 3 3 3 3 3 3 3 3 3 3 3 3 3 3 3 3 3 3 3 3 3 3 3 3 3 3 3 3 3 3 3 3 3 3 3 3 3 3 3 3 3 3 3 3 3 3 3 3 3 3 3 3 3 3 3 3 3 3 3 3 3 3 3 3 3 3 3 3 3 3 3 3 3 3 3 3 3 3 3 3 3 3 3 3 3 3 3 3 3 3 3 3 3 3 3 3 3 3 3 3 3 3 3 3 3 3 3 3 3 3 3 3 3 3 3 3 3 3 3 3 3 3 3 3 3 3 3 3 3 3 3 3 3 3 3 3 3 3 3 3 3 3 3 3 3 3 3 3 3 3 3 3 3 3 3 3 3 3 3 3 3 3 3 3 3 3 3 3 3 3 3 3 3 3 3 3 3 3 3 3 3 3 3 3 3 3 3 3 3 3 3 3 3 3 3 3 3 3 3 3 3 3 3 3 3 3 3 3 3 3 3 3 3 3 3 3 3 3 3 3 3 3 3 3 3 3 3 3 3 3 3 3 3 3 3 3 3 3 3 3 3 3 3 3 3 3 3 3 3 3 3 3 3 3 3 3 3 3 3 3 3 3 3 3 3 3 3 3 3 3 3 3 3 3 3 3 3 3 3 3 3 3 3 3 3 3 3 3 3 3 3 3 3 3 3 3 3 3 3 3 3 3 3 3 3 3 3 3 3 3 3 3 3 3 3 3 3 3 3 3 3 3 3 3 3 3 3 3 3 3 3 3 3 3 3 3 3 3 3 3 3 3 3 3 3 3 3 3 3 3 3 3 3 3 3 3 3 3 3 3 3 3 3 3 3 3 3 3 3 3 3 3 3 3 3 3 3 3 3 3 3 3 3 3 3 3 3 3 3 3 3 3 3 3 3 3 3 3 3 3 3 3 3 3 3 3 3 3 3 3 3 3 3 3 3 3 3 3 3 3 3 3 3 3 3 3 3 3 3 3 3 3 3 3 3 3 3 3 3 3 3 3 3 3 3 3 3 3 3 3 3 3 3 3 3 3 3 3 3 3 3 3 3 3 3 3 3 3 3 3 3 3 3 3 3 3 3 3 3 3 3 3 3 3 3 3 3 3 3 </DataArray>
</Cells>
<CellData  Scalars="f">
<DataArray  type="Float64"  Name="f"  format="ascii">0 0 0 0 0 6 1 7 5 0 0 6 0 0 0 0 7 0 0 0 0 4 0 0 0 5 3 0 4 0 0 3 1 0 0 0 2 0 0 0 0 0 0 0 0 2 0 0 0 3 0 3 0 0 0 0 1 1 0 0 0 0 0 6 0 0 0 6 0 7 0 0 0 0 7 0 0 0 0 0 0 0 0 0 0 0 0 0 0 0 0 0 0 0 0 0 0 0 0 0 0 0 0 0 0 0 0 0 0 0 0 0 0 0 0 0 0 0 0 0 0 0 0 0 0 0 0 0 0 0 0 0 0 0 0 0 0 0 0 6 0 0 6 0 0 0 0 0 0 0 0 0 0 0 0 7 7 0 0 0 0 0 0 0 0 0 0 0 0 0 0 0 0 0 0 0 0 0 0 0 0 0 0 0 7 0 0 0 0 7 6 0 0 0 6 0 5 0 5 0 0 0 3 3 0 0 0 0 0 0 0 0 0 0 0 0 0 0 0 0 0 0 0 0 0 0 0 0 1 1 0 0 0 0 3 3 0 0 0 0 0 0 0 0 0 0 0 0 0 0 0 0 0 0 0 0 0 0 0 0 0 0 0 0 0 0 0 0 0 0 0 0 0 0 0 0 0 0 0 0 0 0 0 0 0 0 0 0 0 0 0 0 0 0 0 0 0 0 0 0 0 0 0 0 0 0 0 0 0 0 0 0 0 0 0 0 0 0 0 0 0 0 0 0 0 0 0 0 0 0 0 0 0 0 0 0 0 0 0 0 0 0 0 0 0 0 0 0 4 4 0 0 0 0 0 0 0 0 0 0 0 0 0 0 0 0 0 0 0 0 0 0 0 0 0 0 0 0 0 0 0 0 0 0 0 0 0 0 0 0 0 0 0 0 0 5 0 5 0 0 0 0 0 0 0 0 0 0 0 0 0 0 0 0 0 0 0 0 0 0 0 0 0 0 0 0 0 0 0 0 0 0 0 0 0 0 0 0 0 0 0 0 0 0 0 0 2 2 0 0 0 0 0 0 0 0 0 0 0 0 0 0 0 0 0 0 0 0 0 0 0 0 0 0 0 0 0 0 0 0 0 0 0 0 0 0 0 0 0 0 0 0 0 0 0 0 0 0 0 0 0 0 0 0 0 0 0 0 0 0 0 0 0 0 0 0 0 0 0 0 0 0 0 0 0 0 0 0 0 0 0 0 0 0 0 0 0 0 0 0 0 0 0 0 0 0 0 0 0 0 0 0 0 0 0 0 0 0 0 0 0 0 0 0 0 0 0 0 0 0 0 0 0 0 0 0 0 0 0 0 0 0 0 0 0 0 0 0 0 0 0 0 0 0 0 0 0 0 0 0 0 0 0 0 0 0 0 0 0 0 0 0 0 0 0 0 0 0 0 0 0 0 0 0 0 0 0 0 0 0 0 0 0 0 0 0 0 0 0 0 0 0 0 0 0 0 0 0 0 0 0 0 0 0 0 0 0 0 0 0 0 0 0 0 0 0 0 0 0 0 0 0 0 0 0 0 0 0 0 0 0 0 0 0 0 0 0 0 0 0 0 0 0 0 0 0 0 0 0 0 0 0 0 0 0 0 0 0 0 0 0 0 0 0 0 0 0 0 0 0 0 0 0 0 0 0 0 0 0 0 0 0 0 0 0 0 0 0 0 0 0 0 0 0 0 0 0 0 0 0 0 0 0 0 0 0 0 0 0 0 0 0 0 0 0 0 0 0 0 0 0 0 0 0 0 0 0 0 0 0 0 0 0 0 0 0 0 0 0 0 0 0 0 0 0 0 0 0 0 0 0 0 0 0 0 0 0 0 0 0 0 0 0 0 0 0 0 0 0 0 0 0 0 0 0 0 0 0 0 0 0 0 0 0 0 0 0 0 0 0 0 0 0 0 0 0 0 0 0 0 0 0 0 0 0 0 0 0 0 0 0 0 0 0 0 0 0 0 0 0 0 0 0 0 0 0 0 0 0 0 0 0 0 0 0 0 0 0 0 0 0 0 0 0 0 0 0 0 0 0 0 0 0 0 0 0 0 0 0 0 0 0 0 0 6 6 0 0 0 0 0 0 0 0 0 0 0 6 0 0 0 0 0 0 0 0 0 0 0 0 0 0 0 0 0 0 0 0 0 0 0 0 0 0 0 0 0 7 0 0 0 0 0 0 0 0 0 0 0 0 0 0 0 0 0 0 0 0 0 0 0 0 0 0 0 0 0 0 0 0 0 0 6 0 0 0 0 6 0 0 0 0 0 0 0 0 0 0 0 0 0 0 0 0 0 0 0 0 0 0 0 0 0 7 7 0 0 0 0 0 0 0 0 0 0 0 0 0 0 0 0 0 0 0 0 0 0 0 0 0 0 0 0 0 0 0 0 0 0 0 0 0 0 0 0 0 0 0 0 0 0 0 0 0 0 0 0 0 0 0 0 0 0 0 0 0 0 0 0 0 0 0 0 0 0 0 0 0 0 0 0 0 0 0 0 0 0 0 0 0 0 0 0 0 0 0 0 0 0 0 0 0 0 0 0 0 0 0 0 0 0 0 0 0 0 0 0 0 0 0 0 0 0 0 0 0 0 0 0 0 0 0 0 0 0 0 0 0 0 0 0 0 0 0 0 0 0 0 0 0 0 0 0 0 0 0 0 0 0 0 0 0 0 0 0 0 0 0 0 0 0 0 0 0 0 0 0 0 0 0 0 0 0 0 0 0 0 0 0 0 0 0 0 0 0 0 0 0 0 0 0 0 0 0 0 0 0 0 0 0 0 0 0 0 0 0 0 0 0 0 0 0 0 0 0 0 0 0 0 0 0 0 0 0 0 0 0 0 0 0 0 0 0 0 0 0 0 0 0 0 0 0 0 0 0 0 0 0 0 0 0 0 0 0 0 0 0 0 0 0 0 0 0 0 0 0 0 0 0 0 0 0 0 0 0 0 0 0 0 0 0 0 0 0 0 0 0 0 0 0 0 0 0 0 0 0 0 0 0 0 0 0 0 0 0 0 0 0 0 0 0 0 0 0 0 0 0 0 0 0 0 0 0 0 0 0 0 0 0 0 0 0 0 0 0 0 0 0 0 0 0 0 0 0 0 0 0 0 0 0 0 0 0 0 0 0 0 0 0 0 0 0 0 0 0 0 0 0 0 0 0 0 0 0 0 0 0 0 0 0 0 0 0 0 0 0 0 0 0 0 0 0 0 0 0 0 0 0 0 0 0 0 0 0 0 0 0 0 0 0 0 0 0 0 0 0 0 0 0 0 0 0 0 0 0 0 0 0 0 0 0 0 0 0 0 0 0 0 0 0 0 0 0 0 0 0 0 0 0 0 0 0 0 0 0 0 0 0 0 0 0 0 0 0 0 0 0 0 0 0 0 0 0 0 0 0 0 0 0 0 0 0 0 0 0 0 0 0 0 0 0 0 0 0 0 0 0 0 0 0 0 0 0 0 0 0 0 0 0 0 0 </DataArray>
</CellData>
</Piece>
</UnstructuredGrid>
</VTKFile>