<?xml version="1.0"?>
<VTKFile type="UnstructuredGrid"  version="0.1"  >
<UnstructuredGrid>
<Piece  NumberOfPoints="16" NumberOfCells="35">
<Points>
<DataArray  type="Float64"  NumberOfComponents="3"  format="ascii">-1 1 0  -1 0 0  0 0 0  0 1 0  -1 -1 0  0 -1 0  0 -0.6 0  0.7 0 0  1 -1 0  1 0 0  1 1 0  0.35 -0.3 0  0.2390227771353556 0 0  0 0.5 0  1 -0.5 0  1 0.5 0  </DataArray>
</Points>
<Cells>
<DataArray  type="UInt32"  Name="connectivity"  format="ascii">0 1  0 3  0 13  1 2  1 4  1 6  1 13  2 6  2 11  2 12  2 13  3 10  3 13  3 15  4 5  4 6  5 6  5 8  5 11  6 11  7 9  7 11  7 12  7 13  7 14  7 15  8 11  8 14  9 14  9 15  10 15  11 12  11 14  12 13  13 15  </DataArray>
<DataArray  type="UInt32"  Name="offsets"  format="ascii">2 4 6 8 10 12 14 16 18 20 22 24 26 28 30 32 34 36 38 40 42 44 46 48 50 52 54 56 58 60 62 64 66 68 70 </DataArray>
<DataArray  type="UInt8"  Name="types"  format="ascii">3 3 3 3 3 3 3 3 3 3 3 3 3 3 3 3 3 3 3 3 3 3 3 3 3 3 3 3 3 3 3 3 3 3 3 </DataArray>
</Cells>
<CellData  Scalars="f">
<DataArray  type="Float64"  Name="f"  format="ascii">0 0 0 6 0 0 0 5 0 1 7 0 7 0 0 0 4 0 0 3 2 3 1 0 0 0 0 0 0 0 0 0 0 0 0 </DataArray>
</CellData>
</Piece>
</UnstructuredGrid>
</VTKFile>