<?xml version="1.0"?>
<VTKFile type="UnstructuredGrid"  version="0.1"  >
<UnstructuredGrid>
<Piece  NumberOfPoints="129" NumberOfCells="340">
<Points>
<DataArray  type="Float64"  NumberOfComponents="3"  format="ascii">0.04675964053300339 -0.2309446178547987 0  0.05523169091322806 -0.1756047191420754 0  0.07860752313307574 -0.2123282883862632 0  0.6124999999999999 -0.07499999999999998 0  0.5687499999999999 -0.1125 0  0.5698167707128791 -0.06947373249835902 0  0.2989678878390742 -0.2125605804840116 0  0.2403029045249582 -0.2242084063431939 0  0.274256105101042 -0.2416569748973756 0  0.2639724241745283 -0.1291648852645323 0  0.2103828097736891 -0.1363151617113045 0  0.223047007976318 -0.09797829712972939 0  0 -0.5423778471419194 0  0.04374999999999999 -0.5625 0  0.0397536606110393 -0.5135667707128792 0  0 -0.6 0  0.2254224841424944 -0.2821378910960597 0  0.2419281834715534 -0.3293806949618555 0  0.2091164335008708 -0.3146805474828566 0  0 -0.09237784714191946 0  0 -0.04618892357095973 0  0.03319582965711113 -0.0692833853564396 0  0.3423079701357842 -0.2452188027488383 0  0.3352745340290918 -0.2094657419015227 0  0.65625 -0.03749999999999999 0  0.6423778471419195 0 0  0.6135667707128791 -0.03197373249835903 0  0.7 0 0  0.1930599396312532 -0.1875293335285289 0  0.1379045094620567 -0.1772054135174307 0  0.1499635765204707 -0.2148712469834634 0  0.13125 -0.4874999999999999 0  0.1272536606110393 -0.4385667707128791 0  0.08386009207688544 -0.4764826074230329 0  0.4353331750779699 -0.1427395610833521 0  0.3908969948723243 -0.1568695650181978 0  0.4240508621793269 -0.184195506519329 0  0.3600794270215522 -0.07512827963086674 0  0.383078159280557 -0.03193040729648375 0  0.3407741829267508 -0.03883286380403508 0  0.1262107804918382 -0.08798586738489551 0  0.1122614511760932 -0.04853960352046453 0  0.08764108678584882 -0.1003261950787557 0  0.08971288005244588 -0.2779309669636937 0  0.04483234538574796 -0.2802429769995612 0  0.0795073212220786 -0.4271335414257583 0  0.03975366061103933 -0.4559446178547987 0  0.0732379355959277 -0.06363121552800047 0  0.3082456889028121 -0.06397141460031348 0  0.3089481175936931 -0.1120782889989941 0  0.2749044733724456 -0.09020417701557543 0  0.2625 -0.375 0  0.30625 -0.3375 0  0.1539257640789521 -0.04470860475329175 0  0.1195113885676778 0 0  0.1792670828515167 0 0  0.1310273234635535 -0.3151176893466217 0  0.1358924351639014 -0.3852111742772035 0  0.09604839805867121 -0.3346069402473966 0  0.4374999999999999 -0.225 0  0.4156249999999999 -0.24375 0  0.3700480425383625 -0.1985775056176034 0  0.3544035081185292 -0.1278444630025641 0  0.1844812147480403 -0.08602937689670304 0  0.1567679200983888 -0.1293569413927704 0  0.1325095981227882 -0.2666038914200137 0  0.05762943475315633 -0.3233224649967181 0  0.08250845241321025 -0.3722901725274391 0  0.04644173006463773 -0.3598105944782121 0  0.09649720573423116 -0.1800666299444073 0  0.1724129379995111 -0.2474313802478346 0  0.09721347747997311 -0.1385667707128792 0  0.2618359053733817 -0.1791018836219706 0  0.3276783540066742 -0.1708520853005566 0  0.2966449299934362 0 0  0.3254560064224765 0 0  0.5249999999999999 -0.15 0  0.4834421081200034 -0.1059169189669807 0  0.4763951041101632 -0.1465485595931994 0  0.2390227771353556 0 0  0.2443456301226968 -0.06367864994893063 0  0.2091449299934362 -0.03455925967810647 0  0.5271335414257583 -0.06394746499671804 0  0.4655916982125228 -0.0543901153716272 0  0.5262518425620236 -0.1071896496556943 0  0.2764199116719186 -0.03670522721399166 0  0.0355726614454137 -0.03046197668328946 0  0.05975569428383891 0 0  0.175 -0.45 0  0.1954526399589531 -0.3479372162590097 0  0.180270562450578 -0.3899004369185556 0  0.2283838261640153 -0.3629364965236745 0  0.1777151364446909 -0.2971687281818114 0  0.1637472717622342 -0.3305316333878479 0  0 -0.2771335414257584 0  0 -0.1847556942838389 0  0 -0.2309446178547987 0  0 -0.4847556942838389 0  0.2187499999999999 -0.4125 0  0.35 -0.3 0  0.2897966030787183 -0.2765248009918655 0  0.328125 -0.31875 0  0.210312483385742 -0.2473806473699122 0  0.3994338766609852 -0.1104860503692034 0  0.4410091437870436 -0.1003166572100695 0  0.48125 -0.1875 0  0.3937499999999999 -0.2625 0  0.1573789725943061 -0.4181737972311717 0  0.4695113885676778 0 0  0.5271335414257583 0 0  0.4983224649967181 -0.02941260188141959 0  0.5847556942838389 0 0  0.4118892357095973 -0.06386081459296748 0  0 -0.3695113885676778 0  0 -0.4271335414257584 0  0.04035881915000195 -0.3974874643596178 0  0.1123773113569385 -0.2271760744941149 0  0 -0.1385667707128792 0  0.05009553552530081 -0.1123388496135218 0  0.2591382188534762 -0.2968630656623295 0  0.4339444818302979 -0.03193040729648374 0  0.08749999999999998 -0.5249999999999999 0  0.2923031080370319 -0.1553911972289903 0  0 -0.3233224649967181 0  0.5559446178547985 -0.03014778288521088 0  0.4118892357095973 0 0  0.3542670828515168 0 0  0.08963354142575836 0 0  0 0 0  </DataArray>
</Points>
<Cells>
<DataArray  type="UInt32"  Name="connectivity"  format="ascii">0 1  0 2  0 43  0 44  0 94  0 95  0 96  1 2  1 69  1 71  1 95  1 117  1 118  2 43  2 69  2 116  3 4  3 5  3 24  3 26  4 5  4 76  4 84  5 26  5 82  5 84  5 124  6 7  6 8  6 22  6 23  6 72  6 73  6 122  7 8  7 16  7 28  7 72  7 102  8 16  8 22  8 100  8 119  9 10  9 11  9 49  9 50  9 72  9 122  10 11  10 28  10 63  10 64  10 72  11 50  11 63  11 80  11 81  12 13  12 14  12 15  12 97  13 14  13 15  13 121  14 33  14 46  14 97  14 121  16 17  16 18  16 92  16 102  16 119  17 18  17 51  17 52  17 89  17 91  17 119  18 89  18 92  18 93  19 20  19 21  19 117  19 118  20 21  20 86  20 128  21 47  21 86  21 118  22 23  22 61  22 99  22 100  22 106  23 61  23 73  24 25  24 26  24 27  25 26  25 27  25 111  26 111  26 124  28 29  28 30  28 64  28 70  28 72  28 102  29 30  29 64  29 69  29 71  29 116  30 65  30 70  30 116  31 32  31 33  31 88  31 121  32 33  32 45  32 57  32 88  32 107  33 45  33 46  33 121  34 35  34 36  34 78  34 103  34 104  35 36  35 61  35 62  35 73  35 103  36 59  36 60  36 61  36 78  36 105  37 38  37 39  37 48  37 49  37 62  37 103  37 112  38 39  38 112  38 120  38 125  38 126  39 48  39 74  39 75  39 85  39 126  40 41  40 42  40 53  40 63  40 64  40 71  41 42  41 47  41 53  41 54  41 127  42 47  42 71  42 118  43 44  43 56  43 58  43 65  43 66  43 116  44 66  44 94  44 123  45 46  45 57  45 67  45 115  46 97  46 114  46 115  47 86  47 87  47 118  47 127  48 49  48 50  48 85  49 50  49 62  49 73  49 122  50 80  50 85  51 52  51 91  51 98  52 100  52 101  52 119  53 54  53 55  53 63  53 81  54 55  54 127  55 79  55 81  56 57  56 58  56 65  56 92  56 93  57 58  57 67  57 90  57 93  57 107  58 66  58 67  59 60  59 105  60 61  60 106  61 73  61 106  62 73  62 103  63 64  63 81  64 71  65 70  65 92  65 116  66 67  66 68  66 123  67 68  67 115  68 113  68 115  68 123  69 71  69 116  70 92  70 102  71 118  72 122  73 122  74 75  74 79  74 85  75 126  76 77  76 78  76 84  76 105  77 78  77 82  77 83  77 84  77 104  78 104  78 105  79 80  79 81  79 85  80 81  80 85  82 83  82 84  82 110  82 124  83 104  83 108  83 110  83 112  83 120  86 87  86 128  87 127  87 128  88 98  88 107  89 90  89 91  89 93  90 91  90 93  90 98  90 107  91 98  92 93  92 102  94 96  94 123  95 96  95 117  97 114  98 107  99 100  99 101  99 106  100 101  100 119  103 104  103 112  104 112  108 109  108 110  108 120  108 125  109 110  109 111  109 124  110 124  111 124  112 120  113 114  113 115  113 123  114 115  117 118  120 125  125 126  </DataArray>
<DataArray  type="UInt32"  Name="offsets"  format="ascii">2 4 6 8 10 12 14 16 18 20 22 24 26 28 30 32 34 36 38 40 42 44 46 48 50 52 54 56 58 60 62 64 66 68 70 72 74 76 78 80 82 84 86 88 90 92 94 96 98 100 102 104 106 108 110 112 114 116 118 120 122 124 126 128 130 132 134 136 138 140 142 144 146 148 150 152 154 156 158 160 162 164 166 168 170 172 174 176 178 180 182 184 186 188 190 192 194 196 198 200 202 204 206 208 210 212 214 216 218 220 222 224 226 228 230 232 234 236 238 240 242 244 246 248 250 252 254 256 258 260 262 264 266 268 270 272 274 276 278 280 282 284 286 288 290 292 294 296 298 300 302 304 306 308 310 312 314 316 318 320 322 324 326 328 330 332 334 336 338 340 342 344 346 348 350 352 354 356 358 360 362 364 366 368 370 372 374 376 378 380 382 384 386 388 390 392 394 396 398 400 402 404 406 408 410 412 414 416 418 420 422 424 426 428 430 432 434 436 438 440 442 444 446 448 450 452 454 456 458 460 462 464 466 468 470 472 474 476 478 480 482 484 486 488 490 492 494 496 498 500 502 504 506 508 510 512 514 516 518 520 522 524 526 528 530 532 534 536 538 540 542 544 546 548 550 552 554 556 558 560 562 564 566 568 570 572 574 576 578 580 582 584 586 588 590 592 594 596 598 600 602 604 606 608 610 612 614 616 618 620 622 624 626 628 630 632 634 636 638 640 642 644 646 648 650 652 654 656 658 660 662 664 666 668 670 672 674 676 678 680 </DataArray>
<DataArray  type="UInt8"  Name="types"  format="ascii">3 3 3 3 3 3 3 3 3 3 3 3 3 3 3 3 3 3 3 3 3 3 3 3 3 3 3 3 3 3 3 3 3 3 3 3 3 3 3 3 3 3 3 3 3 3 3 3 3 3 3 3 3 3 3 3 3 3 3 3 3 3 3 3 3 3 3 3 3 3 3 3 3 3 3 3 3 3 3 3 3 3 3 3 3 3 3 3 3 3 3 3 3 3 3 3 3 3 3 3 3 3 3 3 3 3 3 3 3 3 3 3 3 3 3 3 3 3 3 3 3 3 3 3 3 3 3 3 3 3 3 3 3 3 3 3 3 3 3 3 3 3 3 3 3 3 3 3 3 3 3 3 3 3 3 3 3 3 3 3 3 3 3 3 3 3 3 3 3 3 3 3 3 3 3 3 3 3 3 3 3 3 3 3 3 3 3 3 3 3 3 3 3 3 3 3 3 3 3 3 3 3 3 3 3 3 3 3 3 3 3 3 3 3 3 3 3 3 3 3 3 3 3 3 3 3 3 3 3 3 3 3 3 3 3 3 3 3 3 3 3 3 3 3 3 3 3 3 3 3 3 3 3 3 3 3 3 3 3 3 3 3 3 3 3 3 3 3 3 3 3 3 3 3 3 3 3 3 3 3 3 3 3 3 3 3 3 3 3 3 3 3 3 3 3 3 3 3 3 3 3 3 3 3 3 3 3 3 3 3 3 3 3 3 3 3 3 3 3 3 3 3 3 3 3 3 3 3 3 3 3 3 3 3 3 3 3 3 3 3 </DataArray>
</Cells>
<CellData  Scalars="f">
<DataArray  type="Float64"  Name="f"  format="ascii">0 0 0 0 0 0 0 0 0 0 0 0 0 0 0 0 3 0 3 0 0 3 0 0 0 0 0 0 0 0 0 0 0 0 0 0 0 0 0 0 0 0 0 0 0 0 0 0 0 0 0 0 0 0 0 0 0 0 0 0 5 5 0 3 3 0 0 0 0 0 0 0 0 0 0 0 0 0 0 0 0 0 0 5 0 5 0 0 0 5 0 0 0 0 0 0 0 0 0 0 0 0 3 0 1 1 0 0 0 0 0 0 0 0 0 0 0 0 0 0 0 0 0 0 3 3 0 0 0 0 0 0 0 0 0 0 0 0 0 0 0 0 0 0 0 0 0 0 0 0 0 0 0 0 0 0 0 0 0 0 0 0 0 0 0 0 0 0 0 0 0 0 0 0 0 0 0 0 0 0 0 0 0 0 0 0 0 0 0 0 0 0 0 0 0 0 0 0 0 0 0 0 0 0 0 0 0 0 0 3 0 3 0 3 0 0 0 0 0 1 1 1 0 0 0 0 0 0 0 0 0 0 0 0 0 3 3 0 3 0 0 0 0 0 0 0 0 0 0 0 0 0 0 0 0 0 0 0 0 0 0 0 0 0 1 1 0 1 0 0 0 3 0 0 0 0 0 0 0 0 0 0 0 0 0 0 0 0 0 0 0 0 0 0 0 1 1 3 0 0 0 0 0 0 0 0 0 0 0 5 5 5 5 5 0 0 3 3 0 0 0 0 0 1 0 0 1 0 1 0 0 0 0 5 0 5 0 0 0 1 </DataArray>
</CellData>
</Piece>
</UnstructuredGrid>
</VTKFile>