<?xml version="1.0"?>
<VTKFile type="UnstructuredGrid"  version="0.1"  >
<UnstructuredGrid>
<Piece  NumberOfPoints="37" NumberOfCells="88">
<Points>
<DataArray  type="Float64"  NumberOfComponents="3"  format="ascii">0.175 -0.45 0  0.2625 -0.375 0  0.1954526399589531 -0.3479372162590097 0  0 -0.3695113885676778 0  0 -0.4847556942838389 0  0.0795073212220786 -0.4271335414257583 0  0.1310273234635535 -0.3151176893466217 0  0.1123773113569385 -0.2271760744941149 0  0.05762943475315633 -0.3233224649967181 0  0.6124999999999999 -0.07499999999999998 0  0.5847556942838389 0 0  0.5271335414257583 -0.06394746499671804 0  0.35 -0.3 0  0.2254224841424944 -0.2821378910960597 0  0.1930599396312532 -0.1875293335285289 0  0.1844812147480403 -0.08602937689670304 0  0.2639724241745283 -0.1291648852645323 0  0 -0.6 0  0.08749999999999998 -0.5249999999999999 0  0 -0.1847556942838389 0  0 -0.09237784714191946 0  0.09721347747997311 -0.1385667707128792 0  0.2989678878390742 -0.2125605804840116 0  0.7 0 0  0.5249999999999999 -0.15 0  0.3544035081185292 -0.1278444630025641 0  0.4118892357095973 -0.06386081459296748 0  0.4353331750779699 -0.1427395610833521 0  0.3082456889028121 -0.06397141460031348 0  0.1195113885676778 0 0  0.0732379355959277 -0.06363121552800047 0  0 -0.2771335414257584 0  0.4695113885676778 0 0  0.3542670828515168 0 0  0.2390227771353556 0 0  0.4374999999999999 -0.225 0  0 0 0  </DataArray>
</Points>
<Cells>
<DataArray  type="UInt32"  Name="connectivity"  format="ascii">0 1  0 2  0 5  0 18  1 2  1 12  1 13  2 5  2 6  2 13  3 4  3 5  3 8  3 31  4 5  4 17  4 18  5 6  5 8  5 18  6 7  6 8  6 13  7 8  7 13  7 14  7 19  7 21  7 31  8 31  9 10  9 11  9 23  9 24  10 11  10 23  10 32  11 24  11 26  11 27  11 32  12 13  12 22  12 35  13 14  13 22  14 15  14 16  14 21  14 22  15 16  15 21  15 28  15 29  15 30  15 34  16 22  16 25  16 28  17 18  19 20  19 21  19 31  20 21  20 30  20 36  21 30  22 25  22 35  24 27  24 35  25 26  25 27  25 28  25 35  26 27  26 28  26 32  26 33  27 35  28 33  28 34  29 30  29 34  29 36  30 36  32 33  33 34  </DataArray>
<DataArray  type="UInt32"  Name="offsets"  format="ascii">2 4 6 8 10 12 14 16 18 20 22 24 26 28 30 32 34 36 38 40 42 44 46 48 50 52 54 56 58 60 62 64 66 68 70 72 74 76 78 80 82 84 86 88 90 92 94 96 98 100 102 104 106 108 110 112 114 116 118 120 122 124 126 128 130 132 134 136 138 140 142 144 146 148 150 152 154 156 158 160 162 164 166 168 170 172 174 176 </DataArray>
<DataArray  type="UInt8"  Name="types"  format="ascii">3 3 3 3 3 3 3 3 3 3 3 3 3 3 3 3 3 3 3 3 3 3 3 3 3 3 3 3 3 3 3 3 3 3 3 3 3 3 3 3 3 3 3 3 3 3 3 3 3 3 3 3 3 3 3 3 3 3 3 3 3 3 3 3 3 3 3 3 3 3 3 3 3 3 3 3 3 3 3 3 3 3 3 3 3 3 3 3 </DataArray>
</Cells>
<CellData  Scalars="f">
<DataArray  type="Float64"  Name="f"  format="ascii">3 0 0 3 0 3 0 0 0 0 5 0 0 5 0 5 0 0 0 0 0 0 0 0 0 0 0 0 0 0 0 0 3 3 0 1 1 0 0 0 0 0 0 3 0 0 0 0 0 0 0 0 0 0 0 0 0 0 0 3 5 0 5 0 0 5 0 0 0 0 3 0 0 0 0 0 0 0 0 0 0 0 0 1 1 0 1 1 </DataArray>
</CellData>
</Piece>
</UnstructuredGrid>
</VTKFile>