<?xml version="1.0"?>
<VTKFile type="UnstructuredGrid"  version="0.1"  >
<UnstructuredGrid>
<Piece  NumberOfPoints="142" NumberOfCells="379">
<Points>
<DataArray  type="Float64"  NumberOfComponents="3"  format="ascii">0 0.25 0  0 0.125 0  -0.07073252688172045 0.1875 0  -0.6307397959183674 0.5510204081632653 0  -0.7405929605429232 0.5070471635371561 0  -0.6617570364838685 0.4815360481390118 0  -0.75 0.625 0  -0.8125 0.1875 0  -0.8788610038610039 0.3009169884169884 0  -0.7947687310862986 0.3162983929875822 0  -0.6946518160894539 0.1464554482683619 0  -0.7787948732778861 0.09456837557403797 0  -0.5 0.5 0  -0.5832270408163265 0.4797512755102041 0  -0.625 1 0  -0.6875 1 0  -0.65625 0.9352342010641231 0  -0.7021617032392894 0.8798872344130965 0  -0.6331794183364191 0.8263092467880355 0  -0.734393882159788 0.8086371546940998 0  -0.8125 0.8125 0  -0.875 0.6875 0  -0.78125 0.71875 0  -0.1614583333333333 0.8385416666666667 0  -0.1731770833333333 0.7200520833333334 0  -0.09149793690169103 0.7746336640812301 0  -0.1614583333333334 0.1614583333333334 0  -0.2439618231117366 0.2050614223385201 0  -0.2242079462581538 0.09086269095877253 0  -0.5 0 0  -0.375 0 0  -0.3979357672750659 0.09653227744036413 0  -0.625 0.25 0  -0.5727211097204838 0.119889445139758 0  -0.5389076521305226 0.209034015149656 0  -0.2916666666666667 0.5 0  -0.2023769240148585 0.5291610269541351 0  -0.1796519227378375 0.439943456166356 0  0 0.5 0  -0.1165462293866963 0.4910019455252918 0  -0.06576425823753008 0.5645164743293771 0  -0.2916666666666667 0.2916666666666667 0  -0.3572671203363872 0.2196974308038731 0  -0.374778720424128 0.3015416251432689 0  -0.1800595238095238 0.2730654761904762 0  -0.7946428571428571 0.4017857142857143 0  -0.715474132620332 0.4276415300231201 0  -0.6339285714285714 0.4107142857142857 0  -0.5549158804490739 0.3344987209274324 0  -0.6322073006882531 0.3272914202391792 0  -0.5347222222222222 0.7430555555555556 0  -0.4098639455782312 0.7490079365079365 0  -0.4706532294590897 0.8317461120644527 0  -0.375 1 0  -0.3125 1 0  -0.3027974218575627 0.8885734161730103 0  -0.927239663021229 0.3578926998516703 0  -0.3958333333333334 0.4858641031877479 0  -0.3508179484061261 0.5450153849272074 0  -0.5173611111111112 0.6215277777777778 0  0 0.75 0  -0.08230824598861286 0.6803243885869564 0  -0.9103831451023081 0.2063505646930757 0  -0.8976801067868649 0.1023198932131351 0  -0.3070249955045814 0.1362784921584264 0  -0.3125 0 0  -0.4473039215686274 0.1825980392156863 0  -0.1458333333333334 0.6041666666666666 0  -0.2916666666666666 0.7083333333333334 0  -0.2730654761904762 0.8199404761904763 0  -0.09247530972417024 0.09218971500852072 0  -0.2300444962467745 0.9059366203377903 0  -0.5 1 0  -0.5625 0.8776276276276276 0  -0.4457323438634713 0.3459343228031954 0  -0.5077058797872694 0.4106953217537177 0  -0.4329210581720963 0.4202277065060049 0  -0.3415656771968046 0.3958333333333334 0  -0.3958333333333334 0.6041666666666667 0  -0.2916666666666667 0.6041666666666666 0  -0.3437499999999999 0.65625 0  -0.25 0 0  -0.8344080687830688 0.6124338624338624 0  -0.6123994648681168 0.6699548383521738 0  -0.65625 0.07492836752047363 0  -0.75 0 0  -0.6799242424242424 0.7525252525252525 0  -0.6066694566061432 0.7578149650357694 0  -0.4859964938412558 0.1032116985711225 0  -0.5625 0 0  -1 0.75 0  -0.90625 0.78125 0  -0.375 0.8690476190476191 0  -0.3474170918367346 0.795953798185941 0  -1 0.125 0  -1 0.25 0  -0.75 1 0  -0.875 1 0  -0.8125 0.9166666666666666 0  -1 0.875 0  -0.9092261904761905 0.9092261904761905 0  -1 0.375 0  -0.9025449465500486 0.4284398283122773 0  -1 0.625 0  -0.9189442208808406 0.59375 0  -0.125 0 0  -0.0625 0 0  -0.0625 1 0  0 0.9375 0  -0.09260416666666663 0.9073958333333334 0  -0.4375 0.9345238095238095 0  -0.2365885212778731 0.3820856855937212 0  -0.08789497866209303 0.2781978201831694 0  -1 0.5 0  -0.9259299344256502 0.4987329459149341 0  -0.7303023101095012 0.233801483537464 0  -0.6875 0 0  -0.4408487182605406 0.5450153849272074 0  -0.4696385271508077 0.6903492580260751 0  -0.06547619047619049 0.40625 0  -0.8591269841269841 0.5307539682539683 0  -0.8372354119916758 0.4610945955914637 0  -0.7098214285714286 0.3258928571428572 0  -0.130952380952381 0.375 0  0 0.3125 0  -0.690251655817513 0.6751841031992525 0  -0.2266912774725274 0.65625 0  -0.4938637325445799 0.2785348455221465 0  -1 0 0  -0.9375 0 0  -0.875 0 0  0 0.625 0  -1 1 0  0 0 0  0 0.875 0  -0.125 1 0  -0.25 1 0  0 1 0  -0.625 0 0  -1 0.5625 0  0 0.4375 0  0 0.375 0  </DataArray>
</Points>
<Cells>
<DataArray  type="UInt32"  Name="connectivity"  format="ascii">0 1  0 2  0 112  0 124  1 2  1 70  1 133  2 26  2 70  2 112  3 4  3 5  3 6  3 12  3 13  3 59  3 83  3 125  4 5  4 6  4 45  4 46  4 82  4 120  4 121  5 13  5 46  5 47  6 22  6 82  6 125  7 8  7 9  7 10  7 11  7 62  7 63  7 115  8 9  8 45  8 56  8 62  8 95  9 45  9 115  9 122  10 11  10 32  10 33  10 84  10 115  11 63  11 84  11 85  11 130  12 13  12 57  12 59  12 75  12 76  12 117  13 47  13 75  14 15  14 16  14 72  14 73  15 16  15 96  16 17  16 18  16 73  16 96  17 18  17 19  17 96  17 98  18 19  18 73  18 86  18 87  19 20  19 22  19 86  19 98  20 21  20 22  20 91  20 98  20 100  21 22  21 82  21 90  21 91  21 103  21 104  22 82  22 86  22 125  23 24  23 25  23 69  23 71  23 109  24 25  24 61  24 67  24 68  24 69  24 126  25 60  25 61  25 109  25 134  26 27  26 28  26 44  26 70  26 112  27 28  27 41  27 42  27 44  27 64  28 64  28 65  28 70  28 81  28 105  29 30  29 31  29 88  29 89  30 31  30 65  31 42  31 64  31 65  31 66  31 88  32 33  32 34  32 48  32 49  32 115  32 122  33 34  33 84  33 88  33 89  34 48  34 66  34 88  34 127  35 36  35 37  35 57  35 58  35 77  35 79  35 111  36 37  36 39  36 67  36 79  36 126  37 39  37 111  37 123  38 39  38 40  38 119  38 131  38 140  39 40  39 67  39 119  39 123  40 61  40 67  40 131  41 42  41 43  41 44  41 77  41 111  42 43  42 64  42 66  43 66  43 74  43 77  43 127  44 111  44 112  44 123  45 46  45 56  45 102  45 121  45 122  46 47  46 122  47 48  47 49  47 75  47 122  48 49  48 74  48 75  48 127  49 122  50 51  50 52  50 59  50 73  50 83  50 87  50 118  51 52  51 68  51 80  51 93  51 118  52 73  52 92  52 93  52 110  53 54  53 55  53 72  53 92  53 110  54 55  54 136  55 69  55 71  55 92  55 93  55 136  56 95  56 101  56 102  57 58  57 76  57 77  57 117  58 78  58 79  58 117  59 78  59 83  59 117  59 118  60 61  60 131  60 134  61 67  61 131  62 63  62 94  62 95  63 94  63 129  63 130  64 65  65 81  66 88  66 127  67 126  68 69  68 79  68 80  68 93  68 126  69 71  69 93  70 105  70 106  70 133  71 109  71 135  71 136  72 73  72 110  73 87  73 110  74 75  74 76  74 77  74 127  75 76  76 77  77 111  78 79  78 80  78 117  78 118  79 80  79 126  80 118  81 105  82 104  82 120  83 86  83 87  83 125  84 85  84 89  84 116  84 138  85 116  85 130  86 87  86 125  88 89  89 138  90 91  90 99  90 103  91 99  91 100  92 93  92 110  94 95  94 128  94 129  95 101  96 97  96 98  97 98  97 100  97 132  98 100  99 100  99 132  100 132  101 102  101 113  102 113  102 114  102 121  103 104  103 139  104 114  104 120  104 139  105 106  106 133  107 108  107 109  107 135  107 137  108 109  108 134  108 137  109 134  109 135  111 123  112 119  112 123  112 124  113 114  113 139  114 120  114 121  114 139  115 122  116 138  119 123  119 124  119 140  119 141  120 121  124 141  128 129  129 130  135 136  140 141  </DataArray>
<DataArray  type="UInt32"  Name="offsets"  format="ascii">2 4 6 8 10 12 14 16 18 20 22 24 26 28 30 32 34 36 38 40 42 44 46 48 50 52 54 56 58 60 62 64 66 68 70 72 74 76 78 80 82 84 86 88 90 92 94 96 98 100 102 104 106 108 110 112 114 116 118 120 122 124 126 128 130 132 134 136 138 140 142 144 146 148 150 152 154 156 158 160 162 164 166 168 170 172 174 176 178 180 182 184 186 188 190 192 194 196 198 200 202 204 206 208 210 212 214 216 218 220 222 224 226 228 230 232 234 236 238 240 242 244 246 248 250 252 254 256 258 260 262 264 266 268 270 272 274 276 278 280 282 284 286 288 290 292 294 296 298 300 302 304 306 308 310 312 314 316 318 320 322 324 326 328 330 332 334 336 338 340 342 344 346 348 350 352 354 356 358 360 362 364 366 368 370 372 374 376 378 380 382 384 386 388 390 392 394 396 398 400 402 404 406 408 410 412 414 416 418 420 422 424 426 428 430 432 434 436 438 440 442 444 446 448 450 452 454 456 458 460 462 464 466 468 470 472 474 476 478 480 482 484 486 488 490 492 494 496 498 500 502 504 506 508 510 512 514 516 518 520 522 524 526 528 530 532 534 536 538 540 542 544 546 548 550 552 554 556 558 560 562 564 566 568 570 572 574 576 578 580 582 584 586 588 590 592 594 596 598 600 602 604 606 608 610 612 614 616 618 620 622 624 626 628 630 632 634 636 638 640 642 644 646 648 650 652 654 656 658 660 662 664 666 668 670 672 674 676 678 680 682 684 686 688 690 692 694 696 698 700 702 704 706 708 710 712 714 716 718 720 722 724 726 728 730 732 734 736 738 740 742 744 746 748 750 752 754 756 758 </DataArray>
<DataArray  type="UInt8"  Name="types"  format="ascii">3 3 3 3 3 3 3 3 3 3 3 3 3 3 3 3 3 3 3 3 3 3 3 3 3 3 3 3 3 3 3 3 3 3 3 3 3 3 3 3 3 3 3 3 3 3 3 3 3 3 3 3 3 3 3 3 3 3 3 3 3 3 3 3 3 3 3 3 3 3 3 3 3 3 3 3 3 3 3 3 3 3 3 3 3 3 3 3 3 3 3 3 3 3 3 3 3 3 3 3 3 3 3 3 3 3 3 3 3 3 3 3 3 3 3 3 3 3 3 3 3 3 3 3 3 3 3 3 3 3 3 3 3 3 3 3 3 3 3 3 3 3 3 3 3 3 3 3 3 3 3 3 3 3 3 3 3 3 3 3 3 3 3 3 3 3 3 3 3 3 3 3 3 3 3 3 3 3 3 3 3 3 3 3 3 3 3 3 3 3 3 3 3 3 3 3 3 3 3 3 3 3 3 3 3 3 3 3 3 3 3 3 3 3 3 3 3 3 3 3 3 3 3 3 3 3 3 3 3 3 3 3 3 3 3 3 3 3 3 3 3 3 3 3 3 3 3 3 3 3 3 3 3 3 3 3 3 3 3 3 3 3 3 3 3 3 3 3 3 3 3 3 3 3 3 3 3 3 3 3 3 3 3 3 3 3 3 3 3 3 3 3 3 3 3 3 3 3 3 3 3 3 3 3 3 3 3 3 3 3 3 3 3 3 3 3 3 3 3 3 3 3 3 3 3 3 3 3 3 3 3 3 3 3 3 3 3 3 3 3 3 3 3 3 3 3 3 3 3 3 3 3 3 3 3 3 3 3 3 3 3 3 3 3 3 3 3 3 3 3 3 3 3 3 3 3 3 3 3 </DataArray>
</Cells>
<CellData  Scalars="f">
<DataArray  type="Float64"  Name="f"  format="ascii">0 0 0 0 0 0 0 0 0 0 0 0 0 0 0 0 0 0 0 0 0 0 0 0 0 0 0 0 0 0 0 0 0 0 0 0 0 0 0 0 0 0 0 0 0 0 0 0 0 0 0 0 0 0 0 0 0 0 0 0 0 0 0 1 0 1 0 0 1 0 0 0 0 0 0 0 0 0 0 0 0 0 0 0 0 0 0 0 0 0 0 0 0 0 0 0 0 0 0 0 0 0 0 0 0 0 0 0 0 0 0 0 0 0 0 0 0 0 0 0 0 0 0 0 0 0 0 0 0 0 0 0 0 0 0 0 0 0 0 0 0 0 0 0 0 0 0 0 0 0 0 0 0 0 0 0 0 0 0 0 0 0 0 0 0 0 0 0 0 0 0 0 0 0 0 0 0 0 0 0 0 0 0 0 0 0 0 0 0 0 0 0 0 0 0 0 0 0 0 0 0 0 0 0 0 0 0 0 0 0 0 0 0 0 0 0 0 0 0 0 0 0 0 0 0 0 0 0 1 0 1 0 0 0 1 0 0 0 0 0 0 0 0 0 0 0 0 0 0 0 0 0 0 0 0 0 0 0 0 0 0 0 0 0 0 0 0 0 0 0 0 0 0 0 0 0 0 0 0 0 0 0 0 0 0 0 0 0 0 0 0 0 0 0 0 0 0 0 0 0 0 0 0 0 0 0 0 0 0 0 0 0 0 0 0 0 0 0 1 1 0 0 0 0 1 1 0 1 1 0 0 0 1 0 0 1 0 0 1 0 0 0 0 1 0 0 0 0 0 0 0 1 1 0 0 0 0 0 0 0 0 0 0 1 0 0 0 0 0 0 0 0 0 0 0 0 0 1 0 </DataArray>
</CellData>
</Piece>
</UnstructuredGrid>
</VTKFile>