<?xml version="1.0"?>
<VTKFile type="UnstructuredGrid"  version="0.1"  >
<UnstructuredGrid>
<Piece  NumberOfPoints="146" NumberOfCells="394">
<Points>
<DataArray  type="Float64"  NumberOfComponents="3"  format="ascii">0 0.25 0  0.1110671009823674 0.2648660185082025 0  0.0710827515808115 0.1825854447345926 0  0.25 1 0  0.2803571428571429 0.8848214285714285 0  0.1875 0.921937292358804 0  0.1607425867631654 0.1644207819892148 0  0.2852398457484767 0.1949581673673236 0  0.1778390217506051 0.2353820706833813 0  0.3542670828515168 0.1288553367414851 0  0.2500542873256763 0.1060969263378213 0  0.5082464841704736 0.7354101511840967 0  0.4200323012147491 0.7366360640086248 0  0.4650004409418177 0.7979823809390079 0  0.25 0.625 0  0.1380343777590887 0.60606803072743 0  0.2620458712011574 0.5414027056498353 0  0.3693139865761255 0.4675851649778924 0  0.4344621306499846 0.5606669833855178 0  0.4428421692907444 0.4507926298365979 0  0.8125 0.7333780957737549 0  0.9012999504488688 0.670625192947272 0  0.8040608640849473 0.6381821445436929 0  1 0.625 0  0.8897977479212327 0.5625 0  0.4917787567658126 0.1358784333987464 0  0.4039438989559617 0.2404804884832452 0  0.2923670970362736 0.2902658059274527 0  0.556396484375 0.6280517578125 0  0.6466714176760878 0.553745757824589 0  0.5854027913779819 0.4939419802705168 0  0.5224784954811602 0.2701032835278424 0  0.8647972128492224 0.8590703717416547 0  0.7946175133419243 0.919124075863716 0  0.7812868896694667 0.8012628435919775 0  0.625 0.75 0  0.18125 0.81875 0  0.2832181238875863 0.7934268192555846 0  0.375 0.8125 0  0.1455187139535414 0.5214625720929171 0  0.08118040847187201 0.4536355857548757 0  0.1899505284811852 0.4434035137943905 0  0.3235677083333333 0.7113715277777778 0  0.3403930922416823 0.6343418085014123 0  0.8487762237762237 0.1707342657342658 0  0.9186517340301579 0.2213110385731986 0  0.8104682319245927 0.2583949020696551 0  0.5271335414257584 0.06032081968866715 0  0.5777196311564732 0.1279142489343336 0  0.6423778471419195 0.07362668813987326 0  0.8534524920574496 0.4253750305482707 0  0.9169275791404009 0.4819300050760495 0  0.7952003060121624 0.4790148311789553 0  0.2223360190676185 0.7252027096084609 0  0.7 0 0  0.5847556942838389 0 0  0.7287400674793139 0.8543799662603431 0  0.3137456223315702 0.06442766837074253 0  0.1317408898871142 0.375 0  0.197790396629253 0.3055941438821428 0  0 0.5 0  0 0.625 0  0.06512398331795584 0.5625 0  0 0.125 0  0.08778740913073273 0.08930087332228377 0  0.2390227771353556 0 0  0.4258548415450042 0.07691808273080897 0  0.5 0.5 0  0.34529649495827 0.5556485569657313 0  0.875 1 0  0.9255091844015657 0.9255091844015657 0  0.9038192651911999 0.7691084560633717 0  0.75 0.31 0  0.8084296434380015 0.3616768285254893 0  0.6580268493535805 0.1658021210720032 0  0.7551107388303694 0.1021652533587762 0  0.7524770876503586 0.2040210076877756 0  0.6380008594382641 0.280005588372165 0  0.649206320899363 0.436850422236004 0  0.6776662930840479 0.3559944644894162 0  0.5762018017939916 0.3221611398540296 0  0.9284244733566026 0.4051278791828374 0  0.7635747663551402 0.5516121495327102 0  1 0.5 0  0.41796875 0.6484375 0  0.257095475593056 0.372073861815047 0  0.7138290223357904 0.4868182984146583 0  0.8793421369229153 0.2980922371788138 0  0 0.75 0  0 0.875 0  0.07995689655172414 0.8125 0  1 0.75 0  1 0.875 0  0.9359951813816633 0.8365092407261016 0  0.7117761592654883 0.6630220600422287 0  0.5882574819180981 0.8188998879642265 0  0.6676684729903882 0.8113351339406563 0  0.5178571428571429 0.8526785714285714 0  0.6230138591018852 0.8888227128609667 0  0.07234799321355573 0.6398191542767958 0  0.1263480392156863 0.6901960784313725 0  0.53125 0.9290449134199135 0  0.5856473273135328 0.2119676592463144 0  0.625 1 0  0.6875 1 0  0.6925497276599469 0.9227804217744255 0  1 0.3125 0  0.125 1 0  0.09099017293546874 0.9090098270645313 0  0.4695113885676778 0 0  1 0 0  1 0.125 0  0.9056082472306644 0.08577010332320278 0  0.5 1 0  0.5625 1 0  0.375 1 0  0.4375 0.917681277056277 0  0.7503539604430483 0.4137511300898359 0  0.6367533005190678 0.633687017541216 0  0.2784817973045915 0.4585566377359904 0  0.4069838424199306 0.3844408153639561 0  0.4491548064478229 0.3115380506939718 0  0.3690076216585303 0.3138248995652465 0  0 0.4375 0  0.8282916363536851 0.07498601138967437 0  0.360848757214074 0.892068611733409 0  0 0.3125 0  0.1195113885676778 0 0  0.1792670828515167 0.05983511273375056 0  0.85 0 0  0 1 0  0 0.9375 0  0.7202152951805411 0.7582180112722907 0  0.75 1 0  0 0.375 0  0.06587044494355712 0.34375 0  0.7749999999999999 0 0  0 0 0  1 1 0  0.3319560928038748 0.3792701669779049 0  0.3542670828515168 0 0  1 0.25 0  1 0.375 0  0.5405284777018166 0.3879154400531414 0  0.3125 1 0  0.925 0 0  </DataArray>
</Points>
<Cells>
<DataArray  type="UInt32"  Name="connectivity"  format="ascii">0 1  0 2  0 63  0 126  1 2  1 6  1 8  1 58  1 59  1 126  1 135  2 6  2 63  2 64  3 4  3 5  3 107  3 144  4 5  4 36  4 37  4 38  4 125  4 144  5 36  5 107  5 108  6 7  6 8  6 10  6 64  6 128  7 8  7 9  7 10  7 26  7 27  8 27  8 59  9 10  9 25  9 26  9 57  9 66  10 57  10 65  10 128  11 12  11 13  11 28  11 35  11 84  11 95  11 97  12 13  12 38  12 42  12 84  13 38  13 97  13 116  14 15  14 16  14 42  14 43  14 53  14 68  14 100  15 16  15 39  15 62  15 99  15 100  16 39  16 41  16 68  16 119  17 18  17 19  17 68  17 119  17 120  17 139  18 19  18 28  18 67  18 68  18 84  19 67  19 120  19 143  20 21  20 22  20 34  20 71  20 94  20 132  21 22  21 23  21 24  21 71  21 91  22 24  22 82  22 94  23 24  23 83  23 91  24 51  24 52  24 82  24 83  25 26  25 31  25 47  25 48  25 66  25 102  26 27  26 31  26 121  26 122  27 59  27 85  27 122  27 139  28 29  28 30  28 35  28 67  28 84  28 118  29 30  29 78  29 82  29 86  29 94  29 118  30 67  30 78  30 143  31 80  31 102  31 121  31 143  32 33  32 34  32 70  32 71  32 93  33 34  33 56  33 69  33 70  33 105  33 133  34 56  34 71  34 132  35 94  35 95  35 96  35 118  35 132  36 37  36 53  36 90  36 100  36 108  37 38  37 42  37 53  38 42  38 116  38 125  39 40  39 41  39 62  40 41  40 58  40 60  40 62  40 123  40 134  40 135  41 58  41 85  41 119  42 43  42 53  42 84  43 68  43 84  44 45  44 46  44 75  44 76  44 112  44 124  45 46  45 87  45 106  45 111  45 112  45 141  46 72  46 73  46 76  46 87  47 48  47 49  47 55  47 66  47 109  48 49  48 74  48 102  49 54  49 55  49 74  49 75  50 51  50 52  50 73  50 81  50 87  50 117  51 52  51 81  51 83  52 82  52 86  52 117  53 100  54 55  54 75  54 136  55 109  56 96  56 98  56 105  56 132  57 65  57 66  57 140  58 59  58 85  58 135  59 85  60 61  60 62  60 123  61 62  61 88  61 99  62 99  63 64  63 137  64 127  64 128  64 137  65 127  65 128  65 140  66 109  66 140  67 143  68 84  68 119  69 70  69 133  69 138  70 92  70 93  70 138  71 91  71 93  72 73  72 76  72 77  72 79  72 117  73 87  73 117  74 75  74 76  74 77  74 102  75 76  75 124  75 136  76 77  77 79  77 80  77 102  78 79  78 80  78 86  78 117  78 143  79 80  79 117  80 102  80 143  81 83  81 87  81 106  81 142  82 86  82 94  83 142  85 119  85 139  86 117  87 106  88 89  88 90  88 99  88 100  89 90  89 108  89 131  90 100  90 108  91 92  91 93  92 93  92 138  94 118  94 132  95 96  95 97  95 98  96 98  96 132  97 98  97 101  97 116  98 101  98 103  98 105  98 114  99 100  101 113  101 114  101 116  103 104  103 105  103 114  104 105  104 133  105 133  106 141  106 142  107 108  107 130  108 130  108 131  109 140  110 111  110 112  110 145  111 112  111 141  112 124  112 129  112 145  113 114  113 115  113 116  115 116  115 125  115 144  116 125  119 139  120 121  120 122  120 139  120 143  121 122  121 143  122 139  123 134  124 129  124 136  125 144  126 134  126 135  127 128  127 137  129 136  129 145  130 131  134 135  </DataArray>
<DataArray  type="UInt32"  Name="offsets"  format="ascii">2 4 6 8 10 12 14 16 18 20 22 24 26 28 30 32 34 36 38 40 42 44 46 48 50 52 54 56 58 60 62 64 66 68 70 72 74 76 78 80 82 84 86 88 90 92 94 96 98 100 102 104 106 108 110 112 114 116 118 120 122 124 126 128 130 132 134 136 138 140 142 144 146 148 150 152 154 156 158 160 162 164 166 168 170 172 174 176 178 180 182 184 186 188 190 192 194 196 198 200 202 204 206 208 210 212 214 216 218 220 222 224 226 228 230 232 234 236 238 240 242 244 246 248 250 252 254 256 258 260 262 264 266 268 270 272 274 276 278 280 282 284 286 288 290 292 294 296 298 300 302 304 306 308 310 312 314 316 318 320 322 324 326 328 330 332 334 336 338 340 342 344 346 348 350 352 354 356 358 360 362 364 366 368 370 372 374 376 378 380 382 384 386 388 390 392 394 396 398 400 402 404 406 408 410 412 414 416 418 420 422 424 426 428 430 432 434 436 438 440 442 444 446 448 450 452 454 456 458 460 462 464 466 468 470 472 474 476 478 480 482 484 486 488 490 492 494 496 498 500 502 504 506 508 510 512 514 516 518 520 522 524 526 528 530 532 534 536 538 540 542 544 546 548 550 552 554 556 558 560 562 564 566 568 570 572 574 576 578 580 582 584 586 588 590 592 594 596 598 600 602 604 606 608 610 612 614 616 618 620 622 624 626 628 630 632 634 636 638 640 642 644 646 648 650 652 654 656 658 660 662 664 666 668 670 672 674 676 678 680 682 684 686 688 690 692 694 696 698 700 702 704 706 708 710 712 714 716 718 720 722 724 726 728 730 732 734 736 738 740 742 744 746 748 750 752 754 756 758 760 762 764 766 768 770 772 774 776 778 780 782 784 786 788 </DataArray>
<DataArray  type="UInt8"  Name="types"  format="ascii">3 3 3 3 3 3 3 3 3 3 3 3 3 3 3 3 3 3 3 3 3 3 3 3 3 3 3 3 3 3 3 3 3 3 3 3 3 3 3 3 3 3 3 3 3 3 3 3 3 3 3 3 3 3 3 3 3 3 3 3 3 3 3 3 3 3 3 3 3 3 3 3 3 3 3 3 3 3 3 3 3 3 3 3 3 3 3 3 3 3 3 3 3 3 3 3 3 3 3 3 3 3 3 3 3 3 3 3 3 3 3 3 3 3 3 3 3 3 3 3 3 3 3 3 3 3 3 3 3 3 3 3 3 3 3 3 3 3 3 3 3 3 3 3 3 3 3 3 3 3 3 3 3 3 3 3 3 3 3 3 3 3 3 3 3 3 3 3 3 3 3 3 3 3 3 3 3 3 3 3 3 3 3 3 3 3 3 3 3 3 3 3 3 3 3 3 3 3 3 3 3 3 3 3 3 3 3 3 3 3 3 3 3 3 3 3 3 3 3 3 3 3 3 3 3 3 3 3 3 3 3 3 3 3 3 3 3 3 3 3 3 3 3 3 3 3 3 3 3 3 3 3 3 3 3 3 3 3 3 3 3 3 3 3 3 3 3 3 3 3 3 3 3 3 3 3 3 3 3 3 3 3 3 3 3 3 3 3 3 3 3 3 3 3 3 3 3 3 3 3 3 3 3 3 3 3 3 3 3 3 3 3 3 3 3 3 3 3 3 3 3 3 3 3 3 3 3 3 3 3 3 3 3 3 3 3 3 3 3 3 3 3 3 3 3 3 3 3 3 3 3 3 3 3 3 3 3 3 3 3 3 3 3 3 3 3 3 3 3 3 3 3 3 3 3 3 3 3 3 3 3 3 3 3 3 3 3 3 3 3 3 3 3 3 </DataArray>
</Cells>
<CellData  Scalars="f">
<DataArray  type="Float64"  Name="f"  format="ascii">0 0 0 0 0 0 0 0 0 0 0 0 0 0 0 0 1 1 0 0 0 0 0 0 0 0 0 0 0 0 0 0 0 0 0 0 0 0 0 0 0 0 0 0 0 0 0 0 0 0 0 0 0 0 0 0 0 0 0 0 0 0 0 0 0 0 0 0 0 0 0 0 0 0 0 0 0 0 0 0 0 0 0 0 0 0 0 0 0 0 0 0 0 0 0 0 0 0 0 0 0 0 0 0 0 0 1 1 0 0 0 0 0 0 0 0 0 0 0 0 0 0 0 0 0 0 0 0 0 0 0 0 0 0 0 0 0 0 0 0 0 0 0 0 0 0 0 0 0 0 0 0 0 0 0 0 0 0 0 0 0 0 0 0 0 0 0 0 0 0 0 0 0 0 0 0 0 0 0 0 0 0 0 0 0 0 0 0 0 0 0 0 0 0 0 0 0 0 0 0 0 0 0 0 0 0 0 0 0 0 0 0 0 0 0 0 0 0 0 0 0 0 0 0 0 0 0 0 0 0 0 0 0 0 0 0 0 0 0 0 0 0 0 0 0 0 0 0 0 0 0 0 0 0 0 0 0 0 0 0 0 0 0 0 0 0 0 0 0 0 1 1 0 0 0 0 0 0 0 0 0 0 0 0 0 0 0 0 0 0 0 0 0 0 0 0 0 0 0 0 0 0 0 0 0 0 0 0 0 0 1 0 0 0 0 0 0 0 0 0 0 0 0 0 1 0 0 1 0 0 0 0 0 0 0 0 0 0 0 0 0 0 0 0 0 0 1 0 1 0 1 0 1 1 0 1 0 0 0 1 0 0 0 1 0 0 0 1 1 0 0 0 1 0 0 0 0 0 0 0 0 0 0 0 0 0 0 0 0 0 0 0 0 0 </DataArray>
</CellData>
</Piece>
</UnstructuredGrid>
</VTKFile>