<?xml version="1.0"?>
<VTKFile type="Collection" version="0.1">
  <Collection>
    <DataSet timestep="0" part="0" file="outer_boundary_marker_subdomain5_meshrez32000000.vtu" />
  </Collection>
</VTKFile>
