<?xml version="1.0"?>
<VTKFile type="UnstructuredGrid"  version="0.1"  >
<UnstructuredGrid>
<Piece  NumberOfPoints="552" NumberOfCells="1575">
<Points>
<DataArray  type="Float64"  NumberOfComponents="3"  format="ascii">-0.1603815297388746 -0.3991546961287426 0  -0.116645657483763 -0.3761044983023663 0  -0.172994466500018 -0.3533018399578555 0  0 -0.4847556942838389 0  0 -0.5423778471419194 0  -0.03342725484305976 -0.518422256094948 0  -0.07465479746540447 -0.3500103262199043 0  -0.1320426396362692 -0.3291250231845457 0  -0.5878249721548106 -0.1857297472764813 0  -0.5398765442257133 -0.1911255048360207 0  -0.5807103396250265 -0.2334534095885807 0  -0.6932253459032534 -0.8486627302654292 0  -0.7252346017308199 -0.8169551970829583 0  -0.6894876610260376 -0.8128787869203526 0  -0.625 -0.2526 0  -0.6220781379429396 -0.2104559033473379 0  -0.6844258229488622 -0.2362313775861879 0  -1 -0.75 0  -1 -0.6875 0  -0.9459122930200379 -0.7278352050479127 0  -0.7087121246876662 -0.7778968727985508 0  -0.7423274667546075 -0.7401616995622848 0  -0.6724779886075394 -0.7401180179671145 0  -0.1079141077874075 -0.1810527521530871 0  -0.1322848118191166 -0.1480645310556806 0  -0.1447529309707479 -0.1827718834582863 0  -0.375 0 0  -0.4375 0 0  -0.40625 -0.03338875002535223 0  -0.210294395822361 -0.229331457883139 0  -0.2659705721943281 -0.2380284914610186 0  -0.2323609100356132 -0.2783207012980303 0  -0.2623991845045356 -0.9260053792978503 0  -0.2948025067361649 -0.8885541503533753 0  -0.2584814600921815 -0.8898721936791977 0  -0.5624784745995793 -0.6301263712844517 0  -0.6116434779845102 -0.6166283530360812 0  -0.5769593800560959 -0.5865834414531592 0  -0.375827953415487 -0.2828112885089297 0  -0.3330053706345957 -0.3241869434686008 0  -0.3725388899284615 -0.3259914252380028 0  -0.6111214524039817 -0.6676099334722239 0  -0.6105293648939978 -0.7228998217634121 0  -0.6546464963210635 -0.6957241482111659 0  -0.7831564808728008 -0.3930841304158043 0  -0.8219065103176043 -0.4218565719897869 0  -0.8169715299397841 -0.3776036128196522 0  -0.5788137340324616 -0.4857310880533087 0  -0.5527718539589188 -0.4346930025832532 0  -0.5319361637659183 -0.4774871898699962 0  -0.4631822581133143 -0.7872347613629033 0  -0.4031942805055347 -0.810059367342976 0  -0.4102215950192443 -0.7709002466579012 0  -0.4598652040056469 -0.3230231307225639 0  -0.5156899983712252 -0.3472981145507589 0  -0.5072414337697495 -0.290399956301805 0  -0.07227995144853687 -0.4271335414257584 0  -0.06689344419381008 -0.4945210871048687 0  -0.1198741450016462 -0.4648469546354966 0  -0.3414397433449802 -0.827549285458928 0  -0.2979861210508942 -0.8257776463817648 0  -0.3317705383285159 -0.8684864745142146 0  -0.7641168837858763 -0.3342420341120718 0  -0.7376401036777527 -0.3665974478917979 0  -0.0751624662948573 -0.9225547085657142 0  -0.1302601892964674 -0.9418566158956827 0  -0.09124317685040692 -0.9649417537122531 0  -0.596364003839754 -0.3975071160807065 0  -0.6029704204792792 -0.4446789323331088 0  -0.6322350995787414 -0.4196351370658795 0  -0.7986141908034426 -0.4641281466913708 0  -0.793592426964198 -0.5233500254825243 0  -0.7634209944928778 -0.4855386096150162 0  -0.1801223423759707 -0.6084196247708697 0  -0.1232113454036439 -0.5990557993076651 0  -0.146489988762737 -0.5665488470192185 0  -0.37388109555312 -0.6057764982472361 0  -0.4124264719277539 -0.5672152387272109 0  -0.3665432114388719 -0.5598962569165598 0  -0.6716566452848897 -0.1956694914454253 0  -0.6691839529364111 -0.1398607933343311 0  -0.6965568080571403 -0.1684589110224524 0  -0.9161220451405196 -0.3125 0  -0.8681060673911121 -0.2813600178741946 0  -0.9060062453376617 -0.2755090897256011 0  -0.8125 -0.06262809350891692 0  -0.7643919535156838 -0.0481376134038208 0  -0.7839882248848393 -0.08861641755829851 0  -0.375 -0.1335550001014089 0  -0.3240186982468146 -0.1693297506799222 0  -0.363099922647773 -0.1708098096463967 0  -0.8363617603792088 -0.8363617603792088 0  -0.8743059052775441 -0.8311059647108641 0  -0.8427306405683536 -0.8717955494478309 0  -0.75 -1 0  -0.8125 -1 0  -0.78125 -0.9575968447172868 0  -0.8770715244472519 -0.224836985526296 0  -0.4420356863916023 -0.2172690285911411 0  -0.4319986893748058 -0.2733412338633336 0  -0.4830522703208864 -0.2463325738791786 0  -0.49 -0.5 0  -0.4804640133156565 -0.4512165642278584 0  -0.3523537956740429 -0.4323837128742908 0  -0.3881549384297835 -0.4663438818881266 0  -0.3955323391652217 -0.4099428999409738 0  -0.4458730673059599 -0.5213727813284146 0  -0.4467175970074732 -0.5571114733085559 0  -0.1937981037064512 -0.8611619937464876 0  -0.1589880105488798 -0.8405096941670946 0  -0.1920265387704889 -0.8244851244995315 0  -0.1810734673047909 -0.7255708033465671 0  -0.1575078749275704 -0.6671826769875961 0  -0.1231005334764 -0.7184947481767279 0  0 -0.95 0  -0.04530534226287045 -0.957430822171412 0  -0.03563185730297098 -0.9177735542128259 0  -0.1896113052619169 -0.30874343713269 0  -0.1932188537968194 -0.266487291977851 0  -0.6205311919513223 -0.4784698575476294 0  -0.5321413107316816 -0.5767333641354206 0  -0.5201795029342832 -0.6188449777220485 0  -0.4924621086195059 -0.5916399699755364 0  -0.1146409707456175 -0.5423778471419194 0  -0.1387503226871206 -0.5050631178852073 0  -0.1032005502567113 -0.4972110233869043 0  0 -0.7 0  0 -0.6499999999999999 0  -0.03297807368662039 -0.6749999999999999 0  -0.1404870792273887 -0.2194032472723953 0  -0.1525697930149705 -0.2709352128734319 0  -0.03613997572426843 -0.3983224649967181 0  -0.07346737445697067 -0.3885719338228313 0  -0.3437779244017058 -0.6793222398906984 0  -0.3122391036870988 -0.6492508434596943 0  -0.3425516220159115 -0.6267927037592204 0  -0.3833089685098354 -0.6525691107076862 0  -0.4153546673684065 -0.6217663966350978 0  -0.6915524532035943 -0.5379966938062036 0  -0.6395129909035799 -0.5114834703472417 0  -0.6516650997369473 -0.5472091397094753 0  -0.7797172714151663 -0.6675282005084783 0  -0.8339814500688492 -0.701641841316385 0  -0.7860583142473692 -0.7087215704999751 0  -0.34375 -0.06677750005070444 0  -0.286197429695269 -0.0530096787966895 0  -0.3204556726489451 -0.03697778045533966 0  -0.6875 -0.937376296540659 0  -0.6238599291458699 -0.9363620590013121 0  -0.6615263164811127 -0.8911584889586992 0  -0.3395230802224214 -0.909829491670464 0  -0.3563413281035648 -0.9552767964455525 0  -0.3064008143167145 -0.9501710584971645 0  -0.5223332409248269 -0.1461766622501847 0  -0.5695360234542862 -0.1183709782105539 0  -0.5322959605126343 -0.1031748994618167 0  -0.6233221600073572 -0.1079637567691885 0  -0.6322596302896092 -0.1694559109797274 0  -0.6020940397679931 -0.1424446986593884 0  -0.5683031172195289 -0.3166788031464751 0  -0.5 -1 0  -0.5625 -1 0  -0.53125 -0.9597245764717741 0  -0.5 0 0  -0.5076457224456778 -0.04658528443108029 0  -0.4658678186690156 -0.03338875002535224 0  -0.9356221158042402 -0.40625 0  -0.9501868519852608 -0.3543175091981505 0  -0.9007752044085331 -0.3684683798358184 0  -0.7495749221147144 -0.589813379269471 0  -0.8075597522693926 -0.6120263664269903 0  -0.7685106413347647 -0.6271718936623133 0  -0.100004441552848 -0.2771335414257584 0  -0.05969524182963005 -0.2562254450650898 0  -0.09397774570339976 -0.2394419822509785 0  -0.1634543493710798 -0.07380118875011304 0  -0.12361361599082 -0.1079775717162661 0  -0.1600832307777925 -0.1101814797430487 0  -0.1243037610337384 -0.8613726493539136 0  -0.1042264711773292 -0.8127238152711183 0  -0.5501480974725074 -0.06713264227387199 0  -0.6034179240386734 -0.05765070782837032 0  -0.6574697805680659 -0.05520564976276583 0  -0.05000222077642402 -0.300587877579723 0  -0.03684726607745583 -0.3380094858557532 0  -0.3831283830636397 -0.8569778167681156 0  -0.4303987628844947 -0.8762 0  -0.401435972278242 -0.9375346421267946 0  -0.4490906820521232 -0.9121847649991602 0  -0.1484963812726747 -0.8014176773518104 0  -0.1777940102306626 -0.7686917400723059 0  0 -0.6 0  -0.04846670395137771 -0.6366248038884254 0  -0.90625 -0.06558153844688287 0  -0.9415556681528425 -0.1135447736577604 0  -0.9532537578275332 -0.06795798347836791 0  -0.7702566957098327 -0.9060824065594879 0  -0.8068357651484009 -0.8745657409952434 0  -0.7710985513565427 -0.8694241302286461 0  -0.1875 0 0  -0.2127886003576769 -0.04905727533607635 0  -0.1758857441774009 -0.0370337130879839 0  -0.8000934657122269 -0.838843354384452 0  -0.9600596394603111 -0.78125 0  -0.9161000794744995 -0.7765605853546194 0  -0.7918992551577005 -0.749988821010982 0  -0.8417443841917052 -0.7552858782126233 0  -0.8377963175887757 -0.7922672767145479 0  -0.9242280577300858 -0.4861051319803648 0  -0.9665705722352679 -0.46875 0  -0.9327563027198766 -0.4465815355058 0  -0.637446712295116 -0.3207349266600995 0  -0.6044676991734077 -0.2915551175912098 0  -0.7029357235928712 -0.3432843895622844 0  -0.6190471286479342 -0.5661845227758047 0  -0.7933213530837652 -0.5624059575646339 0  -0.06218549816678635 -0.8306182357095453 0  0 -0.8500000000000001 0  -0.04707645366125424 -0.8796349950054894 0  -0.09693340790275543 -0.6499999999999999 0  -0.1334609733950466 -0.6365921596689712 0  -0.1807655112662948 -0.5459627900672109 0  -0.125 0 0  -0.129873037228121 -0.04437986437133075 0  -0.09375 0 0  -0.08095672799284601 -0.1385667707128792 0  -0.08662695368207846 -0.1027064434652775 0  -0.2385555865103521 -0.7047576006157189 0  -0.2218342862563765 -0.7483604980363445 0  -0.09287184125823324 -0.7684663178960887 0  -0.04641864765334113 -0.7841822872147975 0  -0.05977726373642232 -0.747156568160575 0  -0.8880430183235802 -0.7360756678822595 0  -0.8833441198218335 -0.6837973954821012 0  -0.2830919811987145 -0.2917158490246171 0  -0.326601463323244 -0.2574938630568208 0  -0.3089285088574267 -0.1237737952373521 0  -0.3571630619479127 -0.1012013751417636 0  -0.3947419241002508 -0.2357061878648349 0  -0.3596533957051637 -0.2434153215047837 0  -0.3520073802035509 -0.2083129852098799 0  -0.4064459839921266 -0.1770710971347962 0  -1 -0.25 0  -0.935705065805629 -0.2512472490824927 0  -0.9610020092415169 -0.2124642445391363 0  -0.5528827687379376 -0.8179494099667116 0  -0.4923153645959206 -0.8484931895248385 0  -0.5412748249588639 -0.8702547715848969 0  -0.8282576633273637 -0.2314852421479801 0  -0.8128107046374187 -0.2961131688584605 0  -0.71875 -0.06914166609575313 0  -0.7294756853658925 -0.03235648689509756 0  -0.8323002726806044 -0.5285598231605422 0  -0.8760035464519245 -0.5671865393353547 0  -0.9020880264943065 -0.5278188488193564 0  -0.8250971355633575 -0.655558494001578 0  -0.48733843493723 -0.925653267271267 0  -0.5040748044812111 -0.8879922375750717 0  -0.524919217468615 -0.9225512101074076 0  -0.06560669802196716 -0.7082287607339051 0  -0.02876708097273167 -0.725 0  -0.2687243524708713 -0.6515859070495258 0  -0.2932465972211393 -0.7006439190458705 0  -0.2760968365648261 -0.7530073465282643 0  -0.2124439611772613 -0.6545913485975183 0  -0.297514224712067 -0.3720000899920606 0  -0.2612111955640289 -0.3370840333984647 0  -0.2663967268654993 -0.4002605710606479 0  -0.3972799824190222 -0.5148387112440453 0  -0.5095814554955967 -0.661320314508691 0  -0.4622951371265844 -0.6495823073897967 0  -0.5773990145910892 -0.850830949386812 0  -0.6365375123232809 -0.7716942741342321 0  -0.604537882136865 -0.8125958078879485 0  -0.5746522623826982 -0.7761177176622105 0  -0.5570088849312408 -0.6812982722310644 0  -0.8709339799071285 -0.1290660200928715 0  -0.8312418383778304 -0.105060240116106 0  -0.8260644909911294 -0.144977257363762 0  -0.8481840123508585 -0.1786061135252304 0  -0.8384342668698009 -0.4585166416809845 0  -0.8229104014402834 -0.4924473288328919 0  -0.7581455225039123 -0.4333734569516715 0  -0.2625426988579299 -0.8509792300373232 0  -0.2232327979691773 -0.8987315100219778 0  -0.3125 -1 0  -0.5609308688022192 -0.3645232582815774 0  -0.6012593366386568 -0.3462471700431007 0  -0.25 0 0  -0.7640629719592172 -0.834011064371196 0  -0.8013646358090495 -0.7997468240110145 0  -0.7554271312979289 -0.7871733888456011 0  -0.9132992176800937 -0.9132992176800937 0  -0.8808037236071822 -0.8688572544521204 0  -0.9460303180116226 -0.8701099318367872 0  -0.04513780107126231 -0.1698279692548032 0  -0.2265896163892326 -0.3736680078792917 0  -0.1922750033392035 -0.3832665924944758 0  -0.2311425124378754 -0.4099430968181828 0  -0.390625 -0.08554212519479439 0  -0.3683170412986084 -0.03757337494196837 0  -0.1776369585268653 -0.48358104574102 0  -0.03802102693027597 -0.4583041667973261 0  -0.9341416208080523 -0.5625 0  -0.9640314825052243 -0.5969526433479673 0  -0.9670708104040262 -0.53125 0  -0.3228256760455582 -0.5441603684138534 0  -0.2855145021969654 -0.4933475080688206 0  -0.3445396185826016 -0.490107996170315 0  -0.4112244069686325 -0.3176495984866726 0  -0.2979341604873963 -0.3352328965394989 0  -0.875 -1 0  -0.8746916845250907 -0.9480542621891759 0  -0.8282610924668716 -0.9556677052445424 0  -0.841874009823241 -0.9077869682360615 0  -0.8774511369088522 -0.9122985399414025 0  -0.7959705969411348 -0.1942758656722753 0  -0.7821625965539053 -0.2488702118830674 0  -0.75 0 0  -0.9375 0 0  -0.96875 0 0  -0.9312440943545872 -0.03725519938953137 0  -0.8687906512256502 -0.08779269003122478 0  -0.4314863387116704 -0.4427344631812605 0  -0.4261151858288329 -0.4843522764331789 0  -0.616528455993661 -0.8631243932041683 0  -0.6003962100123565 -0.9017251076388009 0  -0.7220607265127313 -0.1951044347825552 0  -0.7587599770491091 -0.1718826122996371 0  -0.7558936295989584 -0.2177596646726186 0  -0.7248309799262407 -0.1447733669468729 0  -0.6496872208355842 -0.4539722392706063 0  -0.6668349561536683 -0.5817616020931274 0  -0.6927852957556152 -0.04161470719427496 0  -0.6806125651063182 -0.09514130959277073 0  -0.6810555242688983 -0.6299704944290447 0  -0.7273536133892332 -0.6567162827282886 0  -0.7188230534977679 -0.6158772876234527 0  -0.4937460324199033 -0.09170118422736473 0  -0.4858575123152405 -0.1305794822039228 0  -0.09120022626602171 -0.06668978471484839 0  0 -0.09237784714191946 0  0 -0.04618892357095973 0  -0.04800063403385371 -0.04576038569486669 0  -0.1993487897743701 -0.4351669411104706 0  -0.2336039062217617 -0.4885299598224176 0  -0.2095239549796655 -0.5193984892663595 0  -0.4893575217093474 -0.7253740639239983 0  -0.5177865884924842 -0.7738714717615929 0  -0.5561214849655498 -0.7327540044572297 0  -0.4318534151277913 -0.7375103643446269 0  -0.4823428673492727 -0.5541437388288806 0  -0.2838601689223799 -0.09279339502190063 0  -0.2491416372348705 -0.0575596914556295 0  -0.3256880782324959 -0.7754465559934831 0  -0.2622358667680154 -0.8010132502815904 0  -0.3650108856011287 -0.793007381750216 0  -0.4232436987249252 -0.6787158254537077 0  -0.1591468180569826 -0.8928995807784939 0  -0.1130592736071813 -0.9026672211734502 0  -0.125 -1 0  -0.6426704592694014 -0.6424395164777938 0  -0.7902068383771246 -0.1266905971731862 0  -0.9341416208080523 -0.6705795550446483 0  -0.9228400678563676 -0.6165397775223241 0  -0.9606001031417236 -0.6384401844404398 0  -0.3897547746705029 -0.3616252380393761 0  -0.2429232456140351 -0.5398239035087719 0  -0.2547548178291449 -0.5959516877064382 0  -0.2150170446257964 -0.5750173712447462 0  -0.3112844334399557 -0.6056839443263161 0  -0.3352175573470985 -0.5783292705661101 0  0 0 0  -0.1789427589043413 -0.1993923504640729 0  -0.2475961985287976 -0.2051682909049145 0  -0.4655570070011984 -0.4159466281196926 0  -0.446926870172153 -0.3824935978822921 0  0 -0.2771335414257584 0  0 -0.3233224649967181 0  -0.09483859258338739 -0.3161838738999409 0  -0.08633021573852087 -0.873210695021148 0  -0.1875 -0.9303706776597088 0  -0.21875 -0.9651853388298544 0  -0.2127403705875191 -0.7941656859899477 0  -0.7489558437082996 -0.1047733534130571 0  -0.2780102722530837 -0.1829783267841319 0  -0.6539132399624611 -0.8182566541143593 0  -0.6526757333323767 -0.8552343168480648 0  -0.7203898182067896 -0.4046805194186784 0  -0.6589115213180375 -0.3918505793517713 0  -0.68359936407301 -0.4272620969760684 0  -0.7260254892332834 -0.4682601497433033 0  -0.7184351910326764 -0.5079040743371394 0  -0.4375 -0.06677750005070446 0  -0.5327619116959292 -0.23884916714812 0  -0.5603411712350463 -0.1572403135563509 0  -0.8089157337959417 -0.3412964769241272 0  -0.8691156767333117 -0.4875231170874024 0  -0.896443129804239 -0.4594279166743411 0  -1 -0.375 0  -0.9659252421804519 -0.3867400455633889 0  -1 -0.4375 0  -0.9645593773323966 -0.4285737620850964 0  -1 -0.5 0  -0.6775745171096668 -0.2782001530485253 0  -0.3950252512997072 -0.7128757215514269 0  -0.375 -0.7524 0  -0.333398863659697 -0.7276662699350445 0  -0.892100788820035 -0.1687800177920035 0  -0.8599002730458916 -0.04743128757745278 0  -0.6825546698257152 -0.4894423426303391 0  -0.8034952195385114 -0.9259194438815304 0  -0.7055263157894737 -0.7055263157894737 0  -0.8742870299940362 -0.3244182102259007 0  -0.375 -1 0  -0.40625 -1 0  -0.4456048306437606 -0.8312804602564688 0  -0.06790427659200046 -0.2115645916918785 0  -0.1567042422130763 -0.4422222247340534 0  0 -0.9 0  0 -0.8 0  -0.2335336059593077 -0.8261734376782124 0  -0.7256397014050562 -0.2969540529211104 0  -0.6634131926617975 -0.3516946579804881 0  -0.6306377226207648 -0.3683506607798232 0  -0.4548384202307477 -0.7041168396660122 0  -0.03359783028171776 -0.5656794870723711 0  -0.06702657230795681 -0.5421359140718537 0  -0.9134864865198741 -0.7074384365433044 0  -0.625 -1 0  -0.6875 -1 0  -0.65625 -0.9686881482703296 0  -0.5625 -0.9194491529435482 0  -0.59375 -0.968730659687718 0  -0.2818466714286467 -0.5609298820104992 0  -0.2522034284031928 -0.4398270182251208 0  -0.625 0 0  -0.6875 0 0  -1 -0.1875 0  -0.4375 -1 0  -0.4843691490678093 -0.9644104748728087 0  -0.4473057842480976 -0.9526953228087378 0  -0.9369125831247376 -0.1729198854221553 0  -0.7328337944420168 -0.9546321741902026 0  -0.9375 -1 0  -0.9498302781123578 -0.9498302781123578 0  -0.96875 -1 0  -1 -0.9375 0  -0.9534211168816751 -0.9097083789107764 0  -1 -0.90625 0  -0.926730405668448 -0.819472468194606 0  -1 -0.625 0  -1 -0.5625 0  -0.25 -1 0  -0.2694935551474795 -0.9652303421075773 0  -1 -0.3125 0  -0.9684466499848156 -0.28125 0  -0.9539744059510774 -0.3164486859449693 0  -0.06664958127332964 -0.5897494347141093 0  -0.7090834202881451 -0.5767602288503201 0  -0.8343452129392173 -0.5702829942198772 0  -0.8682832416161046 -0.625 0  -0.1354160312873104 -0.7600733339851564 0  -0.502733853931465 -0.4067776978300178 0  -0.7259586181874846 -0.2453607491514681 0  -0.7693381803881215 -0.2907525574404438 0  -0.2277287983758239 -0.3170586650915458 0  -0.1211493933306803 -0.6799944421637585 0  -0.3125 0 0  -0.5717227232113785 -0.5395639175899429 0  -0.5257730884339915 -0.5302922309157545 0  -0.4483542438230331 -0.1435122180087365 0  -0.4548938638556738 -0.1034521449846876 0  -0.3013499839323698 -0.4236105878245905 0  -0.3134517478002963 -0.4630249685362962 0  -0.1910932866565214 -0.6875771505480874 0  -0.8749839677795331 -0.7928055502037513 0  0 -0.75 0  -0.15625 -1 0  -0.2195209373304889 -0.6146505470939073 0  -1 -0.125 0  -1 -0.09375 0  -1 -0.15625 0  -0.96659267173231 -0.140625 0  -0.05068427562980918 -0.09758409789875896 0  -0.5286539607568806 -0.381272868755097 0  -0.4778152102976295 -0.3580709745777749 0  -0.2440463437917054 -0.09454444986761157 0  -0.1965706720266041 -0.1120673865316271 0  -0.2635958745050535 -0.1377752883449879 0  -0.3078210220179803 -0.2166396917223337 0  -0.5625 0 0  -0.5414780523076524 -0.03083476917356338 0  0 -1 0  -0.0625 -1 0  -0.4973358046312611 -0.8085488497064931 0  -0.4839439462225088 -0.1837101494650815 0  -0.4470203906613822 -0.1805470028411511 0  -0.4694886080437151 -0.2824504113194021 0  -0.6724892631656396 -0.7763729210647007 0  -0.7468085029030813 -0.6947017679017218 0  -0.9014632248186311 -0.6492120595222355 0  -0.8499978405962221 -0.360504876817488 0  -0.03151329339100818 -0.2043374950987258 0  -0.3611792582888212 -0.5232245667253256 0  -0.7351512994565835 -0.8727975100947515 0  -0.7225805630298614 -0.913391662103165 0  -0.8690065121565475 -0.4323926055353359 0  -0.7546112095653938 -0.5257798406932304 0  -0.5211311581714522 -0.7001865104904553 0  -0.6078028135780269 -0.5307984955464857 0  -0.685963004313854 -0.670121748347695 0  -0.3811751678873544 -0.8997804422824953 0  -1 -0.8125 0  -0.9650659142999976 -0.8338580171867755 0  -0.6747981194839796 -0.3157767748332291 0  -0.1724144276409859 -0.1565361235955581 0  -0.9041971855489443 -0.4241191652439439 0  -0.8518669202586376 -0.3984676681672877 0  -0.9180716616580189 -0.2121038242890014 0  -0.1162362983272603 -0.4205493459857176 0  -0.9118319972292317 -0.9670914661883995 0  -0.5087990941432563 -0.2108846408132719 0  -0.4256852095874044 -0.3519383347697873 0  -0.7005969152341953 -0.8843405579517853 0  -0.4676180779555213 -0.8797138522740887 0  -1 -0.875 0  0 -0.1385667707128792 0  -0.04496598491421194 -0.13347992908305 0  0 -0.1847556942838389 0  0 -0.2309446178547987 0  -0.2236120022217243 -0.1761481476300839 0  -0.2251637724131988 -0.1377473760288649 0  -0.5167734680389483 -0.4436354088646254 0  -0.8125 0 0  -1 0 0  -1 -0.0625 0  -0.875 0 0  -0.4142239984749196 -0.1197709178939652 0  -0.1875 -1 0  -0.171875 -0.9651853388298544 0  -0.0625 0 0  -0.5608868162664775 -0.2730356530162583 0  -0.3439220455914508 -0.3693691720112596 0  0 -0.4271335414257584 0  0 -0.3695113885676778 0  -0.9038899282315997 -0.1042946271348042 0  -0.917217154260234 -0.1415106204410742 0  -0.454878249513439 -0.6014287354127068 0  -0.15625 0 0  -0.90625 0 0  -1 -1 0  </DataArray>
</Points>
<Cells>
<DataArray  type="UInt32"  Name="connectivity"  format="ascii">0 1  0 2  0 297  0 344  0 418  0 520  1 2  1 6  1 7  1 132  1 520  2 7  2 117  2 296  2 297  2 466  3 4  3 5  3 302  3 544  4 5  4 191  4 426  5 57  5 302  5 426  5 427  6 7  6 131  6 132  6 183  6 184  6 379  7 117  7 130  7 172  7 379  8 9  8 10  8 15  8 157  8 158  8 395  9 10  9 153  9 394  9 395  9 496  9 522  10 14  10 15  10 212  10 394  10 542  11 12  11 13  11 149  11 386  11 387  11 505  11 524  12 13  12 20  12 289  12 291  12 505  13 20  13 386  13 499  14 15  14 16  14 211  14 212  14 404  15 16  15 79  15 157  16 79  16 327  16 404  16 464  17 18  17 19  17 203  17 513  18 19  18 363  18 365  18 451  19 203  19 204  19 232  19 363  19 428  20 21  20 22  20 291  20 499  21 22  21 143  21 205  21 291  21 412  21 500  22 42  22 43  22 272  22 412  22 499  23 24  23 25  23 129  23 174  23 225  23 295  23 417  24 25  24 176  24 177  24 225  24 516  25 129  25 373  25 516  26 27  26 28  26 146  26 300  26 468  27 28  27 163  27 165  28 165  28 299  28 300  28 393  29 30  29 31  29 118  29 373  29 374  29 531  30 31  30 234  30 235  30 374  30 385  30 490  31 117  31 118  31 234  31 466  32 33  32 34  32 152  32 284  32 382  32 454  33 34  33 60  33 61  33 150  33 152  33 283  34 283  34 284  35 36  35 37  35 41  35 120  35 121  35 269  35 275  36 37  36 41  36 214  36 332  36 361  37 120  37 214  37 469  38 39  38 40  38 99  38 235  38 238  38 239  38 309  39 40  39 234  39 235  39 310  39 543  40 309  40 366  40 543  41 42  41 43  41 275  41 361  42 43  42 272  42 274  42 275  42 349  43 361  43 412  43 511  44 45  44 46  44 62  44 63  44 282  44 388  44 396  45 46  45 70  45 280  45 282  45 507  45 518  46 396  46 502  46 518  47 48  47 49  47 68  47 119  47 469  47 470  47 510  48 49  48 67  48 68  48 286  48 463  48 485  48 533  49 101  49 102  49 470  49 533  50 51  50 52  50 347  50 348  50 350  50 416  50 495  51 52  51 59  51 185  51 356  51 416  52 350  52 356  52 406  53 54  53 55  53 99  53 309  53 486  53 498  53 523  54 55  54 159  54 286  54 485  54 486  55 100  55 159  55 394  55 498  55 542  56 57  56 58  56 131  56 132  56 302  56 520  57 58  57 125  57 302  57 427  58 124  58 125  58 301  58 418  58 520  59 60  59 61  59 185  59 354  59 356  60 61  60 283  60 354  60 355  61 150  61 185  61 512  62 63  62 213  62 249  62 396  62 422  62 465  63 213  63 388  64 65  64 66  64 115  64 116  64 218  64 359  64 380  65 66  65 358  65 359  65 360  65 381  65 478  65 540  66 115  66 360  66 494  67 68  67 69  67 286  67 287  67 424  68 69  68 119  68 331  69 331  69 389  69 390  69 424  70 71  70 72  70 280  70 281  70 282  71 72  71 215  71 252  71 281  71 508  72 282  72 391  72 392  72 508  73 74  73 75  73 112  73 220  73 221  73 264  73 369  73 479  74 75  74 123  74 219  74 220  74 458  75 123  75 124  75 221  76 77  76 78  76 135  76 136  76 137  76 371  77 78  77 106  77 107  77 137  77 268  77 548  78 268  78 306  78 371  78 504  79 80  79 81  79 157  79 327  80 81  80 156  80 157  80 330  80 334  81 327  81 330  82 83  82 84  82 167  82 168  82 413  82 456  82 457  83 84  83 97  83 248  83 249  83 413  84 97  84 243  84 456  85 86  85 87  85 277  85 322  85 409  85 534  86 87  86 250  86 251  86 318  86 384  86 534  87 277  87 362  87 384  88 89  88 90  88 236  88 237  88 241  88 299  88 538  89 90  89 236  89 240  89 385  89 490  90 240  90 241  91 92  91 93  91 197  91 202  91 207  91 290  92 93  92 207  92 293  92 450  92 476  93 197  93 293  93 314  93 315  94 95  94 96  94 430  94 443  95 96  95 311  95 313  96 196  96 313  96 411  96 443  97 243  97 248  97 279  97 408  97 519  98 99  98 100  98 238  98 241  98 496  98 497  99 100  99 238  99 309  99 498  100 394  100 496  100 498  100 522  101 102  101 106  101 324  101 351  101 470  102 323  102 324  102 375  102 463  102 533  103 104  103 105  103 308  103 473  103 474  103 543  104 105  104 268  104 308  104 323  104 324  105 323  105 366  105 376  105 543  106 107  106 268  106 324  106 351  107 351  107 548  108 109  108 110  108 283  108 284  108 358  108 421  109 110  109 178  109 179  109 189  109 358  110 189  110 190  110 383  110 421  111 112  111 113  111 190  111 227  111 228  111 462  111 475  112 113  112 220  112 264  112 467  112 475  113 229  113 231  113 259  113 462  113 467  114 115  114 116  114 419  114 493  115 116  115 493  115 494  116 218  116 419  117 118  117 130  117 466  118 129  118 130  118 373  119 139  119 331  119 510  120 121  120 122  120 351  120 469  120 470  121 122  121 269  121 270  122 270  122 351  122 548  123 124  123 125  123 427  123 458  124 125  124 221  124 301  125 427  126 127  126 128  126 260  126 477  127 128  127 191  127 192  128 192  128 219  128 259  128 260  129 130  129 174  129 373  130 172  130 174  131 132  131 184  131 302  131 544  131 545  132 520  133 134  133 135  133 136  133 262  133 405  133 407  134 135  134 261  134 262  134 370  135 136  135 370  135 371  136 137  136 357  136 405  137 270  137 357  137 548  138 139  138 140  138 332  138 392  138 410  138 459  138 508  139 140  139 331  139 410  139 510  140 214  140 332  140 510  141 142  141 143  141 170  141 171  141 255  141 336  141 500  142 143  142 205  142 206  142 232  142 233  142 255  143 205  143 500  144 145  144 146  144 236  144 237  144 299  144 300  144 352  145 146  145 288  145 352  145 353  145 468  146 300  146 468  147 148  147 149  147 430  147 431  147 443  147 506  147 524  148 149  148 326  148 431  148 432  148 433  149 325  149 326  149 387  149 524  150 151  150 152  150 512  151 152  151 187  151 285  151 414  151 512  152 285  152 454  153 154  153 155  153 339  153 395  153 496  154 155  154 156  154 158  154 180  154 181  154 395  155 164  155 180  155 338  155 339  156 157  156 158  156 181  156 182  156 334  157 158  158 395  159 212  159 286  159 287  159 542  160 161  160 162  160 439  160 440  161 162  161 429  161 433  162 256  162 258  162 432  162 433  162 440  163 164  163 165  163 491  163 492  164 165  164 180  164 338  164 492  165 338  165 393  166 167  166 168  166 210  166 400  166 402  166 517  167 168  167 399  167 400  167 455  167 457  168 413  168 502  168 517  168 518  169 170  169 171  169 215  169 337  169 459  169 508  170 171  170 215  170 255  170 460  170 461  171 336  171 337  172 173  172 174  172 183  172 379  173 174  173 183  173 377  173 417  173 503  173 530  174 417  175 176  175 177  175 200  175 201  175 223  175 488  176 177  176 223  176 225  176 226  176 340  177 488  177 516  178 179  178 358  178 359  178 380  179 189  179 216  179 229  179 230  179 380  179 462  180 181  180 492  181 182  181 436  181 491  181 492  182 333  182 334  182 436  182 437  183 184  183 377  183 378  183 379  184 378  184 545  185 186  185 416  185 512  186 187  186 188  186 416  186 512  186 525  187 188  187 414  187 415  187 441  187 512  188 256  188 441  188 525  189 190  189 462  190 228  190 383  190 462  191 192  191 426  191 458  192 219  192 458  193 194  193 195  193 321  193 322  193 409  193 546  193 550  194 195  194 480  194 481  194 483  194 546  194 547  195 320  195 321  195 481  195 536  196 197  196 198  196 411  196 443  196 505  196 506  197 198  197 202  197 314  197 411  198 202  198 289  198 505  199 200  199 201  199 288  199 549  200 201  200 288  200 353  200 487  200 488  201 223  201 549  202 289  202 290  203 204  203 450  203 513  203 514  204 232  204 450  204 476  205 206  205 207  205 290  205 291  206 207  206 232  206 476  207 290  207 476  208 209  208 210  208 254  208 305  208 397  208 398  209 210  209 305  209 401  209 402  209 403  210 398  210 402  210 517  211 212  211 287  211 404  211 423  211 424  211 515  212 287  212 542  213 388  213 389  213 422  213 423  213 515  214 332  214 469  214 510  215 252  215 460  215 508  216 217  216 218  216 230  216 380  216 420  217 218  217 419  217 420  218 380  218 419  219 220  219 259  219 458  219 467  220 467  221 301  221 346  221 369  222 223  222 224  222 549  223 224  223 340  223 549  224 340  224 343  224 541  225 226  225 295  225 484  225 528  226 340  226 484  227 228  227 261  227 262  227 263  227 264  227 475  228 263  228 355  228 383  229 230  229 231  229 462  230 231  230 420  230 477  231 259  231 260  231 477  232 233  232 428  232 476  233 255  233 363  233 428  233 461  233 501  234 235  234 266  234 310  234 466  235 239  235 240  235 490  236 237  236 352  236 385  236 489  237 299  238 239  238 240  238 241  239 240  240 241  240 490  241 471  241 497  241 538  242 243  242 244  242 438  242 455  242 456  243 244  243 456  243 519  244 438  244 442  244 519  245 246  245 247  245 271  245 273  245 274  245 348  245 495  246 247  246 257  246 416  246 495  246 525  247 257  247 258  247 271  247 326  247 432  248 249  248 279  248 316  248 317  249 317  249 396  249 413  249 465  250 251  250 333  250 334  250 384  251 318  251 333  251 437  252 253  252 254  252 281  252 397  252 460  253 254  253 303  253 364  253 460  253 461  254 303  254 305  254 397  255 461  256 257  256 258  256 440  256 441  256 525  257 258  257 525  258 432  259 260  259 467  260 477  261 262  261 264  261 368  261 370  261 479  262 263  262 407  263 354  263 355  263 407  264 475  264 479  265 266  265 267  265 310  265 473  265 543  266 267  266 296  266 310  266 466  267 296  267 298  267 435  267 473  268 308  268 324  268 504  269 270  269 275  269 425  269 509  270 357  270 425  270 548  271 273  271 325  271 326  272 273  272 274  272 386  272 499  273 274  273 325  273 386  274 348  274 349  275 349  275 509  276 277  276 278  276 279  276 322  276 408  276 546  276 547  277 278  277 322  277 362  278 279  278 316  278 362  279 316  279 408  280 281  280 397  280 507  281 397  282 388  282 391  283 284  283 355  283 421  284 358  284 381  284 382  285 414  285 453  285 454  286 287  286 485  287 424  288 353  288 468  289 290  289 291  289 505  290 291  292 293  292 294  292 312  292 315  292 445  292 448  292 521  293 294  293 315  293 450  294 448  294 450  294 514  294 526  295 417  295 503  295 527  295 528  295 529  296 297  296 298  296 466  297 298  297 344  298 344  298 435  299 300  299 393  299 538  301 344  301 345  301 346  301 418  302 544  303 304  303 305  303 364  304 305  304 364  304 365  304 451  304 452  305 403  305 452  306 307  306 308  306 371  306 434  306 504  307 308  307 345  307 367  307 434  307 435  307 474  308 474  308 504  309 366  309 523  310 543  311 312  311 313  311 444  311 521  312 313  312 314  312 315  312 521  313 314  313 411  314 315  314 411  316 317  316 328  316 329  316 362  317 329  317 464  317 465  318 437  318 534  319 320  319 321  319 550  320 321  320 535  320 536  321 550  322 409  322 546  323 324  323 375  323 376  325 326  325 386  325 387  326 432  327 328  327 329  327 330  327 464  328 329  328 330  328 362  329 464  330 334  330 362  330 384  331 390  331 410  332 335  332 361  332 459  333 334  333 437  334 384  335 336  335 337  335 361  335 459  335 511  336 337  336 412  336 500  336 511  337 459  338 339  338 393  338 472  339 471  339 472  339 496  340 343  340 484  341 342  341 343  341 484  341 527  341 528  342 343  342 372  343 372  343 484  343 541  344 345  344 418  344 435  345 346  345 367  345 435  346 367  346 369  347 348  347 349  347 350  347 425  347 509  348 349  348 495  349 509  350 357  350 405  350 406  350 425  351 470  351 548  352 353  352 487  352 489  353 487  354 355  354 356  354 406  354 407  355 383  355 421  356 406  357 405  357 425  358 359  358 381  359 380  360 478  360 494  361 511  362 384  363 364  363 365  363 428  363 501  364 365  364 461  364 501  365 451  366 376  366 523  366 543  367 368  367 369  367 434  368 369  368 370  368 434  368 479  369 479  370 371  370 434  371 434  372 541  373 516  373 531  374 385  374 531  375 376  375 463  375 486  376 486  376 523  377 378  377 530  378 545  381 382  381 540  382 453  382 454  382 539  382 540  383 421  385 489  385 490  385 531  386 387  386 499  388 389  388 390  388 391  389 390  389 423  389 424  390 391  390 410  391 392  391 410  392 410  392 508  393 472  393 538  394 522  394 542  396 413  396 502  397 398  397 507  398 507  398 517  399 400  399 401  399 455  400 401  400 402  401 402  401 403  403 452  404 422  404 464  404 515  405 406  405 407  406 407  408 442  408 519  408 547  409 534  409 537  409 550  412 500  412 511  413 502  414 415  415 439  415 441  416 495  416 525  417 503  418 520  420 477  422 464  422 465  422 515  423 424  423 515  425 509  426 427  426 458  427 458  429 430  429 431  429 433  430 431  430 443  431 433  432 433  435 473  435 474  436 437  436 491  438 442  438 482  438 483  439 440  439 441  440 441  442 483  442 519  442 547  443 506  444 445  444 446  444 521  445 446  445 447  445 448  445 521  446 447  446 551  447 448  447 449  447 551  448 449  448 526  449 526  450 476  450 514  451 452  453 454  453 539  455 456  455 457  456 457  459 508  460 461  461 501  463 485  463 486  463 533  464 465  469 470  469 510  471 472  471 496  471 497  471 538  472 538  473 474  473 543  478 539  478 540  480 481  480 482  480 483  481 536  482 483  483 547  484 528  485 486  486 523  487 488  487 489  487 532  488 516  488 532  489 531  489 532  491 492  493 494  496 497  496 522  502 518  503 529  503 530  505 506  505 524  506 524  507 517  507 518  513 514  513 526  514 526  516 531  516 532  517 518  527 528  527 529  529 530  531 532  534 537  535 536  537 550  539 540  544 545  546 547  </DataArray>
<DataArray  type="UInt32"  Name="offsets"  format="ascii">2 4 6 8 10 12 14 16 18 20 22 24 26 28 30 32 34 36 38 40 42 44 46 48 50 52 54 56 58 60 62 64 66 68 70 72 74 76 78 80 82 84 86 88 90 92 94 96 98 100 102 104 106 108 110 112 114 116 118 120 122 124 126 128 130 132 134 136 138 140 142 144 146 148 150 152 154 156 158 160 162 164 166 168 170 172 174 176 178 180 182 184 186 188 190 192 194 196 198 200 202 204 206 208 210 212 214 216 218 220 222 224 226 228 230 232 234 236 238 240 242 244 246 248 250 252 254 256 258 260 262 264 266 268 270 272 274 276 278 280 282 284 286 288 290 292 294 296 298 300 302 304 306 308 310 312 314 316 318 320 322 324 326 328 330 332 334 336 338 340 342 344 346 348 350 352 354 356 358 360 362 364 366 368 370 372 374 376 378 380 382 384 386 388 390 392 394 396 398 400 402 404 406 408 410 412 414 416 418 420 422 424 426 428 430 432 434 436 438 440 442 444 446 448 450 452 454 456 458 460 462 464 466 468 470 472 474 476 478 480 482 484 486 488 490 492 494 496 498 500 502 504 506 508 510 512 514 516 518 520 522 524 526 528 530 532 534 536 538 540 542 544 546 548 550 552 554 556 558 560 562 564 566 568 570 572 574 576 578 580 582 584 586 588 590 592 594 596 598 600 602 604 606 608 610 612 614 616 618 620 622 624 626 628 630 632 634 636 638 640 642 644 646 648 650 652 654 656 658 660 662 664 666 668 670 672 674 676 678 680 682 684 686 688 690 692 694 696 698 700 702 704 706 708 710 712 714 716 718 720 722 724 726 728 730 732 734 736 738 740 742 744 746 748 750 752 754 756 758 760 762 764 766 768 770 772 774 776 778 780 782 784 786 788 790 792 794 796 798 800 802 804 806 808 810 812 814 816 818 820 822 824 826 828 830 832 834 836 838 840 842 844 846 848 850 852 854 856 858 860 862 864 866 868 870 872 874 876 878 880 882 884 886 888 890 892 894 896 898 900 902 904 906 908 910 912 914 916 918 920 922 924 926 928 930 932 934 936 938 940 942 944 946 948 950 952 954 956 958 960 962 964 966 968 970 972 974 976 978 980 982 984 986 988 990 992 994 996 998 1000 1002 1004 1006 1008 1010 1012 1014 1016 1018 1020 1022 1024 1026 1028 1030 1032 1034 1036 1038 1040 1042 1044 1046 1048 1050 1052 1054 1056 1058 1060 1062 1064 1066 1068 1070 1072 1074 1076 1078 1080 1082 1084 1086 1088 1090 1092 1094 1096 1098 1100 1102 1104 1106 1108 1110 1112 1114 1116 1118 1120 1122 1124 1126 1128 1130 1132 1134 1136 1138 1140 1142 1144 1146 1148 1150 1152 1154 1156 1158 1160 1162 1164 1166 1168 1170 1172 1174 1176 1178 1180 1182 1184 1186 1188 1190 1192 1194 1196 1198 1200 1202 1204 1206 1208 1210 1212 1214 1216 1218 1220 1222 1224 1226 1228 1230 1232 1234 1236 1238 1240 1242 1244 1246 1248 1250 1252 1254 1256 1258 1260 1262 1264 1266 1268 1270 1272 1274 1276 1278 1280 1282 1284 1286 1288 1290 1292 1294 1296 1298 1300 1302 1304 1306 1308 1310 1312 1314 1316 1318 1320 1322 1324 1326 1328 1330 1332 1334 1336 1338 1340 1342 1344 1346 1348 1350 1352 1354 1356 1358 1360 1362 1364 1366 1368 1370 1372 1374 1376 1378 1380 1382 1384 1386 1388 1390 1392 1394 1396 1398 1400 1402 1404 1406 1408 1410 1412 1414 1416 1418 1420 1422 1424 1426 1428 1430 1432 1434 1436 1438 1440 1442 1444 1446 1448 1450 1452 1454 1456 1458 1460 1462 1464 1466 1468 1470 1472 1474 1476 1478 1480 1482 1484 1486 1488 1490 1492 1494 1496 1498 1500 1502 1504 1506 1508 1510 1512 1514 1516 1518 1520 1522 1524 1526 1528 1530 1532 1534 1536 1538 1540 1542 1544 1546 1548 1550 1552 1554 1556 1558 1560 1562 1564 1566 1568 1570 1572 1574 1576 1578 1580 1582 1584 1586 1588 1590 1592 1594 1596 1598 1600 1602 1604 1606 1608 1610 1612 1614 1616 1618 1620 1622 1624 1626 1628 1630 1632 1634 1636 1638 1640 1642 1644 1646 1648 1650 1652 1654 1656 1658 1660 1662 1664 1666 1668 1670 1672 1674 1676 1678 1680 1682 1684 1686 1688 1690 1692 1694 1696 1698 1700 1702 1704 1706 1708 1710 1712 1714 1716 1718 1720 1722 1724 1726 1728 1730 1732 1734 1736 1738 1740 1742 1744 1746 1748 1750 1752 1754 1756 1758 1760 1762 1764 1766 1768 1770 1772 1774 1776 1778 1780 1782 1784 1786 1788 1790 1792 1794 1796 1798 1800 1802 1804 1806 1808 1810 1812 1814 1816 1818 1820 1822 1824 1826 1828 1830 1832 1834 1836 1838 1840 1842 1844 1846 1848 1850 1852 1854 1856 1858 1860 1862 1864 1866 1868 1870 1872 1874 1876 1878 1880 1882 1884 1886 1888 1890 1892 1894 1896 1898 1900 1902 1904 1906 1908 1910 1912 1914 1916 1918 1920 1922 1924 1926 1928 1930 1932 1934 1936 1938 1940 1942 1944 1946 1948 1950 1952 1954 1956 1958 1960 1962 1964 1966 1968 1970 1972 1974 1976 1978 1980 1982 1984 1986 1988 1990 1992 1994 1996 1998 2000 2002 2004 2006 2008 2010 2012 2014 2016 2018 2020 2022 2024 2026 2028 2030 2032 2034 2036 2038 2040 2042 2044 2046 2048 2050 2052 2054 2056 2058 2060 2062 2064 2066 2068 2070 2072 2074 2076 2078 2080 2082 2084 2086 2088 2090 2092 2094 2096 2098 2100 2102 2104 2106 2108 2110 2112 2114 2116 2118 2120 2122 2124 2126 2128 2130 2132 2134 2136 2138 2140 2142 2144 2146 2148 2150 2152 2154 2156 2158 2160 2162 2164 2166 2168 2170 2172 2174 2176 2178 2180 2182 2184 2186 2188 2190 2192 2194 2196 2198 2200 2202 2204 2206 2208 2210 2212 2214 2216 2218 2220 2222 2224 2226 2228 2230 2232 2234 2236 2238 2240 2242 2244 2246 2248 2250 2252 2254 2256 2258 2260 2262 2264 2266 2268 2270 2272 2274 2276 2278 2280 2282 2284 2286 2288 2290 2292 2294 2296 2298 2300 2302 2304 2306 2308 2310 2312 2314 2316 2318 2320 2322 2324 2326 2328 2330 2332 2334 2336 2338 2340 2342 2344 2346 2348 2350 2352 2354 2356 2358 2360 2362 2364 2366 2368 2370 2372 2374 2376 2378 2380 2382 2384 2386 2388 2390 2392 2394 2396 2398 2400 2402 2404 2406 2408 2410 2412 2414 2416 2418 2420 2422 2424 2426 2428 2430 2432 2434 2436 2438 2440 2442 2444 2446 2448 2450 2452 2454 2456 2458 2460 2462 2464 2466 2468 2470 2472 2474 2476 2478 2480 2482 2484 2486 2488 2490 2492 2494 2496 2498 2500 2502 2504 2506 2508 2510 2512 2514 2516 2518 2520 2522 2524 2526 2528 2530 2532 2534 2536 2538 2540 2542 2544 2546 2548 2550 2552 2554 2556 2558 2560 2562 2564 2566 2568 2570 2572 2574 2576 2578 2580 2582 2584 2586 2588 2590 2592 2594 2596 2598 2600 2602 2604 2606 2608 2610 2612 2614 2616 2618 2620 2622 2624 2626 2628 2630 2632 2634 2636 2638 2640 2642 2644 2646 2648 2650 2652 2654 2656 2658 2660 2662 2664 2666 2668 2670 2672 2674 2676 2678 2680 2682 2684 2686 2688 2690 2692 2694 2696 2698 2700 2702 2704 2706 2708 2710 2712 2714 2716 2718 2720 2722 2724 2726 2728 2730 2732 2734 2736 2738 2740 2742 2744 2746 2748 2750 2752 2754 2756 2758 2760 2762 2764 2766 2768 2770 2772 2774 2776 2778 2780 2782 2784 2786 2788 2790 2792 2794 2796 2798 2800 2802 2804 2806 2808 2810 2812 2814 2816 2818 2820 2822 2824 2826 2828 2830 2832 2834 2836 2838 2840 2842 2844 2846 2848 2850 2852 2854 2856 2858 2860 2862 2864 2866 2868 2870 2872 2874 2876 2878 2880 2882 2884 2886 2888 2890 2892 2894 2896 2898 2900 2902 2904 2906 2908 2910 2912 2914 2916 2918 2920 2922 2924 2926 2928 2930 2932 2934 2936 2938 2940 2942 2944 2946 2948 2950 2952 2954 2956 2958 2960 2962 2964 2966 2968 2970 2972 2974 2976 2978 2980 2982 2984 2986 2988 2990 2992 2994 2996 2998 3000 3002 3004 3006 3008 3010 3012 3014 3016 3018 3020 3022 3024 3026 3028 3030 3032 3034 3036 3038 3040 3042 3044 3046 3048 3050 3052 3054 3056 3058 3060 3062 3064 3066 3068 3070 3072 3074 3076 3078 3080 3082 3084 3086 3088 3090 3092 3094 3096 3098 3100 3102 3104 3106 3108 3110 3112 3114 3116 3118 3120 3122 3124 3126 3128 3130 3132 3134 3136 3138 3140 3142 3144 3146 3148 3150 </DataArray>
<DataArray  type="UInt8"  Name="types"  format="ascii">3 3 3 3 3 3 3 3 3 3 3 3 3 3 3 3 3 3 3 3 3 3 3 3 3 3 3 3 3 3 3 3 3 3 3 3 3 3 3 3 3 3 3 3 3 3 3 3 3 3 3 3 3 3 3 3 3 3 3 3 3 3 3 3 3 3 3 3 3 3 3 3 3 3 3 3 3 3 3 3 3 3 3 3 3 3 3 3 3 3 3 3 3 3 3 3 3 3 3 3 3 3 3 3 3 3 3 3 3 3 3 3 3 3 3 3 3 3 3 3 3 3 3 3 3 3 3 3 3 3 3 3 3 3 3 3 3 3 3 3 3 3 3 3 3 3 3 3 3 3 3 3 3 3 3 3 3 3 3 3 3 3 3 3 3 3 3 3 3 3 3 3 3 3 3 3 3 3 3 3 3 3 3 3 3 3 3 3 3 3 3 3 3 3 3 3 3 3 3 3 3 3 3 3 3 3 3 3 3 3 3 3 3 3 3 3 3 3 3 3 3 3 3 3 3 3 3 3 3 3 3 3 3 3 3 3 3 3 3 3 3 3 3 3 3 3 3 3 3 3 3 3 3 3 3 3 3 3 3 3 3 3 3 3 3 3 3 3 3 3 3 3 3 3 3 3 3 3 3 3 3 3 3 3 3 3 3 3 3 3 3 3 3 3 3 3 3 3 3 3 3 3 3 3 3 3 3 3 3 3 3 3 3 3 3 3 3 3 3 3 3 3 3 3 3 3 3 3 3 3 3 3 3 3 3 3 3 3 3 3 3 3 3 3 3 3 3 3 3 3 3 3 3 3 3 3 3 3 3 3 3 3 3 3 3 3 3 3 3 3 3 3 3 3 3 3 3 3 3 3 3 3 3 3 3 3 3 3 3 3 3 3 3 3 3 3 3 3 3 3 3 3 3 3 3 3 3 3 3 3 3 3 3 3 3 3 3 3 3 3 3 3 3 3 3 3 3 3 3 3 3 3 3 3 3 3 3 3 3 3 3 3 3 3 3 3 3 3 3 3 3 3 3 3 3 3 3 3 3 3 3 3 3 3 3 3 3 3 3 3 3 3 3 3 3 3 3 3 3 3 3 3 3 3 3 3 3 3 3 3 3 3 3 3 3 3 3 3 3 3 3 3 3 3 3 3 3 3 3 3 3 3 3 3 3 3 3 3 3 3 3 3 3 3 3 3 3 3 3 3 3 3 3 3 3 3 3 3 3 3 3 3 3 3 3 3 3 3 3 3 3 3 3 3 3 3 3 3 3 3 3 3 3 3 3 3 3 3 3 3 3 3 3 3 3 3 3 3 3 3 3 3 3 3 3 3 3 3 3 3 3 3 3 3 3 3 3 3 3 3 3 3 3 3 3 3 3 3 3 3 3 3 3 3 3 3 3 3 3 3 3 3 3 3 3 3 3 3 3 3 3 3 3 3 3 3 3 3 3 3 3 3 3 3 3 3 3 3 3 3 3 3 3 3 3 3 3 3 3 3 3 3 3 3 3 3 3 3 3 3 3 3 3 3 3 3 3 3 3 3 3 3 3 3 3 3 3 3 3 3 3 3 3 3 3 3 3 3 3 3 3 3 3 3 3 3 3 3 3 3 3 3 3 3 3 3 3 3 3 3 3 3 3 3 3 3 3 3 3 3 3 3 3 3 3 3 3 3 3 3 3 3 3 3 3 3 3 3 3 3 3 3 3 3 3 3 3 3 3 3 3 3 3 3 3 3 3 3 3 3 3 3 3 3 3 3 3 3 3 3 3 3 3 3 3 3 3 3 3 3 3 3 3 3 3 3 3 3 3 3 3 3 3 3 3 3 3 3 3 3 3 3 3 3 3 3 3 3 3 3 3 3 3 3 3 3 3 3 3 3 3 3 3 3 3 3 3 3 3 3 3 3 3 3 3 3 3 3 3 3 3 3 3 3 3 3 3 3 3 3 3 3 3 3 3 3 3 3 3 3 3 3 3 3 3 3 3 3 3 3 3 3 3 3 3 3 3 3 3 3 3 3 3 3 3 3 3 3 3 3 3 3 3 3 3 3 3 3 3 3 3 3 3 3 3 3 3 3 3 3 3 3 3 3 3 3 3 3 3 3 3 3 3 3 3 3 3 3 3 3 3 3 3 3 3 3 3 3 3 3 3 3 3 3 3 3 3 3 3 3 3 3 3 3 3 3 3 3 3 3 3 3 3 3 3 3 3 3 3 3 3 3 3 3 3 3 3 3 3 3 3 3 3 3 3 3 3 3 3 3 3 3 3 3 3 3 3 3 3 3 3 3 3 3 3 3 3 3 3 3 3 3 3 3 3 3 3 3 3 3 3 3 3 3 3 3 3 3 3 3 3 3 3 3 3 3 3 3 3 3 3 3 3 3 3 3 3 3 3 3 3 3 3 3 3 3 3 3 3 3 3 3 3 3 3 3 3 3 3 3 3 3 3 3 3 3 3 3 3 3 3 3 3 3 3 3 3 3 3 3 3 3 3 3 3 3 3 3 3 3 3 3 3 3 3 3 3 3 3 3 3 3 3 3 3 3 3 3 3 3 3 3 3 3 3 3 3 3 3 3 3 3 3 3 3 3 3 3 3 3 3 3 3 3 3 3 3 3 3 3 3 3 3 3 3 3 3 3 3 3 3 3 3 3 3 3 3 3 3 3 3 3 3 3 3 3 3 3 3 3 3 3 3 3 3 3 3 3 3 3 3 3 3 3 3 3 3 3 3 3 3 3 3 3 3 3 3 3 3 3 3 3 3 3 3 3 3 3 3 3 3 3 3 3 3 3 3 3 3 3 3 3 3 3 3 3 3 3 3 3 3 3 3 3 3 3 3 3 3 3 3 3 3 3 3 3 3 3 3 3 3 3 3 3 3 3 3 3 3 3 3 3 3 3 3 3 3 3 3 3 3 3 3 3 3 3 3 3 3 3 3 3 3 3 3 3 3 3 3 3 3 3 3 3 3 3 3 3 3 3 3 3 3 3 3 3 3 3 3 3 3 3 3 3 3 3 3 3 3 3 3 3 3 3 3 3 3 3 3 3 3 3 3 3 3 3 3 3 3 3 3 3 3 3 3 3 3 3 3 3 3 3 3 3 3 3 3 3 3 3 3 3 3 3 3 3 3 3 3 3 3 3 3 3 3 3 3 3 3 3 3 3 3 3 3 3 3 3 3 3 3 3 3 3 3 3 3 3 3 3 3 3 3 3 3 3 3 3 3 3 3 3 3 3 3 3 3 3 3 3 3 3 3 3 3 3 3 3 3 3 3 3 3 3 3 3 3 3 3 3 3 3 3 3 3 3 3 3 3 3 3 3 3 3 3 3 3 3 3 3 3 3 3 3 3 3 3 3 3 3 3 3 3 3 3 3 3 3 3 3 3 3 3 3 3 3 3 3 3 3 3 3 3 3 3 3 3 3 3 3 3 3 3 3 3 3 3 3 3 3 3 3 3 3 3 3 3 3 3 3 3 3 3 3 3 3 3 3 3 3 3 3 3 3 3 3 3 3 3 3 3 3 3 3 3 3 3 3 3 3 3 3 3 3 3 </DataArray>
</Cells>
<CellData  Scalars="f">
<DataArray  type="Float64"  Name="f"  format="ascii">0 0 0 0 0 0 0 0 0 0 0 0 0 0 0 0 0 0 0 0 0 0 0 0 0 0 0 0 0 0 0 0 0 0 0 0 0 0 0 0 0 0 0 0 0 0 0 0 0 0 0 0 0 0 0 0 0 0 0 0 0 0 0 0 0 0 0 0 0 0 0 0 0 0 0 0 0 0 0 0 0 1 0 0 1 0 0 0 1 0 0 0 0 0 0 0 0 0 0 0 0 0 0 0 0 0 0 0 0 0 0 0 0 0 0 0 0 0 0 0 0 0 0 0 0 0 0 0 0 0 0 0 0 0 0 0 0 0 0 0 0 0 0 0 0 0 0 0 0 0 0 0 0 0 0 0 0 0 0 0 0 0 0 0 0 0 0 0 0 0 0 0 0 0 0 0 0 0 0 0 0 0 0 0 0 0 0 0 0 0 0 0 0 0 0 0 0 0 0 0 0 0 0 0 0 0 0 0 0 0 0 0 0 0 0 0 0 0 0 0 0 0 0 0 0 0 0 0 0 0 0 0 0 0 0 0 0 0 0 0 0 0 0 0 0 0 0 0 0 0 0 0 0 0 0 0 0 0 0 0 0 0 0 0 0 0 0 0 0 0 0 0 0 0 0 0 0 0 0 0 0 0 0 0 0 0 0 0 0 0 0 0 0 0 0 0 0 0 0 0 0 0 0 0 0 0 0 0 0 0 0 0 0 0 0 0 0 0 0 0 0 0 0 0 0 0 0 0 0 0 0 0 0 0 0 0 0 0 0 0 0 0 0 0 0 0 0 0 0 0 0 0 0 0 0 0 0 0 0 0 0 0 0 0 0 0 0 0 0 0 0 0 0 0 0 0 0 0 0 0 0 0 0 0 0 0 0 0 0 0 0 0 0 0 0 0 0 0 0 0 0 0 0 0 0 0 0 0 0 0 0 0 0 0 0 0 0 0 0 0 0 0 0 0 0 0 0 0 0 0 0 0 0 0 0 0 0 0 0 0 0 0 0 0 0 0 0 0 0 0 0 0 0 0 1 0 1 0 0 1 0 0 0 0 0 0 0 0 0 0 0 0 0 0 0 0 0 0 0 0 0 0 0 0 0 0 0 0 0 0 0 0 0 0 0 0 0 0 0 0 0 0 0 0 0 0 0 0 0 0 0 0 0 0 0 0 0 0 0 0 0 0 0 0 0 0 0 0 0 0 0 0 0 0 0 0 0 0 0 0 0 0 0 0 0 0 0 0 0 0 0 0 0 0 0 0 0 0 0 0 0 0 0 0 0 0 0 0 0 0 0 0 0 0 0 0 0 0 0 0 0 0 0 0 0 0 0 0 0 0 0 0 0 0 0 0 0 0 0 0 0 0 0 0 0 0 0 0 0 0 0 0 0 0 0 0 0 0 0 0 0 0 0 0 0 0 0 0 0 0 0 0 0 0 0 0 0 0 0 0 0 0 0 0 0 0 0 0 0 0 0 0 0 0 0 0 0 0 0 0 0 0 0 0 0 0 0 0 0 0 0 0 0 0 0 0 0 0 0 0 0 0 0 0 0 0 0 0 0 0 0 0 0 0 0 0 0 0 0 0 0 0 0 0 0 0 0 0 0 0 0 0 0 0 0 0 0 0 0 0 1 0 1 0 0 1 0 0 0 0 0 0 0 0 0 0 0 0 0 0 0 0 0 0 0 0 0 0 0 0 0 0 0 0 0 0 0 0 0 0 0 0 0 0 0 0 0 0 0 0 0 0 0 0 0 0 0 0 0 0 0 0 0 0 0 0 0 0 0 0 0 0 0 0 0 0 0 0 0 0 0 0 0 0 0 0 0 0 0 0 0 0 0 0 0 0 0 0 0 0 0 0 0 0 0 0 0 0 0 0 0 0 0 0 0 0 0 0 0 0 0 0 0 0 0 0 0 0 0 0 0 0 0 0 0 0 0 0 0 0 0 0 0 0 0 0 0 0 0 0 0 0 0 0 0 0 0 0 0 0 0 0 0 0 0 0 0 0 0 0 0 0 0 0 0 0 0 0 0 0 0 0 0 0 0 0 0 0 0 0 0 0 0 0 0 0 0 0 0 0 0 0 0 0 0 0 0 0 0 0 0 0 0 0 0 0 0 0 0 0 0 0 0 0 0 0 0 0 0 0 0 0 0 0 0 0 0 0 0 0 0 0 0 0 0 0 0 0 0 0 0 0 0 0 0 0 0 0 0 0 0 0 0 0 0 0 0 0 0 0 0 0 0 0 0 0 0 0 0 0 0 0 0 0 0 0 0 0 0 0 0 0 0 0 0 0 0 0 0 0 1 1 0 0 0 0 0 0 0 0 0 0 0 0 0 0 0 0 0 0 0 0 0 0 0 0 0 0 0 0 0 0 0 0 0 0 0 0 0 0 0 0 0 0 0 0 0 0 0 0 0 0 0 0 0 0 0 0 0 0 0 0 0 0 0 0 0 0 0 0 0 0 0 0 0 0 0 0 0 0 0 0 0 0 0 0 0 0 0 0 0 0 0 0 0 0 0 0 0 0 0 0 0 0 0 0 0 0 0 0 0 0 0 0 0 0 0 0 0 0 0 0 0 0 0 0 0 0 0 0 0 0 0 0 0 0 0 0 0 0 0 0 1 1 0 0 0 0 0 0 0 0 0 0 0 0 0 0 0 0 0 0 0 0 0 0 0 0 0 0 0 0 0 0 0 0 0 0 0 0 0 0 0 0 0 0 0 0 0 0 0 0 0 0 0 0 0 0 0 0 0 0 0 0 0 0 0 0 0 0 0 0 0 0 0 0 1 0 0 0 0 0 0 0 0 0 0 0 0 0 0 0 0 0 0 0 0 0 0 0 0 0 0 0 0 0 0 0 0 0 0 0 0 0 0 0 0 0 0 0 0 0 0 0 0 0 0 0 0 0 0 0 0 0 0 0 0 0 0 0 0 0 0 0 0 0 0 0 0 0 0 0 0 0 0 0 0 0 0 0 0 0 0 0 0 0 0 0 0 0 0 0 0 0 0 0 0 0 0 0 0 0 0 0 0 0 0 0 0 0 0 0 0 0 0 0 1 1 0 0 0 0 0 0 0 0 0 0 0 0 0 0 0 0 0 0 0 0 0 0 0 0 0 0 0 0 0 0 0 0 0 0 0 0 0 0 0 0 0 0 0 0 0 0 0 0 0 0 0 0 0 0 0 0 0 0 0 0 0 0 0 0 0 0 0 0 0 0 0 0 1 1 0 0 0 1 1 0 0 0 0 0 0 0 0 0 0 0 0 0 0 0 1 1 0 0 0 0 0 0 0 0 0 0 0 0 0 0 0 1 0 0 0 0 0 0 0 0 0 0 0 1 0 0 0 0 0 0 0 0 0 1 0 0 0 0 0 0 1 0 1 1 0 0 1 0 0 1 0 1 0 0 0 0 0 0 0 0 0 0 0 0 0 0 0 0 0 0 0 1 0 1 1 0 1 0 0 0 0 0 0 0 0 0 0 0 0 0 1 0 0 0 0 0 0 0 0 0 0 0 1 0 0 0 0 0 0 0 0 0 1 0 0 0 0 </DataArray>
</CellData>
</Piece>
</UnstructuredGrid>
</VTKFile>