<?xml version="1.0"?>
<VTKFile type="UnstructuredGrid"  version="0.1"  >
<UnstructuredGrid>
<Piece  NumberOfPoints="538" NumberOfCells="989">
<Points>
<DataArray  type="Float64"  NumberOfComponents="3"  format="ascii">-1 -0.6 0  -1 -1 0  1 -1 0  1 -0.7 0  0.65 -0.6 0  0.3 -0.25 0  -0.6 -0.45 0  1 0 0  0.6 0 0  0.7 -0.2 0  0 0 0  -1 0 0  -0.35 0 0  -1 0.8 0  1 0.65 0  0.8 0.7 0  0.5 0.9 0  0.3 0.8 0  -1 1 0  1 1 0  0 -1 0  -0.2339298524310177 -0.3686510783180039 0  1 -0.35 0  -0.3 -0.225 0  0.3 0 0  0 1 0  0.5 -1 0  -0.35 0.8 0  0.5 1 0  -0.5 1 0  -0.02499999999999999 0.8 0  0.25 1 0  -0.675 0.8 0  -0.25 1 0  -0.75 1 0  -0.5 -1 0  -0.5125 0.4 0  0.45 0.4000000000000001 0  0.2392857142857143 -0.6607142857142857 0  -0.10234375 0.3971923828125001 0  -1 0.4 0  -0.25 -0.7336182109444316 0  1 0.325 0  -0.675 0 0  -0.75 -1 0  -1 -0.3 0  -0.625 -0.7386363636363635 0  0.1731890540600857 0.5243208952725322 0  0.03303507378449114 -0.309325539159002 0  0.7333333333333333 0.423611111111111 0  0.1343279702474297 0.2463935576412506 0  0.75 -1 0  0.8 0 0  -0.75625 0.266015625 0  -0.7469291153232078 0.5377709843999467 0  -0.05143949887340424 -0.5595238157628687 0  0.75 1 0  0.65 0.8 0  0.25 -1 0  -0.25 -1 0  0.4425219281373922 -0.3925219281373922 0  0.5 -0.225 0  -0.1875 0.622372632402674 0  -1 -0.8 0  -0.3084397930151275 0.2498916465876044 0  -0.7508333333333334 -0.2438888888888889 0  -0.45 -0.3375 0  -0.4169649262155088 -0.4093255391590019 0  0.475 0.6375000000000001 0  0.7 0.201313752276867 0  -0.5234034762019568 0.1714217247070449 0  0.03744427854033043 -0.7723855137374661 0  -0.8 -0.525 0  -0.5397734556326165 0.6219279711492497 0  0.7808823529411765 -0.413235294117647 0  0.375 -0.8262406015037593 0  0.625 -0.8187500000000001 0  0.347002926111202 0.2104989027082992 0  0.4446935738432771 -0.6307002264188076 0  0.2033841152791955 -0.4455623723207756 0  -0.06473052419331315 0.195102561962623 0  -0.5624632686084142 -0.1687255124056095 0  1 -0.175 0  -1 0.2 0  -1 0.6000000000000001 0  -0.3131197738935154 0.4572854680839167 0  0.825 -0.6499999999999999 0  1 -0.85 0  0.15 0 0  -0.4389765526894864 -0.6257864322885835 0  1 0.1625 0  -0.8053602058319039 -0.8129502572898799 0  -0.4508690635920209 -0.8159294731013222 0  -0.14 -0.105 0  -0.175 0 0  0.003116724680563399 0.6111336441329194 0  -0.125 -0.8668091054722158 0  -0.2704116421320834 -0.5498820854778975 0  -0.8375 0.8 0  -0.8375 0 0  1 0.825 0  0.2720018964045338 0.3740041203216073 0  0.8045470027247956 -0.8286529291553133 0  0.522411940757302 0.1640345926628496 0  0.1375 0.8 0  1 -0.5249999999999999 0  1 0.4875 0  -0.3626327884112306 0.6252989142588076 0  0.2012828870965875 -0.8302715594089393 0  -1 -0.15 0  0.5462609640686962 -0.4962609640686961 0  0.85625 -0.2625 0  0.5838188298918388 0.5059795968534907 0  0.6264528904034633 -0.3498545831532502 0  0.1665175368922456 -0.279662769579501 0  0.075 -0.1447488422742757 0  -0.5125 0 0  -0.5125 0.8 0  -0.1875 0.8 0  0.8580012122986348 0.24375 0  0.3426747508481758 0.5313631841212447 0  0.5984682798757915 0.3301861970460566 0  0.107122505840895 -0.5721965286064361 0  0.875 1 0  0.8125 0.85625 0  0.3436867550870649 -0.5125221300618623 0  0.06444964170610482 0.397844805150155 0  0.21875 0.6703688367151814 0  0.6546614516006638 0.6444921774009957 0  0.45 0 0  -1 -0.45 0  -0.8531436422747446 -0.3708499042442174 0  0.845782986111111 0.5427222222222221 0  0.2199335069202797 -0.1280398958478322 0  0.3868243243243243 -0.1320945945945946 0  -0.1017974825771836 -0.7197816233020838 0  -0.6739809777733121 -0.875783801143989 0  -0.6615358827337464 -0.5900709793766762 0  -0.8955958357093489 -0.7 0  0.225 0.1272441360307893 0  -0.8904031967081469 0.5 0  -0.8526591133806176 0.6480086381537516 0  0.8709365400310004 0.3858522553576976 0  -0.6174560530270703 -0.3045285236812358 0  -0.2039861112138261 0.1450953103536204 0  0.07499999999999998 0.1189247678831777 0  -0.1004473893232633 -0.3389883087385029 0  -0.7562500000000001 0.1205995892988253 0  -0.8962687174479167 0.3 0  -0.6108116624387414 0.2901403995605675 0  -0.6539438322435306 0.4276573088498778 0  -0.125 1 0  0.0668421478733143 -0.4416732474757012 0  -0.375 -1 0  -0.3125 -0.8668091054722158 0  -0.6755790174242251 0.659179279488599 0  -0.1736031288042473 0.2793842704145273 0  -0.4175533374038551 -0.1330674083119678 0  -0.449239265310216 0.5204141667350261 0  -0.875 -1 0  -0.7985386096990998 0.3972198209643686 0  0.625 1 0  0.375 1 0  0.4 0.8500000000000001 0  0.8694711538461538 -0.1223901098901099 0  -0.05871932767634991 -0.2115976593674151 0  -0.8859883252818036 -0.225 0  -0.625 1 0  -0.7601274754451701 -0.6842943424933031 0  -0.7 -0.4875 0  -0.1575619126769233 -0.4783113340184518 0  0.5188432835820896 0.7657649253731343 0  0.125 -1 0  0.7109930830039526 -0.717774209486166 0  0.5600836632679065 -0.7005274186591893 0  0.875 -1 0  -0.8031334588938832 -0.1251308216368038 0  0.3477318379203844 0.660614445369228 0  -0.8902150962461182 0.123184609300029 0  0.8760978437572581 0.1106680384526055 0  -0.875 1 0  -1 0.9 0  -0.3907271533619564 0.3517844912370423 0  -0.3290302413672106 0.124914281195471 0  0.5013393170898814 -0.8671952186826768 0  -0.625 -1 0  0.125 1 0  0.625 -1 0  0.375 -1 0  -0.375 1 0  -0.125 -1 0  0.6682258070665166 -0.4679002397618434 0  -0.7287479573148252 -0.3663895712273555 0  0.4849948893470825 0.2816456455504909 0  0.525 -0.1013888888888889 0  0.8644035883734856 -0.5201650237228799 0  0.3712609640686961 -0.3212609640686961 0  0.4 -0.2375 0  -0.682031339806098 -0.1426937110461005 0  0.09066319440072067 -0.8825610970088116 0  0.05624999999999998 0.8914062500000001 0  -0.4375 0.895703125 0  -0.22 -0.165 0  -0.2736822540672866 0.7066741101332326 0  -0.08762820233090904 0.6941504159222359 0  -0.1889446901939788 0.4931344318407954 0  0.0183169298820067 0.2847133013756113 0  -0.1846139103566585 -0.633352479948799 0  0.4614295752100974 0.518862676293674 0  -0.01930576170531107 0.4892230725635784 0  -0.5084824631077545 -0.429662769579501 0  -0.5249999999999999 -0.39375 0  -0.5423826425441602 -0.5588648561134525 0  -0.6456993939683222 0.1729167972740901 0  0.9 0.675 0  -1 -0.9 0  0.697396843437418 0.5352624370559662 0  0.4151380606236376 0.1133897354455484 0  0.9125 -0.6749999999999999 0  0.05625000000000001 0.7155697088603578 0  -0.5511875524215551 -0.8877452212280661 0  -0.0009509862801871938 -0.6634298010629341 0  0.1237984764672114 -0.6902214769824102 0  -0.43125 0.7180679717475292 0  -0.5625 0.903515625 0  0.21875 0.8859375 0  -0.4262422561937219 0.2389294145549007 0  0.7375 -0.625 0  0.8878063725490196 -0.3724877450980392 0  0.7333088352789533 -0.3093230178556506 0  -0.0478298091251976 -0.4448642740220703 0  -0.2244576690068036 0.3831599088016018 0  -0.6285509068000835 0.5434177764137894 0  0.7 0 0  0.6499999999999999 -0.1 0  0.7628521528460565 0.1070410166656941 0  0.7098271921708947 0.3134880061065145 0  0.65 0.1006568761384335 0  0.1148472378686027 0.6200233908366404 0  -0.08749999999999998 0 0  -0.06999999999999999 -0.0525 0  0.4546815463009607 -0.7444502064322289 0  0.3493941477868336 -0.6963816165626817 0  -0.0625 0.90625 0  -0.3125 0.90625 0  0.7077034883720931 0.8961482558139535 0  -0.43125 0 0  -0.9079990132870763 -0.08664690227233401 0  0.7601185899323265 -0.1074407050338367 0  0.6875 -0.909375 0  -0.375 -0.28125 0  -0.3254473893232633 -0.3889883087385029 0  -0.4708912618897579 -0.2285856472469621 0  -0.8125 0.908203125 0  -0.585661042451993 0.08140413407912189 0  0.2516920576395977 -0.3477811861603878 0  0.2396298728592392 -0.5500855174559041 0  -0.5110527309229975 -0.7167218516611731 0  -0.3843424784807133 -0.5219924867948903 0  -0.3270710121717562 -0.6491783463865517 0  -0.3539985753021521 -0.7660762948960289 0  -0.01656434517258057 -0.8664148455619838 0  0.3804214033847313 0.3150762717179808 0  0.2415938755958764 0.2339471399957093 0  -0.59375 0.8 0  1 0.9125 0  -0.7562500000000001 0.8 0  -0.0951726488882111 0.5661942638413099 0  0.2897305615379189 -0.8967402958002527 0  -0.9 -0.5625 0  -0.6875 0.909375 0  -0.8883368541347748 -0.8885460676684686 0  -1 0.7000000000000001 0  -0.185896408392294 -0.2696346497100627 0  -0.2625 0 0  -0.3113819589177774 -0.1032857858140064 0  -0.1875 0.909765625 0  0.1643389548702655 0.3520866324259163 0  0.575 0.8500000000000001 0  -0.2761416236720196 0.559485193348635 0  -0.02616044654637974 0.09960989548156179 0  0.5426344001541996 -0.5991072913635719 0  0.4943914461030442 -0.4443914461030442 0  0.7607083113866459 -0.5150764082333787 0  -0.59375 0 0  0.6 -0.2125 0  0.8970312499999999 0.7853125 0  0.4142557901181613 0.744160098310871 0  -0.8997515069277292 0.4001881527035021 0  -1 0.5 0  -1 -0.7 0  -1 0.1 0  -1 0.3 0  0.9 0 0  -0.4285215336477257 0.1385358435684325 0  0.2691096761561731 -0.756436141132011 0  -0.4374999999999999 -0.9180899809378962 0  -0.8791384612718556 -0.4660474366083852 0  -0.582476113103777 -0.6488597406777881 0  0.9080311754092608 -0.7866094122953695 0  0.891068381574993 -0.8932354821754794 0  -0.8431768081702875 0.2133063813580419 0  0.90053125 0.9034375 0  0.07903564696677393 0.4952873884345086 0  -0.7168265179144229 -0.7717974527114952 0  -0.7680049634651214 -0.9036116245112805 0  0.7682486619265971 0.6054547827410369 0  0.3183994242199109 0.9134832373699852 0  0.3288302386976393 -0.4127619832615607 0  0.4424897596031651 -0.53032951435766 0  -0.07820078314156219 0.3021332412980078 0  -0.5092048670489406 0.298132640718682 0  -0.7135592991236009 0.3521924738309877 0  -0.91875 0.8 0  0.3183360018324298 0.09653281948938744 0  0.1371176409882731 -0.3732421676384599 0  1 -0.4374999999999999 0  0.5242210710223368 -0.3269319872128197 0  -0.8980855204028776 -0.7945086207261599 0  1 0.5687500000000001 0  -0.9057879102225576 0.893539510444172 0  -0.21875 -0.8295418642681242 0  0.2558197850311765 0.5786740491213687 0  0.17658574794162 -0.9211781987036476 0  -0.5903216318679605 0.7038225933271026 0  -0.13125 0.08418303941590474 0  -0.8231218976164272 -0.6154249396895276 0  -0.2622629942724947 -0.4572350132491598 0  -0.5438497977971497 0.4932943157571764 0  0.3561142259522707 -0.6041546828228505 0  0.4375 -0.9329605524341096 0  0.5684565726391683 0.2434408378904788 0  -0.1875 -0.9334045527361079 0  0.7928289439824814 -0.1944901400437963 0  0.4385725680067071 0.202289754021198 0  0.600653543392857 0.720697030391886 0  0.5625 -0.934221159428636 0  0.5612059703786511 0.08201729633142479 0  0.7250000000000001 0.75 0  -0.7968750000000001 0.719196556770818 0  0.3545019782826687 0.4315015860596703 0  0.203230592016617 0.4364327299473547 0  0.7772735013623978 -0.9143264645776567 0  0.799944602104447 -0.7376287849619282 0  0.7147735013623978 -0.8237014645776567 0  0.5663369835163674 0.6022933453019813 0  -0.7562500000000001 0 0  1 -0.08749999999999999 0  -0.4290157674304546 0.4329651591026131 0  -0.1756011081528675 0.711186316201337 0  -0.3619130184527948 0.5365054241456988 0  -0.7625434747108968 0.6286172594106585 0  -0.4509444680131831 0.6100213581749688 0  0.5333442215773679 -0.7847892608687896 0  0.8035530755493967 0.3203461898811091 0  0.5474387798057213 0.4144408323599325 0  0.6406672934064692 0.4133249022634388 0  -0.5039359349471911 -0.09429636235243392 0  -0.5376326489853442 -0.8007052171325867 0  0.05636664384192934 0.2051382592691633 0  -0.673839126730871 0.08845165008155886 0  1 -0.6124999999999999 0  1 -0.2625 0  1 0.7375 0  -0.663666392751131 -0.2291665482002191 0  -0.7885719645780571 -0.4348244037664383 0  0.1196072428577823 -0.800638889848497 0  -0.0625 -1 0  -0.01661065790541626 -0.1286632306004202 0  -0.01700728554665713 0.3650895332002291 0  -0.6079174915928363 -0.08989057633649086 0  -0.5310726561657356 -0.3075281251123525 0  -0.2286166961817482 -0.07924596719832908 0  0.02943469818808935 -0.2207688852279812 0  0.408359011302665 0.5850279888059788 0  -0.04733739779451589 -0.7862139825696403 0  -0.3085680339812212 0.3726423718273034 0  -0.104885986622206 0.4819533380745408 0  0.2660389422378746 0.4940535931819297 0  0.139743072334956 0.7010332599882741 0  0.9151146752837327 -0.1973758951089894 0  -0.08121141337726949 -0.6382094804940019 0  -0.1420048105182404 -0.1974540327721689 0  -0.4991412797635082 0.08810366610607848 0  0.01119920293630987 -0.504109204733425 0  0.3026270587053051 -0.161013567817606 0  0.7015476496600082 -0.3867103293903772 0  0.5945639919613092 -0.4275530717377014 0  0.813232453280009 -0.3343628432967455 0  -1 -0.375 0  0.8175015382738818 0.1704714291001186 0  1 0.08125 0  -0.2950400486764376 -0.3097382684314166 0  -0.9128517174596892 0.7121998329359975 0  -0.91875 0 0  0.658274844561774 -0.2724487564941923 0  -0.4233508485569307 -0.7122032990376439 0  0.6200986170720315 0.178256865359537 0  0.9075147532000541 0.4721690705985251 0  1 0.40625 0  -0.10625 0.8 0  -0.26875 0.8 0  0.9305555949455786 -0.5687499999999999 0  0.7736409777866261 0.4981936575591353 0  0.9181475656672287 0.1841573865682406 0  0.9141803802828984 0.310275973618362 0  -0.742051565064904 -0.6045154096209143 0  0.375 0 0  -0.7928787746273712 -0.3147103710134262 0  -0.9275729146257851 -0.3375 0  0.1536357226811386 -0.1899040470780731 0  0.04078974107651558 -0.07066987844883671 0  0.1418386195562422 -0.08757590000319171 0  1 0.24375 0  0.1372620973292951 0.8816027670704847 0  0.05625000000000001 0.8 0  0.21875 0.8 0  -0.43125 0.8 0  -0.7163634948443166 0.7293324321947553 0  -0.461701334284023 -0.5475489208587262 0  0.2867129525331034 -0.08074500341388051 0  -0.7156250000000001 -0.0695182654052698 0  0.08989994138825917 0.3214949540816608 0  0.3073299464494944 0.2808049450667712 0  -0.1726523229402777 -0.7614720288797179 0  0.5761363636363636 0.9329545454545455 0  0.4221153846153847 0.9307692307692308 0  0.1853927969565139 -0.7476033076722641 0  -0.5095487086911831 0.6971310712121024 0  -0.3871643410004001 0.07045616712633723 0  0.1807310180503007 -0.6052172065808061 0  0.1660213606498336 -0.5170648394815341 0  0.02636299431988885 -0.5843593980334063 0  0.9336755921429475 -0.4812499999999999 0  0.225 0 0  0.2332587684461228 -0.2648313847897505 0  -0.3518709036776563 0.7206024909706044 0  -0.03370615776938608 -0.3241569239487525 0  0.6470676072147352 0.2624685629920325 0  0.7614072487540183 0.2524516688135862 0  -0.9375 -1 0  -0.2501201216691226 0.3062359211912735 0  -0.9230593738049012 0.2239893965437205 0  -0.1895621184300871 -0.5526084774897673 0  0.928125 -0.3013992435414277 0  0.826650118670886 0.9355597310126582 0  0.7983386075949368 0.778757911392405 0  -0.2187499999999999 0.06670291049217551 0  0.9169748890091888 0.5907925425968836 0  -0.6079634252779847 -0.8343279404909434 0  0.7275259362738473 0.6717349606193616 0  0.2771622891690492 -0.4714428033201105 0  0.4039037717278371 -0.461416710335188 0  -0.9135274101551247 0.5847138977346933 0  -0.8300156703367865 0.5619969219722043 0  0.008029967271653275 -0.390220319581662 0  -0.3967981310152314 -0.2073084515825111 0  -0.6472925553631227 -0.3818918663552464 0  0.4572198881309733 -0.2890091050477862 0  -0.6143229484165981 -0.527260092259468 0  -0.6580966061351826 -0.6680004049617774 0  0.287192919494329 0.7177487500997334 0  1 -0.925 0  0.9375 -1 0  0.3665576799193244 -0.9028461836564907 0  0.638815865570835 -0.6804727552672545 0  -0.6932733733770284 -0.2991694909596287 0  0.5414051616395702 0.6736940269121765 0  -0.1173790443692871 -0.4134156594736627 0  -1 -0.5249999999999999 0  0.1478095996951428 0.1625778413465251 0  0.147070353937637 0.08126420530709039 0  0.5249999999999999 0 0  1 -0.7749999999999999 0  0.075 0 0  -1 -0.075 0  -1 -0.225 0  -0.3627103243094603 0.1946480461281901 0  -0.8086047467564083 0.4806669635106973 0  -0.7335973709912792 0.4473843159844606 0  0.8677456408779101 -0.4450016591586086 0  0.8097657180543572 -0.5744797698055008 0  0.4826727633392353 0.07209937763249206 0  -0.3781529137449485 -0.06938867383567243 0  0.09977630533836836 -0.2944941543692515 0  0.8368777705614688 0.6350110822458752 0  0.8092750620149546 0.4307521788879577 0  0.02890177234503936 -0.9285966731710376 0  0.7376643820623153 0.825596458993278 0  -0.130401394115315 0.1590800599082116 0  -0.2737691507751112 0.1799946836230149 0  0.2889810319665732 0.1645052093047204 0  0.1875 1 0  -0.1115811015233329 -0.2653891976654975 0  -0.3795295053034823 -0.8355086141228166 0  -0.5839868310860452 0.2183534835933975 0  -0.5641932422467952 0.3473408897827842 0  -0.6845386069740159 0.2841534775668987 0  -0.2882571176758736 0.6333026354264091 0  0.6343102068653389 0.5735550558872382 0  -0.09375 -0.9334045527361079 0  -0.2632364191801485 -0.9249516565735563 0  -0.3362881051354903 -0.9369060565790345 0  -0.2871429099893293 -0.7974484025529812 0  0.1846227003398909 0.5969253475969729 0  0.5255977261367266 0.343632089883688 0  0.598130482034348 -0.548130482034348 0  -0.572105499163748 -0.2438569760067345 0  0.4477665165165165 -0.08008633633633634 0  0.4609244894922927 -0.1572140985496838 0  0.4564761951966186 0.8037268713672993 0  -0.6875 -1 0  -0.01272145346164857 0.6849257061075226 0  -0.3372617610793822 -0.463298477939004 0  -0.8240675385586067 0.07861987161428764 0  -0.7716063966338805 0.1933076071494127 0  -0.5125321950459826 -0.6260919088718341 0  -0.4504228370882402 -0.4748480134495128 0  0.5865866208850431 -0.288221341954183 0  -0.8407845256137996 -0.7487310237426786 0  -0.9477979178546745 -0.65 0  -0.6410383624187663 0.3561824528399448 0  -0.5825831193285504 0.4170955618072737 0  -0.8261844555810793 0.2833164202645604 0  -0.6268736373546512 0.8664743822674419 0  0.1337922158205643 0.4173110429949612 0  -0.8125 -1 0  0.07556346905657803 -0.6368461293319039 0  -0.2578892950905941 -0.6228407653955579 0  0.2383972144812964 0.3079706327721538 0  -0.9463603467980937 -0.8470372068693501 0  -0.6858325145543123 0.5006060084695461 0  -0.9375 1 0  -0.948572466916685 0.6500000000000001 0  0.3008985963590599 -0.8234314678766934 0  -0.9481343587239583 0.348351632821165 0  -0.289824562472021 0.06562112447444049 0  -0.9452015983540735 0.4547886794357985 0  </DataArray>
</Points>
<Cells>
<DataArray  type="UInt32"  Name="connectivity"  format="ascii">274 275 372  194 234 285  92 257 358  164 333 380  88 434 471  6 212 459  4 191 506  9 234 248  274 447 536  90 391 404  194 508 509  88 471 474  104 414 415  162 307 426  66 67 211  115 410 412  250 251 392  23 250 456  65 176 198  206 310 369  80 280 359  29 189 201  98 313 320  10 239 240  47 341 525  64 182 376  73 232 328  200 414 415  30 243 400  215 271 530  85 279 350  80 156 310  171 287 510  128 335 467  78 174 241  285 395 518  126 209 303  39 205 231  36 182 348  150 232 522  41 259 528  55 381 443  82 347 380  109 166 247  65 166 176  91 304 519  6 210 211  77 263 423  68 177 374  79 256 431  48 315 484  112 345 499  93 94 240  24 314 434  102 342 344  119 390 439  233 234 248  70 213 495  96 261 500  122 152 384  128 216 306  56 245 445  161 245 425  75 241 242  154 321 501  46 257 358  79 255 451  174 281 465  77 217 314  134 407 420  95 209 267  107 279 498  168 326 519  72 326 406  81 252 357  64 477 490  157 252 456  66 250 252  67 210 211  157 252 357  97 258 513  97 258 259  120 177 322  120 177 374  37 193 505  129 472 508  53 312 497  147 213 360  71 221 222  242 295 534  62 279 498  32 270 524  191 386 387  78 174 281  195 433 480  75 184 241  76 249 336  121 236 438  103 337 482  78 241 242  38 242 329  79 152 315  5 196 197  50 359 470  206 359 422  12 246 483  254 284 360  8 233 234  178 301 514  13 272 393  140 453 454  85 182 348  107 279 350  105 361 402  102 299 343  87 299 300  114 255 435  5 385 435  92 220 358  89 258 259  119 390 404  52 179 235  168 304 519  92 260 396  48 437 455  10 240 411  144 447 536  183 490 536  95 219 238  20 367 487  71 199 261  55 221 432  97 327 513  141 453 454  301 514 515  178 301 442  100 286 363  14 319 448  101 340 378  104 219 379  86 227 343  51 187 249  103 337 397  69 235 237  219 238 379  104 379 416  228 433 480  106 398 399  142 398 486  107 350 352  32 264 324  108 199 323  166 176 247  99 176 247  60 282 317  113 386 387  74 191 386  111 333 380  120 208 340  121 355 356  110 387 506  113 317 518  5 255 435  146 273 493  115 368 373  48 373 437  70 226 311  213 254 360  117 264 324  117 201 417  27 201 244  49 216 403  121 331 438  101 277 341  37 208 340  49 216 356  37 355 505  221 432 527  256 430 431  19 265 302  124 245 488  124 446 488  282 309 452  113 317 387  47 238 303  277 341 525  127 177 322  127 177 461  216 306 403  338 446 488  61 194 509  194 472 508  138 326 520  72 269 297  81 252 507  128 306 450  132 306 403  134 385 420  24 407 420  5 197 385  61 317 458  97 259 528  135 375 424  136 185 511  257 298 516  137 298 459  72 269 326  138 290 520  129 217 407  50 359 422  83 178 442  160 312 523  167 270 524  98 253 266  119 354 439  42 399 405  169 192 457  192 408 466  80 280 489  144 490 536  80 206 310  10 145 280  23 202 273  273 382 493  147 514 515  147 213 515  140 288 478  148 301 442  150 479 531  160 478 479  73 158 352  54 478 479  151 243 276  25 151 243  230 437 455  55 170 230  154 501 502  35 153 296  96 321 332  154 494 503  98 266 339  54 155 351  39 156 231  85 205 231  250 252 456  23 202 275  232 328 522  73 158 328  159 271 440  148 160 288  53 312 523  56 161 245  124 245 445  68 177 287  16 163 426  17 225 307  127 379 416  52 179 293  93 240 368  94 239 240  131 297 409  65 408 466  167 224 524  29 167 224  168 304 460  137 406 460  72 169 365  169 192 365  170 230 468  146 230 468  57 278 335  171 278 510  261 487 500  76 173 465  174 241 353  76 174 465  4 281 465  102 343 344  102 299 300  99 176 346  99 394 514  17 163 287  177 287 461  99 247 394  179 391 404  141 339 393  34 180 253  98 253 320  180 253 320  182 226 311  64 182 226  294 383 429  12 275 483  184 241 353  26 188 330  136 185 220  17 225 416  186 414 492  187 249 336  26 187 336  188 268 464  58 172 323  189 201 244  33 189 244  199 261 487  59 190 332  195 283 481  74 229 388  65 198 364  131 365 408  121 355 505  50 263 529  8 194 234  52 233 248  227 283 481  173 227 343  255 308 451  125 308 451  134 508 509  134 197 385  81 198 364  43 284 370  172 199 323  71 222 366  25 186 200  204 349 400  117 224 264  27 201 417  202 273 382  165 382 493  30 204 400  62 203 498  118 349 400  62 204 349  95 209 303  62 205 267  80 206 359  50 277 422  207 381 443  41 207 528  112 216 356  68 345 467  39 209 377  209 267 377  92 257 396  251 327 513  143 371 507  6 169 457  210 212 517  6 210 212  246 383 429  70 213 254  15 338 446  15 214 286  91 271 318  271 318 530  128 345 499  112 355 356  103 217 334  77 217 334  3 218 299  30 219 512  95 219 512  35 185 220  92 260 494  135 207 381  71 261 375  38 222 427  38 242 295  107 223 436  27 417 436  117 201 224  29 201 224  31 162 307  31 225 307  183 294 429  64 226 477  4 191 283  4 227 283  22 228 316  111 229 388  9 248 333  146 230 437  165 373 437  231 376 441  156 231 441  73 155 232  54 155 232  69 390 439  8 233 237  61 194 285  9 234 285  233 235 237  52 233 235  49 403 486  49 236 354  103 193 331  8 237 337  95 238 303  127 322 504  280 325 489  144 325 489  240 368 411  115 368 411  108 295 534  75 242 534  125 256 329  38 256 329  30 200 243  25 200 243  118 203 401  33 151 276  57 245 278  171 278 335  70 294 383  116 246 383  109 247 475  164 248 333  52 164 248  249 342 344  76 249 344  21 251 327  23 250 392  66 250 251  66 67 251  252 371 507  66 252 371  34 253 270  34 167 270  43 284 360  116 254 284  196 255 308  5 196 255  122 430 431  38 256 430  46 304 460  46 257 298  258 419 517  89 258 419  259 260 396  41 259 260  260 494 503  41 260 503  96 375 424  96 261 375  103 193 334  37 193 262  139 434 471  77 314 491  117 223 428  117 324 428  124 286 302  266 339 418  155 351 418  95 204 267  62 204 267  58 188 268  188 330 464  0 269 469  253 266 270  32 266 270  91 271 305  91 304 305  98 313 393  13 313 393  21 251 392  21 146 273  93 94 372  94 274 372  12 274 275  157 275 483  33 244 276  118 276 401  50 277 529  101 277 529  245 278 425  16 278 425  85 205 279  62 205 279  239 280 325  10 239 280  191 387 506  110 282 309  78 281 309  110 281 309  74 228 480  74 191 283  81 357 370  116 246 357  9 229 395  9 285 395  100 265 302  100 286 302  68 171 287  163 287 510  160 288 478  40 289 537  140 289 537  84 453 533  138 326 519  0 290 520  178 394 514  83 178 291  40 288 535  40 292 535  52 164 293  7 293 347  226 294 477  70 226 294  38 295 427  108 295 427  92 220 296  35 220 296  192 365 408  130 297 409  212 298 516  212 298 459  87 300 462  51 249 342  51 175 342  53 301 515  148 160 523  19 123 302  124 302 445  277 422 525  126 422 525  136 304 305  46 358 449  44 305 526  15 214 485  15 306 485  17 163 307  163 307 426  60 282 452  60 196 308  125 309 452  78 242 329  39 310 369  39 156 310  36 182 311  149 497 521  312 497 521  150 312 521  181 313 320  13 181 313  139 314 491  139 470 471  79 255 315  114 255 315  228 316 433  105 316 433  60 196 458  60 317 458  138 290 318  63 290 318  132 398 448  18 181 532  96 321 424  41 321 424  47 322 504  101 341 378  58 268 323  108 268 323  155 324 418  73 155 324  94 274 447  94 239 325  137 169 406  72 169 406  55 170 443  21 170 327  36 328 522  158 350 352  78 309 329  125 309 329  76 184 336  75 184 330  103 331 397  331 397 438  321 332 501  59 332 501  9 229 333  111 229 333  193 262 334  77 262 334  128 345 467  57 335 338  184 330 336  26 330 336  129 472 482  8 194 472  128 335 338  15 306 450  98 339 393  339 351 418  101 262 340  37 262 340  47 322 378  47 341 378  175 300 342  102 300 342  218 299 343  86 218 343  173 343 344  76 173 344  68 208 345  112 208 345  176 346 421  43 346 421  164 293 347  164 347 380  158 328 348  36 328 348  118 203 349  62 203 349  158 348 350  85 348 350  141 339 351  54 479 531  107 223 352  73 324 428  76 184 353  76 174 353  69 235 390  142 354 405  112 208 355  37 208 355  121 236 356  49 236 356  116 284 357  284 357 370  136 220 449  220 358 449  145 280 359  145 359 470  147 346 360  43 346 360  218 361 402  3 218 361  22 228 444  22 362 444  214 286 363  14 214 363  65 364 466  143 364 466  131 297 365  72 297 365  71 199 366  108 199 366  367 487 500  190 367 500  93 165 368  165 368 373  126 209 369  39 209 369  176 198 421  81 198 370  143 211 371  66 211 371  202 275 372  93 202 372  114 315 484  133 410 412  120 208 374  68 208 374  71 221 375  135 221 375  85 231 376  85 182 376  205 267 377  39 205 377  120 340 378  120 322 378  127 379 504  17 287 461  362 380 444  82 362 380  135 221 381  55 221 381  93 165 382  93 202 382  70 254 383  116 254 383  55 230 384  122 432 527  133 385 420  133 385 435  74 229 386  113 229 386  282 317 387  110 282 387  74 228 388  111 228 388  130 389 409  45 389 409  179 235 390  179 390 404  179 293 391  7 293 391  21 273 392  23 273 392  141 393 533  141 453 533  178 291 394  11 291 394  113 395 518  113 229 395  89 259 396  89 257 396  237 337 397  69 237 397  106 319 398  319 398 448  142 398 399  142 399 405  243 276 400  118 276 400  244 276 401  27 244 401  86 227 481  86 218 402  132 398 486  132 403 486  119 354 405  119 404 405  42 405 413  168 326 406  168 406 460  217 314 407  24 314 407  65 166 408  131 408 409  166 408 409  45 166 409  115 373 410  114 410 484  133 412 434  145 471 474  10 411 474  115 411 412  404 405 413  90 404 413  186 200 414  30 200 415  30 219 415  104 219 415  225 414 416  104 414 416  117 223 417  223 417 436  32 324 418  32 266 418  212 419 517  89 257 516  139 314 434  88 412 434  198 370 421  43 370 421  126 369 422  206 369 422  77 262 423  101 262 423  135 207 424  41 207 424  28 161 425  16 28 425  16 28 426  28 162 426  222 366 427  108 366 427  73 352 428  223 352 428  12 246 429  183 429 536  221 222 527  38 222 430  79 152 431  122 152 431  122 384 432  55 384 432  195 402 433  105 402 433  133 420 434  24 420 434  133 410 435  114 410 435  203 401 436  27 401 436  152 315 455  48 315 455  69 397 438  69 236 438  236 354 439  69 236 439  215 271 440  1 215 440  64 376 441  144 156 490  148 292 442  83 292 442  170 327 443  97 327 443  111 380 444  111 228 444  123 302 445  56 123 445  15 286 446  124 286 446  94 325 447  144 325 447  14 214 448  132 306 485  46 304 449  136 304 449  15 338 450  128 338 450  79 256 451  125 256 451  60 308 452  125 308 452  84 289 453  140 289 453  54 351 454  141 351 454  230 384 455  152 384 455  23 275 456  157 275 456  6 211 457  143 211 457  61 197 458  196 197 458  6 169 459  137 169 459  46 298 460  137 298 460  17 416 461  127 416 461  2 462 463  300 462 463  175 300 463  75 330 464  108 268 534  173 227 465  4 227 465  192 457 466  143 457 466  171 335 467  68 171 467  21 146 468  21 170 468  269 297 469  130 297 469  139 263 470  50 263 470  145 470 471  10 145 474  8 337 472  337 472 482  3 299 473  87 299 473  411 412 474  88 412 474  247 394 475  11 394 475  45 166 476  109 166 476  183 294 477  183 477 490  54 454 478  140 454 478  160 312 479  150 312 479  74 283 480  195 283 480  86 402 481  195 402 481  103 217 482  129 217 482  246 357 483  157 357 483  373 410 484  48 373 484  132 448 485  214 448 485  49 354 486  142 354 486  20 172 487  172 199 487  57 245 488  57 338 488  80 156 489  144 156 489  156 441 490  64 441 490  77 263 491  139 263 491  225 414 492  31 225 492  146 437 493  165 437 493  92 296 494  154 494 502  70 311 495  149 311 495  149 311 496  36 311 496  213 495 497  149 495 497  203 436 498  107 436 498  112 216 499  128 216 499  96 332 500  190 332 500  59 153 502  59 501 502  296 494 502  153 296 502  154 321 503  41 321 503  238 379 504  47 238 504  193 331 505  121 331 505  110 281 506  4 281 506  81 364 507  143 364 507  129 407 508  134 407 508  134 197 509  61 197 509  16 278 510  16 163 510  136 305 511  44 305 511  30 204 512  95 204 512  67 251 513  258 513 517  99 346 514  147 346 514  213 497 515  53 497 515  89 419 516  212 419 516  67 513 517  67 210 517  61 285 518  61 317 518  138 318 519  91 318 519  269 326 520  0 269 520  149 496 521  150 521 522  496 521 522  36 496 522  148 301 523  53 301 523  32 264 524  224 264 524  47 303 525  126 303 525  271 305 526  159 271 526  222 430 527  122 430 527  207 443 528  97 443 528  263 423 529  101 423 529  63 318 530  63 215 530  150 232 531  54 232 531  181 320 532  180 320 532  272 393 533  84 272 533  268 464 534  75 464 534  148 292 535  148 288 535  12 429 536  12 274 536  40 288 537  140 288 537  </DataArray>
<DataArray  type="UInt32"  Name="offsets"  format="ascii">3 6 9 12 15 18 21 24 27 30 33 36 39 42 45 48 51 54 57 60 63 66 69 72 75 78 81 84 87 90 93 96 99 102 105 108 111 114 117 120 123 126 129 132 135 138 141 144 147 150 153 156 159 162 165 168 171 174 177 180 183 186 189 192 195 198 201 204 207 210 213 216 219 222 225 228 231 234 237 240 243 246 249 252 255 258 261 264 267 270 273 276 279 282 285 288 291 294 297 300 303 306 309 312 315 318 321 324 327 330 333 336 339 342 345 348 351 354 357 360 363 366 369 372 375 378 381 384 387 390 393 396 399 402 405 408 411 414 417 420 423 426 429 432 435 438 441 444 447 450 453 456 459 462 465 468 471 474 477 480 483 486 489 492 495 498 501 504 507 510 513 516 519 522 525 528 531 534 537 540 543 546 549 552 555 558 561 564 567 570 573 576 579 582 585 588 591 594 597 600 603 606 609 612 615 618 621 624 627 630 633 636 639 642 645 648 651 654 657 660 663 666 669 672 675 678 681 684 687 690 693 696 699 702 705 708 711 714 717 720 723 726 729 732 735 738 741 744 747 750 753 756 759 762 765 768 771 774 777 780 783 786 789 792 795 798 801 804 807 810 813 816 819 822 825 828 831 834 837 840 843 846 849 852 855 858 861 864 867 870 873 876 879 882 885 888 891 894 897 900 903 906 909 912 915 918 921 924 927 930 933 936 939 942 945 948 951 954 957 960 963 966 969 972 975 978 981 984 987 990 993 996 999 1002 1005 1008 1011 1014 1017 1020 1023 1026 1029 1032 1035 1038 1041 1044 1047 1050 1053 1056 1059 1062 1065 1068 1071 1074 1077 1080 1083 1086 1089 1092 1095 1098 1101 1104 1107 1110 1113 1116 1119 1122 1125 1128 1131 1134 1137 1140 1143 1146 1149 1152 1155 1158 1161 1164 1167 1170 1173 1176 1179 1182 1185 1188 1191 1194 1197 1200 1203 1206 1209 1212 1215 1218 1221 1224 1227 1230 1233 1236 1239 1242 1245 1248 1251 1254 1257 1260 1263 1266 1269 1272 1275 1278 1281 1284 1287 1290 1293 1296 1299 1302 1305 1308 1311 1314 1317 1320 1323 1326 1329 1332 1335 1338 1341 1344 1347 1350 1353 1356 1359 1362 1365 1368 1371 1374 1377 1380 1383 1386 1389 1392 1395 1398 1401 1404 1407 1410 1413 1416 1419 1422 1425 1428 1431 1434 1437 1440 1443 1446 1449 1452 1455 1458 1461 1464 1467 1470 1473 1476 1479 1482 1485 1488 1491 1494 1497 1500 1503 1506 1509 1512 1515 1518 1521 1524 1527 1530 1533 1536 1539 1542 1545 1548 1551 1554 1557 1560 1563 1566 1569 1572 1575 1578 1581 1584 1587 1590 1593 1596 1599 1602 1605 1608 1611 1614 1617 1620 1623 1626 1629 1632 1635 1638 1641 1644 1647 1650 1653 1656 1659 1662 1665 1668 1671 1674 1677 1680 1683 1686 1689 1692 1695 1698 1701 1704 1707 1710 1713 1716 1719 1722 1725 1728 1731 1734 1737 1740 1743 1746 1749 1752 1755 1758 1761 1764 1767 1770 1773 1776 1779 1782 1785 1788 1791 1794 1797 1800 1803 1806 1809 1812 1815 1818 1821 1824 1827 1830 1833 1836 1839 1842 1845 1848 1851 1854 1857 1860 1863 1866 1869 1872 1875 1878 1881 1884 1887 1890 1893 1896 1899 1902 1905 1908 1911 1914 1917 1920 1923 1926 1929 1932 1935 1938 1941 1944 1947 1950 1953 1956 1959 1962 1965 1968 1971 1974 1977 1980 1983 1986 1989 1992 1995 1998 2001 2004 2007 2010 2013 2016 2019 2022 2025 2028 2031 2034 2037 2040 2043 2046 2049 2052 2055 2058 2061 2064 2067 2070 2073 2076 2079 2082 2085 2088 2091 2094 2097 2100 2103 2106 2109 2112 2115 2118 2121 2124 2127 2130 2133 2136 2139 2142 2145 2148 2151 2154 2157 2160 2163 2166 2169 2172 2175 2178 2181 2184 2187 2190 2193 2196 2199 2202 2205 2208 2211 2214 2217 2220 2223 2226 2229 2232 2235 2238 2241 2244 2247 2250 2253 2256 2259 2262 2265 2268 2271 2274 2277 2280 2283 2286 2289 2292 2295 2298 2301 2304 2307 2310 2313 2316 2319 2322 2325 2328 2331 2334 2337 2340 2343 2346 2349 2352 2355 2358 2361 2364 2367 2370 2373 2376 2379 2382 2385 2388 2391 2394 2397 2400 2403 2406 2409 2412 2415 2418 2421 2424 2427 2430 2433 2436 2439 2442 2445 2448 2451 2454 2457 2460 2463 2466 2469 2472 2475 2478 2481 2484 2487 2490 2493 2496 2499 2502 2505 2508 2511 2514 2517 2520 2523 2526 2529 2532 2535 2538 2541 2544 2547 2550 2553 2556 2559 2562 2565 2568 2571 2574 2577 2580 2583 2586 2589 2592 2595 2598 2601 2604 2607 2610 2613 2616 2619 2622 2625 2628 2631 2634 2637 2640 2643 2646 2649 2652 2655 2658 2661 2664 2667 2670 2673 2676 2679 2682 2685 2688 2691 2694 2697 2700 2703 2706 2709 2712 2715 2718 2721 2724 2727 2730 2733 2736 2739 2742 2745 2748 2751 2754 2757 2760 2763 2766 2769 2772 2775 2778 2781 2784 2787 2790 2793 2796 2799 2802 2805 2808 2811 2814 2817 2820 2823 2826 2829 2832 2835 2838 2841 2844 2847 2850 2853 2856 2859 2862 2865 2868 2871 2874 2877 2880 2883 2886 2889 2892 2895 2898 2901 2904 2907 2910 2913 2916 2919 2922 2925 2928 2931 2934 2937 2940 2943 2946 2949 2952 2955 2958 2961 2964 2967 </DataArray>
<DataArray  type="UInt8"  Name="types"  format="ascii">5 5 5 5 5 5 5 5 5 5 5 5 5 5 5 5 5 5 5 5 5 5 5 5 5 5 5 5 5 5 5 5 5 5 5 5 5 5 5 5 5 5 5 5 5 5 5 5 5 5 5 5 5 5 5 5 5 5 5 5 5 5 5 5 5 5 5 5 5 5 5 5 5 5 5 5 5 5 5 5 5 5 5 5 5 5 5 5 5 5 5 5 5 5 5 5 5 5 5 5 5 5 5 5 5 5 5 5 5 5 5 5 5 5 5 5 5 5 5 5 5 5 5 5 5 5 5 5 5 5 5 5 5 5 5 5 5 5 5 5 5 5 5 5 5 5 5 5 5 5 5 5 5 5 5 5 5 5 5 5 5 5 5 5 5 5 5 5 5 5 5 5 5 5 5 5 5 5 5 5 5 5 5 5 5 5 5 5 5 5 5 5 5 5 5 5 5 5 5 5 5 5 5 5 5 5 5 5 5 5 5 5 5 5 5 5 5 5 5 5 5 5 5 5 5 5 5 5 5 5 5 5 5 5 5 5 5 5 5 5 5 5 5 5 5 5 5 5 5 5 5 5 5 5 5 5 5 5 5 5 5 5 5 5 5 5 5 5 5 5 5 5 5 5 5 5 5 5 5 5 5 5 5 5 5 5 5 5 5 5 5 5 5 5 5 5 5 5 5 5 5 5 5 5 5 5 5 5 5 5 5 5 5 5 5 5 5 5 5 5 5 5 5 5 5 5 5 5 5 5 5 5 5 5 5 5 5 5 5 5 5 5 5 5 5 5 5 5 5 5 5 5 5 5 5 5 5 5 5 5 5 5 5 5 5 5 5 5 5 5 5 5 5 5 5 5 5 5 5 5 5 5 5 5 5 5 5 5 5 5 5 5 5 5 5 5 5 5 5 5 5 5 5 5 5 5 5 5 5 5 5 5 5 5 5 5 5 5 5 5 5 5 5 5 5 5 5 5 5 5 5 5 5 5 5 5 5 5 5 5 5 5 5 5 5 5 5 5 5 5 5 5 5 5 5 5 5 5 5 5 5 5 5 5 5 5 5 5 5 5 5 5 5 5 5 5 5 5 5 5 5 5 5 5 5 5 5 5 5 5 5 5 5 5 5 5 5 5 5 5 5 5 5 5 5 5 5 5 5 5 5 5 5 5 5 5 5 5 5 5 5 5 5 5 5 5 5 5 5 5 5 5 5 5 5 5 5 5 5 5 5 5 5 5 5 5 5 5 5 5 5 5 5 5 5 5 5 5 5 5 5 5 5 5 5 5 5 5 5 5 5 5 5 5 5 5 5 5 5 5 5 5 5 5 5 5 5 5 5 5 5 5 5 5 5 5 5 5 5 5 5 5 5 5 5 5 5 5 5 5 5 5 5 5 5 5 5 5 5 5 5 5 5 5 5 5 5 5 5 5 5 5 5 5 5 5 5 5 5 5 5 5 5 5 5 5 5 5 5 5 5 5 5 5 5 5 5 5 5 5 5 5 5 5 5 5 5 5 5 5 5 5 5 5 5 5 5 5 5 5 5 5 5 5 5 5 5 5 5 5 5 5 5 5 5 5 5 5 5 5 5 5 5 5 5 5 5 5 5 5 5 5 5 5 5 5 5 5 5 5 5 5 5 5 5 5 5 5 5 5 5 5 5 5 5 5 5 5 5 5 5 5 5 5 5 5 5 5 5 5 5 5 5 5 5 5 5 5 5 5 5 5 5 5 5 5 5 5 5 5 5 5 5 5 5 5 5 5 5 5 5 5 5 5 5 5 5 5 5 5 5 5 5 5 5 5 5 5 5 5 5 5 5 5 5 5 5 5 5 5 5 5 5 5 5 5 5 5 5 5 5 5 5 5 5 5 5 5 5 5 5 5 5 5 5 5 5 5 5 5 5 5 5 5 5 5 5 5 5 5 5 5 5 5 5 5 5 5 5 5 5 5 5 5 5 5 5 5 5 5 5 5 5 5 5 5 5 5 5 5 5 5 5 5 5 5 5 5 5 5 5 5 5 5 5 5 5 5 5 5 5 5 5 5 5 5 5 5 5 5 5 5 5 5 5 5 5 5 5 5 5 5 5 5 5 5 5 5 5 5 5 5 5 5 5 5 5 5 5 5 5 5 5 5 5 5 5 5 5 5 5 5 5 5 5 5 5 5 5 5 5 5 5 5 5 5 5 5 5 5 5 5 5 5 5 5 5 5 5 5 5 5 5 5 5 5 5 5 5 </DataArray>
</Cells>
<CellData  Scalars="f">
<DataArray  type="Float64"  Name="f"  format="ascii">3 4 6 5 2 6 5 5 2 2 4 2 1 1 4 4 4 3 3 2 2 1 1 3 2 2 2 1 1 6 2 2 2 2 6 5 2 2 2 2 6 6 5 3 3 6 4 2 2 6 6 2 3 2 6 2 5 2 6 6 2 1 1 6 6 6 6 6 2 4 2 2 6 6 3 2 3 3 4 3 6 6 2 2 2 4 2 2 6 6 2 1 5 6 5 6 6 2 2 6 6 6 5 2 2 3 2 5 2 2 2 2 2 5 6 6 6 4 6 6 2 2 6 6 6 4 2 2 2 6 6 6 6 2 2 2 1 2 2 2 6 6 2 2 2 2 5 2 2 2 2 6 3 3 5 5 5 5 2 2 5 5 6 4 4 4 2 2 2 1 1 2 2 2 2 2 2 6 6 1 1 1 6 5 2 2 2 2 2 1 4 4 6 3 3 2 2 4 4 4 5 6 6 6 6 6 6 6 2 2 2 2 1 1 2 2 3 3 2 2 2 2 4 4 2 2 2 2 2 2 2 2 1 1 6 6 6 6 6 6 2 2 2 2 3 3 2 2 6 2 2 1 1 2 1 1 2 2 4 3 3 3 1 1 6 6 3 3 6 6 2 2 6 6 6 6 6 6 6 3 2 2 2 3 2 2 1 1 1 2 2 2 3 6 6 6 1 1 6 6 6 6 1 1 6 6 5 5 3 3 2 2 4 5 5 6 6 6 4 4 3 3 6 6 1 2 1 1 4 4 2 2 2 2 2 2 2 2 6 6 2 2 2 2 6 6 3 3 6 6 2 2 1 1 6 6 2 2 2 2 6 2 2 6 6 6 6 6 6 2 2 1 1 1 1 2 2 5 5 5 5 5 6 4 2 2 2 2 2 2 4 4 2 2 2 2 2 2 2 2 2 2 4 4 6 6 6 6 1 1 2 1 1 2 2 2 3 5 5 6 6 6 4 4 4 3 3 1 1 2 2 6 6 6 6 6 6 6 6 6 6 6 6 6 6 2 2 2 2 2 2 1 2 2 2 2 6 6 3 1 1 6 6 2 2 4 4 3 3 3 3 1 1 2 2 1 1 2 2 2 2 5 6 6 6 5 5 3 3 5 5 1 1 2 2 2 2 2 2 6 6 2 2 2 2 5 5 2 2 6 6 6 6 3 3 6 6 6 6 6 2 2 1 1 2 2 6 6 6 2 2 1 1 6 6 6 6 2 2 2 2 2 2 1 1 2 2 6 6 5 5 5 5 6 6 2 1 6 6 2 2 6 6 2 2 2 2 6 6 6 6 2 2 6 6 6 6 2 2 6 6 5 5 2 2 2 2 6 6 2 4 2 2 2 2 2 2 2 2 6 6 6 6 6 6 2 2 3 3 5 5 2 2 2 2 2 2 2 2 2 2 6 6 2 2 2 2 2 2 3 3 6 6 2 2 2 2 5 5 5 5 1 1 3 3 3 3 6 6 6 6 4 4 2 2 3 3 3 3 3 3 6 4 2 2 6 6 2 2 2 2 2 2 2 2 5 5 6 6 4 4 2 2 6 6 4 4 5 5 5 5 5 5 3 3 2 2 2 2 4 4 2 2 2 2 5 5 6 6 2 2 2 2 2 2 1 1 1 1 5 5 2 2 2 2 2 6 6 2 2 3 3 3 3 4 4 4 2 4 4 2 2 1 1 2 2 1 1 2 2 2 2 6 6 2 4 3 3 2 2 2 2 6 6 1 1 1 1 6 6 2 2 2 2 6 6 6 6 6 6 5 5 4 4 4 4 2 2 6 6 2 2 2 2 6 6 2 2 2 2 6 6 5 5 1 1 1 1 2 2 2 2 6 6 2 2 6 6 6 6 2 2 2 2 6 6 3 3 3 3 5 5 6 6 6 6 2 2 6 6 6 6 6 6 6 3 3 2 2 6 6 3 3 2 2 2 2 2 2 6 6 4 4 3 3 3 3 2 2 2 2 2 2 5 5 5 5 2 2 3 3 4 4 2 2 2 2 6 6 1 1 2 2 2 2 2 2 1 1 4 4 6 6 2 2 2 2 2 2 2 2 2 2 6 6 6 6 6 6 6 6 2 2 2 2 6 6 3 3 4 4 4 4 2 2 6 6 2 2 6 6 2 2 2 2 6 6 6 6 5 5 6 6 6 6 2 2 2 2 2 2 1 1 2 2 6 6 6 6 6 6 2 2 6 6 2 2 1 1 2 2 6 6 2 2 2 2 2 2 </DataArray>
</CellData>
</Piece>
</UnstructuredGrid>
</VTKFile>