<?xml version="1.0"?>
<VTKFile type="UnstructuredGrid"  version="0.1"  >
<UnstructuredGrid>
<Piece  NumberOfPoints="39" NumberOfCells="55">
<Points>
<DataArray  type="Float64"  NumberOfComponents="3"  format="ascii">-1 -0.6 0  -1 -1 0  1 -1 0  1 -0.7 0  0.65 -0.6 0  0.3 -0.25 0  -0.6 -0.45 0  1 0 0  0.6 0 0  0.7 -0.2 0  0 0 0  -1 0 0  -0.35 0 0  -1 0.8 0  1 0.65 0  0.8 0.7 0  0.5 0.9 0  0.3 0.8 0  -1 1 0  1 1 0  0 -1 0  -0.2339298524310177 -0.3686510783180039 0  1 -0.35 0  -0.3 -0.225 0  0.3 0 0  0 1 0  0.5 -1 0  -0.35 0.8 0  0.5 1 0  -0.5 1 0  -0.02499999999999999 0.8 0  0.25 1 0  -0.675 0.8 0  -0.25 1 0  -0.75 1 0  0.75 1 0  0.65 0.8 0  0.4969999999999993 0.4080000000000001 0  1 0.325 0  </DataArray>
</Points>
<Cells>
<DataArray  type="UInt32"  Name="connectivity"  format="ascii">2 3 4  4 5 20  4 20 26  7 9 22  2 4 26  5 8 9  0 1 6  4 5 9  5 20 21  4 9 22  17 30 37  16 17 36  6 11 12  3 4 22  7 8 9  15 36 37  0 6 11  11 13 32  10 12 23  14 15 38  17 36 37  14 15 19  29 32 34  17 30 31  13 18 34  25 30 31  16 28 35  16 17 31  6 20 21  1 6 20  5 10 21  6 12 23  6 21 23  10 21 23  5 10 24  5 8 24  27 29 32  12 27 30  27 29 33  16 28 31  13 32 34  10 12 30  10 30 37  11 12 32  12 27 32  27 30 33  25 30 33  15 37 38  15 19 35  15 35 36  16 35 36  10 24 37  8 24 37  8 37 38  7 8 38  </DataArray>
<DataArray  type="UInt32"  Name="offsets"  format="ascii">3 6 9 12 15 18 21 24 27 30 33 36 39 42 45 48 51 54 57 60 63 66 69 72 75 78 81 84 87 90 93 96 99 102 105 108 111 114 117 120 123 126 129 132 135 138 141 144 147 150 153 156 159 162 165 </DataArray>
<DataArray  type="UInt8"  Name="types"  format="ascii">5 5 5 5 5 5 5 5 5 5 5 5 5 5 5 5 5 5 5 5 5 5 5 5 5 5 5 5 5 5 5 5 5 5 5 5 5 5 5 5 5 5 5 5 5 5 5 5 5 5 5 5 5 5 5 </DataArray>
</Cells>
</Piece>
</UnstructuredGrid>
</VTKFile>