<?xml version="1.0"?>
<VTKFile type="UnstructuredGrid"  version="0.1"  >
<UnstructuredGrid>
<Piece  NumberOfPoints="51" NumberOfCells="75">
<Points>
<DataArray  type="Float64"  NumberOfComponents="3"  format="ascii">-1 -0.6 0  -1 -1 0  1 -1 0  1 -0.7 0  0.65 -0.6 0  0.3 -0.25 0  -0.6 -0.45 0  1 0 0  0.6 0 0  0.7 -0.2 0  0 0 0  -1 0 0  -0.35 0 0  -1 0.8 0  1 0.65 0  0.8 0.7 0  0.5 0.9 0  0.3 0.8 0  -1 1 0  1 1 0  0 -1 0  -0.2339298524310177 -0.3686510783180039 0  1 -0.35 0  -0.3 -0.225 0  0.3 0 0  0 1 0  0.5 -1 0  -0.35 0.8 0  0.5 1 0  -0.5 1 0  -0.02499999999999999 0.8 0  0.25 1 0  -0.675 0.8 0  -0.25 1 0  -0.75 1 0  -0.5 -1 0  -1 0.4 0  -0.5650641025641024 0.3786458333333334 0  0.1375 0.4046875 0  0.2392857142857143 -0.6607142857142857 0  0.5383593750000001 0.3961830357142856 0  -0.2165492893335799 0.4663224920076011 0  -0.3547057238527516 -0.6894919497914094 0  -0.675 0 0  1 0.325 0  -0.75 -1 0  -1 -0.3 0  -0.05619644028422779 -0.706344164671725 0  -0.8 -0.525 0  0.75 1 0  0.65 0.8 0  </DataArray>
</Points>
<Cells>
<DataArray  type="UInt32"  Name="connectivity"  format="ascii">2 3 4  5 21 39  20 26 39  7 9 22  2 4 26  5 8 9  0 45 48  4 5 9  20 35 42  4 9 22  5 10 24  17 38 40  36 37 43  3 4 22  7 8 9  15 40 44  10 21 23  8 24 40  5 8 24  24 38 40  14 15 19  29 32 34  17 30 31  13 18 34  25 30 31  16 28 49  16 17 31  6 21 42  5 10 21  6 21 23  10 12 23  6 46 48  10 24 38  10 38 41  27 29 32  10 12 41  27 29 33  16 28 31  13 32 34  30 38 41  17 30 38  11 36 43  12 37 43  27 30 33  25 30 33  35 42 45  32 36 37  13 32 36  12 37 41  27 32 37  16 17 50  15 40 50  4 26 39  4 5 39  14 15 44  27 30 41  27 37 41  21 39 47  21 42 47  6 23 43  12 23 43  8 40 44  7 8 44  0 46 48  0 1 45  6 43 46  11 43 46  20 42 47  20 39 47  42 45 48  6 42 48  17 40 50  15 19 49  15 49 50  16 49 50  </DataArray>
<DataArray  type="UInt32"  Name="offsets"  format="ascii">3 6 9 12 15 18 21 24 27 30 33 36 39 42 45 48 51 54 57 60 63 66 69 72 75 78 81 84 87 90 93 96 99 102 105 108 111 114 117 120 123 126 129 132 135 138 141 144 147 150 153 156 159 162 165 168 171 174 177 180 183 186 189 192 195 198 201 204 207 210 213 216 219 222 225 </DataArray>
<DataArray  type="UInt8"  Name="types"  format="ascii">5 5 5 5 5 5 5 5 5 5 5 5 5 5 5 5 5 5 5 5 5 5 5 5 5 5 5 5 5 5 5 5 5 5 5 5 5 5 5 5 5 5 5 5 5 5 5 5 5 5 5 5 5 5 5 5 5 5 5 5 5 5 5 5 5 5 5 5 5 5 5 5 5 5 5 </DataArray>
</Cells>
</Piece>
</UnstructuredGrid>
</VTKFile>