<?xml version="1.0"?>
<VTKFile type="UnstructuredGrid"  version="0.1"  >
<UnstructuredGrid>
<Piece  NumberOfPoints="946" NumberOfCells="2636">
<Points>
<DataArray  type="Float64"  NumberOfComponents="3"  format="ascii">0.1326036945442349 0.8407874557562595 0  0.1101295818652947 0.8259747517967353 0  0.1371633967207733 0.8206472075545125 0  0.375 1 0  0.3659585606129049 0.9743576262645438 0  0.3837283979023195 0.9753179272371866 0  -0.4587278942379292 0.8462611694069108 0  -0.46171875 0.8221124068549409 0  -0.4746176703595892 0.8359695469486531 0  -0.9065663739669422 0.9113329674586776 0  -0.8881997838386096 0.9361373142288331 0  -0.9071456594316692 0.9309639268638236 0  0.03771484375000001 0.845703125 0  0.005048647000579581 0.83330184535597 0  0.02793521223863373 0.8222400054909104 0  -0.10625 0.8 0  -0.1066625835870957 0.8209330967687156 0  -0.1265625 0.8 0  0.4120984249845115 0.8883031500309773 0  0.4059636784231467 0.8691785917887279 0  0.3929466589653982 0.8943524228535981 0  0.7504149029175204 0.8348962701795902 0  0.7450181578689564 0.8525593312449685 0  0.7631312746045958 0.8484375984188947 0  0.6531588820014057 0.9375678457753314 0  0.6264974104682298 0.9336593304136867 0  0.632871195696758 0.9526677722496287 0  -0.7198798365480802 0.8888559376484642 0  -0.6983174458891066 0.8906375094173687 0  -0.7162021253693398 0.8699805764372299 0  -0.4738195832223658 0.8820188571793441 0  -0.5026322674271464 0.8977585554772849 0  -0.4917364026604521 0.8745191625107201 0  -0.3036337159041777 0.8477684699218092 0  -0.3221395449437802 0.8257634253674121 0  -0.3271722139832536 0.8487798550205021 0  0.8980331428808628 0.9544334950189854 0  0.9282694920721654 0.9681197744570501 0  0.9112981046145117 0.9799422151047026 0  0.7198233241333998 0.8234849862000996 0  0.740242415777103 0.8154559858176381 0  0.7244808105284248 0.8053506697369331 0  0.8512658693462116 0.8896374994547827 0  0.8383509724268247 0.8654337801105708 0  0.8556667958565529 0.8705347208758538 0  0.6607070727062501 0.9017017358081506 0  0.6397995444359199 0.9136098579945379 0  0.6403603011869118 0.8917196048540946 0  -0.6268736373546512 0.8664743822674419 0  -0.6368103691087014 0.8889324336745705 0  -0.6503276040556257 0.8613586942421084 0  -0.7968750000000001 0.8476033675541517 0  -0.7802478891114727 0.8238016837770759 0  -0.7755885110254948 0.8421763374125211 0  -0.2260029499479019 0.9021414975876831 0  -0.2183231638401219 0.9304030104814679 0  -0.2349204281840325 0.9197389432798792 0  0.71875 0.9521883442234772 0  0.7163116382888727 0.9235602117814395 0  0.7034487376923625 0.9390736998751646 0  0.5 0.9 0  0.475 0.8875 0  0.4757766635003736 0.9066072963505885 0  0.3096277270977759 0.8589003029713919 0  0.2905746362313352 0.8317776674368987 0  0.2823139964295509 0.8578341151892001 0  0.1375 0.8 0  0.1578125 0.8204600837170963 0  -0.7150350881048436 0.9313506063644807 0  -0.6881033886232493 0.9368572822676501 0  -0.7043415709180962 0.9476626916477792 0  0.6862515258734863 0.8552277899035914 0  0.7056572430482525 0.8421271578836341 0  0.6856957965987138 0.8334816227039745 0  0.259375 0.84296875 0  -0.959375 0.8 0  -0.9796875 0.8 0  -0.9802461442838559 0.8202980546443671 0  -0.90625 0.9611728279675875 0  0.2187824293452744 0.8406582599826496 0  0.1984375 0.8203453443327007 0  0.1984529776211909 0.8406747968908592 0  0.1855774582919995 0.9641356550457201 0  0.2012276511532934 0.9787033633975951 0  0.2038911248921262 0.9601515635690769 0  -0.4478979716011769 0.9478515625 0  -0.4556660116791814 0.974988596446772 0  -0.4312235718130636 0.9673049757177846 0  -0.5625 0.903515625 0  -0.5555494261826969 0.9283395234258347 0  -0.5719034213523558 0.919533551441155 0  -0.4653541587095958 0.917260087705126 0  -0.4396788714909414 0.9216616876501648 0  -0.0859375 0.8239055832451608 0  -0.06955029677622443 0.8413824986937181 0  -0.05793004852166739 0.8216073116151719 0  -0.007226562499999978 0.8660156250000001 0  -0.03387946235874035 0.8649103956246476 0  -0.0118007459422632 0.845639345012122 0  -0.480393932339977 0.8173013451035918 0  -0.5857333024115282 0.9319324502024698 0  -0.6045251361366482 0.9194171453750686 0  -0.5916962010708797 0.9494047435947922 0  0.28125 0.9544096011221272 0  0.2474519697628639 0.9647480726339444 0  0.2579807041985568 0.9387534238667641 0  -0.04333593182491503 0.953038556778711 0  -0.01449240442045741 0.9558044329629176 0  -0.03336477384849718 0.9707424934360473 0  -0.09375 0.9568924229533262 0  -0.1107632017298849 0.9774398616182163 0  -0.078125 0.9784462114766631 0  -0.146875 0.8 0  -0.1671875 0.82744140625 0  -0.1671875 0.8 0  0.5761363636363636 0.9329545454545455 0  0.6012933174807013 0.9349911229944339 0  0.5904190408362938 0.9129215916916374 0  -0.8125 0.908203125 0  -0.7844663403630862 0.9283902736186143 0  -0.8078283181134026 0.9312741980798266 0  0.90053125 0.9034375 0  0.8744312017199259 0.9017759015580221 0  0.8885390128764955 0.8859911987996811 0  -0.7575061504749191 0.8815247552782338 0  -0.753437332093896 0.9029508482526939 0  -0.7389913234929596 0.8867214852305119 0  -0.66064911302773 0.8830318405416593 0  -0.6795523955413334 0.8864923661491052 0  -0.6707817231942803 0.9023600984787693 0  -0.2472200864244563 0.9351632721194243 0  -0.2591663394636981 0.9182369380440388 0  -0.228125 0.8 0  -0.2484375 0.8 0  -0.2348719574319945 0.8177166489094484 0  0.6614602731446162 0.9571295083640896 0  0.6732010867806318 0.9406047904910612 0  0.6162359295735933 0.9087432198324669 0  0.9489166958253327 0.8909632945511973 0  0.9293940926579195 0.9153150440849031 0  0.951259977256018 0.9128433168730297 0  0.9195916884627597 0.8116785534525406 0  0.9059336738678894 0.8368253634107743 0  0.9019200536813295 0.8183629902218087 0  0.8100446708955186 0.8982999247681903 0  0.7772314050335573 0.893005290094731 0  0.7914342617641907 0.9093104136489019 0  0.3183994242199109 0.9134832373699852 0  0.2867957363287317 0.9221198384293744 0  0.3085050929371002 0.9394187441505907 0  0.375 0.8375000000000001 0  0.3542077642536399 0.8456801321532751 0  0.371566611945719 0.8592879121652002 0  -0.8170098295777839 0.841895827781192 0  -0.7984430135194831 0.8188037965051811 0  0.8 0.7 0  0.78125 0.7124999999999999 0  0.8017306958769592 0.7229085438154389 0  -0.09498890711309221 0.8774980993152308 0  -0.07610740573038247 0.8888942535454788 0  -0.07791259440224248 0.8705453407259559 0  -0.146875 0.8336443157806939 0  -0.2530159197201322 0.8232118937316961 0  0.1245070982851017 0.962801972011734 0  0.1335410770206614 0.9812845446837033 0  0.1419232223610558 0.9556299936805938 0  0.1781247459947699 0.8203127801061628 0  0.474732905982906 0.95 0  0.4845718553734767 0.9235877727849329 0  0.4665269631658237 0.9318976806073499 0  0.7753470286744935 0.8138142588949874 0  0.7509198643861998 0.7962884027176327 0  0.15625 0.9434028888108537 0  0.1689219816687085 0.9256219490451922 0  0.1746690640411054 0.9431236894342823 0  0.25 1 0  0.28125 1 0  0.2697425867625701 0.9772048005610636 0  0.8125 0.85625 0  0.839726320045963 0.8380344550922735 0  0.8191910392222573 0.8367959064631262 0  0.6923938760249898 0.8780909251774519 0  0.7036745675706947 0.8601132343774162 0  0.4581014315322255 0.913906484996882 0  0.4561993758427448 0.8938512483145105 0  -0.675 0.8 0  -0.6546875000000001 0.8 0  -0.6595227133284647 0.8239198457876181 0  -0.5623510959287639 0.8469958791954759 0  -0.5422699949951485 0.8753088529008717 0  -0.574312487562358 0.862401435639072 0  0.6849116620666998 0.8117424931000499 0  0.6696153210299042 0.8231779417679579 0  0.6877271651493853 0.9264659767910484 0  0.6658432787053828 0.9215100054135863 0  -0.146875 0.8548828125 0  -0.1423849349428481 0.8750187759692765 0  -0.128842220939697 0.8632096939191757 0  -0.1549053750494172 0.8914156137312143 0  -0.1742078954428479 0.8680236839044654 0  -0.1771173820971313 0.890084508581179 0  -0.3125 0.90625 0  -0.3031996054113065 0.9296252314191125 0  -0.3307554836389143 0.9153390693469472 0  -0.2489391794816464 0.8702897496252044 0  -0.2659815679198103 0.8791114364460615 0  -0.2645237928298231 0.8593781267848797 0  -0.5656684192419312 0.8798853179888488 0  -0.5447735203606897 0.9517578125 0  -0.5711392996099482 0.9540055496682354 0  0.7436198285012918 0.9348604119383692 0  0.6875 1 0  0.71875 1 0  0.7056138184112249 0.9760941721117385 0  -0.8633897943148015 0.8259436872900443 0  -0.8578125000000001 0.8 0  -0.8379423140784762 0.8207512370773838 0  0.8250000000000001 0.69375 0  0.821269804321664 0.7146372412175668 0  0.8207142553354567 0.7358476766398635 0  0.8383135528088932 0.7576720119459277 0  0.8416286057090853 0.7373768494045537 0  -0.1875 0.909765625 0  -0.205971701991802 0.902015594562868 0  -0.1875 1 0  -0.15625 1 0  -0.171875 0.9782697929996867 0  -0.4119654520709609 0.8427456553108204 0  -0.4365778556270696 0.8281265475250374 0  -0.4200248017701803 0.8174661894306495 0  -0.3334315322689048 0.8731637403544842 0  -0.3544455882053057 0.8817250582578301 0  -0.3270166814479618 0.8922696217699509 0  -0.348962516499599 0.9061533293716248 0  -0.3514614247653408 0.9280466880176974 0  -0.7898171837074571 0.8792183866728962 0  -0.772267453348307 0.860839356361112 0  -0.6691511558235959 0.8656885662982692 0  0.5115190758714607 0.9230932773826896 0  -0.96599022800842 0.8347580669863175 0  -0.9493554031455946 0.8199154961388156 0  -0.955628232552822 0.925 0  -0.9260243315357026 0.9363774172724718 0  -0.9462632914085751 0.9448357407082431 0  -0.9616712294483487 0.9661515368104359 0  -0.9340170198761926 0.9630343001466991 0  0.05624999999999998 0.8914062500000001 0  0.07386827327198822 0.8684254892615287 0  0.04787890625000008 0.86819111328125 0  0.09252783817366195 0.9437950479828109 0  0.07970889930346121 0.9139167053084578 0  0.06037249573993704 0.9324762926251403 0  0.1318203522105079 0.9390985725352549 0  0.1127412627198874 0.9461919512261847 0  0.9489032083851441 0.7931049981080764 0  0.9444667618000049 0.8195327248414118 0  0.9344541044532475 0.7311234328748042 0  0.9158558124473103 0.7208725394381076 0  0.9421321583360779 0.7041835703261188 0  -0.5134551815668 0.9583433254922527 0  -0.501478581078848 0.9774762230727672 0  -0.4951172692787107 0.9501416880924652 0  -0.4646630062365414 0.9575546105251237 0  -0.5125 0.8 0  -0.4921874999999999 0.8 0  -0.50234375 0.8156345317396426 0  -0.4930885517872525 0.831818761805455 0  -0.4834910812922827 0.8569330169854728 0  -0.5003659414445277 0.8489908083582696 0  -0.09858601409270008 0.8383578370709764 0  -0.09478109157169989 0.9006278328290841 0  -0.71875 1 0  -0.734375 0.9831917795804728 0  -0.703125 0.9832835637832784 0  -0.8803969913985041 0.9111576474727014 0  -0.860608525084307 0.916465662085717 0  0.84375 1 0  0.8357941028247268 0.9703195916598087 0  0.8524823201021576 0.9817527810204361 0  0.7795974828224103 0.9274065142706132 0  0.796654776745107 0.9401662868235464 0  0.3503714063986101 0.8664323730997193 0  0.3331047464530176 0.8458693029695898 0  0.3282739190194712 0.864829879305505 0  -0.65625 1 0  -0.6503004834882973 0.9708354527988819 0  -0.640625 1 0  -0.83409057773346 0.8957025171319942 0  -0.807303544480891 0.8849930803561715 0  -0.7758013475769497 0.9618316393503628 0  -0.7927243081117548 0.9483732718407865 0  -0.7615689645241848 0.9486864397218495 0  -0.0625 0.90625 0  -0.08301465123457287 0.9285539466585633 0  0.03629737212642331 0.9206973619805077 0  0.02970231915471034 0.8993299591695021 0  0.01915581915082494 0.9253925821264394 0  0.4221153846153847 0.9307692307692308 0  0.3991741768198925 0.9137661878268699 0  0.3994091141620304 0.9374273346690417 0  0.8767066988533379 0.9278296065229674 0  0.8655147230815556 0.9458355827290068 0  0.8595716809667862 0.916199934999161 0  0.01463882092530426 0.8555602782071098 0  0.1007807705922242 0.9077789565620709 0  0.1038595496524012 0.9274380532311176 0  0.05124590584862578 0.9784974899822244 0  0.02995000958970995 0.9787424082418177 0  0.02906600195123484 0.9610575762350821 0  0.855589676823083 0.8007167835589242 0  0.8686681104376606 0.7724547027988898 0  0.8465257698518905 0.7793653116668198 0  0.8578021350740453 0.823687787049268 0  0.8382754133910892 0.817645936596375 0  -0.8217044914169767 0.8735155968524415 0  -0.8527549155173152 0.8671204438026426 0  -0.8375 0.8 0  -0.8984375 0.8259436872900443 0  -0.8947013299109977 0.8439421052895216 0  -0.8809136471574007 0.8316930211413495 0  0.3470067673165133 0.9108168857595231 0  0.3347415076485844 0.9340202259516249 0  0.2402358291679447 0.821484375 0  0.2390805826490558 0.8417806868600268 0  0.2402861942292119 0.9169938206927362 0  0.2365824147704746 0.9380798931528138 0  0.8500000000000001 0.6875 0  0.8440837012375064 0.7169598049500253 0  0.8616389797253398 0.7421169053157711 0  -0.1875 0.8 0  0.09687500000000002 0.8 0  0.08698235644505913 0.8228524367363036 0  0.1818462061091224 0.8784013182225165 0  0.1977262585488752 0.894763428517849 0  0.1719847812029485 0.9039587449363301 0  0.160120660337424 0.8878913712157355 0  0.1146729581220493 0.8635074532209507 0  0.1107771307234922 0.8449377064173759 0  0.05625000000000001 0.8 0  0.06476670585758031 0.8300640776707131 0  0.04584245833539795 0.8285457874876709 0  -0.35 0.8 0  -0.3296875 0.8 0  -0.3435321455130712 0.8187476682502076 0  -0.3481405407077988 0.838036807687029 0  -0.04401822800622693 0.8906857805696687 0  -0.02122289602689217 0.8816174311410971 0  -0.04559633913516763 0.840945558853699 0  0.9702755375660642 0.8157426885359977 0  0.9750634621553641 0.7898146971824275 0  0.09672043877654021 0.8862102425338653 0  0.1180654741047189 0.893358556215917 0  0.1207413848021946 0.9169041743482222 0  -0.3721814385775862 0.867571390086207 0  -0.3515044831909975 0.8598504212182365 0  0.807407120189183 0.9585551470935166 0  0.8157453265986818 0.9785658622333123 0  0.8270647906627085 0.9512525940192004 0  0.6688212076705925 0.875904437906024 0  0.746406644704766 0.9054382190950002 0  0.7596195779647088 0.9215328014110538 0  0.7338802683392309 0.919750402888078 0  0.7339049423262897 0.9760941721117387 0  -0.8583897360852223 0.9441340826121891 0  -0.8764399522466126 0.9691695963509436 0  0.3260068457690374 0.8842644034200785 0  0.298732470940191 0.892762993528875 0  0.7653646171797499 0.7699219257696247 0  0.770921468612861 0.7941965518462814 0  0.7943182586423347 0.754962098814172 0  0.8175667633294502 0.7563941026077319 0  0.881885986681101 0.7534089728798097 0  0.8181688935512367 0.777171488515901 0  0.7898604026848336 0.7874321754577707 0  0.09181856796516055 0.8457031250000001 0  -0.5438623293675805 0.8461000188660616 0  -0.5767667334930912 0.8226401970015913 0  -0.5811899582761052 0.8417022184387009 0  0.9024201156795921 0.8652253338791861 0  0.9083710317133749 0.8852038293754899 0  0.947264967895369 0.9409035484966921 0  0.9683621451662972 0.9666872465473551 0  0.9777653502998039 0.9343750000000001 0  -0.158859944703009 0.9548828125 0  -0.1796797971784993 0.9364502592410188 0  -0.1803836207968563 0.9582196873087565 0  -0.1980498646650883 0.9273455818979082 0  -0.1260407303073541 0.9473263640496802 0  -0.1372031945824847 0.9738940123907878 0  -0.1074955284176682 0.9311379191475735 0  0.3684861575689617 0.8774945591754172 0  -0.4748382257159244 0.9410718790813001 0  -0.4194722346133855 0.9487684133100796 0  1 0.7375 0  0.9709592435502797 0.729360583543087 0  1 0.7156250000000001 0  0.9607046192828038 0.700997609147514 0  0.9522169879804678 0.7201015747642658 0  0.4368030654266959 0.8980446915416468 0  0.5 1 0  0.53125 1 0  0.515625 0.973487298701083 0  0.2642659167198286 0.9163660365389247 0  0.2701865251161115 0.8938794760188691 0  0.2446914342197487 0.8884631078226141 0  0.2613006490134952 0.8704437436777975 0  0.3125870299529656 0.836567934850977 0  0.4187303810389 0.9076808178499841 0  0.34375 0.9586713649992757 0  0.3673387360393441 0.9536423319437402 0  -0.2078125 0.8217080346251581 0  -0.2078125 0.8 0  -0.1668150503243612 0.8484042106827122 0  0.9337993597496844 0.8433374263777871 0  0.9296733093756925 0.8708593073447374 0  0.9506765529088448 0.8599378637359305 0  0.9358879503712051 0.7634641412832718 0  0.9240704390144079 0.7863311127286838 0  0.9160485101810203 0.7676983342260403 0  0.578125 0.9682684899845917 0  0.5619599930862966 0.9510485457709187 0  0.562359938941744 0.9802183025592092 0  -0.4000797398535726 0.8926916887263657 0  -0.4206408216124933 0.8711973871702423 0  -0.4190022094869366 0.8915588646998412 0  -0.4375 0.895703125 0  -0.9722998622298396 0.875 0  -0.9610555014189879 0.8561474134625983 0  -0.9514513326284864 0.8743621805572823 0  0.8545955279411999 0.8525150171381675 0  0.9169399669471229 0.8526043572144607 0  0.8905583974358633 0.8493405094692837 0  0.9213879830283072 0.9430798196778685 0  0.9007783960700964 0.9303829304723328 0  1 0.8687499999999999 0  1 0.8468749999999999 0  0.9852096461723208 0.8578124999999999 0  -0.7502267841608672 0.9329793729925053 0  -0.7470706323306975 0.9615377184224841 0  -0.7335670080626772 0.911939895257929 0  0.7625000000000001 0.725 0  0.771840439887248 0.7469566708629086 0  0.7843029203055177 0.7318468380628427 0  0.7250000000000001 0.75 0  0.70625 0.7625 0  0.7404492791589665 0.7695507446804258 0  -0.53125 1 0  -0.546875 0.9783634993079492 0  -0.5241424301538431 0.9784070825918535 0  -0.9125271766784915 0.839454209965464 0  -0.91875 0.8 0  -0.8984375 0.8 0  -0.8590366328430162 0.8960380441878349 0  -0.835148582230904 0.8602135401866697 0  -0.3125 1 0  -0.3156203903242303 0.9717806049886434 0  -0.3316146222032672 0.9839670142897503 0  -0.2797615615951611 0.920484285873114 0  -0.2808381584948991 0.9002710838583386 0  -0.6923894850605894 0.9630764218831132 0  -0.66718155189493 0.9546875 0  -0.671875 0.979794642909076 0  -0.796875 0.9782963961782826 0  -0.765625 0.9827574310595891 0  -0.78125 1 0  0.05822925906802946 0.8499720302963178 0  0.6424479417328238 0.8699219125992359 0  0.6087239708664119 0.859960956299618 0  0.6311385988231958 0.8461423202816515 0  0.6202040017053069 0.8831626648698294 0  0.5978290231576677 0.879792665184833 0  -0.21875 1 0  -0.203125 0.9811595415137577 0  -0.2228350554983449 0.9807127441769585 0  -0.2056718358526138 0.9568158127913197 0  -0.8379343685216097 0.8415071860765005 0  -0.8171875 0.8209684341162518 0  0.03125 1 0  0.0456601426754441 0.9548794498009211 0  0.04229369332128557 0.9374282335286983 0  0.7217434123662571 0.8591401992067437 0  0.7307985554018596 0.8407732594228465 0  0.7124789189216475 0.8767927088461759 0  0.6312500000000001 0.8125 0  0.6521616770747086 0.8180597102305176 0  1 0.671875 0  0.975 0.65625 0  0.9766438130815128 0.6814323990695795 0  -0.6097643151120363 0.8786743852952376 0  -0.3732175722727373 0.894472580578361 0  -0.380349619521626 0.8363707265608969 0  -0.40078125 0.8216294263873991 0  -0.627354442408274 0.966452982160279 0  -0.6432856383196601 0.9470896340761729 0  -0.6099697720942284 0.9520341539590594 0  0.7224116620666998 0.7867424931000497 0  -0.4142789021410453 0.9274440758125858 0  -0.375 1 0  -0.34375 1 0  -0.359375 0.9839670142897504 0  -0.34375 0.9679340285795007 0  -0.3309821510545349 0.9543637175112742 0  -0.634375 0.8 0  0.9487468600848237 0.9794672167882903 0  0.9501025678910535 0.9601048141909548 0  -0.2240948622774477 0.8613046367237192 0  -0.2409290877689923 0.8535975925095218 0  -0.26875 0.8 0  -0.2707659149041154 0.8183050645622668 0  0.178125 0.8409201674341925 0  0.1850803337962394 0.8591549274315079 0  0.2041540248380129 0.8632874146268624 0  0.01562500000000001 0.8 0  -0.004687499999999994 0.8 0  -0.878125 0.8 0  0.8837752104101297 0.8130967739867694 0  0.8766189326025389 0.7926280680024278 0  -0.7566848916129685 0.8407653542527949 0  -0.7359375000000001 0.8206016940197763 0  -0.7563207053319841 0.8203842425783067 0  -0.7359375000000001 0.8 0  0.3876462826717005 0.9579587949378987 0  0.3652869206277016 0.9329827492634968 0  0.4151274245552616 0.9489849305395249 0  0.40625 1 0  0.4014455064894393 0.9769892616030548 0  0.421875 1 0  0.6133352366282776 0.9571724700690674 0  0.6820645820349555 0.9623289499976195 0  0.6654022409716949 0.9785912776112642 0  0.6002564048580609 0.9770834337230383 0  0.5874147414894764 0.9500323908250711 0  0.578125 1 0  0.5338132329486559 0.9100948494229839 0  0.5494405717924343 0.9317709312948351 0  0.559242976520537 0.9082326080169911 0  0.1537241387630046 0.8411848610958261 0  0.1375594990142023 0.8608953274671716 0  0.1372620973292951 0.8816027670704847 0  0.13600996702656 0.9011095636234429 0  0.09441650857089316 0.8659388942883649 0  0.07646634556089626 0.8886612426145727 0  -0.7562500000000001 0.8 0  -0.7352540648202271 0.8420607554542436 0  -0.858197003721635 0.8460494428841998 0  0.259375 0.8 0  0.2390625 0.8 0  0.2199075312014046 0.8203282196683599 0  -0.529370960552579 0.8576168450152816 0  -0.1265625 0.82744140625 0  -0.2687965341351294 0.8408393197046062 0  -0.287063495340905 0.8400386053964007 0  0.7565837637685502 0.8669588223295092 0  0.7311185805301519 0.8838641267008858 0  0.7509094006154979 0.8860435860276785 0  0.4382384847288086 0.9183473364026055 0  0.7577375136180737 0.9608242857481022 0  0.783144717741875 0.972219106980187 0  0.7578125 0.9811910633667332 0  0.7264319963964059 0.9033890260903872 0  0.8312237157444239 0.7984607762666105 0  0.8148866753039982 0.8166786449080733 0  0.3540692380608162 0.889032480410093 0  0.45 0.875 0  -0.75 1 0  0.7382229631553523 0.9566001892731369 0  -0.4723094965205114 0.9002934842563672 0  -0.486373643376846 0.9120596276285533 0  0.8695056929928416 0.7067412291136012 0  -0.3913486730419226 0.9165359829750963 0  -0.4236513630215395 0.9099362562098554 0  0.1531289565746701 0.9105447710353245 0  0.1464121290414528 0.9277600577471996 0  1 1 0  1 0.978125 0  0.9802762669038426 0.9832071670054894 0  0.9181758803699969 0.7386601929066168 0  0.9500617633921444 0.7466335968095323 0  0.925 0.6687500000000001 0  0.9231602454779357 0.7009320645217541 0  0.9424292925047369 0.685342170018948 0  -0.6902819615254154 0.8705491625481308 0  -0.6917808440148119 0.8478511186682961 0  -0.7156250000000001 0.8507589285714287 0  0.2170189215528455 0.9467753038500947 0  0.2299373433616546 0.9011749314897325 0  -0.6224174457775327 0.9331878071380355 0  -0.5890424050002334 0.8751856286688419 0  -0.5884836960819071 0.9012609761781533 0  -0.6140625 0.8 0  -0.62421875 0.817992277608793 0  -0.6037151903548622 0.8179191597330022 0  -0.655271052504183 0.9221350286377805 0  -0.6337756424475299 0.9125953409778511 0  -0.6526584298526906 0.9018542712751509 0  -0.6875 0.909375 0  -1 0.875 0  -0.9861499311149198 0.8875 0  -0.8135737909688654 0.9541015625 0  -0.482284887805804 0.9655972977167101 0  0.6875 0.775 0  0.7004148016780506 0.794372202517076 0  0.66875 0.7875000000000001 0  0.768336906906486 0.8308076000404223 0  -0.2335276096600558 0.8366267999463356 0  -0.2166933841685111 0.8443338441605329 0  -0.2226546215581033 0.8818349392423769 0  -0.3968971733881658 0.8628886972177598 0  -0.3871484094933668 0.8790011604581187 0  -0.2607757112706187 0.8975820676911114 0  -0.2415452449830802 0.8891494134224941 0  0.4 0.8500000000000001 0  0.3868119124040333 0.8752278646113487 0  -0.8125 1 0  -0.84375 1 0  -0.8212250966180342 0.9772423436845277 0  -0.8473764843886796 0.9710991853308729 0  -0.6144796254140872 0.8991520519161013 0  -0.2942185330896294 0.953125 0  -0.2654059635557742 0.958046975458809 0  -0.2831803878290172 0.9753026146280112 0  -0.2960822973369474 0.9132556324046103 0  -0.8109681020900127 0.8589512556439386 0  -0.7949023889485726 0.8986067221061808 0  -0.3727315273515002 0.9338039817656665 0  -0.3717943160649433 0.9141236962194982 0  -0.3633404900049162 0.8197160147668646 0  -0.3822416320238983 0.8171356523434397 0  -0.3647334039996579 0.8466441612621516 0  -0.3308095500062362 0.9357319833445154 0  -0.3575469042677993 0.9502798144949585 0  -0.2890625 0.820396541398965 0  0.7077034883720931 0.8961482558139535 0  0.684651273885465 0.9026992218294241 0  -0.5089608606291496 0.8655427552904486 0  -0.5328124999999999 0.8 0  -0.5226562499999999 0.816907654882689 0  0.4227068111417109 0.9669625889770557 0  0.4403456751037826 0.9581666904783416 0  0.4356878619184958 0.980980737850959 0  0.4375 1 0  0.46875 1 0  0.453125 0.973172896110315 0  0.9528367626614486 0.8375760010641262 0  0.9704192923446415 0.8468749999999999 0  0.9817478160644914 0.8312562024286985 0  -0.5285238152404642 0.8357382121193592 0  -0.5509401312997653 0.8248324870588595 0  -0.02294469655441063 0.9025064021546204 0  -0.05954720533811481 0.87217438717179 0  0.5259416784829668 0.9444936769844936 0  0.6592703266000378 0.8568853865210724 0  0.6554196947735899 0.8359541591479713 0  0.5784284913523712 0.8914380904048866 0  0.02500976562500003 0.8774658203125 0  -0.4559271002103537 0.8895704581244359 0  -0.5214242490802556 0.8847206167323428 0  -0.5222761552587579 0.9032602024693245 0  -0.5083579717013632 0.9151351941459615 0  0.5625 1 0  0.546875 1 0  0.5466509637687572 0.9681948558922374 0  -0.939169210730515 0.8578344075629132 0  -0.9289596053652575 0.8289172037814566 0  -0.9457105256115601 0.8392639881790028 0  -0.8894611729171533 0.8829902488233106 0  -0.9082916278784902 0.8585097429737603 0  -0.9160798724580519 0.8862584813157314 0  -0.2857350689289369 0.937360488224715 0  -0.3138050316733172 0.9471444461528864 0  0.9265938896783049 0.8930687114055319 0  0.8737150688150799 0.870877037914517 0  0.8874474914228657 0.8311661097309228 0  0.8970312499999999 0.7853125 0  -0.1181192115668326 0.8776276199637433 0  -0.124840755140307 0.9136698519557513 0  -0.133157971042192 0.8934708990511736 0  -0.1454475302456685 0.9074247376692228 0  0.65625 1 0  0.644048483751016 0.9693115167478459 0  -0.001728912164786519 0.8850264881368505 0  -0.2020807026852613 0.8823654833507929 0  -0.1153381944773422 0.8513563909726893 0  -0.1995915704670439 0.8514273374142176 0  0.8663446633745486 0.9670201691049236 0  0.875 1 0  0.90625 1 0  0.890625 0.9792934927430319 0  -0.015625 0.9806497528129808 0  0.01231610455552146 0.9668000225643406 0  0.008938688632464328 0.9493664374060108 0  0.007565796368524749 0.9024977636969554 0  0.8125 1 0  -0.7752418697227076 0.902509393881672 0  -0.7115003808346383 0.9094241147814422 0  -0.6077829902461175 0.8577986842189356 0  -0.6690814013170153 0.8463735714110583 0  -0.6328125 0.9836921772362783 0  -0.625 1 0  -0.59375 1 0  -0.609375 0.9838759630621058 0  0.8450182193470237 0.9404162806089056 0  0.838990797302865 0.9139009514550213 0  0.8312216830747408 0.8947337412337693 0  0.9 0.675 0  0.875 0.68125 0  0.8917578199454976 0.6951562797819906 0  -0.878125 0.8518873745800886 0  -0.932249913870015 0.8758037097081632 0  -0.5 1 0  -0.5401321516460911 0.8982000269336925 0  -0.5313526194732808 0.9194484630552661 0  0.3800618014422731 0.9195500124900516 0  -0.14489869064802 0.940470885518926 0  -0.7156250000000001 0.8 0  -0.6953125 0.8253794642857144 0  -0.6776607087334381 0.8186888021099384 0  0.07398350701028054 0.9700113798223191 0  0.07251763070659425 0.9493075744367645 0  0.1003490389829745 0.974141669545373 0  0.15625 1 0  0.1517449901556351 0.9717014444054268 0  0.1928492080586744 0.9401534645366232 0  0.1875 1 0  0.203125 1 0  -0.2379369908145412 0.9680392495794362 0  0.21875 1 0  0.2219033171749454 0.9732569427581205 0  0.234375 1 0  0.171875 0.9830046993589695 0  -0.2610954773463405 0.9802692778401844 0  -0.25 1 0  -0.28125 1 0  -0.9842833604651844 0.8385356441098046 0  -0.9811393494586529 0.8569482479125108 0  0.7815308127572808 0.8458820798538422 0  0.7942803523748722 0.8267933939012985 0  0.7905225922909451 0.8704602069709756 0  -0.5187354451796375 0.9372078576654816 0  -0.390625 0.8 0  -0.3703125 0.8 0  -0.03125 1 0  0.05535520755615615 0.9122379903520901 0  0.08528756373183816 0.9840691868236768 0  0.09375 1 0  0.9680011292553239 0.759375 0  0.9601930352243651 0.7772256774025849 0  -0.1552036973490351 0.9232538273791684 0  0.2692756090397628 0.821484375 0  0.2796875 0.8 0  0.8950366761321268 0.7166843602539723 0  1 0.95625 0  0.3125 1 0  0.34375 1 0  0.328125 0.983146705569478 0  0.296875 0.983820628050031 0  0.0625 1 0  -0.4375 1 0  -0.40625 1 0  -0.390625 0.9831774660690935 0  -0.9375 1 0  -0.90625 1 0  -0.9188944388716815 0.9805864139837938 0  -0.8979624501799649 0.9803952423622332 0  0.3468360682474397 0.9778666556851147 0  0.4876460113822876 0.9748587274371102 0  -0.0625 1 0  -0.09375 1 0  -0.125 1 0  0.75 1 0  0.765625 1 0  -0.71875 0.9663835591609456 0  -0.59375 0.9677519261242116 0  -0.5625 1 0  -0.5720451695564561 0.977984302614646 0  -1 0.95 0  -1 0.975 0  -0.9830648081961348 0.9624999999999999 0  -0.9460456506396423 0.98054787567204 0  -0.4765625 0.9832098001949133 0  -0.46875 1 0  -0.421875 1 0  -0.417586845588024 0.9810898344039003 0  -0.3954554436485816 0.9433642944042773 0  0.8722833980953979 0.8416559531819608 0  0.3117879645405636 0.9669826890340071 0  -0.7765625 0.8 0  0.35 0.8250000000000001 0  -0.9390624999999999 0.8 0  0.5008368823782675 0.951893023981817 0  -0.9421101107634903 0.8927131852311126 0  -0.9347135287681702 0.9147833991451839 0  0.1578125 0.8 0  0.8162149500845456 0.9287553541735761 0  0.9375 1 0  1 0.78125 0  1 0.803125 0  1 0.825 0  -0.06562499999999999 0.8 0  -0.0859375 0.8 0  0.9723793555383397 0.9066628471792704 0  1 0.9125 0  0.3 0.8 0  -0.04080082617867242 0.9246812338346034 0  -0.01819332045202121 0.9246090930452721 0  -0.0294481137482614 0.9399881296524862 0  -0.06891506622677213 0.9500978868502755 0  0.002934226944278917 0.9326546670143028 0  0.2838767916707056 0.8784227439689876 0  0.21875 0.8859375 0  0.2378550665708901 0.8633115515761144 0  1 0.65 0  0.95 0.6625000000000001 0  0.8980741802884781 0.7673653637142003 0  0.9840005646276619 0.7484375000000001 0  0.9828715561863229 0.7719640197798426 0  -0.1886031095868543 0.8323910334028474 0  -0.4665572697168073 0.8648116967138946 0  -0.4338797824856772 0.8516121323282765 0  -0.8726441954002531 0.8715022868610477 0  -0.2302453484899221 0.9481187732705475 0  -0.8346071054472225 0.942937062549308 0  -0.8404002611563426 0.9198397526621295 0  -0.8628276356320603 0.9839826537836636 0  -0.2678330864206902 0.9374500312494795 0  0.1171875 0.8 0  0.1582484721307638 0.8618188501086045 0  -0.7163720537425794 0.829342717619647 0  -0.6953125 0.8 0  0.178125 0.8 0  0.21875 0.8 0  0.1984375 0.8 0  -0.796875 0.8 0  -0.7300882862428939 0.947467799638804 0  0.6999780845108697 0.9127980456578257 0  0.3738496899645674 0.9005725207880901 0  0.3015454578824571 0.8749839574850704 0  0.4484858489372535 0.9402157873747918 0  0.1669905219880211 0.960447553974759 0  0.7616904559610477 0.9402865098292597 0  0.7778083665954154 0.9500948262950628 0  0.8763825650089376 0.7268330062562602 0  -0.6004349435349764 0.8381587566940614 0  -0.59375 0.8 0  0.8106395632430303 0.7964358787070601 0  0.7939237090346006 0.8070145795199152 0  0.9724031114736587 0.8751302764113978 0  1 0.890625 0  -0.06183123181008653 0.927451540217251 0  -0.309375 0.8 0  -0.7659679793926658 0.9203991306701518 0  0.3246589012624592 0.951472289987972 0  -0.4490797466825993 0.8713968130625611 0  -0.4718749999999999 0.8 0  -0.4515625 0.8 0  -0.43125 0.8 0  -0.05283500293962305 0.9765531339942591 0  -0.6689581563438021 0.9355822857430497 0  -0.8313034386774367 0.9614110560040023 0  -0.6875 1 0  0.8194185130706161 0.8777506242816595 0  0.325 0.8125 0  -0.9673365622928004 0.9011245063903506 0  -1 0.925 0  -0.9745822657327324 0.9432361168299256 0  -0.977708013203895 0.9210191508788464 0  0.4375 0.86875 0  0.6842550412947218 0.9812405499320795 0  0.7004980113093496 0.9578198148877642 0  0.6125 0.8250000000000001 0  0.188275756691609 0.915513916065175 0  -0.3005792440284728 0.9843996316467748 0  0.5436889320260547 0.9492102449865673 0  -0.02175904742408796 0.8272831969438328 0  -0.04531249999999999 0.8 0  -0.03971021528413225 0.8235891855693902 0  -0.49808349609375 0.9302734375 0  -0.9752113599562411 0.980984300309699 0  -0.6372935760995431 0.8339897896053843 0  0.125 1 0  0.1155137613010083 0.9843641619932036 0  -0.1139024148679625 0.8966894744601623 0  -0.4056453641157999 0.9658129351314239 0  0.03593750000000001 0.8 0  -0.7353136123142192 0.8678461240192776 0  -0.753553911535532 0.8630947944648161 0  -1 0.9 0  0.5568087370648239 0.8860960961884659 0  1 0.6937500000000001 0  0.9817012418798972 0.7046875000000001 0  -0.2851223820322944 0.880487807454864 0  0.2421875 0.9828466418857386 0  0.2086527518636738 0.9298911764319733 0  0.02515214034568719 0.94212345367463 0  -0.553125 0.8 0  -0.4109375 0.8 0  -1 0.8 0  -1 0.8250000000000001 0  0 1 0  0.015625 1 0  0.0078125 0.984013757215228 0  0.625 1 0  0.6230445838066609 0.9775302814191014 0  0.640625 1 0  0.59375 1 0  -0.6239272257345112 0.8476157997724799 0  -0.02499999999999999 0.8 0  -0.890625 1 0  0.7008752311069952 0.8220503908767449 0  0.7537479319178014 0.7542505473328615 0  0.7437500000000001 0.7375 0  -0.3746260279208627 0.9647825513939385 0  -0.08918773353738872 0.855106713809513 0  -0.2834965620803686 0.8579718148752294 0  -0.309984797840743 0.8814946527905533 0  -0.3171002757065452 0.8643606341668353 0  0.07656250000000001 0.8 0  0.96875 1 0  0.59375 0.8375000000000001 0  0.575 0.8500000000000001 0  0.65 0.8 0  0.5375 0.875 0  0.51875 0.8875 0  0.5753464742868604 0.8708322114302908 0  0.3125 0.80625 0  -0.8171875 0.8 0  0.9049148895807295 0.7507403193284973 0  0.8932709758697911 0.7356571246789764 0  0.5562499999999999 0.8625 0  -0.1676541634629719 0.907655947358054 0  -0.484375 1 0  1 0.934375 0  1 0.759375 0  0.78125 1 0  -0.875 1 0  -0.299195106964214 0.8669693903985422 0  0.2144035244120794 0.9119469525971043 0  0.796875 1 0  -0.96875 1 0  -1 1 0  -0.5734375 0.8 0  -0.2890625 0.8 0  0.425 0.8625 0  -1 0.8500000000000001 0  -0.5110731319174803 0.8313650396029136 0  0.6682191931011939 0.8053623385047957 0  </DataArray>
</Points>
<Cells>
<DataArray  type="UInt32"  Name="connectivity"  format="ascii">0 1  0 2  0 336  0 337  0 536  0 537  1 2  1 330  1 331  1 337  1 374  1 825  2 66  2 67  2 536  2 825  3 4  3 5  3 524  3 753  4 5  4 408  4 409  4 753  4 764  5 409  5 521  5 524  5 525  6 7  6 8  6 228  6 267  6 817  6 818  6 852  7 8  7 99  7 228  7 853  7 854  8 99  8 266  8 267  9 10  9 11  9 274  9 665  9 667  9 791  10 11  10 78  10 274  10 275  10 363  10 364  11 78  11 242  11 791  12 13  12 14  12 248  12 303  12 340  12 465  12 654  13 14  13 98  13 303  13 512  13 513  13 873  14 340  14 512  14 883  15 16  15 17  15 799  16 17  16 93  16 269  16 549  16 799  17 112  17 549  18 19  18 20  18 298  18 398  18 407  18 866  18 942  19 20  19 611  19 612  19 942  20 298  20 612  20 712  20 835  21 22  21 23  21 40  21 481  21 603  22 23  22 480  22 481  22 552  22 553  23 552  23 603  23 735  23 737  24 25  24 26  24 46  24 135  24 136  24 194  25 26  25 46  25 116  25 137  25 527  26 135  26 527  26 679  26 902  27 28  27 29  27 126  27 439  27 694  27 884  28 29  28 128  28 581  28 595  28 694  29 581  29 583  29 884  30 31  30 32  30 267  30 566  30 655  30 817  30 852  31 32  31 566  31 567  31 656  31 657  31 658  32 267  32 634  32 656  33 34  33 35  33 551  33 631  33 913  33 915  33 935  34 35  34 342  34 343  34 344  34 631  34 849  35 230  35 344  35 354  35 915  36 37  36 38  36 300  36 301  36 432  36 433  36 684  36 687  37 38  37 432  37 503  37 504  37 794  38 686  38 687  38 794  39 40  39 41  39 72  39 481  39 908  40 41  40 170  40 171  40 481  40 603  41 171  41 495  41 601  41 908  42 43  42 44  42 122  42 302  42 671  42 702  42 703  43 44  43 178  43 179  43 429  43 703  43 860  44 429  44 671  45 46  45 47  45 194  45 358  45 633  46 47  46 137  46 194  47 137  47 358  47 466  47 469  48 49  48 50  48 488  48 695  48 905  49 50  49 127  49 488  49 593  49 594  49 617  50 127  50 237  50 696  50 878  50 905  51 52  51 53  51 153  51 154  51 235  51 236  51 622  52 53  52 154  52 519  52 786  53 236  53 517  53 519  54 55  54 56  54 223  54 606  54 610  55 56  55 223  55 386  55 474  55 820  56 130  56 131  56 609  56 610  56 820  57 58  57 59  57 210  57 213  57 362  57 565  57 868  58 59  58 210  58 361  58 559  58 834  59 136  59 193  59 834  59 868  60 61  60 62  60 168  60 238  60 533  60 922  61 62  61 184  61 563  62 168  62 169  62 183  62 184  63 64  63 65  63 282  63 283  63 406  63 836  64 65  64 74  64 406  64 748  64 749  64 802  64 924  65 74  65 405  65 808  65 836  66 67  66 792  66 825  67 166  67 509  67 536  67 792  68 69  68 70  68 437  68 439  68 595  68 694  68 833  69 70  69 459  69 460  69 595  69 857  70 459  70 771  70 833  71 72  71 73  71 181  71 182  71 358  71 651  72 73  72 182  72 480  72 481  72 908  73 191  73 192  73 651  73 652  73 908  74 322  74 323  74 405  74 748  74 810  75 76  75 77  75 240  75 788  76 77  76 896  77 239  77 240  77 733  77 896  77 897  78 242  78 245  78 364  78 762  78 763  79 80  79 81  79 323  79 511  79 547  79 810  80 81  80 166  80 547  80 830  80 831  81 166  81 509  81 510  81 511  82 83  82 84  82 174  82 722  82 729  82 838  83 84  83 723  83 724  83 726  83 727  83 729  84 584  84 722  84 727  85 86  85 87  85 91  85 92  85 262  85 391  85 392  86 87  86 262  86 599  86 757  86 779  86 780  87 392  87 757  87 782  87 882  88 89  88 90  88 207  88 588  88 710  89 90  89 100  89 208  89 209  89 710  89 711  90 100  90 588  91 92  91 391  91 425  91 566  91 567  91 655  92 392  92 425  92 496  92 570  93 94  93 95  93 269  93 798  93 799  94 95  94 160  94 269  94 347  94 649  94 912  95 347  95 798  95 874  95 875  96 97  96 98  96 303  96 346  96 680  97 98  97 345  97 346  97 347  97 649  98 303  98 347  98 873  99 264  99 265  99 266  99 853  100 101  100 102  100 209  100 588  101 102  101 494  101 586  101 588  101 593  101 617  102 209  102 494  102 772  103 104  103 105  103 148  103 149  103 177  103 755  103 785  104 105  104 177  104 325  104 584  104 727  104 891  105 148  105 324  105 325  105 402  106 107  106 108  106 803  106 805  106 806  106 848  106 856  107 108  107 688  107 689  107 690  107 804  107 805  107 807  108 688  108 741  108 856  109 110  109 111  109 293  109 387  109 389  109 806  110 111  110 387  110 388  110 767  110 768  111 766  111 767  111 806  111 856  112 113  112 114  112 161  112 549  113 114  113 161  113 329  113 412  113 816  114 329  115 116  115 117  115 420  115 531  115 534  115 535  116 117  116 137  116 527  116 531  117 137  117 470  117 535  117 653  118 119  118 120  118 287  118 288  118 623  118 822  119 120  119 290  119 291  119 623  119 693  119 850  120 290  120 598  120 821  120 822  121 122  121 123  121 139  121 300  121 379  121 433  121 670  122 123  122 300  122 302  122 671  123 378  123 379  123 671  124 125  124 126  124 235  124 236  124 693  124 884  124 885  125 126  125 437  125 439  125 693  125 850  126 439  126 884  127 128  127 129  127 237  127 594  128 129  128 237  128 581  128 595  129 592  129 594  129 595  129 857  130 131  130 619  130 725  130 820  130 824  131 457  131 458  131 609  131 824  132 133  132 134  132 410  132 411  133 134  133 162  133 507  134 162  134 410  134 604  135 136  135 528  135 529  135 679  136 193  136 194  136 528  136 868  137 469  137 470  138 139  138 140  138 414  138 415  138 670  138 800  138 846  139 140  139 380  139 432  139 433  139 670  140 380  140 382  140 800  141 142  141 143  141 254  141 255  141 413  141 417  141 673  142 143  142 413  142 430  142 431  142 672  143 515  143 672  143 673  144 145  144 146  144 702  144 703  144 737  144 793  144 860  145 146  145 359  145 360  145 552  145 554  145 737  146 279  146 280  146 360  146 793  147 148  147 149  147 320  147 321  147 365  147 366  148 149  148 366  148 402  148 403  149 321  149 785  149 851  150 151  150 152  150 611  150 787  151 152  151 281  151 282  151 787  152 281  152 390  152 611  152 612  153 154  153 453  153 475  153 476  153 622  154 476  154 786  154 832  154 925  155 156  155 157  155 217  155 218  156 157  156 440  156 442  157 218  157 219  157 369  157 442  158 159  158 160  158 270  158 674  158 682  158 881  158 912  159 160  159 270  159 292  159 345  159 649  160 649  160 912  161 195  161 412  161 549  162 506  162 507  162 508  162 550  162 604  163 164  163 165  163 252  163 253  163 719  163 880  164 165  164 720  164 721  164 879  164 880  165 172  165 252  165 721  165 838  166 509  166 792  166 829  166 831  167 168  167 169  167 638  167 642  167 765  167 789  167 837  168 169  168 238  168 789  169 183  169 837  170 171  170 368  170 603  170 736  170 845  171 367  171 368  171 445  171 495  172 173  172 174  172 252  172 572  172 838  173 174  173 334  173 571  173 572  173 722  173 870  174 722  174 838  175 176  175 177  175 728  175 891  176 177  176 752  176 755  177 755  177 891  178 179  178 180  178 735  178 736  178 737  178 860  179 180  179 312  179 313  179 429  180 313  180 561  180 736  181 182  181 358  181 482  181 632  181 633  182 480  182 482  183 184  183 398  183 555  183 837  184 398  184 563  185 186  185 187  185 716  185 828  186 187  186 502  187 502  187 696  187 716  187 878  188 189  188 190  188 375  188 376  188 377  188 647  189 190  189 207  189 375  189 548  189 656  189 710  190 207  190 377  190 587  190 695  191 192  191 601  191 602  191 908  191 945  192 484  192 652  192 945  193 194  193 633  193 834  194 633  195 196  195 197  195 199  195 412  195 549  195 682  196 197  196 198  196 199  196 674  196 676  197 674  197 682  198 199  198 200  198 676  198 677  198 929  199 200  199 412  199 681  199 683  200 222  200 223  200 681  200 929  201 202  201 203  201 232  201 458  201 621  201 914  202 203  202 457  202 618  202 621  202 629  202 668  202 669  203 232  203 233  203 234  203 629  204 205  204 206  204 505  204 506  204 606  204 610  205 206  205 458  205 609  205 610  205 890  205 913  206 506  206 550  206 913  207 587  207 588  207 710  208 209  208 259  208 447  208 448  208 711  208 738  209 447  209 772  209 774  210 360  210 361  210 565  210 839  211 212  211 213  211 529  211 678  211 867  212 213  212 362  212 769  213 362  213 528  213 867  213 868  214 215  214 216  214 319  214 475  214 514  214 544  215 216  215 316  215 514  216 316  216 475  216 476  217 218  217 326  217 327  218 219  218 327  219 220  219 221  219 327  219 369  219 370  220 221  220 310  220 311  220 328  220 370  220 372  221 327  221 328  222 223  222 384  222 386  222 929  223 386  223 606  223 681  224 225  224 226  224 471  224 472  225 226  225 388  225 768  226 383  226 385  226 388  226 472  227 228  227 229  227 423  227 490  227 491  227 607  227 818  228 229  228 818  228 854  228 855  229 491  229 855  229 895  230 231  230 232  230 354  230 914  230 915  231 232  231 233  231 353  231 354  231 489  232 233  232 914  233 234  233 489  233 625  234 624  234 625  234 629  234 630  235 236  235 288  235 622  235 623  235 693  236 517  236 885  237 581  237 582  237 696  238 533  238 650  238 789  239 240  239 427  239 664  239 733  239 734  240 663  240 664  240 788  241 242  241 243  241 790  241 791  241 862  241 864  241 865  242 243  242 245  242 791  243 244  243 245  243 864  244 245  244 777  244 778  244 864  244 877  245 762  245 778  246 247  246 248  246 295  246 541  246 654  246 742  247 248  247 374  247 465  247 540  247 541  248 465  248 654  249 250  249 251  249 253  249 305  249 717  249 718  249 719  250 251  250 304  250 305  250 541  250 742  251 294  251 478  251 479  251 718  251 742  252 253  252 305  252 352  252 572  253 305  253 719  254 255  254 348  254 349  254 416  254 417  254 746  255 348  255 413  255 643  256 257  256 258  256 397  256 416  256 576  256 577  257 258  257 576  257 579  257 750  257 927  258 396  258 397  258 579  258 580  259 260  259 261  259 448  259 738  260 261  260 448  260 599  260 709  260 779  260 930  261 391  261 599  261 738  261 876  262 391  262 599  263 264  263 265  263 635  263 636  264 265  264 853  265 266  265 636  265 944  266 267  266 268  266 944  267 268  267 634  267 817  268 548  268 634  268 646  268 944  269 549  269 682  269 912  270 292  270 293  270 389  270 675  270 881  271 272  271 273  271 564  271 859  272 273  272 438  272 463  272 564  272 771  273 459  273 461  273 771  273 859  274 275  274 452  274 665  275 363  275 452  275 822  276 277  276 278  276 356  276 685  276 692  277 278  277 356  277 357  277 684  277 701  278 684  278 685  279 280  279 360  279 839  279 840  280 355  280 793  280 840  281 282  281 283  281 365  281 390  281 562  282 283  282 406  282 787  282 861  283 365  283 836  284 285  284 286  284 461  284 859  285 286  285 460  285 461  285 492  285 493  285 697  286 697  286 698  287 288  287 314  287 315  287 452  287 822  288 314  288 622  288 623  289 290  289 291  289 438  289 462  289 463  290 291  290 462  290 598  291 437  291 438  291 850  292 293  292 345  292 803  292 848  293 389  293 806  293 848  294 295  294 296  294 479  294 742  294 893  295 296  295 654  295 691  295 742  296 691  296 807  296 893  297 298  297 299  297 407  297 523  297 555  297 638  297 837  298 299  298 407  298 712  299 521  299 522  299 523  299 712  300 301  300 302  300 433  301 302  301 684  301 701  302 701  302 702  303 654  303 680  304 305  304 350  304 351  304 352  304 541  305 352  306 307  306 308  306 477  306 478  306 717  306 756  307 308  307 477  307 689  307 899  307 900  308 478  308 689  308 690  308 893  309 310  309 311  309 312  309 313  309 515  309 516  309 560  310 311  310 328  310 371  310 516  310 673  310 813  311 372  311 560  312 313  312 429  312 515  312 672  312 784  313 560  313 561  314 315  314 453  314 622  315 452  315 453  315 544  315 819  316 476  316 925  317 318  317 319  317 449  317 450  317 451  317 514  317 663  318 319  318 449  318 666  318 707  319 514  319 544  319 707  320 321  320 365  320 522  320 562  320 712  320 835  321 408  321 522  321 851  322 323  322 545  322 546  322 547  322 748  323 547  323 810  324 325  324 402  324 404  324 585  324 936  325 584  325 892  325 936  326 327  326 568  326 705  327 328  327 568  327 841  328 371  328 841  329 410  329 411  329 816  330 331  330 825  330 916  331 339  331 374  331 916  332 333  332 334  332 335  332 510  332 511  332 826  333 334  333 511  333 809  333 870  333 936  334 335  334 571  334 870  335 538  335 539  335 571  335 826  336 337  336 350  336 351  336 537  336 538  336 540  337 374  337 540  338 339  338 340  338 883  338 916  339 340  339 374  339 465  339 916  340 465  340 883  341 342  341 343  341 626  341 740  342 343  342 849  343 344  343 626  344 354  344 626  344 628  345 346  345 648  345 649  345 803  346 648  346 680  347 649  347 873  347 875  348 349  348 643  348 645  348 796  348 797  349 746  349 795  349 796  349 815  350 351  350 540  350 541  351 352  351 538  351 539  352 539  352 572  353 354  353 489  353 490  353 607  353 608  353 628  354 628  355 356  355 357  355 557  355 793  355 840  356 357  356 557  356 692  356 937  357 701  357 793  358 466  358 633  358 651  359 360  359 361  359 553  359 554  359 559  360 361  360 839  361 559  362 556  362 558  362 565  362 769  363 364  363 616  363 821  363 822  363 858  364 616  364 763  364 823  364 934  365 366  365 562  365 836  366 403  366 808  366 836  367 368  367 369  367 373  367 441  367 445  367 909  368 373  368 845  369 370  369 372  369 373  369 441  369 442  370 372  371 813  371 841  371 926  371 927  372 373  372 560  372 844  373 844  373 845  374 465  374 540  375 548  375 646  375 647  376 377  376 591  376 647  376 842  376 843  376 894  376 940  377 695  377 842  378 379  378 414  378 430  378 431  378 671  379 414  379 670  380 381  380 382  380 432  380 504  381 382  381 503  381 504  381 575  381 751  382 751  382 800  382 801  382 931  383 384  383 385  383 388  383 713  383 747  384 385  384 386  384 474  384 747  384 929  385 472  385 474  386 474  387 388  387 389  387 675  387 713  388 713  388 768  389 675  390 562  390 612  390 835  391 567  391 599  391 876  392 496  392 783  392 882  393 394  393 395  393 814  393 932  394 395  394 396  394 397  394 577  394 745  394 814  394 889  395 888  395 889  396 397  396 487  396 580  396 889  397 577  398 407  398 555  398 563  398 866  399 400  399 401  399 641  399 765  400 401  400 660  400 661  401 650  401 661  401 765  401 789  402 403  402 404  403 404  403 405  403 808  404 405  404 585  404 809  404 810  405 808  405 810  406 861  406 924  407 555  408 409  408 522  408 754  408 764  408 851  409 521  409 522  410 411  410 604  410 605  410 816  412 683  412 816  413 414  413 415  413 430  413 643  414 415  414 430  414 670  415 643  415 644  415 846  416 417  416 418  416 576  416 577  416 745  416 746  417 418  417 673  418 576  418 673  418 813  418 926  419 420  419 421  419 530  419 531  419 532  420 421  420 531  420 534  420 661  420 872  421 532  421 659  421 660  421 661  422 423  422 424  422 489  422 569  422 570  422 607  422 608  423 424  423 425  423 607  423 818  423 852  424 425  424 570  425 570  425 655  425 852  426 427  426 428  426 596  426 597  426 734  426 862  427 428  427 662  427 664  427 734  428 662  428 708  428 790  428 862  429 671  429 784  430 431  431 671  431 672  431 784  432 433  432 504  434 435  434 436  434 846  434 847  435 436  435 645  435 797  436 644  436 645  436 846  437 438  437 439  437 833  437 850  438 463  438 771  438 833  439 694  440 441  440 442  440 910  441 442  441 909  441 910  443 444  443 445  443 909  443 910  444 445  444 495  444 600  444 601  445 495  445 909  446 447  446 448  446 709  446 773  447 448  447 773  447 774  448 709  449 662  449 663  449 666  450 451  450 663  450 788  451 514  452 665  452 819  452 822  453 475  453 544  453 622  454 455  454 456  454 498  454 732  454 871  455 456  455 500  455 501  455 618  455 669  455 871  456 498  456 499  456 500  457 458  457 621  457 668  457 824  458 609  458 621  458 890  458 914  459 460  459 461  459 771  460 461  460 493  460 857  461 859  462 463  462 464  462 598  462 613  462 615  463 464  463 564  464 564  464 613  466 467  466 468  466 469  466 651  467 468  467 469  467 470  467 869  467 918  467 919  467 923  468 483  468 484  468 651  468 652  468 869  469 470  470 653  470 923  471 472  471 473  471 731  472 473  472 474  473 474  473 725  473 731  474 725  474 820  475 476  475 544  476 925  477 756  477 899  478 479  478 717  478 718  478 893  479 893  480 481  480 482  480 553  482 553  482 632  483 484  483 869  483 920  484 652  484 920  484 945  485 486  485 487  485 811  485 888  486 487  486 811  486 812  487 580  487 812  487 888  487 889  488 587  488 588  488 617  488 695  489 569  489 608  489 625  490 491  490 607  490 626  490 627  490 628  491 627  491 739  491 895  492 493  492 494  492 697  492 700  493 494  493 586  493 592  493 857  494 586  494 700  494 772  495 601  496 569  496 570  496 783  497 498  497 499  497 758  497 759  498 499  499 500  499 759  499 911  500 501  500 630  500 911  501 629  501 630  501 669  502 589  502 590  502 878  503 504  503 575  503 794  503 917  505 506  505 605  505 606  505 681  505 683  506 550  506 604  506 605  507 508  507 941  508 550  508 551  508 631  508 941  509 510  509 536  509 826  510 511  510 826  511 809  511 810  512 513  512 883  513 873  513 906  515 516  515 672  515 673  516 673  517 518  517 519  517 543  517 885  518 519  518 520  518 543  518 714  518 827  519 520  519 542  519 786  520 542  520 714  521 522  521 523  521 525  522 712  523 525  523 637  523 638  524 525  524 526  525 526  525 637  526 637  526 639  526 640  527 530  527 531  527 902  528 529  528 867  528 868  529 678  529 679  529 867  530 531  530 532  530 901  530 902  530 904  532 659  532 904  533 534  533 535  533 650  533 887  533 921  533 922  534 535  534 650  534 872  535 653  535 887  536 537  536 826  537 538  537 826  538 539  538 826  539 571  539 572  540 541  541 742  542 786  543 583  543 827  543 884  543 885  544 707  544 819  545 546  545 748  545 749  546 547  546 830  547 830  548 634  548 646  548 656  549 682  550 551  550 913  551 631  551 913  552 553  552 554  552 737  553 554  553 559  553 632  555 837  556 557  556 558  556 565  556 839  556 840  557 558  557 840  557 933  557 937  558 769  558 770  558 933  559 632  559 834  560 561  560 844  561 736  561 844  561 845  562 835  563 866  565 839  566 567  566 655  567 658  567 876  568 705  568 706  568 750  568 841  569 570  569 624  569 625  569 783  571 572  573 574  573 575  573 917  574 575  574 751  575 751  575 917  576 926  576 927  577 745  578 579  578 580  578 704  578 812  579 580  579 704  579 706  579 750  580 812  581 582  581 583  582 583  582 696  582 715  582 716  582 827  583 827  583 884  584 722  584 727  584 892  585 809  585 936  586 592  586 593  587 588  587 695  588 617  589 590  589 591  589 843  590 591  590 842  590 878  590 905  591 842  591 843  592 593  592 594  592 857  593 594  593 617  595 694  595 857  596 597  596 734  596 886  596 943  597 862  597 886  598 615  598 821  598 858  599 779  600 601  600 602  601 602  601 908  602 920  602 945  603 735  603 736  604 605  605 683  605 816  606 610  606 681  607 608  609 610  611 612  611 942  612 835  613 614  613 615  614 615  614 616  614 823  614 934  615 616  615 858  616 823  616 858  618 619  618 620  618 668  618 669  618 871  619 620  619 668  619 725  619 730  619 824  620 730  620 732  620 871  623 693  624 625  624 630  624 783  624 911  626 627  626 628  626 740  627 739  627 740  629 630  629 669  630 911  631 849  631 941  632 633  632 834  633 834  634 656  635 636  635 647  635 894  636 646  636 647  636 944  637 638  637 639  638 639  638 642  638 837  639 640  639 642  640 641  640 642  641 642  641 765  642 765  643 644  643 645  644 645  644 846  645 797  646 647  646 944  647 894  648 680  648 691  648 803  648 804  650 661  650 789  650 872  651 652  653 887  653 923  654 680  654 691  655 852  656 657  656 710  657 658  657 710  657 711  658 711  658 738  658 876  659 660  660 661  661 872  662 663  662 664  662 666  662 708  663 664  663 788  665 666  665 667  665 707  665 819  666 667  666 707  666 708  667 708  667 790  667 791  668 824  671 784  672 784  673 813  674 676  674 682  674 881  675 676  675 677  675 713  675 747  675 881  676 677  676 881  677 747  677 929  678 679  678 903  679 902  679 903  680 691  681 683  682 912  683 816  684 685  684 687  684 701  685 686  685 687  686 687  686 794  688 689  688 741  688 898  688 900  689 690  689 900  690 807  690 893  691 804  691 807  692 937  693 850  695 842  695 905  696 716  696 878  697 698  697 700  698 699  698 700  699 700  699 772  699 773  699 774  700 772  701 702  701 793  702 703  702 793  703 860  704 705  704 706  705 706  706 750  707 819  708 790  709 930  710 711  711 738  712 835  713 747  714 715  714 827  714 828  715 716  715 827  715 828  716 828  717 718  717 719  717 743  717 756  719 743  719 744  719 880  720 721  720 723  720 729  720 879  721 729  721 838  722 870  722 892  723 724  723 729  724 726  725 730  725 731  725 820  726 727  726 728  727 728  727 891  728 891  729 838  730 731  730 732  731 732  732 871  733 734  733 897  733 943  734 943  735 736  735 737  736 845  737 860  738 876  739 740  739 895  741 766  741 856  741 898  743 744  743 756  744 756  744 879  744 880  745 746  745 814  745 815  746 815  747 929  748 749  749 802  750 841  750 927  751 931  752 753  752 754  752 755  753 754  753 764  754 755  754 764  754 785  754 851  755 785  757 780  757 781  757 782  758 759  758 781  758 782  759 782  759 882  759 911  760 761  760 762  760 778  760 938  761 762  761 763  761 907  762 763  762 778  763 907  763 934  765 789  766 767  766 856  767 768  769 770  770 933  771 833  772 774  773 774  775 776  775 777  775 863  775 864  776 777  776 877  776 939  777 864  777 877  778 877  778 938  779 780  779 930  780 930  781 782  782 882  783 882  783 911  785 851  786 832  787 861  790 791  790 862  792 829  794 917  795 796  795 815  795 932  796 797  798 799  798 874  800 801  800 846  800 847  801 847  801 931  802 924  803 804  803 805  803 848  804 805  804 807  806 848  806 856  807 893  808 836  809 810  809 936  813 926  814 815  814 932  815 932  817 852  818 852  821 822  821 858  823 934  829 831  830 831  832 925  839 840  841 927  842 905  843 940  844 845  846 847  849 941  853 854  854 855  855 895  861 924  862 865  862 886  863 864  863 865  863 886  864 865  865 886  866 942  869 918  870 892  870 936  873 875  873 906  874 875  874 906  875 906  877 938  877 939  878 905  879 880  882 911  884 885  887 921  887 923  887 928  888 889  890 913  890 914  890 935  892 936  894 940  896 897  897 943  898 899  898 900  899 900  901 902  901 903  901 904  902 903  907 934  909 910  913 935  914 915  914 935  915 935  918 919  919 923  919 928  920 945  921 922  921 928  923 928  926 927  933 937  938 939  </DataArray>
<DataArray  type="UInt32"  Name="offsets"  format="ascii">2 4 6 8 10 12 14 16 18 20 22 24 26 28 30 32 34 36 38 40 42 44 46 48 50 52 54 56 58 60 62 64 66 68 70 72 74 76 78 80 82 84 86 88 90 92 94 96 98 100 102 104 106 108 110 112 114 116 118 120 122 124 126 128 130 132 134 136 138 140 142 144 146 148 150 152 154 156 158 160 162 164 166 168 170 172 174 176 178 180 182 184 186 188 190 192 194 196 198 200 202 204 206 208 210 212 214 216 218 220 222 224 226 228 230 232 234 236 238 240 242 244 246 248 250 252 254 256 258 260 262 264 266 268 270 272 274 276 278 280 282 284 286 288 290 292 294 296 298 300 302 304 306 308 310 312 314 316 318 320 322 324 326 328 330 332 334 336 338 340 342 344 346 348 350 352 354 356 358 360 362 364 366 368 370 372 374 376 378 380 382 384 386 388 390 392 394 396 398 400 402 404 406 408 410 412 414 416 418 420 422 424 426 428 430 432 434 436 438 440 442 444 446 448 450 452 454 456 458 460 462 464 466 468 470 472 474 476 478 480 482 484 486 488 490 492 494 496 498 500 502 504 506 508 510 512 514 516 518 520 522 524 526 528 530 532 534 536 538 540 542 544 546 548 550 552 554 556 558 560 562 564 566 568 570 572 574 576 578 580 582 584 586 588 590 592 594 596 598 600 602 604 606 608 610 612 614 616 618 620 622 624 626 628 630 632 634 636 638 640 642 644 646 648 650 652 654 656 658 660 662 664 666 668 670 672 674 676 678 680 682 684 686 688 690 692 694 696 698 700 702 704 706 708 710 712 714 716 718 720 722 724 726 728 730 732 734 736 738 740 742 744 746 748 750 752 754 756 758 760 762 764 766 768 770 772 774 776 778 780 782 784 786 788 790 792 794 796 798 800 802 804 806 808 810 812 814 816 818 820 822 824 826 828 830 832 834 836 838 840 842 844 846 848 850 852 854 856 858 860 862 864 866 868 870 872 874 876 878 880 882 884 886 888 890 892 894 896 898 900 902 904 906 908 910 912 914 916 918 920 922 924 926 928 930 932 934 936 938 940 942 944 946 948 950 952 954 956 958 960 962 964 966 968 970 972 974 976 978 980 982 984 986 988 990 992 994 996 998 1000 1002 1004 1006 1008 1010 1012 1014 1016 1018 1020 1022 1024 1026 1028 1030 1032 1034 1036 1038 1040 1042 1044 1046 1048 1050 1052 1054 1056 1058 1060 1062 1064 1066 1068 1070 1072 1074 1076 1078 1080 1082 1084 1086 1088 1090 1092 1094 1096 1098 1100 1102 1104 1106 1108 1110 1112 1114 1116 1118 1120 1122 1124 1126 1128 1130 1132 1134 1136 1138 1140 1142 1144 1146 1148 1150 1152 1154 1156 1158 1160 1162 1164 1166 1168 1170 1172 1174 1176 1178 1180 1182 1184 1186 1188 1190 1192 1194 1196 1198 1200 1202 1204 1206 1208 1210 1212 1214 1216 1218 1220 1222 1224 1226 1228 1230 1232 1234 1236 1238 1240 1242 1244 1246 1248 1250 1252 1254 1256 1258 1260 1262 1264 1266 1268 1270 1272 1274 1276 1278 1280 1282 1284 1286 1288 1290 1292 1294 1296 1298 1300 1302 1304 1306 1308 1310 1312 1314 1316 1318 1320 1322 1324 1326 1328 1330 1332 1334 1336 1338 1340 1342 1344 1346 1348 1350 1352 1354 1356 1358 1360 1362 1364 1366 1368 1370 1372 1374 1376 1378 1380 1382 1384 1386 1388 1390 1392 1394 1396 1398 1400 1402 1404 1406 1408 1410 1412 1414 1416 1418 1420 1422 1424 1426 1428 1430 1432 1434 1436 1438 1440 1442 1444 1446 1448 1450 1452 1454 1456 1458 1460 1462 1464 1466 1468 1470 1472 1474 1476 1478 1480 1482 1484 1486 1488 1490 1492 1494 1496 1498 1500 1502 1504 1506 1508 1510 1512 1514 1516 1518 1520 1522 1524 1526 1528 1530 1532 1534 1536 1538 1540 1542 1544 1546 1548 1550 1552 1554 1556 1558 1560 1562 1564 1566 1568 1570 1572 1574 1576 1578 1580 1582 1584 1586 1588 1590 1592 1594 1596 1598 1600 1602 1604 1606 1608 1610 1612 1614 1616 1618 1620 1622 1624 1626 1628 1630 1632 1634 1636 1638 1640 1642 1644 1646 1648 1650 1652 1654 1656 1658 1660 1662 1664 1666 1668 1670 1672 1674 1676 1678 1680 1682 1684 1686 1688 1690 1692 1694 1696 1698 1700 1702 1704 1706 1708 1710 1712 1714 1716 1718 1720 1722 1724 1726 1728 1730 1732 1734 1736 1738 1740 1742 1744 1746 1748 1750 1752 1754 1756 1758 1760 1762 1764 1766 1768 1770 1772 1774 1776 1778 1780 1782 1784 1786 1788 1790 1792 1794 1796 1798 1800 1802 1804 1806 1808 1810 1812 1814 1816 1818 1820 1822 1824 1826 1828 1830 1832 1834 1836 1838 1840 1842 1844 1846 1848 1850 1852 1854 1856 1858 1860 1862 1864 1866 1868 1870 1872 1874 1876 1878 1880 1882 1884 1886 1888 1890 1892 1894 1896 1898 1900 1902 1904 1906 1908 1910 1912 1914 1916 1918 1920 1922 1924 1926 1928 1930 1932 1934 1936 1938 1940 1942 1944 1946 1948 1950 1952 1954 1956 1958 1960 1962 1964 1966 1968 1970 1972 1974 1976 1978 1980 1982 1984 1986 1988 1990 1992 1994 1996 1998 2000 2002 2004 2006 2008 2010 2012 2014 2016 2018 2020 2022 2024 2026 2028 2030 2032 2034 2036 2038 2040 2042 2044 2046 2048 2050 2052 2054 2056 2058 2060 2062 2064 2066 2068 2070 2072 2074 2076 2078 2080 2082 2084 2086 2088 2090 2092 2094 2096 2098 2100 2102 2104 2106 2108 2110 2112 2114 2116 2118 2120 2122 2124 2126 2128 2130 2132 2134 2136 2138 2140 2142 2144 2146 2148 2150 2152 2154 2156 2158 2160 2162 2164 2166 2168 2170 2172 2174 2176 2178 2180 2182 2184 2186 2188 2190 2192 2194 2196 2198 2200 2202 2204 2206 2208 2210 2212 2214 2216 2218 2220 2222 2224 2226 2228 2230 2232 2234 2236 2238 2240 2242 2244 2246 2248 2250 2252 2254 2256 2258 2260 2262 2264 2266 2268 2270 2272 2274 2276 2278 2280 2282 2284 2286 2288 2290 2292 2294 2296 2298 2300 2302 2304 2306 2308 2310 2312 2314 2316 2318 2320 2322 2324 2326 2328 2330 2332 2334 2336 2338 2340 2342 2344 2346 2348 2350 2352 2354 2356 2358 2360 2362 2364 2366 2368 2370 2372 2374 2376 2378 2380 2382 2384 2386 2388 2390 2392 2394 2396 2398 2400 2402 2404 2406 2408 2410 2412 2414 2416 2418 2420 2422 2424 2426 2428 2430 2432 2434 2436 2438 2440 2442 2444 2446 2448 2450 2452 2454 2456 2458 2460 2462 2464 2466 2468 2470 2472 2474 2476 2478 2480 2482 2484 2486 2488 2490 2492 2494 2496 2498 2500 2502 2504 2506 2508 2510 2512 2514 2516 2518 2520 2522 2524 2526 2528 2530 2532 2534 2536 2538 2540 2542 2544 2546 2548 2550 2552 2554 2556 2558 2560 2562 2564 2566 2568 2570 2572 2574 2576 2578 2580 2582 2584 2586 2588 2590 2592 2594 2596 2598 2600 2602 2604 2606 2608 2610 2612 2614 2616 2618 2620 2622 2624 2626 2628 2630 2632 2634 2636 2638 2640 2642 2644 2646 2648 2650 2652 2654 2656 2658 2660 2662 2664 2666 2668 2670 2672 2674 2676 2678 2680 2682 2684 2686 2688 2690 2692 2694 2696 2698 2700 2702 2704 2706 2708 2710 2712 2714 2716 2718 2720 2722 2724 2726 2728 2730 2732 2734 2736 2738 2740 2742 2744 2746 2748 2750 2752 2754 2756 2758 2760 2762 2764 2766 2768 2770 2772 2774 2776 2778 2780 2782 2784 2786 2788 2790 2792 2794 2796 2798 2800 2802 2804 2806 2808 2810 2812 2814 2816 2818 2820 2822 2824 2826 2828 2830 2832 2834 2836 2838 2840 2842 2844 2846 2848 2850 2852 2854 2856 2858 2860 2862 2864 2866 2868 2870 2872 2874 2876 2878 2880 2882 2884 2886 2888 2890 2892 2894 2896 2898 2900 2902 2904 2906 2908 2910 2912 2914 2916 2918 2920 2922 2924 2926 2928 2930 2932 2934 2936 2938 2940 2942 2944 2946 2948 2950 2952 2954 2956 2958 2960 2962 2964 2966 2968 2970 2972 2974 2976 2978 2980 2982 2984 2986 2988 2990 2992 2994 2996 2998 3000 3002 3004 3006 3008 3010 3012 3014 3016 3018 3020 3022 3024 3026 3028 3030 3032 3034 3036 3038 3040 3042 3044 3046 3048 3050 3052 3054 3056 3058 3060 3062 3064 3066 3068 3070 3072 3074 3076 3078 3080 3082 3084 3086 3088 3090 3092 3094 3096 3098 3100 3102 3104 3106 3108 3110 3112 3114 3116 3118 3120 3122 3124 3126 3128 3130 3132 3134 3136 3138 3140 3142 3144 3146 3148 3150 3152 3154 3156 3158 3160 3162 3164 3166 3168 3170 3172 3174 3176 3178 3180 3182 3184 3186 3188 3190 3192 3194 3196 3198 3200 3202 3204 3206 3208 3210 3212 3214 3216 3218 3220 3222 3224 3226 3228 3230 3232 3234 3236 3238 3240 3242 3244 3246 3248 3250 3252 3254 3256 3258 3260 3262 3264 3266 3268 3270 3272 3274 3276 3278 3280 3282 3284 3286 3288 3290 3292 3294 3296 3298 3300 3302 3304 3306 3308 3310 3312 3314 3316 3318 3320 3322 3324 3326 3328 3330 3332 3334 3336 3338 3340 3342 3344 3346 3348 3350 3352 3354 3356 3358 3360 3362 3364 3366 3368 3370 3372 3374 3376 3378 3380 3382 3384 3386 3388 3390 3392 3394 3396 3398 3400 3402 3404 3406 3408 3410 3412 3414 3416 3418 3420 3422 3424 3426 3428 3430 3432 3434 3436 3438 3440 3442 3444 3446 3448 3450 3452 3454 3456 3458 3460 3462 3464 3466 3468 3470 3472 3474 3476 3478 3480 3482 3484 3486 3488 3490 3492 3494 3496 3498 3500 3502 3504 3506 3508 3510 3512 3514 3516 3518 3520 3522 3524 3526 3528 3530 3532 3534 3536 3538 3540 3542 3544 3546 3548 3550 3552 3554 3556 3558 3560 3562 3564 3566 3568 3570 3572 3574 3576 3578 3580 3582 3584 3586 3588 3590 3592 3594 3596 3598 3600 3602 3604 3606 3608 3610 3612 3614 3616 3618 3620 3622 3624 3626 3628 3630 3632 3634 3636 3638 3640 3642 3644 3646 3648 3650 3652 3654 3656 3658 3660 3662 3664 3666 3668 3670 3672 3674 3676 3678 3680 3682 3684 3686 3688 3690 3692 3694 3696 3698 3700 3702 3704 3706 3708 3710 3712 3714 3716 3718 3720 3722 3724 3726 3728 3730 3732 3734 3736 3738 3740 3742 3744 3746 3748 3750 3752 3754 3756 3758 3760 3762 3764 3766 3768 3770 3772 3774 3776 3778 3780 3782 3784 3786 3788 3790 3792 3794 3796 3798 3800 3802 3804 3806 3808 3810 3812 3814 3816 3818 3820 3822 3824 3826 3828 3830 3832 3834 3836 3838 3840 3842 3844 3846 3848 3850 3852 3854 3856 3858 3860 3862 3864 3866 3868 3870 3872 3874 3876 3878 3880 3882 3884 3886 3888 3890 3892 3894 3896 3898 3900 3902 3904 3906 3908 3910 3912 3914 3916 3918 3920 3922 3924 3926 3928 3930 3932 3934 3936 3938 3940 3942 3944 3946 3948 3950 3952 3954 3956 3958 3960 3962 3964 3966 3968 3970 3972 3974 3976 3978 3980 3982 3984 3986 3988 3990 3992 3994 3996 3998 4000 4002 4004 4006 4008 4010 4012 4014 4016 4018 4020 4022 4024 4026 4028 4030 4032 4034 4036 4038 4040 4042 4044 4046 4048 4050 4052 4054 4056 4058 4060 4062 4064 4066 4068 4070 4072 4074 4076 4078 4080 4082 4084 4086 4088 4090 4092 4094 4096 4098 4100 4102 4104 4106 4108 4110 4112 4114 4116 4118 4120 4122 4124 4126 4128 4130 4132 4134 4136 4138 4140 4142 4144 4146 4148 4150 4152 4154 4156 4158 4160 4162 4164 4166 4168 4170 4172 4174 4176 4178 4180 4182 4184 4186 4188 4190 4192 4194 4196 4198 4200 4202 4204 4206 4208 4210 4212 4214 4216 4218 4220 4222 4224 4226 4228 4230 4232 4234 4236 4238 4240 4242 4244 4246 4248 4250 4252 4254 4256 4258 4260 4262 4264 4266 4268 4270 4272 4274 4276 4278 4280 4282 4284 4286 4288 4290 4292 4294 4296 4298 4300 4302 4304 4306 4308 4310 4312 4314 4316 4318 4320 4322 4324 4326 4328 4330 4332 4334 4336 4338 4340 4342 4344 4346 4348 4350 4352 4354 4356 4358 4360 4362 4364 4366 4368 4370 4372 4374 4376 4378 4380 4382 4384 4386 4388 4390 4392 4394 4396 4398 4400 4402 4404 4406 4408 4410 4412 4414 4416 4418 4420 4422 4424 4426 4428 4430 4432 4434 4436 4438 4440 4442 4444 4446 4448 4450 4452 4454 4456 4458 4460 4462 4464 4466 4468 4470 4472 4474 4476 4478 4480 4482 4484 4486 4488 4490 4492 4494 4496 4498 4500 4502 4504 4506 4508 4510 4512 4514 4516 4518 4520 4522 4524 4526 4528 4530 4532 4534 4536 4538 4540 4542 4544 4546 4548 4550 4552 4554 4556 4558 4560 4562 4564 4566 4568 4570 4572 4574 4576 4578 4580 4582 4584 4586 4588 4590 4592 4594 4596 4598 4600 4602 4604 4606 4608 4610 4612 4614 4616 4618 4620 4622 4624 4626 4628 4630 4632 4634 4636 4638 4640 4642 4644 4646 4648 4650 4652 4654 4656 4658 4660 4662 4664 4666 4668 4670 4672 4674 4676 4678 4680 4682 4684 4686 4688 4690 4692 4694 4696 4698 4700 4702 4704 4706 4708 4710 4712 4714 4716 4718 4720 4722 4724 4726 4728 4730 4732 4734 4736 4738 4740 4742 4744 4746 4748 4750 4752 4754 4756 4758 4760 4762 4764 4766 4768 4770 4772 4774 4776 4778 4780 4782 4784 4786 4788 4790 4792 4794 4796 4798 4800 4802 4804 4806 4808 4810 4812 4814 4816 4818 4820 4822 4824 4826 4828 4830 4832 4834 4836 4838 4840 4842 4844 4846 4848 4850 4852 4854 4856 4858 4860 4862 4864 4866 4868 4870 4872 4874 4876 4878 4880 4882 4884 4886 4888 4890 4892 4894 4896 4898 4900 4902 4904 4906 4908 4910 4912 4914 4916 4918 4920 4922 4924 4926 4928 4930 4932 4934 4936 4938 4940 4942 4944 4946 4948 4950 4952 4954 4956 4958 4960 4962 4964 4966 4968 4970 4972 4974 4976 4978 4980 4982 4984 4986 4988 4990 4992 4994 4996 4998 5000 5002 5004 5006 5008 5010 5012 5014 5016 5018 5020 5022 5024 5026 5028 5030 5032 5034 5036 5038 5040 5042 5044 5046 5048 5050 5052 5054 5056 5058 5060 5062 5064 5066 5068 5070 5072 5074 5076 5078 5080 5082 5084 5086 5088 5090 5092 5094 5096 5098 5100 5102 5104 5106 5108 5110 5112 5114 5116 5118 5120 5122 5124 5126 5128 5130 5132 5134 5136 5138 5140 5142 5144 5146 5148 5150 5152 5154 5156 5158 5160 5162 5164 5166 5168 5170 5172 5174 5176 5178 5180 5182 5184 5186 5188 5190 5192 5194 5196 5198 5200 5202 5204 5206 5208 5210 5212 5214 5216 5218 5220 5222 5224 5226 5228 5230 5232 5234 5236 5238 5240 5242 5244 5246 5248 5250 5252 5254 5256 5258 5260 5262 5264 5266 5268 5270 5272 </DataArray>
<DataArray  type="UInt8"  Name="types"  format="ascii">3 3 3 3 3 3 3 3 3 3 3 3 3 3 3 3 3 3 3 3 3 3 3 3 3 3 3 3 3 3 3 3 3 3 3 3 3 3 3 3 3 3 3 3 3 3 3 3 3 3 3 3 3 3 3 3 3 3 3 3 3 3 3 3 3 3 3 3 3 3 3 3 3 3 3 3 3 3 3 3 3 3 3 3 3 3 3 3 3 3 3 3 3 3 3 3 3 3 3 3 3 3 3 3 3 3 3 3 3 3 3 3 3 3 3 3 3 3 3 3 3 3 3 3 3 3 3 3 3 3 3 3 3 3 3 3 3 3 3 3 3 3 3 3 3 3 3 3 3 3 3 3 3 3 3 3 3 3 3 3 3 3 3 3 3 3 3 3 3 3 3 3 3 3 3 3 3 3 3 3 3 3 3 3 3 3 3 3 3 3 3 3 3 3 3 3 3 3 3 3 3 3 3 3 3 3 3 3 3 3 3 3 3 3 3 3 3 3 3 3 3 3 3 3 3 3 3 3 3 3 3 3 3 3 3 3 3 3 3 3 3 3 3 3 3 3 3 3 3 3 3 3 3 3 3 3 3 3 3 3 3 3 3 3 3 3 3 3 3 3 3 3 3 3 3 3 3 3 3 3 3 3 3 3 3 3 3 3 3 3 3 3 3 3 3 3 3 3 3 3 3 3 3 3 3 3 3 3 3 3 3 3 3 3 3 3 3 3 3 3 3 3 3 3 3 3 3 3 3 3 3 3 3 3 3 3 3 3 3 3 3 3 3 3 3 3 3 3 3 3 3 3 3 3 3 3 3 3 3 3 3 3 3 3 3 3 3 3 3 3 3 3 3 3 3 3 3 3 3 3 3 3 3 3 3 3 3 3 3 3 3 3 3 3 3 3 3 3 3 3 3 3 3 3 3 3 3 3 3 3 3 3 3 3 3 3 3 3 3 3 3 3 3 3 3 3 3 3 3 3 3 3 3 3 3 3 3 3 3 3 3 3 3 3 3 3 3 3 3 3 3 3 3 3 3 3 3 3 3 3 3 3 3 3 3 3 3 3 3 3 3 3 3 3 3 3 3 3 3 3 3 3 3 3 3 3 3 3 3 3 3 3 3 3 3 3 3 3 3 3 3 3 3 3 3 3 3 3 3 3 3 3 3 3 3 3 3 3 3 3 3 3 3 3 3 3 3 3 3 3 3 3 3 3 3 3 3 3 3 3 3 3 3 3 3 3 3 3 3 3 3 3 3 3 3 3 3 3 3 3 3 3 3 3 3 3 3 3 3 3 3 3 3 3 3 3 3 3 3 3 3 3 3 3 3 3 3 3 3 3 3 3 3 3 3 3 3 3 3 3 3 3 3 3 3 3 3 3 3 3 3 3 3 3 3 3 3 3 3 3 3 3 3 3 3 3 3 3 3 3 3 3 3 3 3 3 3 3 3 3 3 3 3 3 3 3 3 3 3 3 3 3 3 3 3 3 3 3 3 3 3 3 3 3 3 3 3 3 3 3 3 3 3 3 3 3 3 3 3 3 3 3 3 3 3 3 3 3 3 3 3 3 3 3 3 3 3 3 3 3 3 3 3 3 3 3 3 3 3 3 3 3 3 3 3 3 3 3 3 3 3 3 3 3 3 3 3 3 3 3 3 3 3 3 3 3 3 3 3 3 3 3 3 3 3 3 3 3 3 3 3 3 3 3 3 3 3 3 3 3 3 3 3 3 3 3 3 3 3 3 3 3 3 3 3 3 3 3 3 3 3 3 3 3 3 3 3 3 3 3 3 3 3 3 3 3 3 3 3 3 3 3 3 3 3 3 3 3 3 3 3 3 3 3 3 3 3 3 3 3 3 3 3 3 3 3 3 3 3 3 3 3 3 3 3 3 3 3 3 3 3 3 3 3 3 3 3 3 3 3 3 3 3 3 3 3 3 3 3 3 3 3 3 3 3 3 3 3 3 3 3 3 3 3 3 3 3 3 3 3 3 3 3 3 3 3 3 3 3 3 3 3 3 3 3 3 3 3 3 3 3 3 3 3 3 3 3 3 3 3 3 3 3 3 3 3 3 3 3 3 3 3 3 3 3 3 3 3 3 3 3 3 3 3 3 3 3 3 3 3 3 3 3 3 3 3 3 3 3 3 3 3 3 3 3 3 3 3 3 3 3 3 3 3 3 3 3 3 3 3 3 3 3 3 3 3 3 3 3 3 3 3 3 3 3 3 3 3 3 3 3 3 3 3 3 3 3 3 3 3 3 3 3 3 3 3 3 3 3 3 3 3 3 3 3 3 3 3 3 3 3 3 3 3 3 3 3 3 3 3 3 3 3 3 3 3 3 3 3 3 3 3 3 3 3 3 3 3 3 3 3 3 3 3 3 3 3 3 3 3 3 3 3 3 3 3 3 3 3 3 3 3 3 3 3 3 3 3 3 3 3 3 3 3 3 3 3 3 3 3 3 3 3 3 3 3 3 3 3 3 3 3 3 3 3 3 3 3 3 3 3 3 3 3 3 3 3 3 3 3 3 3 3 3 3 3 3 3 3 3 3 3 3 3 3 3 3 3 3 3 3 3 3 3 3 3 3 3 3 3 3 3 3 3 3 3 3 3 3 3 3 3 3 3 3 3 3 3 3 3 3 3 3 3 3 3 3 3 3 3 3 3 3 3 3 3 3 3 3 3 3 3 3 3 3 3 3 3 3 3 3 3 3 3 3 3 3 3 3 3 3 3 3 3 3 3 3 3 3 3 3 3 3 3 3 3 3 3 3 3 3 3 3 3 3 3 3 3 3 3 3 3 3 3 3 3 3 3 3 3 3 3 3 3 3 3 3 3 3 3 3 3 3 3 3 3 3 3 3 3 3 3 3 3 3 3 3 3 3 3 3 3 3 3 3 3 3 3 3 3 3 3 3 3 3 3 3 3 3 3 3 3 3 3 3 3 3 3 3 3 3 3 3 3 3 3 3 3 3 3 3 3 3 3 3 3 3 3 3 3 3 3 3 3 3 3 3 3 3 3 3 3 3 3 3 3 3 3 3 3 3 3 3 3 3 3 3 3 3 3 3 3 3 3 3 3 3 3 3 3 3 3 3 3 3 3 3 3 3 3 3 3 3 3 3 3 3 3 3 3 3 3 3 3 3 3 3 3 3 3 3 3 3 3 3 3 3 3 3 3 3 3 3 3 3 3 3 3 3 3 3 3 3 3 3 3 3 3 3 3 3 3 3 3 3 3 3 3 3 3 3 3 3 3 3 3 3 3 3 3 3 3 3 3 3 3 3 3 3 3 3 3 3 3 3 3 3 3 3 3 3 3 3 3 3 3 3 3 3 3 3 3 3 3 3 3 3 3 3 3 3 3 3 3 3 3 3 3 3 3 3 3 3 3 3 3 3 3 3 3 3 3 3 3 3 3 3 3 3 3 3 3 3 3 3 3 3 3 3 3 3 3 3 3 3 3 3 3 3 3 3 3 3 3 3 3 3 3 3 3 3 3 3 3 3 3 3 3 3 3 3 3 3 3 3 3 3 3 3 3 3 3 3 3 3 3 3 3 3 3 3 3 3 3 3 3 3 3 3 3 3 3 3 3 3 3 3 3 3 3 3 3 3 3 3 3 3 3 3 3 3 3 3 3 3 3 3 3 3 3 3 3 3 3 3 3 3 3 3 3 3 3 3 3 3 3 3 3 3 3 3 3 3 3 3 3 3 3 3 3 3 3 3 3 3 3 3 3 3 3 3 3 3 3 3 3 3 3 3 3 3 3 3 3 3 3 3 3 3 3 3 3 3 3 3 3 3 3 3 3 3 3 3 3 3 3 3 3 3 3 3 3 3 3 3 3 3 3 3 3 3 3 3 3 3 3 3 3 3 3 3 3 3 3 3 3 3 3 3 3 3 3 3 3 3 3 3 3 3 3 3 3 3 3 3 3 3 3 3 3 3 3 3 3 3 3 3 3 3 3 3 3 3 3 3 3 3 3 3 3 3 3 3 3 3 3 3 3 3 3 3 3 3 3 3 3 3 3 3 3 3 3 3 3 3 3 3 3 3 3 3 3 3 3 3 3 3 3 3 3 3 3 3 3 3 3 3 3 3 3 3 3 3 3 3 3 3 3 3 3 3 3 3 3 3 3 3 3 3 3 3 3 3 3 3 3 3 3 3 3 3 3 3 3 3 3 3 3 3 3 3 3 3 3 3 3 3 3 3 3 3 3 3 3 3 3 3 3 3 3 3 3 3 3 3 3 3 3 3 3 3 3 3 3 3 3 3 3 3 3 3 3 3 3 3 3 3 3 3 3 3 3 3 3 3 3 3 3 3 3 3 3 3 3 3 3 3 3 3 3 3 3 3 3 3 3 3 3 3 3 3 3 3 3 3 3 3 3 3 3 3 3 3 3 3 3 3 3 3 3 3 3 3 3 3 3 3 3 3 3 3 3 3 3 3 3 3 3 3 3 3 3 3 3 3 3 3 3 3 3 3 3 3 3 3 3 3 3 3 3 3 3 3 3 3 3 3 3 3 3 3 3 3 3 3 3 3 3 3 3 3 3 3 3 3 3 3 3 3 3 3 3 3 3 3 3 3 3 3 3 3 3 3 3 3 3 3 3 3 3 3 3 3 3 3 3 3 3 3 3 3 3 3 3 3 3 3 3 3 3 3 3 3 3 3 3 3 3 3 3 3 3 3 3 3 3 3 3 3 3 3 3 3 3 3 3 3 3 3 3 3 3 3 3 3 3 3 3 3 3 3 3 3 3 3 3 3 3 3 3 3 3 3 3 3 3 3 3 3 3 3 3 3 3 3 3 3 3 3 3 3 3 3 3 3 3 3 3 3 3 3 3 3 3 3 3 3 3 3 3 3 3 3 3 3 3 3 3 3 3 3 3 3 3 3 3 3 3 3 3 3 3 3 3 3 3 3 3 3 3 3 3 3 3 3 3 3 3 3 3 3 3 3 3 3 3 3 3 3 3 3 3 3 3 3 3 3 3 3 3 3 3 3 3 3 3 3 3 3 3 3 3 3 3 3 3 3 3 3 3 3 3 3 3 3 3 3 3 3 3 3 3 3 3 3 3 3 3 3 3 3 3 3 3 3 3 3 3 3 3 3 3 3 3 3 3 3 3 3 3 3 3 3 3 3 3 3 3 3 3 3 3 3 3 3 3 3 3 3 3 3 3 3 3 3 3 3 3 3 3 3 3 3 3 3 3 3 3 3 3 3 3 3 3 3 3 3 3 3 3 3 3 3 3 3 3 3 3 3 3 3 3 3 3 3 3 3 3 3 3 3 3 3 3 3 3 3 3 3 3 3 3 3 3 3 3 3 3 3 3 3 3 3 3 3 3 3 3 3 3 3 3 3 3 3 3 3 3 3 3 3 3 3 3 3 3 3 3 3 3 3 3 3 3 3 3 3 3 3 3 3 3 3 3 3 3 3 3 3 3 3 3 3 3 3 3 3 3 3 3 3 3 3 3 3 3 3 3 3 3 3 3 3 3 3 3 3 3 3 3 3 3 3 3 3 3 3 3 3 3 3 3 3 3 3 3 3 3 3 3 3 3 3 3 3 3 3 3 3 3 3 3 3 3 3 3 3 3 3 3 3 3 3 3 3 3 3 3 3 3 3 3 3 3 3 3 3 3 3 3 3 3 3 3 3 3 3 3 3 3 3 3 3 3 3 3 3 3 3 3 3 3 3 3 3 3 3 3 3 3 3 3 3 3 3 3 3 3 3 3 3 3 3 3 3 3 3 3 3 3 3 3 3 3 3 3 3 3 3 3 3 3 3 3 3 3 3 3 3 3 3 3 3 3 3 3 3 3 3 3 3 3 3 3 3 3 3 3 3 3 3 3 3 3 3 3 3 3 3 3 3 3 3 3 3 3 3 3 3 3 3 3 3 3 3 3 3 3 3 3 3 3 3 3 3 3 </DataArray>
</Cells>
<CellData  Scalars="f">
<DataArray  type="Float64"  Name="f"  format="ascii">0 0 0 0 0 0 0 0 0 0 0 0 0 0 0 0 0 0 0 0 0 0 0 0 0 0 0 0 0 0 0 0 0 0 0 0 0 0 0 0 0 0 0 0 0 0 0 0 0 0 0 0 0 0 0 0 0 0 0 0 0 0 0 0 0 0 0 0 0 0 0 0 0 0 0 0 1 1 0 0 0 0 0 1 0 0 0 0 0 0 0 0 0 0 0 0 0 0 0 0 0 0 0 0 0 0 0 0 0 0 0 0 0 0 0 0 0 0 0 0 0 0 0 0 0 0 0 0 0 0 0 0 0 0 0 0 0 0 0 0 0 0 0 0 0 0 0 0 0 0 0 0 0 0 0 0 0 0 0 0 0 0 0 0 0 0 0 0 0 0 0 0 0 0 0 0 0 0 0 0 0 0 0 0 0 0 0 0 0 0 0 0 0 0 0 0 0 0 0 0 0 0 0 0 0 0 0 0 0 0 0 0 0 0 0 0 0 0 0 0 0 0 0 0 0 0 0 0 0 0 0 0 0 0 0 0 0 0 0 0 0 0 0 0 0 0 0 0 0 0 0 0 0 0 0 0 0 0 0 0 0 0 0 0 0 0 0 0 0 0 0 0 0 0 0 0 0 0 0 0 0 0 0 0 0 0 0 0 0 0 0 0 0 0 1 0 0 0 0 1 0 0 1 0 0 0 0 0 0 0 0 0 0 0 0 0 0 0 0 0 0 0 0 0 0 1 1 0 0 0 0 0 0 0 0 0 0 0 0 0 0 0 0 0 0 0 0 0 0 0 0 0 0 0 0 0 0 0 0 0 0 0 0 0 0 0 0 1 0 0 1 0 1 0 0 0 0 0 0 0 0 0 0 0 0 0 0 0 0 0 0 0 0 0 0 0 0 0 0 0 0 0 0 0 0 0 0 0 0 0 0 0 0 0 0 0 0 0 0 0 0 0 0 0 0 0 0 0 0 0 0 0 0 0 0 0 0 0 0 0 0 0 0 0 0 0 0 0 0 0 0 0 0 0 0 0 0 0 0 0 0 0 0 0 0 0 0 0 0 0 0 0 0 0 0 0 0 0 0 0 0 0 0 0 0 0 0 0 0 0 0 0 0 0 0 0 0 0 0 0 0 0 0 0 0 0 0 0 0 0 0 0 0 0 0 0 0 0 0 0 0 0 0 0 0 0 0 0 0 0 0 0 0 0 0 0 0 0 0 0 0 0 0 0 0 0 0 0 1 0 0 0 0 0 0 0 1 0 0 0 0 0 0 0 0 0 0 0 0 0 0 0 0 0 0 0 0 0 0 0 0 0 0 0 0 0 0 0 0 0 0 0 0 0 0 0 0 0 0 0 0 0 0 0 0 0 0 0 0 0 0 0 0 0 0 0 0 0 0 0 0 0 0 0 0 0 0 0 0 0 0 0 0 0 0 0 1 0 0 1 0 0 1 0 0 0 0 0 0 0 0 0 0 0 0 0 0 0 0 0 0 0 0 0 0 0 0 0 0 0 0 0 0 0 0 0 0 0 0 0 0 0 0 0 0 0 0 0 0 0 0 0 0 0 0 0 0 0 0 0 0 0 0 0 0 0 0 0 0 0 0 0 0 0 0 0 0 0 1 1 0 0 0 0 0 0 0 0 0 0 0 0 0 0 0 0 0 1 0 1 0 0 1 0 0 0 0 0 0 0 0 0 0 0 0 0 0 0 0 0 0 0 0 0 0 0 0 0 0 0 0 0 0 0 0 0 0 0 0 0 0 0 0 0 0 0 0 0 0 0 0 0 0 0 0 0 0 0 0 0 0 0 0 0 0 0 0 0 0 0 0 0 0 0 0 0 0 0 0 0 0 0 0 0 0 0 0 0 0 0 0 0 0 0 0 0 0 0 0 0 0 0 0 0 0 0 0 0 0 0 0 0 0 0 0 0 0 0 1 0 0 1 0 1 0 0 0 0 0 0 0 0 0 0 0 0 0 0 0 0 0 0 0 0 0 0 0 0 0 0 0 0 0 0 0 0 0 0 0 0 0 0 0 0 0 0 0 0 0 0 0 0 0 0 0 0 0 0 0 0 0 0 0 0 0 0 0 0 0 0 0 0 0 0 0 0 0 0 0 0 0 0 0 0 0 0 0 0 0 0 0 0 0 0 0 0 0 0 0 0 0 0 0 0 0 0 0 0 0 0 0 0 0 0 0 0 0 0 0 0 0 0 0 0 0 0 0 0 0 1 1 0 0 0 0 1 0 0 0 0 0 0 0 0 0 0 0 0 0 0 0 0 0 0 0 0 0 0 0 0 0 0 0 0 0 0 0 0 0 0 0 0 0 0 0 0 0 0 0 0 0 0 0 0 0 0 0 0 0 0 0 0 0 0 0 0 0 0 0 0 0 0 0 0 0 0 0 0 0 0 0 0 0 0 0 0 0 0 0 0 0 0 0 0 0 0 0 0 0 0 0 0 0 0 0 0 0 0 0 0 0 0 0 0 0 0 0 0 0 0 0 0 0 0 0 0 0 0 0 0 0 0 0 0 0 0 0 0 0 0 0 0 0 0 0 0 0 0 0 0 0 0 0 0 0 0 0 0 0 0 0 0 0 0 0 0 0 0 0 0 0 0 0 0 0 0 0 0 0 0 0 0 0 0 0 0 0 0 0 0 1 0 1 0 0 1 0 0 0 0 0 0 0 0 0 0 0 0 0 0 0 0 0 0 0 0 0 0 0 0 0 0 0 0 0 0 0 0 0 0 0 0 0 0 0 0 0 0 0 0 0 0 0 0 0 0 0 0 0 0 0 0 0 0 0 0 0 0 0 0 0 0 0 0 0 0 0 0 0 0 0 0 0 0 0 0 0 0 0 0 0 0 0 0 0 0 0 0 0 0 0 0 0 0 0 0 0 0 0 0 0 0 0 0 0 0 0 0 0 0 0 0 0 0 0 0 0 0 0 0 0 0 0 0 0 0 0 0 0 0 0 0 0 0 0 0 0 0 0 0 0 0 0 0 0 0 0 0 0 0 0 0 0 0 0 0 0 0 0 0 0 0 0 0 0 0 0 0 0 0 0 0 0 0 0 0 0 0 0 0 0 0 0 0 0 0 0 0 0 0 0 1 0 0 0 0 0 0 0 0 0 0 0 0 0 0 0 0 0 0 0 0 0 0 0 0 0 0 0 0 0 0 0 0 0 0 0 0 0 0 0 0 1 0 0 0 0 0 0 1 0 0 1 1 0 0 0 0 0 0 0 0 0 0 0 0 0 0 0 0 0 0 0 0 0 0 0 0 0 0 0 0 0 0 0 1 1 0 0 0 0 0 0 1 0 0 1 0 1 0 0 0 0 0 0 0 0 0 0 0 0 0 0 0 0 0 0 0 0 0 0 0 0 0 0 0 0 0 0 0 0 0 0 0 0 0 0 0 0 0 0 0 0 0 0 0 0 0 0 0 0 0 0 0 0 0 0 0 0 0 0 0 0 0 0 0 0 0 0 0 0 0 0 0 0 0 0 0 0 0 0 0 0 0 0 0 0 0 0 0 0 0 0 0 0 0 0 0 0 0 0 0 0 0 0 0 0 0 0 0 0 0 0 0 0 0 0 0 0 0 0 0 0 0 0 0 0 0 0 0 0 0 0 0 0 0 0 0 0 0 0 0 0 0 0 0 0 0 0 0 0 0 0 0 0 0 0 0 0 0 0 0 0 0 0 0 0 0 0 0 0 0 0 0 0 0 0 0 0 0 0 0 0 0 0 0 0 0 0 0 0 0 0 0 0 0 0 0 0 0 0 0 0 0 0 0 0 0 0 0 0 0 0 0 0 0 0 0 0 0 0 0 0 0 0 0 0 0 0 0 0 0 0 0 0 0 0 0 0 0 0 0 0 0 0 0 0 0 0 0 0 0 0 0 0 0 0 0 0 0 0 0 0 0 0 0 0 0 0 0 0 0 0 0 0 0 0 0 0 0 0 0 0 0 0 0 0 0 0 0 0 0 0 0 0 0 0 0 0 0 0 0 0 0 0 0 0 0 0 0 0 0 0 0 0 0 0 0 0 1 0 0 0 1 0 0 1 0 0 1 0 0 0 0 0 0 0 0 0 0 0 0 0 0 1 0 1 1 0 0 0 0 0 0 0 0 0 0 0 0 0 0 0 0 0 0 0 0 0 0 0 0 0 0 0 0 0 0 0 0 0 0 0 0 0 0 0 0 0 0 0 0 0 0 0 0 0 0 0 0 0 0 0 0 0 0 0 0 0 0 0 0 0 0 0 0 0 0 0 0 0 0 0 0 0 0 0 0 0 0 0 0 0 0 0 0 0 1 1 0 0 0 0 0 0 0 0 1 1 0 0 0 0 0 0 0 0 0 0 0 0 0 0 0 0 0 0 0 0 0 0 0 0 0 0 0 0 0 0 0 0 0 0 0 0 0 0 0 0 0 0 0 0 0 0 0 0 1 0 0 0 0 0 0 0 0 0 0 0 0 0 0 0 1 0 0 0 0 0 0 0 0 0 0 0 1 1 0 1 0 0 0 0 0 0 0 0 0 0 0 0 0 0 0 0 1 1 0 0 0 0 0 0 0 0 0 0 0 0 0 0 0 0 0 0 0 0 0 0 0 0 0 0 0 0 0 0 0 0 0 0 0 0 0 0 0 0 0 0 0 0 0 0 0 0 0 0 0 1 0 0 0 0 0 0 1 0 1 0 1 0 0 0 0 0 0 0 0 0 0 0 0 0 0 0 0 0 0 0 0 0 0 0 0 0 0 0 0 0 0 0 0 0 0 0 0 1 0 0 0 0 0 0 0 0 0 0 0 0 0 0 0 0 0 0 0 0 0 0 0 0 0 0 1 1 0 0 0 0 0 0 0 0 0 0 0 0 0 0 0 0 0 0 0 0 0 0 0 0 0 0 1 0 0 0 0 0 0 0 0 0 0 0 0 0 0 0 0 0 0 0 0 0 0 0 0 1 0 0 1 0 0 0 0 0 0 0 0 0 0 0 1 0 0 0 0 0 0 0 0 0 0 0 0 0 0 0 0 0 0 0 0 0 0 0 0 0 0 0 0 0 0 0 0 0 0 0 0 0 0 0 0 0 0 0 0 0 1 0 0 0 0 0 0 0 0 0 0 0 0 0 0 0 0 0 0 0 0 0 0 0 0 0 0 0 0 0 0 0 0 0 0 0 0 0 0 0 0 0 0 0 0 0 0 0 0 0 0 0 0 0 0 0 0 0 0 0 0 0 0 0 0 0 0 0 0 0 0 0 0 0 0 0 0 0 0 0 0 0 0 0 0 0 0 0 0 0 0 0 0 0 0 0 0 0 0 0 0 0 0 0 0 0 0 0 0 0 0 0 0 0 0 0 0 0 0 0 0 0 0 0 0 1 0 0 0 0 0 0 0 0 0 0 0 0 1 0 0 0 0 0 0 0 0 0 0 0 0 0 0 0 0 0 0 0 0 0 0 0 0 0 0 0 0 0 0 0 0 0 0 0 0 0 0 0 0 0 0 0 0 1 1 0 0 0 0 0 0 0 0 0 0 0 0 0 0 1 0 0 0 0 0 0 0 0 0 0 0 0 0 0 0 0 0 0 0 0 0 0 0 0 0 0 0 0 0 0 0 0 0 0 0 0 0 0 0 0 0 0 0 0 0 0 0 0 0 0 0 0 0 0 0 0 0 0 0 0 0 1 1 0 0 1 0 0 0 0 0 1 1 0 0 0 0 0 1 0 0 0 0 0 0 0 0 0 0 0 0 0 0 0 0 0 0 0 0 1 1 1 0 0 0 1 0 0 1 1 1 1 1 0 0 0 0 0 0 0 1 1 0 0 0 0 0 1 0 0 0 0 0 0 0 0 0 0 0 0 0 0 0 1 0 0 0 0 0 0 0 0 0 0 0 0 0 0 0 1 0 1 0 1 1 0 0 0 0 </DataArray>
</CellData>
</Piece>
</UnstructuredGrid>
</VTKFile>