<?xml version="1.0"?>
<VTKFile type="UnstructuredGrid"  version="0.1"  >
<UnstructuredGrid>
<Piece  NumberOfPoints="39" NumberOfCells="93">
<Points>
<DataArray  type="Float64"  NumberOfComponents="3"  format="ascii">-1 -0.6 0  -1 -1 0  1 -1 0  1 -0.7 0  0.65 -0.6 0  0.3 -0.25 0  -0.6 -0.45 0  1 0 0  0.6 0 0  0.7 -0.2 0  0 0 0  -1 0 0  -0.35 0 0  -1 0.8 0  1 0.65 0  0.8 0.7 0  0.5 0.9 0  0.3 0.8 0  -1 1 0  1 1 0  0 -1 0  -0.2339298524310177 -0.3686510783180039 0  1 -0.35 0  -0.3 -0.225 0  0.3 0 0  0 1 0  0.5 -1 0  -0.35 0.8 0  0.5 1 0  -0.5 1 0  -0.02499999999999999 0.8 0  0.25 1 0  -0.675 0.8 0  -0.25 1 0  -0.75 1 0  0.75 1 0  0.65 0.8 0  0.4969999999999993 0.4080000000000001 0  1 0.325 0  </DataArray>
</Points>
<Cells>
<DataArray  type="UInt32"  Name="connectivity"  format="ascii">0 1  0 6  0 11  1 6  1 20  2 3  2 4  2 26  3 4  3 22  4 5  4 9  4 20  4 22  4 26  5 8  5 9  5 10  5 20  5 21  5 24  6 11  6 12  6 20  6 21  6 23  7 8  7 9  7 22  7 38  8 9  8 24  8 37  8 38  9 22  10 12  10 21  10 23  10 24  10 30  10 37  11 12  11 13  11 32  12 23  12 27  12 30  12 32  13 18  13 32  13 34  14 15  14 19  14 38  15 19  15 35  15 36  15 37  15 38  16 17  16 28  16 31  16 35  16 36  17 30  17 31  17 36  17 37  18 34  19 35  20 21  20 26  21 23  24 37  25 30  25 31  25 33  27 29  27 30  27 32  27 33  28 31  28 35  29 32  29 33  29 34  30 31  30 33  30 37  32 34  35 36  36 37  37 38  </DataArray>
<DataArray  type="UInt32"  Name="offsets"  format="ascii">2 4 6 8 10 12 14 16 18 20 22 24 26 28 30 32 34 36 38 40 42 44 46 48 50 52 54 56 58 60 62 64 66 68 70 72 74 76 78 80 82 84 86 88 90 92 94 96 98 100 102 104 106 108 110 112 114 116 118 120 122 124 126 128 130 132 134 136 138 140 142 144 146 148 150 152 154 156 158 160 162 164 166 168 170 172 174 176 178 180 182 184 186 </DataArray>
<DataArray  type="UInt8"  Name="types"  format="ascii">3 3 3 3 3 3 3 3 3 3 3 3 3 3 3 3 3 3 3 3 3 3 3 3 3 3 3 3 3 3 3 3 3 3 3 3 3 3 3 3 3 3 3 3 3 3 3 3 3 3 3 3 3 3 3 3 3 3 3 3 3 3 3 3 3 3 3 3 3 3 3 3 3 3 3 3 3 3 3 3 3 3 3 3 3 3 3 3 3 3 3 3 3 </DataArray>
</Cells>
<CellData  Scalars="f">
<DataArray  type="Float64"  Name="f"  format="ascii">0 6 0 0 0 0 0 0 10 0 10 0 0 0 0 0 7 0 0 9 0 0 0 0 9 5 4 0 0 0 8 3 0 0 0 2 0 5 3 0 0 2 0 0 0 0 0 0 0 1 0 1 0 0 0 0 1 0 0 1 0 0 0 1 1 0 0 0 0 0 0 0 0 0 0 0 0 0 1 1 0 0 0 0 0 0 0 0 0 0 0 0 0 </DataArray>
</CellData>
</Piece>
</UnstructuredGrid>
</VTKFile>