<?xml version="1.0"?>
<VTKFile type="UnstructuredGrid"  version="0.1"  >
<UnstructuredGrid>
<Piece  NumberOfPoints="25" NumberOfCells="48">
<Points>
<DataArray  type="Float64"  NumberOfComponents="3"  format="ascii">-0.5 1 0  -0.675 0.8 0  -0.75 1 0  -1 0.8 0  -1 1 0  -0.8375 0.8 0  0.3 0.8 0  0.25 1 0  0.1375 0.8 0  0.5 0.9 0  0.5 1 0  0.75 1 0  -0.35 0.8 0  -0.5125 0.8 0  -0.25 1 0  0 1 0  -0.02499999999999999 0.8 0  -0.1875 0.8 0  0.875 1 0  0.8125 0.85625 0  0.65 0.8 0  0.8 0.7 0  1 0.825 0  1 0.65 0  1 1 0  </DataArray>
</Points>
<Cells>
<DataArray  type="UInt32"  Name="connectivity"  format="ascii">0 1  0 2  0 12  0 13  0 14  1 2  1 5  1 13  2 4  2 5  3 4  3 5  4 5  6 7  6 8  6 9  7 8  7 9  7 10  7 15  8 15  8 16  9 10  9 11  9 20  10 11  11 18  11 19  11 20  12 13  12 14  12 17  14 15  14 17  15 16  15 17  16 17  18 19  18 22  18 24  19 20  19 21  19 22  20 21  21 22  21 23  22 23  22 24  </DataArray>
<DataArray  type="UInt32"  Name="offsets"  format="ascii">2 4 6 8 10 12 14 16 18 20 22 24 26 28 30 32 34 36 38 40 42 44 46 48 50 52 54 56 58 60 62 64 66 68 70 72 74 76 78 80 82 84 86 88 90 92 94 96 </DataArray>
<DataArray  type="UInt8"  Name="types"  format="ascii">3 3 3 3 3 3 3 3 3 3 3 3 3 3 3 3 3 3 3 3 3 3 3 3 3 3 3 3 3 3 3 3 3 3 3 3 3 3 3 3 3 3 3 3 3 3 3 3 </DataArray>
</Cells>
<CellData  Scalars="f">
<DataArray  type="Float64"  Name="f"  format="ascii">0 0 0 0 0 0 1 1 0 0 0 1 0 0 1 1 0 0 0 0 0 1 0 0 1 0 0 0 0 1 0 1 0 0 0 0 1 0 0 0 0 0 0 1 0 1 0 0 </DataArray>
</CellData>
</Piece>
</UnstructuredGrid>
</VTKFile>