<?xml version="1.0"?>
<VTKFile type="Collection" version="0.1">
  <Collection>
    <DataSet timestep="0" part="0" file="interface_marker_subdomain3_meshrez128000000.vtu" />
  </Collection>
</VTKFile>
