<?xml version="1.0"?>
<VTKFile type="UnstructuredGrid"  version="0.1"  >
<UnstructuredGrid>
<Piece  NumberOfPoints="602" NumberOfCells="1697">
<Points>
<DataArray  type="Float64"  NumberOfComponents="3"  format="ascii">-0.4233508485569307 -0.7122032990376439 0  -0.4691901090828494 -0.675870715600366 0  -0.4637517194439327 -0.7160923380296638 0  -0.54317993104679 -0.4896072370716429 0  -0.5134896558394894 -0.5238988435395466 0  -0.5731389035486196 -0.531194358921004 0  0.65 -0.6 0  0.6937500000000001 -0.6125 0  0.6570313490073495 -0.6419907848676347 0  -0.8883368541347748 -0.8885460676684686 0  -0.9402775552286105 -0.9322047220178815 0  -0.8864873493442048 -0.945736436299116 0  0.4446935738432771 -0.6307002264188076 0  0.4410767172930534 -0.5805700904943141 0  0.399542867608721 -0.5957753404268964 0  -0.25 -0.7336182109444316 0  -0.2281801862807195 -0.6763946071004836 0  -0.2795811096957068 -0.6698918630196479 0  -0.1575619126769233 -0.4783113340184518 0  -0.09071299619478018 -0.5009008243855225 0  -0.09387132115812022 -0.4540569273550274 0  -0.7601274754451701 -0.6842943424933031 0  -0.7319912331120336 -0.7248364142811563 0  -0.7087554664019911 -0.6926072365677995 0  0.2033841152791955 -0.4455623723207756 0  0.2249338516957566 -0.4108315797972216 0  0.2443358418748456 -0.4469210907962791 0  0.1371176409882731 -0.3732421676384599 0  0.07189374619471288 -0.376560651595826 0  0.1061153141711214 -0.4065380619837133 0  0.8045470027247956 -0.8286529291553133 0  0.75774338759212 -0.8609312844192276 0  0.7592063919893166 -0.8158303292262675 0  -0.125 -0.8668091054722158 0  -0.08148091796921769 -0.8310287561341341 0  -0.1212269118032331 -0.827042288172875 0  0.0668421478733143 -0.4416732474757012 0  0.05452213206223458 -0.4867061292007372 0  0.1010478120256405 -0.4632020052028982 0  0.375 -0.8262406015037593 0  0.4170528365215422 -0.7894536114316733 0  0.3782730833383083 -0.776550724698714 0  -0.3616428668594382 -0.9250083017560411 0  -0.3124273392537691 -0.9463546107646557 0  -0.3500782965675895 -0.9657535239909782 0  -0.5547546390860892 -0.7966871228912339 0  -0.5547070665761218 -0.8422841765368283 0  -0.588361639096219 -0.8195207375275386 0  0.1881584815406703 -0.3929936640306921 0  0.5960348356610233 -0.6335134660196586 0  0.551364859630628 -0.6442005154922058 0  0.5959080794449673 -0.6765958566877779 0  -0.8955958357093489 -0.7 0  -0.852919353755087 -0.7009368581311323 0  -0.873933994536031 -0.6708841566092348 0  -0.8 -0.525 0  -0.75 -0.5062500000000001 0  -0.7605119908983216 -0.5570955702212477 0  -0.3372617610793822 -0.463298477939004 0  -0.3240049315589356 -0.5221619194543421 0  -0.2990257949015627 -0.4693775102402264 0  -0.3084843961487728 -0.5939707301412883 0  -0.3410930909235972 -0.5634369873743631 0  -0.3063285811712074 -0.553654890127754 0  0.06841009629115687 -0.64429525305166 0  0.09212850118366395 -0.6720532791872018 0  0.03730003534197477 -0.6668052096486351 0  0.3493941477868336 -0.6963816165626817 0  0.3046363076399017 -0.6467620599154513 0  0.2818304966988043 -0.6999656893593569 0  0.638815865570835 -0.6804727552672545 0  0.5013393170898814 -0.8671952186826768 0  0.4324922470481338 -0.8642319375888547 0  0.4655964290312827 -0.8963666239056765 0  0.5635477692076259 -0.8439377700741143 0  0.5760296906324242 -0.8936157399610414 0  0.6030241687946033 -0.8526925189974701 0  0.4546815463009607 -0.7444502064322289 0  0.3936902371533298 -0.7387001618067294 0  0.3912658720581528 -0.6479199756768594 0  0.1894644800197132 -0.3382800150754238 0  0.9125 -0.6749999999999999 0  0.85622844655168 -0.7063254370691198 0  0.9021516047584162 -0.7226151406378459 0  0.2516920576395977 -0.3477811861603878 0  0.2657795940394881 -0.4093334405090008 0  0.2210624060126391 -0.3719853544026072 0  0.3 -0.25 0  0.2758460288197989 -0.2988905930801939 0  0.2666293842230614 -0.2574156923948753 0  -0.4650277107670038 -0.75665989697586 0  -0.5041165829743118 -0.7896181091737136 0  -0.5275341858588781 -0.75506819698918 0  -0.3848661100966894 -0.6505306447612472 0  -0.4255590772389775 -0.6679814502261632 0  -0.3935716156530556 -0.6864012664815518 0  -0.8053602058319039 -0.8129502572898799 0  -0.77395498835418 -0.7647041193253791 0  -0.8106629100316793 -0.7693909926687721 0  -0.4106693002153349 -0.7750003928428091 0  -0.3875716811949259 -0.7376569146745938 0  0.03303507378449114 -0.309325539159002 0  0.03363793132582286 -0.3538238976921454 0  0.06640568956142975 -0.3019098467641267 0  -0.0625 -1 0  -0.03187536253366814 -0.9449995740031956 0  -0.06698663629447166 -0.9614755847532581 0  -0.04733739779451589 -0.7862139825696403 0  -0.0002219383377920076 -0.8082661737076425 0  -0.03824537469401116 -0.8289506819731393 0  -0.0009509862801871938 -0.6634298010629341 0  -0.004401880623100152 -0.7001956041550234 0  -0.2757640043094937 -0.5027294379440027 0  0.7109930830039526 -0.717774209486166 0  0.7654132536343176 -0.6831490224951805 0  0.7309232617587762 -0.663931134837233 0  0.09066319440072067 -0.8825610970088116 0  0.04256593727023599 -0.8378527138020352 0  0.1047903830477812 -0.8414781590918393 0  0.2332587684461228 -0.2648313847897505 0  0.1807310180503007 -0.6052172065808061 0  0.1918418843320948 -0.5580597212376373 0  0.1481206299930983 -0.5569685068782579 0  0.2271684569887811 -0.4958607049545852 0  0.1885756463616415 -0.4833373476248987 0  0.2113904021136806 -0.5280309497393496 0  -0.9 -0.5625 0  -0.8500000000000001 -0.54375 0  -0.8615609488082135 -0.5889624698447637 0  -0.3270710121717562 -0.6491783463865517 0  -0.3565132851552422 -0.6265738507650441 0  -0.1726523229402777 -0.7614720288797179 0  -0.1119259311523308 -0.7836236396187495 0  -0.1331631668069315 -0.7475299408117652 0  -0.6167958481260989 -0.9249997376564668 0  -0.6593726860070099 -0.9556889504423911 0  -0.6570855004959422 -0.9139828847020115 0  -0.5110527309229975 -0.7167218516611731 0  -0.5363286880758084 -0.6718074152731346 0  -0.5423826425441602 -0.5588648561134525 0  -0.4759745635528682 -0.5729197425182022 0  -0.5245394536313336 -0.5911827349467852 0  -0.9376550667424555 -0.7461791178779145 0  -0.9439344448713538 -0.6982169471222422 0  -0.9701785560022276 -0.7260450642207728 0  -0.03370615776938608 -0.3241569239487525 0  -0.00620485967132391 -0.3529980174700645 0  -0.0003355419924474697 -0.3167412315538772 0  -0.05143949887340424 -0.5595238157628687 0  -0.03954060628473676 -0.4956346867714784 0  -0.396273846284344 -0.8853921729575791 0  -0.3554415660118149 -0.8713462309496349 0  -0.1875 -0.9334045527361079 0  -0.1826642245009953 -0.8753170108937612 0  -0.2222907328993781 -0.9016044706977178 0  -0.2871429099893293 -0.7974484025529812 0  -0.2600265555671748 -0.8285832122681416 0  -0.2967988523298027 -0.8332337659950844 0  -0.875 -1 0  -0.90625 -1 0  -0.6826932374878142 -0.7225969177049457 0  -0.7127956008513203 -0.6530813202050636 0  -0.6991926314127137 -0.6117921212702072 0  -0.6656020798317306 -0.6265239248432672 0  -0.2018525549328454 -0.4277339227550086 0  -0.1574234923478625 -0.4335087545774199 0  -0.1004473893232633 -0.3389883087385029 0  -0.05369194928477872 -0.3829983995417801 0  -0.09375 -0.9334045527361079 0  -0.07457938938181054 -0.8837789436931724 0  -0.1079093536524995 -0.8994190726547172 0  0.6140521578284442 -0.7478273314809474 0  0.5656139521098893 -0.748656021439709 0  0.6145390880167377 -0.7097767337898067 0  0.5110746461274919 -0.7313486548557798 0  0.4914416827732868 -0.770890383463506 0  0.625 -0.8187500000000001 0  0.6747950603062941 -0.8158045236494533 0  0.6340929298644625 -0.7810400816351398 0  0.5600836632679065 -0.7005274186591893 0  0.5148779057646496 -0.6940838312186987 0  0.7461276670829775 -0.7695513846398646 0  0.7909049081640348 -0.7837142800684906 0  0.891068381574993 -0.8932354821754794 0  0.840936090739024 -0.9402818502042825 0  0.8271561657465845 -0.8830283006125139 0  0.4693519134389902 -0.8091139840541386 0  -0.5625 -1 0  -0.53125 -0.946451817084228 0  -0.59375 -0.9654695343349248 0  0.625 -1 0  0.6406202936993723 -0.9439083922064637 0  0.59375 -0.967110579714318 0  -0.01656434517258057 -0.8664148455619838 0  0.0440540129369322 -0.8844775373526509 0  0.799944602104447 -0.7376287849619282 0  0.3288302386976393 -0.4127619832615607 0  0.3808039663060011 -0.402910590926537 0  0.3487520812673704 -0.3758386007916213 0  0.125 -1 0  0.1171340120103566 -0.9385607069459516 0  0.15625 -0.9647759232550124 0  0.1237984764672114 -0.6902214769824102 0  0.1385089268775367 -0.7361800526518986 0  0.08830581331980816 -0.7083638534470762 0  -0.1846139103566585 -0.633352479948799 0  -0.1325934854399518 -0.6289859141671829 0  -0.1654135804881503 -0.5916522115344698 0  -0.2578892950905941 -0.6228407653955579 0  -0.2309790679765636 -0.5806680138910456 0  -0.2197337088095884 -0.6175156408567869 0  -0.3539985753021521 -0.7660762948960289 0  -0.3960919377228545 -0.4643381648383527 0  -0.3403816897956758 -0.4247081969336017 0  -0.4169649262155088 -0.4093255391590019 0  -0.371206157769386 -0.3991569239487525 0  -0.8205461868369578 -0.8722337755635796 0  -0.7779441216242756 -0.8605761936160795 0  -0.8571979387483368 -0.8312583466743872 0  -0.850343988062811 -0.8974184578540499 0  1 -0.7 0  0.9485491463291371 -0.7374999999999999 0  0.95625 -0.6875 0  -0.4508690635920209 -0.8159294731013222 0  -0.1017974825771836 -0.7197816233020838 0  -0.07848010167546296 -0.7562053343076145 0  0.260745469792965 -0.6054661260979142 0  0.3018878029469788 -0.6057109062576618 0  0.01013715155121079 -0.4471502204731684 0  -0.01780812984480475 -0.4196806300045822 0  0.03590890255249837 -0.4176923657631286 0  0.3388091682924562 -0.7659227826472212 0  0.2999496819015325 -0.7906395045873611 0  0.3360091287071445 -0.8115299064392055 0  0.2724844651440093 -0.8276075704617729 0  0.2392857142857143 -0.6607142857142857 0  0.3036803622236792 -0.5646069134355285 0  0.7772735013623978 -0.9143264645776567 0  0.78125 -0.9627702727468237 0  0.732386750681199 -0.9118507322888284 0  0.7147735013623978 -0.8237014645776567 0  0.7122162992389692 -0.8700653201018322 0  -0.2622629942724947 -0.4572350132491598 0  0.3150873006005367 -0.3508006590421773 0  0.2986148037320855 -0.3869589812903506 0  0.107122505840895 -0.5721965286064361 0  0.1431832678464693 -0.5954503006497169 0  0.2396298728592392 -0.5500855174559041 0  -0.625 -0.7386363636363635 0  -0.6478525132254954 -0.7054543889784334 0  -0.5659137065420853 -0.7386641441684442 0  -0.4389765526894864 -0.6257864322885835 0  -0.4757051777098252 -0.6377851031161413 0  -0.3606045301278592 -0.7030042361426544 0  -0.3638135614250593 -0.801877373903407 0  -0.321954411896952 -0.7847110230492959 0  -0.3083759195531419 -0.7294159596242357 0  0.3665576799193244 -0.9028461836564907 0  0.3896160170253646 -0.8666193441457428 0  0.4080214829554129 -0.9037861205388633 0  -0.8845019225300647 -0.6361669188549646 0  -0.922336791811693 -0.6147742061971416 0  -0.8326949578325002 -0.9322134131191019 0  -0.7841110403894931 -0.9546408393587642 0  -0.8525699891837036 -0.9669039772216493 0  -0.7643369033495353 -0.8053093758412052 0  -0.2339298524310177 -0.3686510783180039 0  -0.2461857161551514 -0.4135541762110235 0  0.5426344001541996 -0.5991072913635719 0  0.5052111597032031 -0.5463005707137717 0  0.4882144773119945 -0.5980098083678869 0  0.4424897596031651 -0.53032951435766 0  0.3873508754577435 -0.5532592773153675 0  0.3992895934444625 -0.5042074096092163 0  -0.8466683896579315 -0.646935158926556 0  0.2691096761561731 -0.756436141132011 0  0.3171440797990488 -0.7270489406439514 0  -0.5511875524215551 -0.8877452212280661 0  -0.605786996501114 -0.8679891536891007 0  -0.5 -1 0  -0.6143229484165981 -0.527260092259468 0  -0.5872821240636893 -0.4923154016392836 0  -0.5987142302790276 -0.5881423359811833 0  -0.5566369757502656 -0.6094193398032124 0  0.9375 -1 0  0.90625 -0.9501117903149546 0  0.9547841473279389 -0.9437500000000001 0  0.75 -1 0  0.6875 -1 0  0.71875 -0.9546875 0  0.875 -1 0  0.8125 -1 0  -0.8458578551157012 -0.7808257701546314 0  -0.6609158904837579 -0.7749790882078365 0  -0.5984361058665462 -0.7780184559407128 0  -0.7985275810708677 -0.9220342793892878 0  0.3948054517534137 -0.4539231060352105 0  0.4470165682381518 -0.4744215865510877 0  0.429407105955329 -0.4315715093022814 0  0.3479596091717834 -0.646703643952477 0  0.3888337773911369 -0.6881383820798309 0  0.1415645839086921 -0.3232312758370301 0  0.0992088508524786 -0.3400712361122269 0  -1 -0.75 0  -0.9491067827557954 -0.796066116107256 0  -0.21875 -0.8295418642681242 0  -0.2212102785863756 -0.8655392692557949 0  0.3125 -1 0  0.3246966998563586 -0.9431702911416717 0  0.2773666232150583 -0.9424328876282663 0  0.2282892299097594 -0.8864166586147987 0  0.184713507929795 -0.8774352039280221 0  0.23757373308978 -0.8473830142679724 0  -0.7098375541350513 -0.5524555325741354 0  -0.1215966579059064 -0.5779539507577042 0  -0.1420599580070253 -0.5290280225892414 0  -0.2208706825124101 -0.4653926770474313 0  0.3561142259522707 -0.6041546828228505 0  0.3449707009207192 -0.5549152046400221 0  0.5625 -0.934221159428636 0  0.5335929505149886 -0.8991813223163438 0  0.4375 -0.9329605524341096 0  -0.1875 -1 0  -0.21875 -0.9667022763680539 0  0.5000382326762518 -0.9297997580299402 0  0.4704624496919793 -0.9648837817703559 0  0.5289398999828714 -0.964915629942987 0  0.809961154942204 -0.6930963890875843 0  0.7102296552906262 -0.7849180327192514 0  0.6724295882226499 -0.7751223166404747 0  0.6596569182182557 -0.7263648384723518 0  -0.6739809777733121 -0.875783801143989 0  -0.6421557945795491 -0.8520108390283656 0  -0.5725165129828719 -0.926581236748161 0  0.1196072428577823 -0.800638889848497 0  0.09174278330598983 -0.748076095871734 0  0.1540326743545703 -0.7743898845948169 0  -0.03716498748210234 -0.9031850509653946 0  0.1665175368922456 -0.279662769579501 0  0.09977630533836836 -0.2944941543692515 0  0.04846039136583619 -0.7072605355460929 0  -0.03513325944551969 -0.7206703521252713 0  0.009915086654504645 -0.7342346610859112 0  -0.08121141337726949 -0.6382094804940019 0  -0.06858055481586989 -0.598013397340738 0  -0.1025619534960073 -0.609417931514773 0  0.1265730988967491 -0.6305120787606145 0  0.07002583882978151 -0.5987203958223656 0  -0.7837254742608679 -0.6426342798672128 0  -0.7472087779687647 -0.6407169092217071 0  -0.470788170159392 -0.5086014634780043 0  -0.5057643305992444 -0.4872111371282495 0  -0.3213021548753219 -0.6901309754466307 0  -0.1634841902736184 -0.6959979096978656 0  -0.2028009932028066 -0.7238714546517713 0  0.07758479125512865 -0.7892486124272866 0  0.2355649155932124 -0.7936924852899822 0  0.1937505751874095 -0.7888580999755139 0  0.2251350665849395 -0.7546933240532812 0  0.02708822542736119 -0.6297882814059064 0  0.1790330178660684 -0.6656476843490827 0  0.206949631323569 -0.6361930022928648 0  0.1660213606498336 -0.5170648394815341 0  0.01119920293630987 -0.504109204733425 0  0.06058157243181537 -0.5433843676259331 0  0.02623169218473724 -0.5860022609333949 0  -0.02917314525054676 -0.6129237883554992 0  -0.01336276465961166 -0.5749890626417037 0  -0.1797145779974922 -0.5128099618273584 0  -0.1895621184300871 -0.5526084774897673 0  0.2951794849942992 -0.5166705040485409 0  0.257775953954768 -0.5173710760540616 0  0.4068914461030442 -0.3568914461030441 0  0.3436867550870649 -0.5125221300618623 0  -0.0478298091251976 -0.4448642740220703 0  0.008029967271653275 -0.390220319581662 0  -0.7 -0.4875 0  -0.582476113103777 -0.6488597406777881 0  -0.6289410561696661 -0.6276730706475345 0  -0.6123833516576537 -0.6896530935905049 0  -0.6615358827337464 -0.5900709793766762 0  -0.661864965794436 -0.5406739484959866 0  1 -0.925 0  1 -0.9625 0  0.2897305615379189 -0.8967402958002527 0  0.2522100403656447 -0.9149661205922667 0  0.2705065290431005 -0.8648184925082998 0  0.6915529877032073 -0.6669090983020507 0  -0.2284910478850961 -0.5068872668523254 0  1 -0.7749999999999999 0  0.9580165492890788 -0.8125 0  0.9452147791900575 -0.7760184487563334 0  0.1317912058223788 -0.8973761673451721 0  -0.4374999999999999 -0.9180899809378962 0  -0.492851660875107 -0.8973273462229928 0  -0.4502050226865605 -0.8677975884670063 0  -0.3971446736280869 -0.9210980545057785 0  -0.1485993235577287 -0.9065294493798109 0  -0.1072601856148886 -0.9676946557610904 0  -0.2632364191801485 -0.9249516565735563 0  -0.3004855428678289 -0.9065709167129401 0  -0.2747684919699547 -0.9656770281380931 0  -0.3125 -1 0  -0.2570435903178971 -0.8697630006535709 0  -0.2705984555324532 -0.7643537912776402 0  -0.6286970623261177 -0.8146362682723303 0  -0.7394954142367668 -0.8388383906572241 0  -0.7048653568288991 -0.8539900337823368 0  -0.7289432876738017 -0.8050533912684094 0  -0.75 -1 0  -0.8125 -1 0  -0.3662445477087675 -0.4882799020243553 0  -0.5125321950459826 -0.6260919088718341 0  -0.8229531128288509 -0.7344855602717536 0  -0.9477979178546745 -0.65 0  -0.9738989589273372 -0.625 0  -0.9726939329637423 -0.6762580972867767 0  -0.2676233461406283 -0.5869574967705763 0  -0.2927527206795675 -0.6352935958173497 0  0.03744427854033043 -0.7723855137374661 0  -1 -0.8 0  0.25 -1 0  -0.6856339074492396 -0.8196978142162258 0  -0.3843424784807133 -0.5219924867948903 0  -0.4235230971768547 -0.4999527820372638 0  -0.4320263829459936 -0.5440953193266418 0  -0.4367322349365543 -0.5848361638006352 0  -0.4023046750825723 -0.5681705857203871 0  0.5333442215773679 -0.7847892608687896 0  0.5805869832335029 -0.7979510670398358 0  -0.1020945052330038 -0.5410548050606757 0  -0.1750371623820516 -0.395224298704523 0  -0.1387426590789845 -0.380658007137759 0  -0.1671886208771405 -0.3538196935282534 0  0.09808107991334013 -0.5035097385794094 0  0.1371356245665519 -0.4848034614298813 0  0.1292117689208835 -0.5245190622925624 0  0.4291064454652231 -0.6893823693218779 0  -0.7680049634651214 -0.9036116245112805 0  -0.7475719893266687 -0.938117119049115 0  -0.375 -1 0  -0.7075941608811394 -0.9349692915088849 0  -0.6875 -1 0  0.23009712122739 -0.9449377031206266 0  -0.5084824631077545 -0.429662769579501 0  -0.4627236946616317 -0.4194941543692515 0  -0.4770389220131617 -0.4631171678962674 0  0.5115287959419696 -0.8237345916259672 0  -0.02153900235138467 -0.7571095975633239 0  0.6186748298561955 -0.8899764104440032 0  0.6679698862297221 -0.855979819841571 0  0.65559609644659 -0.8907750358280523 0  -0.04834986620280135 -0.6739512368267732 0  -0.08399283376102101 -0.6864648636560475 0  0.9237751039682683 -0.9149696109176406 0  -0.8700870831601325 -0.7400191927879237 0  -0.8190545871158859 -0.6749496036470057 0  0.8523825345693532 -0.7656616672422814 0  0.9080311754092608 -0.7866094122953695 0  -0.1201025439307644 -0.6753697825731639 0  -0.154163762101144 -0.6596684886713198 0  0.2771622891690492 -0.4714428033201105 0  -0.1604327257758835 -0.8193911377102533 0  0.3442838861148046 -0.4614468967673144 0  0.3077169508606127 -0.4462589168986347 0  0.598130482034348 -0.548130482034348 0  0.5859332432912878 -0.5905483219339882 0  0.6240652410171741 -0.574065241017174 0  -0.6580966061351826 -0.6680004049617774 0  0.5 -1 0  0.5625 -1 0  0.375 -1 0  0.3728273557667608 -0.9512450831119156 0  0.34375 -1 0  0.17658574794162 -0.9211781987036476 0  0.6875 -0.909375 0  0.6781884821297187 -0.9601461514687715 0  -0.46875 -0.9590449904689481 0  -0.140625 -0.9520381733381538 0  -0.25 -1 0  0.07088707982413789 -0.9524471875473797 0  0.06861447365660248 -0.9140629614654849 0  -0.3738868566513726 -0.5937718740836654 0  -0.4078196006420647 -0.6069573829668379 0  -0.6499999999999999 -0.46875 0  -0.6749999999999999 -0.478125 0  -0.6458803184284393 -0.5063702339803376 0  -0.509144934131778 -0.840499337208768 0  0 -1 0  0.02890177234503936 -0.9285966731710376 0  0.015625 -0.9647735801358688 0  0.2256133669663445 -0.3100534068254059 0  0.1457529381204647 -0.8559506961492046 0  0.09375 -1 0  -0.8980855204028776 -0.7945086207261599 0  -0.9008030679453001 -0.8446633324595633 0  -0.742051565064904 -0.6045154096209143 0  -0.9563612557980825 -0.8905524653973871 0  -0.922092833829782 -0.8744234017753718 0  -1 -0.9 0  -0.0944766583995518 -0.3794861911248369 0  -0.07726529223509357 -0.4173323648068113 0  0.5575374201946639 -0.5606985363076022 0  0.5375519361476984 -0.5310482480040838 0  0.7544936172285829 -0.7260652036197652 0  -0.2704116421320834 -0.5498820854778975 0  -0.7168265179144229 -0.7717974527114952 0  0.2290313022929287 -0.7145120389218999 0  -0.7814488674789289 -0.7220216495155202 0  -0.7842571928076 -0.6012784304884206 0  0.8676227977211404 -0.8348432879531044 0  0.5073675719579143 -0.6573860553912483 0  0.4774664652812747 -0.6959589273573777 0  0.8281777220525482 -0.7969393151627965 0  0.8637136468726696 -0.7994349725688134 0  0.1605697979304657 -0.8151114269058622 0  0.9185874655337386 -0.8470062740822789 0  0.2012828870965875 -0.8302715594089393 0  0.2207866952352204 -0.5897671331008228 0  0.1875 -1 0  0.1933578913610923 -0.9555429783254565 0  -0.1944892146941358 -0.7963276908988481 0  0.4425219281373922 -0.3925219281373922 0  0.4684566871202182 -0.4184566871202182 0  -0.3316882162739823 -0.8204788095901908 0  -0.01960357886991179 -0.5324004215511846 0  0.01946146584864573 -0.5453935897613559 0  0.7375 -0.625 0  -0.4365327497775709 -0.4615611132204197 0  0.9561059868037866 -0.8500971067484031 0  1 -0.85 0  -0.3795295053034823 -0.8355086141228166 0  -0.4195211600542692 -0.841466450324575 0  0.3240693544500313 -0.8514565189194484 0  0.3288626202380516 -0.8907527450177526 0  0.4335214037478287 -0.8250364052261593 0  0.7948012030913941 -0.8645933182900281 0  0.3712609640686961 -0.3212609640686961 0  0.3356304820343481 -0.285630482034348 0  0.1702730058777731 -0.4266631656461668 0  0.1853927969565139 -0.7476033076722641 0  0.1703185779966004 -0.7075484992707197 0  -0.6 -0.45 0  -0.5542412315538772 -0.4398313847897505 0  -0.8115609488082137 -0.5702124698447638 0  -0.3125 -0.8668091054722158 0  -0.625 -1 0  -0.4375 -1 0  -0.4027473817041034 -0.9563723791571676 0  0.4822292437971961 -0.5054099509168181 0  0.4692903533181775 -0.5562234543250971 0  -0.9463603467980937 -0.8470372068693501 0  -0.9726317789095386 -0.8228932327506384 0  0.3136309361420415 -0.4836339615863215 0  0.4943914461030442 -0.4443914461030442 0  0.5203262050858701 -0.4703262050858701 0  -0.9375 -1 0  -0.9197662342663478 -0.964346886985094 0  -1 -0.95 0  -1 -0.6 0  -1 -0.6499999999999999 0  -0.6297191851194228 -0.5636492793998844 0  -0.5728136699815788 -0.6873034370004294 0  0.9518379355774458 -0.8875 0  -0.8231218976164272 -0.6154249396895276 0  -0.71875 -1 0  -0.7215179738179379 -0.8879238445450461 0  -0.2338046845782867 -0.543640405208448 0  1 -1 0  0.96875 -1 0  0.421875 -0.9664802762170548 0  -0.9187628651817412 -0.6719367697085468 0  -1 -0.7 0  -0.3254473893232633 -0.3889883087385029 0  -0.2386190547973513 -0.7829626654339491 0  -0.125 -1 0  -0.95 -0.58125 0  -0.2796886208771405 -0.3788196935282534 0  -0.3021457236178563 -0.4307872292348242 0  0.5721957230515221 -0.5221957230515221 0  0.5462609640686962 -0.4962609640686961 0  0.4569978006855767 -0.6653796654456039 0  0.001676604886866013 -0.9007903000415011 0  0.4375 -1 0  0.40625 -1 0  -0.1173790443692871 -0.4134156594736627 0  0.825 -0.6499999999999999 0  0.8687499999999999 -0.6624999999999999 0  0.78125 -0.6375 0  0.603383692512687 -0.9276294329251049 0  0.1351721821764433 -0.4415446223695761 0  0.0625 -1 0  0.03125 -1 0  -1 -0.8500000000000001 0  -0.2005592366540791 -0.3612353859231286 0  -1 -1 0  -0.96385908066808 -0.9621775504175499 0  -0.96875 -1 0  0.21875 -1 0  1 -0.8875 0  1 -0.8125 0  1 -0.7374999999999999 0  </DataArray>
</Points>
<Cells>
<DataArray  type="UInt32"  Name="connectivity"  format="ascii">0 1  0 2  0 90  0 94  0 95  0 99  0 100  1 2  1 94  1 137  1 138  1 252  2 90  2 137  3 4  3 5  3 281  3 351  3 543  4 5  4 139  4 140  4 350  4 351  5 139  5 280  5 281  5 282  6 7  6 8  6 49  6 467  7 8  7 115  7 387  7 527  8 49  8 70  8 387  9 10  9 11  9 218  9 219  9 495  9 498  10 11  10 497  10 498  10 499  10 557  10 558  10 596  11 158  11 159  11 219  11 262  11 264  11 557  12 13  12 14  12 79  12 270  12 437  12 511  12 581  13 14  13 270  13 271  13 272  13 550  14 79  14 272  14 317  15 16  15 17  15 256  15 354  15 404  15 574  16 17  16 205  16 208  16 210  16 353  16 354  17 129  17 208  17 256  17 352  17 418  18 19  18 20  18 164  18 165  18 315  18 316  18 368  19 20  19 148  19 149  19 315  19 430  20 149  20 165  20 374  20 501  20 585  21 22  21 23  21 161  21 348  21 349  21 456  21 508  22 23  22 97  22 160  22 506  22 508  23 160  23 161  23 468  24 25  24 26  24 48  24 123  24 124  24 539  25 26  25 48  25 85  25 86  26 85  26 123  26 461  27 28  27 29  27 48  27 80  27 301  27 302  27 539  27 590  28 29  28 36  28 102  28 230  28 302  29 36  29 38  29 590  30 31  30 32  30 182  30 185  30 510  30 513  30 536  31 32  31 237  31 239  31 240  31 241  31 536  32 181  32 182  32 240  32 328  33 34  33 35  33 153  33 169  33 170  33 397  33 462  34 35  34 107  34 109  34 132  34 169  35 132  35 462  36 37  36 38  36 228  36 230  37 38  37 228  37 363  37 364  37 434  38 434  38 435  38 590  39 40  39 41  39 233  39 258  39 533  39 535  40 41  40 77  40 78  40 186  40 535  41 78  41 231  41 233  42 43  42 44  42 150  42 151  42 396  42 400  42 548  43 44  43 399  43 400  43 401  43 402  44 402  44 440  44 548  45 46  45 47  45 91  45 92  45 250  45 294  45 487  46 47  46 277  46 278  46 487  47 278  47 294  47 405  48 80  48 86  48 539  49 50  49 51  49 70  49 268  49 466  49 467  50 51  50 179  50 180  50 268  50 511  51 70  51 173  51 179  52 53  52 54  52 142  52 143  52 455  52 571  53 54  53 274  53 413  53 455  53 456  54 260  54 274  54 571  55 56  55 57  55 127  55 544  56 57  56 313  56 376  57 313  57 496  57 509  57 544  58 59  58 60  58 212  58 213  58 411  58 578  59 60  59 62  59 63  59 112  59 411  59 423  60 112  60 242  60 578  61 62  61 63  61 129  61 130  61 417  61 418  61 482  62 63  62 423  62 427  62 482  63 112  63 417  63 505  64 65  64 66  64 346  64 347  64 359  65 66  65 202  65 204  65 340  65 346  66 110  66 111  66 340  66 359  67 68  67 69  67 78  67 231  67 276  67 299  67 300  68 69  68 226  68 227  68 235  68 299  69 235  69 275  69 276  69 507  70 173  70 330  70 387  71 72  71 73  71 74  71 186  71 320  71 324  71 447  72 73  72 186  72 258  72 259  72 535  73 259  73 321  73 324  74 75  74 76  74 320  74 428  74 429  74 447  75 76  75 319  75 320  75 449  75 589  76 176  76 429  76 449  76 450  77 78  77 174  77 175  77 186  77 437  77 512  78 231  78 300  78 437  79 299  79 300  79 317  79 437  80 86  80 301  80 338  80 491  81 82  81 83  81 222  81 587  82 83  82 195  82 327  82 457  82 586  82 587  83 221  83 222  83 457  83 458  84 85  84 86  84 88  84 243  84 244  84 491  85 86  85 244  85 461  85 464  86 491  87 88  87 89  87 538  88 89  88 119  88 243  88 491  88 538  89 119  90 91  90 92  90 99  90 137  90 223  91 92  91 223  91 487  92 137  92 250  93 94  93 95  93 129  93 130  93 251  93 253  93 483  94 95  94 251  94 252  95 100  95 253  96 97  96 98  96 216  96 217  96 218  96 265  96 292  97 98  97 265  97 408  97 506  97 508  98 292  98 413  98 508  99 100  99 211  99 223  99 254  99 531  99 532  100 211  100 253  101 102  101 103  101 147  102 103  102 146  102 147  102 230  102 302  102 375  103 302  103 339  104 105  104 106  104 398  104 488  104 575  105 106  105 168  105 337  105 488  105 489  105 490  105 582  106 168  106 398  107 108  107 109  107 132  107 225  107 448  108 109  108 117  108 193  108 419  108 448  109 169  109 193  110 111  110 359  110 366  110 452  111 340  111 341  111 342  111 452  112 242  112 388  112 505  112 567  113 114  113 115  113 181  113 328  113 329  113 330  113 387  113 504  114 115  114 195  114 327  114 504  114 588  115 387  115 527  115 588  116 117  116 118  116 194  116 200  116 392  116 481  116 492  117 118  117 193  117 194  117 355  117 419  118 334  118 355  118 492  119 338  119 491  120 121  120 122  120 246  120 346  120 360  120 361  120 518  121 122  121 125  121 247  121 362  121 518  122 245  122 246  122 362  122 436  123 124  123 125  123 371  123 461  124 125  124 362  124 435  124 539  124 590  125 247  125 362  125 371  126 127  126 128  126 261  126 576  127 128  127 544  128 260  128 261  128 274  128 544  128 564  129 130  129 253  129 352  129 418  130 482  130 483  131 132  131 133  131 353  131 354  131 462  131 521  131 574  132 133  132 225  132 462  133 224  133 225  133 353  134 135  134 136  134 189  134 278  134 333  135 136  135 189  135 441  135 442  135 546  136 278  136 331  136 332  136 441  137 138  137 250  137 562  138 252  138 283  138 377  138 412  138 562  139 140  139 141  139 282  139 283  140 141  140 251  140 252  140 350  140 412  140 425  140 426  141 283  141 412  142 143  142 144  142 303  142 304  142 455  142 494  143 144  143 414  143 416  143 571  144 303  144 416  144 572  145 146  145 147  145 166  145 167  146 147  146 167  146 375  148 149  148 344  148 366  148 367  148 430  148 525  149 228  149 363  149 374  149 525  150 151  150 393  150 395  150 396  150 531  150 532  151 400  151 524  151 531  151 545  152 153  152 154  152 322  152 323  152 397  152 478  153 154  153 305  153 306  153 397  153 462  154 306  154 323  154 399  154 403  155 156  155 157  155 255  155 404  155 524  155 574  156 157  156 305  156 306  156 403  156 574  157 403  157 524  157 545  158 159  158 264  158 410  159 556  159 557  160 248  160 249  160 293  160 468  160 506  161 162  161 163  161 349  161 468  162 163  162 313  162 349  162 380  162 496  163 378  163 380  163 468  164 165  164 266  164 267  164 316  164 431  164 594  165 431  165 432  165 585  166 167  166 432  166 433  166 500  167 229  167 375  167 500  167 501  168 169  168 170  168 337  168 398  168 478  169 170  169 193  169 337  170 397  170 478  171 172  171 173  171 178  171 330  171 429  172 173  172 174  172 179  172 428  172 429  173 179  173 330  174 175  174 179  174 180  174 428  174 512  175 186  175 428  175 447  176 177  176 178  176 429  176 450  177 178  177 240  177 328  177 329  177 450  178 329  178 330  178 429  179 180  180 511  180 512  181 182  181 195  181 328  181 504  182 195  182 513  183 184  183 185  183 285  183 454  183 510  183 516  183 563  184 185  184 237  184 238  184 285  184 290  184 291  185 237  185 510  185 536  186 447  186 535  187 188  187 189  187 279  187 546  188 189  188 277  188 279  188 333  188 394  188 477  189 333  189 546  190 191  190 192  190 288  190 470  190 476  191 192  191 449  191 451  191 475  191 476  191 589  192 319  192 326  192 470  192 589  193 194  193 337  193 582  194 481  194 489  194 582  195 327  195 457  195 504  195 513  196 197  196 198  196 244  196 463  196 464  197 198  197 296  197 298  197 372  197 463  197 522  198 243  198 244  198 372  198 537  199 200  199 201  199 493  199 519  200 201  200 392  200 474  200 480  200 481  200 493  201 474  201 519  201 520  202 203  202 204  202 346  202 360  202 541  203 204  203 335  203 336  203 540  203 541  204 335  204 340  205 206  205 207  205 210  205 353  205 460  206 207  206 314  206 343  206 345  206 459  206 460  207 209  207 210  207 314  207 315  207 369  208 209  208 210  208 417  208 418  209 210  209 369  209 417  209 505  209 567  211 253  211 254  211 255  211 256  212 213  212 214  212 215  212 411  212 424  212 528  213 215  213 573  213 578  214 215  214 445  214 528  215 573  216 217  216 218  216 219  216 295  216 438  217 265  217 406  217 438  217 566  218 219  218 292  218 494  218 495  219 262  219 295  220 221  220 222  220 601  221 222  221 389  221 391  221 458  221 601  223 395  223 487  223 532  224 225  224 341  224 353  224 453  224 459  225 341  225 448  226 227  226 235  226 236  226 247  226 361  226 518  227 236  227 299  227 317  228 229  228 230  228 363  228 374  229 230  229 374  229 375  229 501  230 375  231 232  231 233  231 276  232 233  232 234  232 275  232 276  232 356  233 234  233 533  234 312  234 356  234 386  234 533  235 360  235 361  235 507  236 247  236 317  236 318  236 370  236 371  237 238  237 239  237 536  238 239  238 287  238 289  238 291  239 241  239 289  239 475  240 241  240 328  240 450  241 450  241 475  242 267  242 316  242 388  242 578  243 244  243 537  243 538  244 464  245 246  245 346  245 347  245 364  245 434  245 436  246 346  247 371  247 518  248 249  248 250  248 293  248 294  248 379  249 379  249 468  250 294  250 379  250 562  251 252  251 426  251 483  252 412  253 256  253 352  254 255  254 524  254 531  255 256  255 404  255 524  256 352  256 404  257 258  257 259  257 308  257 472  257 534  258 259  258 533  258 534  258 535  259 321  259 472  260 261  260 274  260 571  261 414  261 415  261 571  261 576  262 263  262 264  262 295  263 264  263 295  263 409  263 410  263 439  264 410  265 406  265 408  266 267  266 577  266 594  267 316  267 577  267 578  268 269  268 270  268 466  268 502  268 511  269 270  269 502  269 503  269 549  269 550  270 511  270 550  271 272  271 273  271 297  271 549  271 550  272 273  272 317  272 318  272 373  273 296  273 297  273 373  273 463  274 456  274 564  275 276  275 356  275 358  275 507  277 278  277 333  277 394  277 487  278 332  278 333  278 405  279 477  279 547  280 281  280 282  280 381  280 486  280 561  281 484  281 486  281 542  281 543  282 283  282 377  282 378  282 561  283 377  283 412  284 285  284 286  284 290  284 569  285 286  285 290  285 454  286 382  286 383  286 454  286 563  286 569  287 288  287 289  287 291  288 289  288 476  289 475  289 476  290 291  292 413  292 455  292 494  293 294  293 405  293 422  293 506  294 405  295 438  295 439  296 297  296 298  296 463  297 298  297 523  297 549  297 554  298 522  298 523  299 300  299 317  300 437  301 302  301 338  301 339  302 339  303 304  303 420  303 572  304 420  304 494  304 495  304 551  304 552  305 306  305 462  305 521  305 574  306 403  307 308  307 309  307 421  307 473  308 309  308 384  308 472  308 473  308 534  309 384  309 385  309 421  309 443  310 311  310 312  310 385  310 386  310 443  310 474  311 312  311 392  311 474  311 492  311 517  312 356  312 386  312 517  313 376  313 380  313 381  313 496  314 315  314 344  314 345  314 430  315 368  315 369  315 430  316 368  316 388  317 318  318 370  318 373  319 320  319 324  319 326  319 589  320 324  321 324  321 325  321 472  321 570  322 323  322 478  322 479  322 575  323 399  323 401  323 479  324 325  324 326  325 326  325 469  325 570  325 583  326 469  326 470  327 586  327 588  328 329  329 330  330 387  331 332  331 407  331 422  331 441  331 566  332 405  332 422  334 335  334 336  334 355  334 492  334 515  335 336  335 340  335 355  335 419  336 357  336 515  336 540  337 582  338 339  338 491  340 342  340 419  341 342  341 448  341 452  341 453  342 419  342 448  343 344  343 345  343 366  343 452  343 453  343 459  344 345  344 366  344 430  346 347  346 360  347 359  347 364  347 365  348 349  348 456  348 509  348 564  349 496  349 509  350 351  350 424  350 425  350 446  350 528  351 444  351 446  351 543  353 354  353 459  353 460  354 574  355 419  356 357  356 358  356 517  357 358  357 515  357 517  357 540  358 507  358 540  359 365  359 366  360 361  360 507  360 541  361 518  362 435  362 436  363 364  363 525  363 526  364 365  364 434  364 526  365 366  365 367  365 526  366 367  366 452  367 525  367 526  368 369  368 388  369 388  369 567  370 371  370 373  370 461  370 553  371 461  372 522  372 537  373 463  373 553  374 501  376 381  376 485  376 486  377 378  377 379  377 562  378 379  378 380  378 468  378 561  379 468  379 562  380 381  380 561  381 486  381 561  382 383  382 563  382 599  383 568  383 569  384 385  384 386  384 533  384 534  385 386  385 443  386 533  388 567  389 390  389 391  389 600  389 601  390 391  390 458  390 516  390 529  390 530  390 600  391 458  392 474  392 492  393 394  393 395  393 396  393 477  393 548  394 395  394 477  394 487  395 487  395 532  396 548  397 478  398 478  398 575  399 400  399 401  399 403  400 403  400 545  401 402  401 479  402 440  402 479  403 545  404 574  405 422  406 407  406 408  406 566  407 408  407 422  407 566  408 422  408 506  409 410  409 439  409 565  411 423  411 424  413 455  413 456  413 508  414 415  414 416  414 571  415 416  415 559  415 560  415 576  416 560  416 572  417 418  417 505  419 448  420 552  420 593  421 443  421 598  422 506  423 424  423 425  423 427  424 425  424 528  425 426  425 427  426 427  426 483  427 482  427 483  428 429  428 447  431 432  431 433  431 594  432 433  432 500  432 585  433 594  434 435  434 436  435 436  435 590  437 512  437 581  438 439  438 566  439 441  439 565  439 566  440 547  440 548  441 442  441 565  441 566  442 546  442 565  443 474  443 520  443 598  444 445  444 446  444 543  445 446  445 528  446 528  449 450  449 451  449 589  450 451  450 475  451 475  452 453  453 459  454 563  455 494  456 508  456 564  457 458  457 513  457 514  458 510  458 514  458 516  459 460  461 464  461 553  462 521  463 464  463 553  464 553  465 466  465 467  465 502  465 579  466 467  466 502  469 470  469 583  471 472  471 473  471 584  472 473  472 570  472 584  474 520  475 476  477 547  477 548  478 575  480 481  480 489  480 490  480 493  480 591  480 592  481 489  482 483  484 485  484 486  484 542  485 486  488 490  488 592  489 490  489 582  490 592  492 515  492 517  493 591  494 495  495 498  495 551  496 509  497 498  497 499  497 551  497 593  498 551  499 558  499 593  500 501  500 585  501 585  502 503  502 579  503 549  503 579  503 580  505 567  507 540  507 541  509 544  509 564  510 513  510 514  510 516  511 512  511 581  512 581  513 514  515 517  516 529  516 563  519 520  519 598  520 598  521 574  522 523  523 554  524 531  524 545  525 526  527 588  529 530  529 563  529 599  530 599  530 600  531 532  533 534  537 538  539 590  540 541  542 543  544 564  547 548  549 550  549 554  549 555  549 580  551 552  551 593  552 593  554 555  555 580  556 557  556 596  556 597  557 596  558 595  558 596  559 560  559 576  560 572  563 599  568 569  570 583  570 584  573 577  573 578  577 578  579 580  583 584  586 587  586 588  591 592  595 596  595 597  596 597  </DataArray>
<DataArray  type="UInt32"  Name="offsets"  format="ascii">2 4 6 8 10 12 14 16 18 20 22 24 26 28 30 32 34 36 38 40 42 44 46 48 50 52 54 56 58 60 62 64 66 68 70 72 74 76 78 80 82 84 86 88 90 92 94 96 98 100 102 104 106 108 110 112 114 116 118 120 122 124 126 128 130 132 134 136 138 140 142 144 146 148 150 152 154 156 158 160 162 164 166 168 170 172 174 176 178 180 182 184 186 188 190 192 194 196 198 200 202 204 206 208 210 212 214 216 218 220 222 224 226 228 230 232 234 236 238 240 242 244 246 248 250 252 254 256 258 260 262 264 266 268 270 272 274 276 278 280 282 284 286 288 290 292 294 296 298 300 302 304 306 308 310 312 314 316 318 320 322 324 326 328 330 332 334 336 338 340 342 344 346 348 350 352 354 356 358 360 362 364 366 368 370 372 374 376 378 380 382 384 386 388 390 392 394 396 398 400 402 404 406 408 410 412 414 416 418 420 422 424 426 428 430 432 434 436 438 440 442 444 446 448 450 452 454 456 458 460 462 464 466 468 470 472 474 476 478 480 482 484 486 488 490 492 494 496 498 500 502 504 506 508 510 512 514 516 518 520 522 524 526 528 530 532 534 536 538 540 542 544 546 548 550 552 554 556 558 560 562 564 566 568 570 572 574 576 578 580 582 584 586 588 590 592 594 596 598 600 602 604 606 608 610 612 614 616 618 620 622 624 626 628 630 632 634 636 638 640 642 644 646 648 650 652 654 656 658 660 662 664 666 668 670 672 674 676 678 680 682 684 686 688 690 692 694 696 698 700 702 704 706 708 710 712 714 716 718 720 722 724 726 728 730 732 734 736 738 740 742 744 746 748 750 752 754 756 758 760 762 764 766 768 770 772 774 776 778 780 782 784 786 788 790 792 794 796 798 800 802 804 806 808 810 812 814 816 818 820 822 824 826 828 830 832 834 836 838 840 842 844 846 848 850 852 854 856 858 860 862 864 866 868 870 872 874 876 878 880 882 884 886 888 890 892 894 896 898 900 902 904 906 908 910 912 914 916 918 920 922 924 926 928 930 932 934 936 938 940 942 944 946 948 950 952 954 956 958 960 962 964 966 968 970 972 974 976 978 980 982 984 986 988 990 992 994 996 998 1000 1002 1004 1006 1008 1010 1012 1014 1016 1018 1020 1022 1024 1026 1028 1030 1032 1034 1036 1038 1040 1042 1044 1046 1048 1050 1052 1054 1056 1058 1060 1062 1064 1066 1068 1070 1072 1074 1076 1078 1080 1082 1084 1086 1088 1090 1092 1094 1096 1098 1100 1102 1104 1106 1108 1110 1112 1114 1116 1118 1120 1122 1124 1126 1128 1130 1132 1134 1136 1138 1140 1142 1144 1146 1148 1150 1152 1154 1156 1158 1160 1162 1164 1166 1168 1170 1172 1174 1176 1178 1180 1182 1184 1186 1188 1190 1192 1194 1196 1198 1200 1202 1204 1206 1208 1210 1212 1214 1216 1218 1220 1222 1224 1226 1228 1230 1232 1234 1236 1238 1240 1242 1244 1246 1248 1250 1252 1254 1256 1258 1260 1262 1264 1266 1268 1270 1272 1274 1276 1278 1280 1282 1284 1286 1288 1290 1292 1294 1296 1298 1300 1302 1304 1306 1308 1310 1312 1314 1316 1318 1320 1322 1324 1326 1328 1330 1332 1334 1336 1338 1340 1342 1344 1346 1348 1350 1352 1354 1356 1358 1360 1362 1364 1366 1368 1370 1372 1374 1376 1378 1380 1382 1384 1386 1388 1390 1392 1394 1396 1398 1400 1402 1404 1406 1408 1410 1412 1414 1416 1418 1420 1422 1424 1426 1428 1430 1432 1434 1436 1438 1440 1442 1444 1446 1448 1450 1452 1454 1456 1458 1460 1462 1464 1466 1468 1470 1472 1474 1476 1478 1480 1482 1484 1486 1488 1490 1492 1494 1496 1498 1500 1502 1504 1506 1508 1510 1512 1514 1516 1518 1520 1522 1524 1526 1528 1530 1532 1534 1536 1538 1540 1542 1544 1546 1548 1550 1552 1554 1556 1558 1560 1562 1564 1566 1568 1570 1572 1574 1576 1578 1580 1582 1584 1586 1588 1590 1592 1594 1596 1598 1600 1602 1604 1606 1608 1610 1612 1614 1616 1618 1620 1622 1624 1626 1628 1630 1632 1634 1636 1638 1640 1642 1644 1646 1648 1650 1652 1654 1656 1658 1660 1662 1664 1666 1668 1670 1672 1674 1676 1678 1680 1682 1684 1686 1688 1690 1692 1694 1696 1698 1700 1702 1704 1706 1708 1710 1712 1714 1716 1718 1720 1722 1724 1726 1728 1730 1732 1734 1736 1738 1740 1742 1744 1746 1748 1750 1752 1754 1756 1758 1760 1762 1764 1766 1768 1770 1772 1774 1776 1778 1780 1782 1784 1786 1788 1790 1792 1794 1796 1798 1800 1802 1804 1806 1808 1810 1812 1814 1816 1818 1820 1822 1824 1826 1828 1830 1832 1834 1836 1838 1840 1842 1844 1846 1848 1850 1852 1854 1856 1858 1860 1862 1864 1866 1868 1870 1872 1874 1876 1878 1880 1882 1884 1886 1888 1890 1892 1894 1896 1898 1900 1902 1904 1906 1908 1910 1912 1914 1916 1918 1920 1922 1924 1926 1928 1930 1932 1934 1936 1938 1940 1942 1944 1946 1948 1950 1952 1954 1956 1958 1960 1962 1964 1966 1968 1970 1972 1974 1976 1978 1980 1982 1984 1986 1988 1990 1992 1994 1996 1998 2000 2002 2004 2006 2008 2010 2012 2014 2016 2018 2020 2022 2024 2026 2028 2030 2032 2034 2036 2038 2040 2042 2044 2046 2048 2050 2052 2054 2056 2058 2060 2062 2064 2066 2068 2070 2072 2074 2076 2078 2080 2082 2084 2086 2088 2090 2092 2094 2096 2098 2100 2102 2104 2106 2108 2110 2112 2114 2116 2118 2120 2122 2124 2126 2128 2130 2132 2134 2136 2138 2140 2142 2144 2146 2148 2150 2152 2154 2156 2158 2160 2162 2164 2166 2168 2170 2172 2174 2176 2178 2180 2182 2184 2186 2188 2190 2192 2194 2196 2198 2200 2202 2204 2206 2208 2210 2212 2214 2216 2218 2220 2222 2224 2226 2228 2230 2232 2234 2236 2238 2240 2242 2244 2246 2248 2250 2252 2254 2256 2258 2260 2262 2264 2266 2268 2270 2272 2274 2276 2278 2280 2282 2284 2286 2288 2290 2292 2294 2296 2298 2300 2302 2304 2306 2308 2310 2312 2314 2316 2318 2320 2322 2324 2326 2328 2330 2332 2334 2336 2338 2340 2342 2344 2346 2348 2350 2352 2354 2356 2358 2360 2362 2364 2366 2368 2370 2372 2374 2376 2378 2380 2382 2384 2386 2388 2390 2392 2394 2396 2398 2400 2402 2404 2406 2408 2410 2412 2414 2416 2418 2420 2422 2424 2426 2428 2430 2432 2434 2436 2438 2440 2442 2444 2446 2448 2450 2452 2454 2456 2458 2460 2462 2464 2466 2468 2470 2472 2474 2476 2478 2480 2482 2484 2486 2488 2490 2492 2494 2496 2498 2500 2502 2504 2506 2508 2510 2512 2514 2516 2518 2520 2522 2524 2526 2528 2530 2532 2534 2536 2538 2540 2542 2544 2546 2548 2550 2552 2554 2556 2558 2560 2562 2564 2566 2568 2570 2572 2574 2576 2578 2580 2582 2584 2586 2588 2590 2592 2594 2596 2598 2600 2602 2604 2606 2608 2610 2612 2614 2616 2618 2620 2622 2624 2626 2628 2630 2632 2634 2636 2638 2640 2642 2644 2646 2648 2650 2652 2654 2656 2658 2660 2662 2664 2666 2668 2670 2672 2674 2676 2678 2680 2682 2684 2686 2688 2690 2692 2694 2696 2698 2700 2702 2704 2706 2708 2710 2712 2714 2716 2718 2720 2722 2724 2726 2728 2730 2732 2734 2736 2738 2740 2742 2744 2746 2748 2750 2752 2754 2756 2758 2760 2762 2764 2766 2768 2770 2772 2774 2776 2778 2780 2782 2784 2786 2788 2790 2792 2794 2796 2798 2800 2802 2804 2806 2808 2810 2812 2814 2816 2818 2820 2822 2824 2826 2828 2830 2832 2834 2836 2838 2840 2842 2844 2846 2848 2850 2852 2854 2856 2858 2860 2862 2864 2866 2868 2870 2872 2874 2876 2878 2880 2882 2884 2886 2888 2890 2892 2894 2896 2898 2900 2902 2904 2906 2908 2910 2912 2914 2916 2918 2920 2922 2924 2926 2928 2930 2932 2934 2936 2938 2940 2942 2944 2946 2948 2950 2952 2954 2956 2958 2960 2962 2964 2966 2968 2970 2972 2974 2976 2978 2980 2982 2984 2986 2988 2990 2992 2994 2996 2998 3000 3002 3004 3006 3008 3010 3012 3014 3016 3018 3020 3022 3024 3026 3028 3030 3032 3034 3036 3038 3040 3042 3044 3046 3048 3050 3052 3054 3056 3058 3060 3062 3064 3066 3068 3070 3072 3074 3076 3078 3080 3082 3084 3086 3088 3090 3092 3094 3096 3098 3100 3102 3104 3106 3108 3110 3112 3114 3116 3118 3120 3122 3124 3126 3128 3130 3132 3134 3136 3138 3140 3142 3144 3146 3148 3150 3152 3154 3156 3158 3160 3162 3164 3166 3168 3170 3172 3174 3176 3178 3180 3182 3184 3186 3188 3190 3192 3194 3196 3198 3200 3202 3204 3206 3208 3210 3212 3214 3216 3218 3220 3222 3224 3226 3228 3230 3232 3234 3236 3238 3240 3242 3244 3246 3248 3250 3252 3254 3256 3258 3260 3262 3264 3266 3268 3270 3272 3274 3276 3278 3280 3282 3284 3286 3288 3290 3292 3294 3296 3298 3300 3302 3304 3306 3308 3310 3312 3314 3316 3318 3320 3322 3324 3326 3328 3330 3332 3334 3336 3338 3340 3342 3344 3346 3348 3350 3352 3354 3356 3358 3360 3362 3364 3366 3368 3370 3372 3374 3376 3378 3380 3382 3384 3386 3388 3390 3392 3394 </DataArray>
<DataArray  type="UInt8"  Name="types"  format="ascii">3 3 3 3 3 3 3 3 3 3 3 3 3 3 3 3 3 3 3 3 3 3 3 3 3 3 3 3 3 3 3 3 3 3 3 3 3 3 3 3 3 3 3 3 3 3 3 3 3 3 3 3 3 3 3 3 3 3 3 3 3 3 3 3 3 3 3 3 3 3 3 3 3 3 3 3 3 3 3 3 3 3 3 3 3 3 3 3 3 3 3 3 3 3 3 3 3 3 3 3 3 3 3 3 3 3 3 3 3 3 3 3 3 3 3 3 3 3 3 3 3 3 3 3 3 3 3 3 3 3 3 3 3 3 3 3 3 3 3 3 3 3 3 3 3 3 3 3 3 3 3 3 3 3 3 3 3 3 3 3 3 3 3 3 3 3 3 3 3 3 3 3 3 3 3 3 3 3 3 3 3 3 3 3 3 3 3 3 3 3 3 3 3 3 3 3 3 3 3 3 3 3 3 3 3 3 3 3 3 3 3 3 3 3 3 3 3 3 3 3 3 3 3 3 3 3 3 3 3 3 3 3 3 3 3 3 3 3 3 3 3 3 3 3 3 3 3 3 3 3 3 3 3 3 3 3 3 3 3 3 3 3 3 3 3 3 3 3 3 3 3 3 3 3 3 3 3 3 3 3 3 3 3 3 3 3 3 3 3 3 3 3 3 3 3 3 3 3 3 3 3 3 3 3 3 3 3 3 3 3 3 3 3 3 3 3 3 3 3 3 3 3 3 3 3 3 3 3 3 3 3 3 3 3 3 3 3 3 3 3 3 3 3 3 3 3 3 3 3 3 3 3 3 3 3 3 3 3 3 3 3 3 3 3 3 3 3 3 3 3 3 3 3 3 3 3 3 3 3 3 3 3 3 3 3 3 3 3 3 3 3 3 3 3 3 3 3 3 3 3 3 3 3 3 3 3 3 3 3 3 3 3 3 3 3 3 3 3 3 3 3 3 3 3 3 3 3 3 3 3 3 3 3 3 3 3 3 3 3 3 3 3 3 3 3 3 3 3 3 3 3 3 3 3 3 3 3 3 3 3 3 3 3 3 3 3 3 3 3 3 3 3 3 3 3 3 3 3 3 3 3 3 3 3 3 3 3 3 3 3 3 3 3 3 3 3 3 3 3 3 3 3 3 3 3 3 3 3 3 3 3 3 3 3 3 3 3 3 3 3 3 3 3 3 3 3 3 3 3 3 3 3 3 3 3 3 3 3 3 3 3 3 3 3 3 3 3 3 3 3 3 3 3 3 3 3 3 3 3 3 3 3 3 3 3 3 3 3 3 3 3 3 3 3 3 3 3 3 3 3 3 3 3 3 3 3 3 3 3 3 3 3 3 3 3 3 3 3 3 3 3 3 3 3 3 3 3 3 3 3 3 3 3 3 3 3 3 3 3 3 3 3 3 3 3 3 3 3 3 3 3 3 3 3 3 3 3 3 3 3 3 3 3 3 3 3 3 3 3 3 3 3 3 3 3 3 3 3 3 3 3 3 3 3 3 3 3 3 3 3 3 3 3 3 3 3 3 3 3 3 3 3 3 3 3 3 3 3 3 3 3 3 3 3 3 3 3 3 3 3 3 3 3 3 3 3 3 3 3 3 3 3 3 3 3 3 3 3 3 3 3 3 3 3 3 3 3 3 3 3 3 3 3 3 3 3 3 3 3 3 3 3 3 3 3 3 3 3 3 3 3 3 3 3 3 3 3 3 3 3 3 3 3 3 3 3 3 3 3 3 3 3 3 3 3 3 3 3 3 3 3 3 3 3 3 3 3 3 3 3 3 3 3 3 3 3 3 3 3 3 3 3 3 3 3 3 3 3 3 3 3 3 3 3 3 3 3 3 3 3 3 3 3 3 3 3 3 3 3 3 3 3 3 3 3 3 3 3 3 3 3 3 3 3 3 3 3 3 3 3 3 3 3 3 3 3 3 3 3 3 3 3 3 3 3 3 3 3 3 3 3 3 3 3 3 3 3 3 3 3 3 3 3 3 3 3 3 3 3 3 3 3 3 3 3 3 3 3 3 3 3 3 3 3 3 3 3 3 3 3 3 3 3 3 3 3 3 3 3 3 3 3 3 3 3 3 3 3 3 3 3 3 3 3 3 3 3 3 3 3 3 3 3 3 3 3 3 3 3 3 3 3 3 3 3 3 3 3 3 3 3 3 3 3 3 3 3 3 3 3 3 3 3 3 3 3 3 3 3 3 3 3 3 3 3 3 3 3 3 3 3 3 3 3 3 3 3 3 3 3 3 3 3 3 3 3 3 3 3 3 3 3 3 3 3 3 3 3 3 3 3 3 3 3 3 3 3 3 3 3 3 3 3 3 3 3 3 3 3 3 3 3 3 3 3 3 3 3 3 3 3 3 3 3 3 3 3 3 3 3 3 3 3 3 3 3 3 3 3 3 3 3 3 3 3 3 3 3 3 3 3 3 3 3 3 3 3 3 3 3 3 3 3 3 3 3 3 3 3 3 3 3 3 3 3 3 3 3 3 3 3 3 3 3 3 3 3 3 3 3 3 3 3 3 3 3 3 3 3 3 3 3 3 3 3 3 3 3 3 3 3 3 3 3 3 3 3 3 3 3 3 3 3 3 3 3 3 3 3 3 3 3 3 3 3 3 3 3 3 3 3 3 3 3 3 3 3 3 3 3 3 3 3 3 3 3 3 3 3 3 3 3 3 3 3 3 3 3 3 3 3 3 3 3 3 3 3 3 3 3 3 3 3 3 3 3 3 3 3 3 3 3 3 3 3 3 3 3 3 3 3 3 3 3 3 3 3 3 3 3 3 3 3 3 3 3 3 3 3 3 3 3 3 3 3 3 3 3 3 3 3 3 3 3 3 3 3 3 3 3 3 3 3 3 3 3 3 3 3 3 3 3 3 3 3 3 3 3 3 3 3 3 3 3 3 3 3 3 3 3 3 3 3 3 3 3 3 3 3 3 3 3 3 3 3 3 3 3 3 3 3 3 3 3 3 3 3 3 3 3 3 3 3 3 3 3 3 3 3 3 3 3 3 3 3 3 3 3 3 3 3 3 3 3 3 3 3 3 3 3 3 3 3 3 3 3 3 3 3 3 3 3 3 3 3 3 3 3 3 3 3 3 3 3 3 3 3 3 3 3 3 3 3 3 3 3 3 3 3 3 3 3 3 3 3 3 3 3 3 3 3 3 3 3 3 3 3 3 3 3 3 3 3 3 3 3 3 3 3 3 3 3 3 3 3 3 3 3 3 3 3 3 3 3 3 3 3 3 3 3 3 3 3 3 3 3 3 3 3 3 3 3 3 3 3 3 3 3 3 3 3 3 3 3 3 3 3 3 3 3 3 3 3 3 3 3 3 3 3 3 3 3 3 3 3 3 3 3 3 3 3 3 3 3 3 3 3 3 3 3 3 3 3 3 3 3 3 3 3 3 3 3 3 3 3 3 3 3 3 3 3 3 3 3 3 3 3 3 3 3 3 3 3 3 3 3 3 3 3 3 3 3 3 3 3 3 3 3 3 3 3 3 3 3 3 3 3 3 3 3 3 3 3 3 3 3 3 3 3 3 3 3 3 3 3 3 3 3 3 3 3 3 3 3 3 3 3 3 3 3 3 3 3 3 3 3 3 3 3 3 3 3 3 3 3 3 3 3 3 3 3 3 3 3 3 3 3 3 3 3 3 3 3 3 3 3 3 3 3 3 3 3 3 3 3 3 3 3 3 3 3 3 3 3 3 3 3 3 3 3 3 3 3 3 3 3 3 3 3 3 3 3 3 3 3 3 3 3 3 3 3 3 3 3 3 3 3 3 3 3 3 3 3 3 3 3 3 </DataArray>
</Cells>
<CellData  Scalars="f">
<DataArray  type="Float64"  Name="f"  format="ascii">0 0 0 0 0 0 0 0 0 0 0 0 0 0 0 0 0 0 0 0 0 0 0 0 0 0 0 0 0 0 0 0 0 0 0 0 0 0 0 0 0 0 0 0 0 0 0 0 0 0 0 0 0 0 0 0 0 0 0 0 0 0 0 0 0 0 0 0 0 0 0 0 0 0 0 0 0 0 0 0 0 0 0 0 0 0 0 0 0 0 0 0 0 0 0 0 0 0 0 0 0 0 0 0 0 0 0 0 0 0 0 0 0 0 0 0 0 0 0 0 0 0 0 0 0 0 0 0 0 0 0 0 0 0 0 0 0 0 0 0 0 0 0 0 0 0 0 0 0 0 0 0 0 0 0 0 0 0 0 0 0 0 0 0 0 0 0 0 0 0 0 0 0 0 0 0 0 0 0 0 0 0 0 0 0 0 0 0 0 0 0 0 0 0 0 0 0 0 0 0 0 0 0 0 0 0 0 0 0 0 0 0 0 0 0 0 0 0 0 0 0 0 0 0 0 0 0 0 0 0 0 0 0 0 0 0 0 0 0 0 0 0 0 0 0 0 0 0 0 0 0 0 0 0 0 0 0 0 0 0 0 0 0 0 0 0 0 0 0 0 0 0 0 0 0 0 0 0 0 0 0 0 0 0 0 0 0 0 0 0 0 0 0 0 0 0 0 0 0 0 0 0 0 0 0 0 0 0 0 0 0 0 0 0 0 0 0 0 0 0 0 0 0 0 0 0 0 0 0 0 0 0 0 0 0 0 0 0 0 0 0 0 0 0 0 0 0 0 0 0 0 0 0 0 0 0 0 0 0 0 0 0 0 0 0 0 0 0 0 0 0 0 0 0 0 0 0 0 0 0 0 0 0 0 0 0 0 0 0 0 0 0 0 0 0 0 0 0 0 0 0 0 0 0 0 0 0 0 0 0 0 0 0 0 0 0 0 0 0 0 0 0 0 0 0 0 0 0 0 0 0 0 0 0 0 0 0 0 0 0 0 0 0 0 0 0 0 0 0 0 0 0 0 0 0 0 0 0 0 0 0 0 0 0 0 0 0 0 0 0 0 0 0 0 0 0 0 0 0 0 0 1 1 0 0 0 0 0 0 0 0 0 0 0 0 0 0 0 0 0 0 0 0 0 0 0 0 0 0 0 0 0 0 0 0 0 0 0 0 0 0 0 0 0 0 0 0 0 0 0 0 0 0 0 0 0 0 0 0 0 0 0 0 0 0 0 0 0 0 0 0 0 0 0 0 0 0 0 0 0 0 0 0 0 0 0 0 0 0 0 0 0 0 0 0 0 0 0 0 0 0 0 0 0 0 0 0 0 0 0 0 0 0 0 0 0 0 0 0 0 0 0 0 0 0 0 0 0 0 0 0 0 0 0 0 0 0 0 0 0 0 0 0 0 0 0 0 0 0 0 0 0 0 0 0 0 0 0 0 0 0 0 0 0 0 0 0 0 0 0 0 0 0 0 0 0 0 0 0 0 0 0 0 0 0 0 0 0 0 0 0 0 0 0 0 0 0 0 0 0 0 0 0 0 0 0 0 0 0 0 0 0 0 0 0 0 0 0 0 0 0 0 0 0 0 0 0 0 0 0 0 1 0 1 1 0 0 0 0 0 0 0 0 0 0 0 0 0 0 0 0 0 0 0 0 0 0 0 0 0 0 0 0 0 0 0 0 0 0 0 0 0 0 0 0 0 0 0 0 0 0 0 0 0 0 0 0 0 0 0 0 0 0 0 0 0 0 0 0 0 0 0 0 0 0 0 0 0 0 0 0 0 0 0 0 0 0 0 0 0 0 0 0 0 0 0 0 0 0 0 0 0 0 0 0 0 0 0 0 0 0 1 1 0 0 0 0 0 0 0 0 0 0 1 1 0 0 0 0 0 0 0 0 0 0 0 0 0 0 0 0 0 0 0 0 0 0 0 0 0 0 0 0 0 0 0 0 0 0 0 0 0 0 1 1 0 0 0 0 0 0 0 0 0 0 0 0 0 0 0 0 0 0 0 0 0 0 0 0 0 0 0 0 0 0 0 0 0 0 0 0 0 0 0 0 0 0 0 0 0 0 0 0 0 0 0 0 0 0 0 0 0 0 0 0 0 0 0 0 0 0 0 0 0 0 0 0 0 0 0 0 0 0 0 0 1 0 0 0 0 0 0 0 0 0 0 0 0 0 0 0 0 0 0 0 0 0 0 0 0 0 0 0 0 0 0 0 0 0 0 0 0 0 0 0 0 0 0 0 0 0 0 0 0 0 0 0 0 0 0 0 0 0 0 0 0 0 0 0 0 0 0 0 0 0 0 0 0 0 0 0 0 0 0 0 0 0 0 0 0 0 0 0 0 0 0 0 0 0 0 0 0 0 0 0 0 0 0 0 0 0 0 0 0 0 0 0 0 0 0 0 0 0 0 0 0 0 0 0 0 0 0 0 0 0 0 0 0 0 0 0 0 0 0 0 0 0 0 0 0 0 0 0 0 0 0 0 0 0 0 0 0 0 0 0 0 0 0 0 0 0 0 0 0 0 0 0 0 0 0 0 0 0 0 0 0 0 0 0 0 0 1 0 0 0 0 0 0 0 0 0 0 0 0 0 0 0 0 0 1 1 0 0 0 0 0 0 0 0 1 0 1 0 0 0 0 1 0 0 0 0 0 0 0 0 0 0 0 0 0 0 0 0 0 0 0 0 0 0 0 0 0 0 0 1 1 0 0 0 0 0 0 0 0 0 0 0 0 1 1 0 0 0 0 0 0 0 0 0 0 0 0 0 0 0 0 0 0 0 0 0 0 0 0 0 0 0 0 0 0 0 0 0 0 0 0 0 0 0 0 0 0 0 0 0 0 0 0 0 0 1 1 0 0 0 0 0 0 0 0 0 0 0 0 0 0 0 0 0 0 0 0 0 0 0 0 0 0 0 0 0 0 0 0 0 0 0 0 0 0 0 0 0 0 0 0 0 0 0 0 0 0 0 0 0 0 0 0 0 0 0 0 0 0 0 0 0 0 0 0 0 0 0 0 0 0 0 0 0 0 0 0 0 0 0 0 0 0 0 0 0 0 0 0 0 0 0 0 0 0 0 0 0 0 0 0 0 0 0 0 0 0 0 0 0 0 0 0 0 0 0 0 0 0 0 0 0 0 0 0 0 0 0 0 0 0 0 0 0 0 0 1 0 1 1 0 0 0 0 0 0 0 0 0 0 0 1 1 0 0 0 0 0 0 0 0 0 0 0 0 0 0 0 0 0 0 0 0 0 0 0 0 0 0 0 0 0 0 1 1 0 0 0 0 0 0 0 0 0 0 0 1 0 1 0 0 0 0 0 0 0 0 0 0 0 0 0 0 0 0 0 0 1 0 1 0 0 0 0 0 0 0 0 0 0 0 0 0 0 0 0 0 0 0 0 0 0 0 0 0 0 0 0 0 0 0 0 1 0 0 0 0 1 1 0 0 0 0 0 0 0 0 0 0 0 0 0 0 0 0 0 0 0 0 0 0 0 0 0 0 0 0 0 0 0 0 0 0 0 0 0 0 0 0 1 1 0 1 1 0 0 0 0 0 0 0 0 0 0 0 0 0 0 0 0 0 0 0 0 0 1 0 0 0 0 0 1 0 0 0 0 0 0 0 0 0 1 1 0 0 0 0 0 0 0 0 0 0 0 0 0 0 0 0 0 0 0 0 0 0 0 0 1 0 0 0 0 0 0 0 0 0 0 0 1 1 0 0 0 0 0 0 0 0 0 0 0 0 0 0 0 0 0 0 0 1 0 1 0 1 0 1 0 1 0 0 0 0 0 0 1 0 0 1 0 1 0 </DataArray>
</CellData>
</Piece>
</UnstructuredGrid>
</VTKFile>