<?xml version="1.0"?>
<VTKFile type="UnstructuredGrid"  version="0.1"  >
<UnstructuredGrid>
<Piece  NumberOfPoints="177" NumberOfCells="472">
<Points>
<DataArray  type="Float64"  NumberOfComponents="3"  format="ascii">0.854276455421508 -0.1830234558912059 0  0.8300153346137791 -0.2233886782376498 0  0.8802401984326348 -0.2090854264259131 0  0.8134917273445018 -0.1244477064723687 0  0.7757878388576372 -0.1505199023977219 0  0.8115549189182265 -0.1619453571334153 0  0.5853093492935486 -0.28507866714551 0  0.629137422280887 -0.2424743782470962 0  0.5643864388564183 -0.2536541435834431 0  0.9414262370416376 -0.129975762731127 0  1 -0.13125 0  0.9711751359597043 -0.109375 0  0.7601185899323265 -0.1074407050338367 0  0.7075881846195111 -0.0662940923097556 0  0.7149478310508759 -0.1110034445190039 0  0.6682258070665166 -0.4679002397618434 0  0.6838685534939181 -0.4268874067563946 0  0.633592726106139 -0.4437140842609136 0  1 -0.4374999999999999 0  1 -0.48125 0  0.9607228186994142 -0.459375 0  0.8 0 0  0.7653926782632305 -0.04827618352295245 0  0.75 0 0  0.9162646230761236 -0.4526905824606551 0  0.9411260060812153 -0.5085388449328833 0  0.5242210710223368 -0.3269319872128197 0  0.5757359718473466 -0.3366138362193395 0  0.5548092654406495 -0.3060696293985581 0  0.6264528904034633 -0.3498545831532502 0  0.582600659009441 -0.3826112646915567 0  0.7808823529411765 -0.413235294117647 0  0.8490298350592497 -0.4313970822968575 0  0.8021502005198974 -0.4703670402678835 0  0.9151146752837327 -0.1973758951089894 0  0.9448661639593943 -0.2464801234641692 0  0.8981581794533687 -0.2412146687985617 0  0.65 -0.6 0  0.6545926561656578 -0.5435378258686903 0  0.6240652410171741 -0.574065241017174 0  0.639734420363772 -0.3100706898860456 0  0.4899262405093653 -0.3678915742035598 0  0.4684566871202182 -0.4184566871202182 0  0.504034864934946 -0.4088132682883163 0  0.5372120927534185 -0.3927485922049013 0  0.5 -0.225 0  0.55 -0.21875 0  0.5310939100073486 -0.2714551656073872 0  0.9 0 0  0.878399250641153 -0.06567518188559941 0  0.8481673357458628 -0.03977027079097951 0  0.7375 -0.625 0  0.78125 -0.6375 0  0.7675320413431422 -0.6027003552990022 0  0.8364675809184423 -0.3809112714811742 0  0.6 0 0  0.625 -0.05 0  0.6499999999999999 0 0  0.7 0 0  0.7290094248762837 -0.03328480571593082 0  0.7607083113866459 -0.5150764082333787 0  0.7083409121947625 -0.5614318073183314 0  0.7592770349969651 -0.5662167626681838 0  0.6745224946208268 -0.5080826076270506 0  0.9491993759513537 -0.3958540767919024 0  0.9085691804226278 -0.410270827138202 0  0.658274844561774 -0.2724487564941923 0  0.6785265521992854 -0.3260183451757446 0  0.6934796292086055 -0.2897525899485455 0  0.7 -0.2 0  0.7130547510753799 -0.2557582651553287 0  0.7576212820700775 -0.2312170626814086 0  0.7333088352789533 -0.3093230178556506 0  0.6696611882900102 -0.04108059414500505 0  0.4943914461030442 -0.4443914461030442 0  0.8644035883734856 -0.5201650237228799 0  0.8123704105353095 -0.5214016174406491 0  0.8476004372246175 -0.4773599040334426 0  0.712889100328898 -0.4945816992186197 0  0.6772426699479731 -0.2364612222887104 0  0.8694711538461538 -0.1223901098901099 0  1 -0.08749999999999999 0  0.3712609640686961 -0.3212609640686961 0  0.4068914461030442 -0.3568914461030441 0  0.4166350717570684 -0.3115173384146719 0  0.8996141498268519 -0.4935604696276478 0  0.9085347558254575 -0.5338506908312014 0  0.4572198881309733 -0.2890091050477862 0  0.4510260206771571 -0.342635668863443 0  0.7891547543057398 -0.2711430746601926 0  0.7498227868811493 -0.2697918340415448 0  0.7928289439824814 -0.1944901400437963 0  0.8822635351049432 -0.6152026271326987 0  0.8687499999999999 -0.6624999999999999 0  0.8386515619597886 -0.607949466080416 0  0.9025544471720061 -0.1536368522169897 0  0.9543018541781321 -0.1738379267136969 0  0.9305555949455786 -0.5687499999999999 0  0.9432633023303975 -0.6255686232625565 0  0.9651387442868136 -0.5908457192176229 0  0.9125 -0.6749999999999999 0  1 -0.35 0  0.950318090346735 -0.3460260429174813 0  0.928125 -0.3013992435414277 0  0.892342561976764 -0.2816631102973469 0  1 -0.2625 0  1 -0.30625 0  0.9653751313519454 -0.2843749999999999 0  0.5304748150867492 -0.4347246040197841 0  0.8878063725490196 -0.3724877450980392 0  0.8323375111823071 -0.296992542566229 0  0.7741025555553434 -0.3191875862256877 0  1 0 0  0.95 0 0  1 -0.04375 0  0.8815560220337374 -0.5661386191347765 0  0.8437716564777441 -0.5540491817259862 0  0.4210562735805297 -0.2716456938517514 0  0.4843033208056538 -0.3193082188996794 0  0.6937500000000001 -0.6125 0  0.8097657180543572 -0.5744797698055008 0  0.5462609640686962 -0.4962609640686961 0  0.5203262050858701 -0.4703262050858701 0  0.561174579438304 -0.4554125897162623 0  0.6068606391090694 -0.4875308069939748 0  0.6243397249052818 -0.5209775753462338 0  0.813232453280009 -0.3343628432967455 0  0.7970057021719686 -0.3770065123610136 0  0.9355563782440715 -0.06025699629248983 0  0.9082682673209583 -0.09943737686546969 0  0.8500000000000001 0 0  0.7300592949661633 -0.1537203525169183 0  0.825 -0.6499999999999999 0  0.85625 -0.2625 0  0.8683492441269285 -0.3185493907696348 0  0.9055878715065836 -0.3355948904572775 0  0.7015476496600082 -0.3867103293903772 0  0.7148424439987888 -0.3469554140499381 0  0.7423533315987788 -0.3965681287555179 0  0.64668970374815 -0.4035532875635385 0  0.4425219281373922 -0.3925219281373922 0  0.7591950214707845 -0.4721124264162921 0  0.5721957230515221 -0.5221957230515221 0  0.5945639919613092 -0.4275530717377014 0  1 -0.5249999999999999 0  1 -0.5687499999999999 0  0.9652777974727893 -0.5468749999999999 0  0.8210791750111202 -0.06894671068800906 0  0.8406164857192123 -0.09988675502145891 0  0.7939544166364098 -0.09350766213891887 0  0.8125448134951848 -0.03386029477664235 0  0.6652317578605047 -0.3657732605161838 0  0.7407518561671589 -0.1935671198085054 0  0.7615550342502794 -0.3592375179636377 0  0.598130482034348 -0.548130482034348 0  0.6749999999999999 -0.15 0  1 -0.6124999999999999 0  1 -0.65625 0  0.4905307242397266 -0.2649717363962397 0  0.7263825251736291 -0.4443359279563068 0  0.4 -0.2375 0  0.35 -0.24375 0  0.379585160678116 -0.2773062854249281 0  0.3356304820343481 -0.285630482034348 0  0.3 -0.25 0  0.7945895614433172 -0.2344351386749654 0  1 -0.7 0  0.95625 -0.6875 0  0.9619462239952179 -0.2117647864188687 0  1 -0.21875 0  0.6499999999999999 -0.1 0  0.8808824537964876 -0.4621024779124389 0  1 -0.175 0  1 -0.3937499999999999 0  0.6499999999999999 -0.20625 0  0.6 -0.2125 0  0.45 -0.23125 0  </DataArray>
</Points>
<Cells>
<DataArray  type="UInt32"  Name="connectivity"  format="ascii">0 1  0 2  0 5  0 80  0 91  0 95  1 2  1 89  1 91  1 133  1 165  2 34  2 36  2 95  2 133  3 4  3 5  3 12  3 80  3 148  3 149  4 5  4 12  4 91  4 131  4 152  5 80  5 91  6 7  6 8  6 27  6 28  6 40  7 8  7 40  7 66  7 79  7 174  7 175  8 28  8 46  8 47  8 175  9 10  9 11  9 95  9 96  9 129  10 11  10 81  10 96  10 172  11 81  11 128  11 129  12 13  12 14  12 22  12 131  12 149  13 14  13 22  13 59  13 73  13 170  14 131  14 155  14 170  15 16  15 17  15 63  15 78  15 124  15 125  15 159  16 17  16 136  16 139  16 159  17 124  17 139  17 143  18 19  18 20  18 64  18 173  19 20  19 25  19 144  20 24  20 25  20 64  21 22  21 23  21 130  21 150  22 23  22 59  22 147  22 149  22 150  23 58  23 59  24 25  24 64  24 65  24 85  24 171  25 85  25 86  25 144  25 146  26 27  26 28  26 41  26 44  26 47  26 118  27 28  27 29  27 30  27 40  27 44  28 47  29 30  29 40  29 67  29 139  29 151  30 44  30 139  30 143  31 32  31 33  31 54  31 127  31 138  31 141  31 153  31 159  32 33  32 54  32 65  32 77  32 109  32 171  33 60  33 76  33 77  33 141  34 35  34 36  34 95  34 96  34 168  35 36  35 103  35 104  35 105  35 107  35 168  35 169  36 104  36 133  37 38  37 39  37 61  37 119  38 39  38 61  38 63  38 125  39 125  39 154  40 66  40 67  41 42  41 43  41 44  41 88  41 118  41 140  42 43  42 74  42 140  43 44  43 74  43 108  44 108  44 143  45 46  45 47  45 158  45 176  46 47  46 175  47 118  47 158  48 49  48 50  48 113  48 128  48 130  49 50  49 80  49 128  49 129  49 147  49 148  50 130  50 147  50 150  51 52  51 53  51 61  51 62  51 119  52 53  52 94  52 120  52 132  53 62  53 120  54 109  54 126  54 127  54 134  55 56  55 57  56 57  56 73  56 170  57 58  57 73  58 59  58 73  59 73  60 61  60 62  60 76  60 78  60 141  61 62  61 63  61 78  61 119  62 76  62 120  63 78  63 125  64 65  64 101  64 102  64 109  64 173  65 109  65 171  66 67  66 68  66 79  67 68  67 72  67 137  67 151  68 70  68 72  68 79  69 70  69 71  69 79  69 131  69 152  69 155  69 174  70 71  70 72  70 79  70 90  71 89  71 90  71 91  71 152  71 165  72 90  72 111  72 137  72 153  73 170  74 108  74 122  75 76  75 77  75 85  75 86  75 115  75 116  76 77  76 116  76 120  77 85  77 171  78 141  78 159  79 174  80 95  80 129  80 148  81 114  81 128  82 83  82 84  82 162  82 163  83 84  83 88  83 140  84 87  84 88  84 117  84 162  85 86  85 171  86 97  86 115  86 146  87 88  87 117  87 118  87 158  87 176  88 118  88 140  89 90  89 110  89 111  89 133  89 165  90 111  91 152  91 165  92 93  92 94  92 97  92 98  92 100  92 115  93 94  93 100  93 132  94 115  94 116  94 120  94 132  95 96  95 129  96 168  96 172  97 98  97 99  97 115  97 146  98 99  98 100  98 156  98 157  98 167  99 145  99 146  99 156  100 167  101 102  101 106  101 173  102 103  102 106  102 107  102 109  102 135  103 104  103 107  103 135  104 133  104 134  104 135  105 106  105 107  105 169  106 107  108 122  108 123  108 143  109 134  109 135  110 111  110 126  110 133  110 134  111 126  111 153  112 113  112 114  113 114  113 128  114 128  115 116  116 120  117 160  117 162  117 176  118 158  121 122  121 123  121 124  121 142  122 123  123 124  123 143  124 125  124 142  124 143  125 142  125 154  126 127  126 134  126 153  127 153  128 129  130 150  131 152  131 155  133 134  134 135  136 137  136 138  136 139  136 151  136 159  137 138  137 151  137 153  138 153  138 159  139 143  139 151  141 159  142 154  144 145  144 146  145 146  145 156  147 148  147 149  147 150  148 149  155 170  156 157  157 166  157 167  158 176  160 161  160 162  160 176  161 162  161 163  161 164  162 163  163 164  166 167  168 169  168 172  169 172  174 175  </DataArray>
<DataArray  type="UInt32"  Name="offsets"  format="ascii">2 4 6 8 10 12 14 16 18 20 22 24 26 28 30 32 34 36 38 40 42 44 46 48 50 52 54 56 58 60 62 64 66 68 70 72 74 76 78 80 82 84 86 88 90 92 94 96 98 100 102 104 106 108 110 112 114 116 118 120 122 124 126 128 130 132 134 136 138 140 142 144 146 148 150 152 154 156 158 160 162 164 166 168 170 172 174 176 178 180 182 184 186 188 190 192 194 196 198 200 202 204 206 208 210 212 214 216 218 220 222 224 226 228 230 232 234 236 238 240 242 244 246 248 250 252 254 256 258 260 262 264 266 268 270 272 274 276 278 280 282 284 286 288 290 292 294 296 298 300 302 304 306 308 310 312 314 316 318 320 322 324 326 328 330 332 334 336 338 340 342 344 346 348 350 352 354 356 358 360 362 364 366 368 370 372 374 376 378 380 382 384 386 388 390 392 394 396 398 400 402 404 406 408 410 412 414 416 418 420 422 424 426 428 430 432 434 436 438 440 442 444 446 448 450 452 454 456 458 460 462 464 466 468 470 472 474 476 478 480 482 484 486 488 490 492 494 496 498 500 502 504 506 508 510 512 514 516 518 520 522 524 526 528 530 532 534 536 538 540 542 544 546 548 550 552 554 556 558 560 562 564 566 568 570 572 574 576 578 580 582 584 586 588 590 592 594 596 598 600 602 604 606 608 610 612 614 616 618 620 622 624 626 628 630 632 634 636 638 640 642 644 646 648 650 652 654 656 658 660 662 664 666 668 670 672 674 676 678 680 682 684 686 688 690 692 694 696 698 700 702 704 706 708 710 712 714 716 718 720 722 724 726 728 730 732 734 736 738 740 742 744 746 748 750 752 754 756 758 760 762 764 766 768 770 772 774 776 778 780 782 784 786 788 790 792 794 796 798 800 802 804 806 808 810 812 814 816 818 820 822 824 826 828 830 832 834 836 838 840 842 844 846 848 850 852 854 856 858 860 862 864 866 868 870 872 874 876 878 880 882 884 886 888 890 892 894 896 898 900 902 904 906 908 910 912 914 916 918 920 922 924 926 928 930 932 934 936 938 940 942 944 </DataArray>
<DataArray  type="UInt8"  Name="types"  format="ascii">3 3 3 3 3 3 3 3 3 3 3 3 3 3 3 3 3 3 3 3 3 3 3 3 3 3 3 3 3 3 3 3 3 3 3 3 3 3 3 3 3 3 3 3 3 3 3 3 3 3 3 3 3 3 3 3 3 3 3 3 3 3 3 3 3 3 3 3 3 3 3 3 3 3 3 3 3 3 3 3 3 3 3 3 3 3 3 3 3 3 3 3 3 3 3 3 3 3 3 3 3 3 3 3 3 3 3 3 3 3 3 3 3 3 3 3 3 3 3 3 3 3 3 3 3 3 3 3 3 3 3 3 3 3 3 3 3 3 3 3 3 3 3 3 3 3 3 3 3 3 3 3 3 3 3 3 3 3 3 3 3 3 3 3 3 3 3 3 3 3 3 3 3 3 3 3 3 3 3 3 3 3 3 3 3 3 3 3 3 3 3 3 3 3 3 3 3 3 3 3 3 3 3 3 3 3 3 3 3 3 3 3 3 3 3 3 3 3 3 3 3 3 3 3 3 3 3 3 3 3 3 3 3 3 3 3 3 3 3 3 3 3 3 3 3 3 3 3 3 3 3 3 3 3 3 3 3 3 3 3 3 3 3 3 3 3 3 3 3 3 3 3 3 3 3 3 3 3 3 3 3 3 3 3 3 3 3 3 3 3 3 3 3 3 3 3 3 3 3 3 3 3 3 3 3 3 3 3 3 3 3 3 3 3 3 3 3 3 3 3 3 3 3 3 3 3 3 3 3 3 3 3 3 3 3 3 3 3 3 3 3 3 3 3 3 3 3 3 3 3 3 3 3 3 3 3 3 3 3 3 3 3 3 3 3 3 3 3 3 3 3 3 3 3 3 3 3 3 3 3 3 3 3 3 3 3 3 3 3 3 3 3 3 3 3 3 3 3 3 3 3 3 3 3 3 3 3 3 3 3 3 3 3 3 3 3 3 3 3 3 3 3 3 3 3 3 3 3 3 3 3 3 3 3 3 3 3 3 3 3 3 3 3 3 3 3 3 3 3 3 3 3 3 3 3 3 3 3 3 3 3 3 3 3 3 3 3 3 3 3 3 3 </DataArray>
</Cells>
<CellData  Scalars="f">
<DataArray  type="Float64"  Name="f"  format="ascii">0 0 0 0 0 0 0 0 0 0 0 0 0 0 0 0 0 0 0 0 0 0 0 0 0 0 0 0 0 0 0 0 0 0 0 0 0 0 0 0 0 0 0 0 0 0 0 0 0 1 0 1 0 0 0 0 0 0 0 0 0 0 0 0 0 0 0 0 0 0 0 0 0 0 0 0 0 0 0 0 0 0 1 0 0 1 0 0 1 0 0 0 0 0 0 0 0 0 0 0 0 0 0 0 0 0 0 0 0 0 0 0 0 0 0 0 0 0 0 0 0 0 0 0 0 0 0 0 0 0 0 0 0 0 0 0 0 0 0 0 0 0 0 0 0 0 0 0 0 0 0 0 0 0 0 0 0 0 0 0 0 0 0 0 0 0 0 0 0 0 0 0 0 0 0 0 0 0 0 0 0 0 0 0 0 0 0 0 0 0 0 0 0 0 0 0 0 0 0 0 0 0 0 0 0 0 0 0 0 0 0 0 0 0 0 0 0 0 0 0 0 0 0 0 0 0 0 0 0 0 0 0 0 0 0 0 0 0 0 0 0 0 0 0 0 0 0 0 0 0 0 0 0 0 0 0 0 0 0 0 0 0 0 0 0 0 0 0 0 0 0 0 0 0 0 0 0 0 0 0 0 0 0 0 0 0 0 0 0 0 0 0 0 0 0 0 0 0 0 0 0 0 0 0 0 0 0 1 0 0 0 0 0 0 0 0 0 0 0 0 0 0 0 0 0 0 0 0 0 0 0 0 0 0 0 0 0 0 0 0 0 0 0 0 0 0 0 0 0 0 0 0 0 0 0 0 0 0 0 0 0 0 0 0 0 0 0 0 0 0 0 1 1 0 0 0 0 0 0 0 0 0 0 0 1 0 1 0 0 0 0 0 0 0 0 0 0 0 0 0 1 0 0 0 0 0 0 0 0 0 0 0 0 0 0 0 0 0 0 0 0 0 0 0 0 0 0 0 0 0 0 0 0 0 0 0 0 0 0 0 0 0 0 0 0 0 1 0 0 1 0 0 0 0 0 1 1 0 0 0 0 0 0 0 0 0 0 0 0 0 1 0 </DataArray>
</CellData>
</Piece>
</UnstructuredGrid>
</VTKFile>