<?xml version="1.0"?>
<VTKFile type="UnstructuredGrid"  version="0.1"  >
<UnstructuredGrid>
<Piece  NumberOfPoints="18" NumberOfCells="33">
<Points>
<DataArray  type="Float64"  NumberOfComponents="3"  format="ascii">1 0.65 0  0.8 0.7 0  1 1 0  -0.5 1 0  -0.675 0.8 0  -0.75 1 0  0.3 0.8 0  -0.02499999999999999 0.8 0  0.25 1 0  -1 0.8 0  -1 1 0  0 1 0  0.5 0.9 0  0.5 1 0  0.75 1 0  -0.35 0.8 0  -0.25 1 0  0.65 0.8 0  </DataArray>
</Points>
<Cells>
<DataArray  type="UInt32"  Name="connectivity"  format="ascii">0 1  0 2  1 2  1 14  1 17  2 14  3 4  3 5  3 15  3 16  4 5  4 9  4 15  5 9  5 10  6 7  6 8  6 12  7 8  7 11  7 15  7 16  8 11  8 12  8 13  9 10  11 16  12 13  12 14  12 17  13 14  14 17  15 16  </DataArray>
<DataArray  type="UInt32"  Name="offsets"  format="ascii">2 4 6 8 10 12 14 16 18 20 22 24 26 28 30 32 34 36 38 40 42 44 46 48 50 52 54 56 58 60 62 64 66 </DataArray>
<DataArray  type="UInt8"  Name="types"  format="ascii">3 3 3 3 3 3 3 3 3 3 3 3 3 3 3 3 3 3 3 3 3 3 3 3 3 3 3 3 3 3 3 3 3 </DataArray>
</Cells>
<CellData  Scalars="f">
<DataArray  type="Float64"  Name="f"  format="ascii">0 1 0 0 0 1 0 1 0 1 0 0 0 0 1 0 0 0 0 0 0 0 1 0 1 1 1 0 0 0 1 0 0 </DataArray>
</CellData>
</Piece>
</UnstructuredGrid>
</VTKFile>