<?xml version="1.0"?>
<VTKFile type="UnstructuredGrid"  version="0.1"  >
<UnstructuredGrid>
<Piece  NumberOfPoints="145" NumberOfCells="248">
<Points>
<DataArray  type="Float64"  NumberOfComponents="3"  format="ascii">-1 -0.6 0  -1 -1 0  1 -1 0  1 -0.7 0  0.65 -0.6 0  0.3 -0.25 0  -0.6 -0.45 0  1 0 0  0.6 0 0  0.7 -0.2 0  0 0 0  -1 0 0  -0.35 0 0  -1 0.8 0  1 0.65 0  0.8 0.7 0  0.5 0.9 0  0.3 0.8 0  -1 1 0  1 1 0  0 -1 0  -0.2339298524310177 -0.3686510783180039 0  1 -0.35 0  -0.3 -0.225 0  0.3 0 0  0 1 0  0.5 -1 0  -0.35 0.8 0  0.5 1 0  -0.5 1 0  -0.02499999999999999 0.8 0  0.25 1 0  -0.675 0.8 0  -0.25 1 0  -0.75 1 0  -0.5 -1 0  -0.5125 0.4 0  0.45 0.4000000000000001 0  0.2392857142857143 -0.6607142857142857 0  -0.10234375 0.3971923828125001 0  -1 0.4 0  -0.25 -0.7336182109444316 0  1 0.325 0  -0.675 0 0  -0.75 -1 0  -1 -0.3 0  -0.625 -0.7386363636363635 0  0.1375 0.5599688503552772 0  0.1632846384879322 0.2638886704941548 0  0.03303507378449114 -0.309325539159002 0  0.7333333333333333 0.423611111111111 0  0.75 -1 0  0.8 0 0  -1 0.6000000000000001 0  -0.75625 0.5000000000000001 0  -1 0.2 0  -0.05143949887340424 -0.5595238157628687 0  0.75 1 0  0.65 0.8 0  -0.7484775641025641 0.2446614583333334 0  -0.25 -1 0  0.25 -1 0  0.4425219281373922 -0.3925219281373922 0  0.5 -0.225 0  -0.1875 0.622372632402674 0  -1 -0.8 0  -0.3084397930151275 0.2498916465876044 0  -0.7508333333333334 -0.2438888888888889 0  -0.45 -0.3375 0  -0.4169649262155088 -0.4093255391590019 0  0.475 0.6375000000000001 0  0.7 0.201313752276867 0  -0.5234034762019568 0.1714217247070449 0  0.03744427854033043 -0.7723855137374661 0  -0.8 -0.525 0  -0.5686538461538461 0.6101953125 0  0.7808823529411765 -0.413235294117647 0  0.375 -0.8262406015037593 0  0.625 -0.8187500000000001 0  0.3680408914331265 0.2026096657125776 0  0.4446935738432771 -0.6307002264188076 0  0.2033841152791955 -0.4455623723207756 0  -0.03345377230969462 0.2031615787366182 0  -0.5624632686084142 -0.1687255124056095 0  1 -0.175 0  -0.3131197738935154 0.4572854680839167 0  0.825 -0.6499999999999999 0  1 -0.85 0  0.15 0 0  -0.4389765526894864 -0.6257864322885835 0  1 0.1625 0  -0.8375 0.8 0  -0.8053602058319039 -0.8129502572898799 0  -0.4508690635920209 -0.8159294731013222 0  -0.175 0 0  -0.14 -0.105 0  -0.125 -0.8668091054722158 0  -0.2704116421320834 -0.5498820854778975 0  1 0.825 0  0.8045470027247956 -0.8286529291553133 0  0.3212075472467898 0.5336228897634959 0  -0.8375 0 0  1 -0.5249999999999999 0  1 0.4875 0  -0.3626327884112306 0.6252989142588076 0  0.2012828870965875 -0.8302715594089393 0  -1 -0.15 0  0.1375 0.8 0  0.5462609640686962 -0.4962609640686961 0  0.8561326658322903 -0.2627346683354193 0  0.5838188298918388 0.5059795968534907 0  0.616525359814727 -0.3447028785178162 0  0.5338502036872936 0.1583527836455199 0  -0.01753859270246882 0.6300298824780811 0  0.1665175368922456 -0.279662769579501 0  0.075 -0.1447488422742757 0  -0.5125 0 0  -0.5125 0.8 0  -0.1875 0.8 0  0.8580012122986348 0.24375 0  0.5984682798757915 0.3301861970460566 0  0.2996243316314887 0.3467275635257511 0  -0.8421274038461539 0.6377441406250001 0  0.107122505840895 -0.5721965286064361 0  0.875 1 0  0.8125 0.85625 0  0.3436867550870649 -0.5125221300618623 0  0.6253212160061079 0.651096382762653 0  0.45 0 0  -1 -0.45 0  -0.8531436422747446 -0.3708499042442174 0  0.0677006045197385 0.4047274139140798 0  0.225 0.1285030845294286 0  -0.8880300881458119 0.3 0  0.845782986111111 0.5427222222222221 0  0.3868243243243243 -0.1320945945945946 0  0.2199335069202797 -0.1280398958478322 0  -0.1017974825771836 -0.7197816233020838 0  0.21875 0.6799844251776386 0  -0.6739809777733121 -0.875783801143989 0  -0.6615358827337464 -0.5900709793766762 0  -0.8955958357093489 -0.7 0  0.8765520976049441 0.4010379885154045 0  -0.5890755215265254 -0.3083159712979661 0  -0.2625 0.1138494431357263 0  </DataArray>
</Points>
<Cells>
<DataArray  type="UInt32"  Name="connectivity"  format="ascii">12 94 95  76 108 111  35 93 139  9 52 109  82 88 132  6 74 130  4 76 86  8 9 52  21 23 95  42 90 119  8 9 63  24 88 132  29 32 34  17 70 138  13 18 91  17 31 107  16 28 57  16 17 31  6 68 69  88 115 136  21 68 69  12 23 95  43 67 83  48 121 131  48 82 131  27 29 117  0 65 141  27 29 33  16 28 31  32 34 91  39 66 82  39 82 131  36 66 85  32 91 122  64 113 118  25 30 118  65 92 141  39 64 85  39 66 85  16 58 70  58 70 127  38 77 80  5 62 63  47 121 131  39 64 113  40 53 54  41 89 97  21 49 56  7 52 84  43 59 101  1 65 92  43 67 101  46 92 140  6 69 89  47 100 138  16 17 70  10 82 88  48 82 132  49 81 123  49 81 114  14 103 134  70 110 127  4 78 86  26 51 78  52 71 119  8 52 71  13 91 122  18 34 91  45 67 106  36 54 75  54 59 133  55 59 133  41 96 137  49 56 123  50 110 127  57 124 125  16 57 58  36 66 72  36 54 59  41 60 96  46 93 139  38 77 105  20 60 96  38 81 123  4 78 80  79 112 128  24 128 135  30 113 118  27 64 118  92 140 141  6 74 140  12 72 116  66 82 144  21 23 68  23 68 83  6 68 143  68 83 143  21 69 97  69 89 97  70 100 138  37 70 100  37 112 120  24 79 128  36 59 72  43 59 72  38 73 105  61 77 105  45 129 130  64 85 104  29 32 117  4 76 108  4 80 108  26 61 77  22 76 102  77 78 80  26 77 78  71 112 120  37 79 112  38 80 126  38 81 126  62 81 126  5 62 81  10 82 94  10 94 95  12 23 83  43 72 116  52 84 109  22 84 109  36 75 104  36 85 104  3 86 99  3 87 99  2 51 99  2 87 99  5 81 114  5 114 136  46 89 93  41 89 93  52 90 119  7 52 90  54 75 122  32 75 122  1 44 92  46 92 139  35 60 93  41 60 93  82 94 144  12 94 144  21 49 95  10 88 115  20 73 96  73 96 137  56 73 137  21 56 97  15 98 125  14 15 98  78 86 99  51 78 99  47 100 121  37 100 121  55 59 101  11 55 101  76 86 102  3 86 102  42 103 142  103 134 142  27 64 104  32 75 117  20 73 105  20 61 105  67 101 106  11 101 106  25 31 107  25 30 107  62 63 111  62 108 111  9 76 109  22 76 109  37 70 110  50 71 120  9 76 111  9 63 111  8 112 128  8 71 112  17 107 138  30 107 113  114 115 136  49 114 115  10 95 115  49 95 115  43 83 116  12 83 116  75 104 117  27 104 117  25 33 118  27 33 118  50 134 142  50 71 119  50 110 120  37 110 120  48 79 121  37 79 121  13 53 122  53 54 122  56 73 123  38 73 123  98 124 125  19 98 124  57 58 125  15 58 125  80 108 126  62 108 126  14 15 134  15 58 127  63 128 135  8 63 128  0 74 129  74 129 130  6 67 130  45 67 130  47 113 131  39 113 131  24 79 132  48 79 132  40 54 133  40 55 133  15 127 134  50 127 134  5 135 136  5 63 135  24 135 136  24 88 136  56 97 137  41 97 137  107 113 138  47 113 138  44 92 139  35 44 139  46 89 140  6 89 140  74 140 141  0 74 141  50 119 142  42 119 142  67 83 143  6 67 143  66 72 144  12 72 144  </DataArray>
<DataArray  type="UInt32"  Name="offsets"  format="ascii">3 6 9 12 15 18 21 24 27 30 33 36 39 42 45 48 51 54 57 60 63 66 69 72 75 78 81 84 87 90 93 96 99 102 105 108 111 114 117 120 123 126 129 132 135 138 141 144 147 150 153 156 159 162 165 168 171 174 177 180 183 186 189 192 195 198 201 204 207 210 213 216 219 222 225 228 231 234 237 240 243 246 249 252 255 258 261 264 267 270 273 276 279 282 285 288 291 294 297 300 303 306 309 312 315 318 321 324 327 330 333 336 339 342 345 348 351 354 357 360 363 366 369 372 375 378 381 384 387 390 393 396 399 402 405 408 411 414 417 420 423 426 429 432 435 438 441 444 447 450 453 456 459 462 465 468 471 474 477 480 483 486 489 492 495 498 501 504 507 510 513 516 519 522 525 528 531 534 537 540 543 546 549 552 555 558 561 564 567 570 573 576 579 582 585 588 591 594 597 600 603 606 609 612 615 618 621 624 627 630 633 636 639 642 645 648 651 654 657 660 663 666 669 672 675 678 681 684 687 690 693 696 699 702 705 708 711 714 717 720 723 726 729 732 735 738 741 744 </DataArray>
<DataArray  type="UInt8"  Name="types"  format="ascii">5 5 5 5 5 5 5 5 5 5 5 5 5 5 5 5 5 5 5 5 5 5 5 5 5 5 5 5 5 5 5 5 5 5 5 5 5 5 5 5 5 5 5 5 5 5 5 5 5 5 5 5 5 5 5 5 5 5 5 5 5 5 5 5 5 5 5 5 5 5 5 5 5 5 5 5 5 5 5 5 5 5 5 5 5 5 5 5 5 5 5 5 5 5 5 5 5 5 5 5 5 5 5 5 5 5 5 5 5 5 5 5 5 5 5 5 5 5 5 5 5 5 5 5 5 5 5 5 5 5 5 5 5 5 5 5 5 5 5 5 5 5 5 5 5 5 5 5 5 5 5 5 5 5 5 5 5 5 5 5 5 5 5 5 5 5 5 5 5 5 5 5 5 5 5 5 5 5 5 5 5 5 5 5 5 5 5 5 5 5 5 5 5 5 5 5 5 5 5 5 5 5 5 5 5 5 5 5 5 5 5 5 5 5 5 5 5 5 5 5 5 5 5 5 5 5 5 5 5 5 5 5 5 5 5 5 5 5 5 5 5 5 5 5 5 5 5 5 </DataArray>
</Cells>
</Piece>
</UnstructuredGrid>
</VTKFile>