<?xml version="1.0"?>
<VTKFile type="UnstructuredGrid"  version="0.1"  >
<UnstructuredGrid>
<Piece  NumberOfPoints="164" NumberOfCells="435">
<Points>
<DataArray  type="Float64"  NumberOfComponents="3"  format="ascii">-0.4508690635920209 -0.8159294731013222 0  -0.5110527309229975 -0.7167218516611731 0  -0.5376326489853442 -0.8007052171325867 0  -0.6 -0.45 0  -0.5423826425441602 -0.5588648561134525 0  -0.6143229484165981 -0.527260092259468 0  -1 -0.9 0  -0.8883368541347748 -0.8885460676684686 0  -0.9463603467980937 -0.8470372068693501 0  0.4446935738432771 -0.6307002264188076 0  0.5600836632679065 -0.7005274186591893 0  0.4546815463009607 -0.7444502064322289 0  -0.25 -0.7336182109444316 0  -0.3270710121717562 -0.6491783463865517 0  -0.2578892950905941 -0.6228407653955579 0  -0.05143949887340424 -0.5595238157628687 0  -0.08121141337726949 -0.6382094804940019 0  -0.1895621184300871 -0.5526084774897673 0  -0.8053602058319039 -0.8129502572898799 0  -0.7168265179144229 -0.7717974527114952 0  -0.8407845256137996 -0.7487310237426786 0  0.2033841152791955 -0.4455623723207756 0  0.2396298728592392 -0.5500855174559041 0  0.1660213606498336 -0.5170648394815341 0  0.03303507378449114 -0.309325539159002 0  0.1371176409882731 -0.3732421676384599 0  0.09977630533836836 -0.2944941543692515 0  0.8045470027247956 -0.8286529291553133 0  0.7772735013623978 -0.9143264645776567 0  0.7147735013623978 -0.8237014645776567 0  -0.125 -0.8668091054722158 0  -0.01656434517258057 -0.8664148455619838 0  -0.09375 -0.9334045527361079 0  0.107122505840895 -0.5721965286064361 0  0.0668421478733143 -0.4416732474757012 0  0.01119920293630987 -0.504109204733425 0  0.375 -0.8262406015037593 0  0.3493941477868336 -0.6963816165626817 0  -0.3125 -0.8668091054722158 0  -0.21875 -0.8295418642681242 0  -0.2632364191801485 -0.9249516565735563 0  -0.625 -0.7386363636363635 0  0.2516920576395977 -0.3477811861603878 0  0.2771622891690492 -0.4714428033201105 0  0.5426344001541996 -0.5991072913635719 0  0.638815865570835 -0.6804727552672545 0  -0.7601274754451701 -0.6842943424933031 0  -0.8231218976164272 -0.6154249396895276 0  -0.8 -0.525 0  -0.742051565064904 -0.6045154096209143 0  -0.2704116421320834 -0.5498820854778975 0  -0.3843424784807133 -0.5219924867948903 0  -0.3372617610793822 -0.463298477939004 0  0.03744427854033043 -0.7723855137374661 0  -0.0009509862801871938 -0.6634298010629341 0  0.1237984764672114 -0.6902214769824102 0  0.2691096761561731 -0.756436141132011 0  0.3008985963590599 -0.8234314678766934 0  0.5013393170898814 -0.8671952186826768 0  0.625 -0.8187500000000001 0  0.6875 -0.909375 0  0.5625 -0.934221159428636 0  0.2392857142857143 -0.6607142857142857 0  0.3561142259522707 -0.6041546828228505 0  0.9080311754092608 -0.7866094122953695 0  0.799944602104447 -0.7376287849619282 0  1 -0.85 0  0.891068381574993 -0.8932354821754794 0  0.1665175368922456 -0.279662769579501 0  0.2332587684461228 -0.2648313847897505 0  -0.5511875524215551 -0.8877452212280661 0  -0.4389765526894864 -0.6257864322885835 0  -0.3539985753021521 -0.7660762948960289 0  -0.4233508485569307 -0.7122032990376439 0  -0.03370615776938608 -0.3241569239487525 0  0.008029967271653275 -0.390220319581662 0  0 -1 0  -0.0625 -1 0  0.02890177234503936 -0.9285966731710376 0  0.09066319440072067 -0.8825610970088116 0  0.02636299431988885 -0.5843593980334063 0  -0.2622629942724947 -0.4572350132491598 0  0.825 -0.6499999999999999 0  0.7375 -0.625 0  0.75 -1 0  0.625 -1 0  0.2012828870965875 -0.8302715594089393 0  0.17658574794162 -0.9211781987036476 0  0.3 -0.25 0  0.07556346905657803 -0.6368461293319039 0  0.1807310180503007 -0.6052172065808061 0  0.4943914461030442 -0.4443914461030442 0  0.4424897596031651 -0.53032951435766 0  0.4039037717278371 -0.461416710335188 0  -0.8955958357093489 -0.7 0  -0.9477979178546745 -0.65 0  -0.1017974825771836 -0.7197816233020838 0  -0.04733739779451589 -0.7862139825696403 0  -0.1726523229402777 -0.7614720288797179 0  -0.6739809777733121 -0.875783801143989 0  -0.625 -1 0  -0.6875 -1 0  -0.582476113103777 -0.6488597406777881 0  -0.5125321950459826 -0.6260919088718341 0  -0.6615358827337464 -0.5900709793766762 0  -0.9 -0.5625 0  -1 -0.7 0  -0.0478298091251976 -0.4448642740220703 0  -0.1575619126769233 -0.4783113340184518 0  -0.3362881051354903 -0.9369060565790345 0  -0.5 -1 0  -0.375 -1 0  -0.4374999999999999 -0.9180899809378962 0  -0.1875 -0.9334045527361079 0  -0.3795295053034823 -0.8355086141228166 0  -0.2871429099893293 -0.7974484025529812 0  -0.875 -1 0  -0.9375 -1 0  -0.6580966061351826 -0.6680004049617774 0  -0.1173790443692871 -0.4134156594736627 0  -0.1004473893232633 -0.3389883087385029 0  0.7109930830039526 -0.717774209486166 0  0.5333442215773679 -0.7847892608687896 0  0.65 -0.6 0  0.5 -1 0  0.375 -1 0  0.4375 -0.9329605524341096 0  0.2897305615379189 -0.8967402958002527 0  0.3665576799193244 -0.9028461836564907 0  0.25 -1 0  0.125 -1 0  -0.25 -1 0  -0.125 -1 0  0.3288302386976393 -0.4127619832615607 0  0.3436867550870649 -0.5125221300618623 0  0.1196072428577823 -0.800638889848497 0  -0.1846139103566585 -0.633352479948799 0  -0.3254473893232633 -0.3889883087385029 0  -0.5084824631077545 -0.429662769579501 0  -0.4504228370882402 -0.4748480134495128 0  -0.8980855204028776 -0.7945086207261599 0  1 -0.7 0  0.9125 -0.6749999999999999 0  0.1853927969565139 -0.7476033076722641 0  -0.2339298524310177 -0.3686510783180039 0  0.3712609640686961 -0.3212609640686961 0  -0.461701334284023 -0.5475489208587262 0  -0.7680049634651214 -0.9036116245112805 0  0.5462609640686962 -0.4962609640686961 0  -1 -0.6 0  1 -0.925 0  0.875 -1 0  -0.6079634252779847 -0.8343279404909434 0  -0.75 -1 0  -0.8125 -1 0  0.4425219281373922 -0.3925219281373922 0  -1 -0.8 0  -0.7 -0.4875 0  -1 -1 0  1 -1 0  0.9375 -1 0  1 -0.7749999999999999 0  0.598130482034348 -0.548130482034348 0  -0.4169649262155088 -0.4093255391590019 0  </DataArray>
</Points>
<Cells>
<DataArray  type="UInt32"  Name="connectivity"  format="ascii">0 1  0 2  0 70  0 72  0 73  0 112  0 114  1 2  1 41  1 71  1 73  1 102  1 103  2 41  2 70  2 152  3 4  3 5  3 138  3 157  4 5  4 102  4 103  4 138  4 139  4 146  5 102  5 104  5 157  6 7  6 8  6 117  6 156  6 158  7 8  7 18  7 116  7 117  7 140  7 147  7 154  8 140  8 156  9 10  9 11  9 37  9 44  9 63  9 92  10 11  10 44  10 45  10 59  10 122  11 36  11 37  11 58  11 122  12 13  12 14  12 39  12 72  12 98  12 115  12 136  13 14  13 50  13 51  13 71  13 72  13 73  14 17  14 50  14 136  15 16  15 17  15 35  15 54  15 80  15 107  15 108  16 17  16 54  16 96  16 136  17 50  17 81  17 108  17 136  18 19  18 20  18 140  18 147  19 20  19 41  19 46  19 99  19 118  19 147  19 152  20 46  20 47  20 94  20 140  21 22  21 23  21 25  21 34  21 42  21 43  22 23  22 43  22 62  22 63  22 90  22 134  23 33  23 34  23 90  24 25  24 26  24 74  24 75  25 26  25 34  25 42  25 68  25 75  26 68  27 28  27 29  27 64  27 65  27 67  28 29  28 60  28 67  28 84  28 151  29 59  29 60  29 65  29 121  30 31  30 32  30 39  30 97  30 98  30 113  31 32  31 53  31 78  31 79  31 97  32 77  32 78  32 113  32 132  33 34  33 35  33 80  33 89  33 90  34 35  34 75  35 75  35 80  35 107  36 37  36 57  36 58  36 126  36 128  37 56  37 57  37 62  37 63  38 39  38 40  38 109  38 114  38 115  39 40  39 98  39 113  39 115  40 109  40 113  40 131  41 102  41 118  41 152  42 43  42 68  42 69  42 88  42 133  42 145  43 133  43 134  44 45  44 92  44 123  44 148  44 162  45 59  45 83  45 121  45 123  46 47  46 49  46 118  47 48  47 49  47 94  47 95  47 105  48 49  48 105  48 157  49 104  49 118  49 157  50 51  50 52  50 81  51 52  51 71  51 139  51 146  52 81  52 137  52 139  52 163  53 54  53 55  53 79  53 97  53 135  54 55  54 80  54 89  54 96  54 97  55 62  55 89  55 90  55 135  55 143  56 57  56 62  56 86  56 143  57 86  57 127  57 128  58 59  58 61  58 122  58 126  59 60  59 61  59 121  59 122  60 61  60 84  60 85  61 85  61 124  61 126  62 63  62 90  62 143  63 92  63 134  64 65  64 66  64 67  64 141  64 142  64 161  65 82  65 83  65 121  65 142  66 67  66 150  66 161  67 150  67 151  67 160  68 69  69 88  70 99  70 100  70 110  70 112  70 152  71 73  71 103  71 146  72 73  72 114  72 115  74 75  74 107  74 120  75 107  76 77  76 78  76 130  77 78  77 132  78 79  78 130  79 86  79 87  79 130  79 135  80 89  81 108  81 137  81 144  82 83  82 142  83 121  83 123  84 85  84 151  85 124  86 87  86 127  86 135  86 143  87 127  87 129  87 130  88 145  89 90  91 92  91 93  91 148  91 155  92 93  92 134  92 148  93 133  93 134  93 155  94 95  94 106  94 140  95 105  95 106  95 149  96 97  96 98  96 136  97 98  98 136  99 100  99 101  99 147  99 152  100 101  100 110  101 147  101 153  102 103  102 104  102 118  103 146  104 118  104 157  105 149  106 140  106 149  106 156  107 108  107 119  107 120  108 119  108 144  109 111  109 112  109 114  109 131  110 111  110 112  111 112  111 131  112 114  113 131  113 132  114 115  116 117  116 154  117 158  119 120  119 144  120 144  123 162  124 125  124 126  125 126  125 127  125 128  125 129  126 128  127 128  127 129  129 130  131 132  133 134  133 145  133 155  135 143  137 144  137 163  138 139  138 163  139 146  139 163  140 156  141 142  141 161  145 155  147 153  147 154  148 162  150 159  150 160  151 160  153 154  159 160  </DataArray>
<DataArray  type="UInt32"  Name="offsets"  format="ascii">2 4 6 8 10 12 14 16 18 20 22 24 26 28 30 32 34 36 38 40 42 44 46 48 50 52 54 56 58 60 62 64 66 68 70 72 74 76 78 80 82 84 86 88 90 92 94 96 98 100 102 104 106 108 110 112 114 116 118 120 122 124 126 128 130 132 134 136 138 140 142 144 146 148 150 152 154 156 158 160 162 164 166 168 170 172 174 176 178 180 182 184 186 188 190 192 194 196 198 200 202 204 206 208 210 212 214 216 218 220 222 224 226 228 230 232 234 236 238 240 242 244 246 248 250 252 254 256 258 260 262 264 266 268 270 272 274 276 278 280 282 284 286 288 290 292 294 296 298 300 302 304 306 308 310 312 314 316 318 320 322 324 326 328 330 332 334 336 338 340 342 344 346 348 350 352 354 356 358 360 362 364 366 368 370 372 374 376 378 380 382 384 386 388 390 392 394 396 398 400 402 404 406 408 410 412 414 416 418 420 422 424 426 428 430 432 434 436 438 440 442 444 446 448 450 452 454 456 458 460 462 464 466 468 470 472 474 476 478 480 482 484 486 488 490 492 494 496 498 500 502 504 506 508 510 512 514 516 518 520 522 524 526 528 530 532 534 536 538 540 542 544 546 548 550 552 554 556 558 560 562 564 566 568 570 572 574 576 578 580 582 584 586 588 590 592 594 596 598 600 602 604 606 608 610 612 614 616 618 620 622 624 626 628 630 632 634 636 638 640 642 644 646 648 650 652 654 656 658 660 662 664 666 668 670 672 674 676 678 680 682 684 686 688 690 692 694 696 698 700 702 704 706 708 710 712 714 716 718 720 722 724 726 728 730 732 734 736 738 740 742 744 746 748 750 752 754 756 758 760 762 764 766 768 770 772 774 776 778 780 782 784 786 788 790 792 794 796 798 800 802 804 806 808 810 812 814 816 818 820 822 824 826 828 830 832 834 836 838 840 842 844 846 848 850 852 854 856 858 860 862 864 866 868 870 </DataArray>
<DataArray  type="UInt8"  Name="types"  format="ascii">3 3 3 3 3 3 3 3 3 3 3 3 3 3 3 3 3 3 3 3 3 3 3 3 3 3 3 3 3 3 3 3 3 3 3 3 3 3 3 3 3 3 3 3 3 3 3 3 3 3 3 3 3 3 3 3 3 3 3 3 3 3 3 3 3 3 3 3 3 3 3 3 3 3 3 3 3 3 3 3 3 3 3 3 3 3 3 3 3 3 3 3 3 3 3 3 3 3 3 3 3 3 3 3 3 3 3 3 3 3 3 3 3 3 3 3 3 3 3 3 3 3 3 3 3 3 3 3 3 3 3 3 3 3 3 3 3 3 3 3 3 3 3 3 3 3 3 3 3 3 3 3 3 3 3 3 3 3 3 3 3 3 3 3 3 3 3 3 3 3 3 3 3 3 3 3 3 3 3 3 3 3 3 3 3 3 3 3 3 3 3 3 3 3 3 3 3 3 3 3 3 3 3 3 3 3 3 3 3 3 3 3 3 3 3 3 3 3 3 3 3 3 3 3 3 3 3 3 3 3 3 3 3 3 3 3 3 3 3 3 3 3 3 3 3 3 3 3 3 3 3 3 3 3 3 3 3 3 3 3 3 3 3 3 3 3 3 3 3 3 3 3 3 3 3 3 3 3 3 3 3 3 3 3 3 3 3 3 3 3 3 3 3 3 3 3 3 3 3 3 3 3 3 3 3 3 3 3 3 3 3 3 3 3 3 3 3 3 3 3 3 3 3 3 3 3 3 3 3 3 3 3 3 3 3 3 3 3 3 3 3 3 3 3 3 3 3 3 3 3 3 3 3 3 3 3 3 3 3 3 3 3 3 3 3 3 3 3 3 3 3 3 3 3 3 3 3 3 3 3 3 3 3 3 3 3 3 3 3 3 3 3 3 3 3 3 3 3 3 3 3 3 3 3 3 3 3 3 3 3 3 3 3 3 3 3 3 3 3 3 3 3 3 3 3 3 3 3 3 3 3 3 3 3 3 </DataArray>
</Cells>
<CellData  Scalars="f">
<DataArray  type="Float64"  Name="f"  format="ascii">0 0 0 0 0 0 0 0 0 0 0 0 0 0 0 0 0 0 9 6 0 0 0 0 0 0 0 0 0 0 0 0 0 0 0 0 0 0 0 0 0 0 0 0 0 0 0 0 0 0 0 0 0 0 0 0 0 0 0 0 0 0 0 0 0 0 0 0 0 0 0 0 0 0 0 0 0 0 0 0 0 0 0 0 0 0 0 0 0 0 0 0 0 0 0 0 0 0 0 0 0 0 0 0 0 0 0 0 0 0 0 0 0 0 0 0 0 0 0 0 9 9 0 0 0 0 0 0 9 0 0 0 0 0 0 0 0 0 0 0 0 0 0 0 0 0 0 0 0 0 0 0 0 0 0 0 0 0 0 0 0 0 0 0 0 0 0 0 0 0 0 0 0 0 0 0 0 0 0 0 0 0 0 0 0 0 0 0 0 0 0 0 0 0 0 0 0 0 0 0 0 0 0 0 0 0 0 0 0 0 0 0 0 0 0 0 0 0 6 6 0 0 0 0 0 0 0 0 0 0 0 0 0 0 0 0 0 0 0 0 0 0 0 0 0 0 0 0 0 0 0 0 0 0 0 0 0 0 0 0 0 0 0 0 0 0 0 0 0 0 0 0 0 0 0 0 0 0 0 0 0 0 0 0 0 0 0 0 0 0 0 9 9 0 0 0 0 0 0 0 0 0 0 0 0 0 9 0 0 0 0 0 0 0 0 0 0 0 0 0 0 0 0 10 10 0 10 0 0 0 0 0 0 0 0 0 0 10 0 0 0 10 10 0 0 0 0 0 0 0 0 0 0 0 0 0 0 0 0 0 0 0 0 0 0 0 0 0 0 0 0 0 0 0 6 0 0 0 0 0 0 0 0 0 0 0 0 0 0 0 0 0 0 0 0 0 0 0 0 0 9 10 0 0 0 0 0 0 0 0 0 0 0 0 0 0 0 9 9 0 9 0 0 0 10 0 10 0 0 10 0 0 0 0 0 </DataArray>
</CellData>
</Piece>
</UnstructuredGrid>
</VTKFile>