<?xml version="1.0"?>
<VTKFile type="UnstructuredGrid"  version="0.1"  >
<UnstructuredGrid>
<Piece  NumberOfPoints="7" NumberOfCells="11">
<Points>
<DataArray  type="Float64"  NumberOfComponents="3"  format="ascii">1 0 0  0.7 -0.2 0  1 -0.35 0  0.65 -0.6 0  0.3 -0.25 0  1 -0.7 0  0.6 0 0  </DataArray>
</Points>
<Cells>
<DataArray  type="UInt32"  Name="connectivity"  format="ascii">0 1  0 2  0 6  1 2  1 3  1 4  1 6  2 3  2 5  3 4  3 5  </DataArray>
<DataArray  type="UInt32"  Name="offsets"  format="ascii">2 4 6 8 10 12 14 16 18 20 22 </DataArray>
<DataArray  type="UInt8"  Name="types"  format="ascii">3 3 3 3 3 3 3 3 3 3 3 </DataArray>
</Cells>
<CellData  Scalars="f">
<DataArray  type="Float64"  Name="f"  format="ascii">0 0 4 0 0 7 8 0 0 10 10 </DataArray>
</CellData>
</Piece>
</UnstructuredGrid>
</VTKFile>