<?xml version="1.0"?>
<VTKFile type="UnstructuredGrid"  version="0.1"  >
<UnstructuredGrid>
<Piece  NumberOfPoints="8" NumberOfCells="13">
<Points>
<DataArray  type="Float64"  NumberOfComponents="3"  format="ascii">0.3 -0.25 0  0.6 0 0  0.7 -0.2 0  0 0 0  0.3 0 0  -0.2339298524310177 -0.3686510783180039 0  -0.3 -0.225 0  -0.6 -0.45 0  </DataArray>
</Points>
<Cells>
<DataArray  type="UInt32"  Name="connectivity"  format="ascii">0 1  0 2  0 3  0 4  0 5  1 2  1 4  3 4  3 5  3 6  5 6  5 7  6 7  </DataArray>
<DataArray  type="UInt32"  Name="offsets"  format="ascii">2 4 6 8 10 12 14 16 18 20 22 24 26 </DataArray>
<DataArray  type="UInt8"  Name="types"  format="ascii">3 3 3 3 3 3 3 3 3 3 3 3 3 </DataArray>
</Cells>
<CellData  Scalars="f">
<DataArray  type="Float64"  Name="f"  format="ascii">0 7 0 0 9 8 3 3 0 5 0 9 5 </DataArray>
</CellData>
</Piece>
</UnstructuredGrid>
</VTKFile>