<?xml version="1.0"?>
<VTKFile type="UnstructuredGrid"  version="0.1"  >
<UnstructuredGrid>
<Piece  NumberOfPoints="208" NumberOfCells="556">
<Points>
<DataArray  type="Float64"  NumberOfComponents="3"  format="ascii">-0.2286166961817482 -0.07924596719832908 0  -0.2599950983111957 -0.1257088427630552 0  -0.2757613467992818 -0.09174721784480037 0  -0.682031339806098 -0.1426937110461005 0  -0.6209936290886088 -0.1499512889046635 0  -0.6557912100027636 -0.1823074549810696 0  -0.08749999999999998 0 0  -0.035 -0.02625 0  -0.04374999999999999 0 0  -0.8328139164376284 -0.1848111012697755 0  -0.7861167117701457 -0.2064306723731895 0  -0.7957601067742852 -0.1660183166030734 0  -0.7508333333333334 -0.2438888888888889 0  -0.7833906092663631 -0.2724517717507603 0  -0.4175533374038551 -0.1330674083119678 0  -0.3632090037694178 -0.1226636598503719 0  -0.3843012946793431 -0.1596239724922465 0  -0.376281257503505 -0.2014166566619933 0  -0.415839226766089 -0.2419784817616651 0  -0.3759215664747441 -0.2413378371433619 0  -0.5249999999999999 -0.39375 0  -0.4874999999999999 -0.365625 0  -0.5280363280828677 -0.3506390625561763 0  -0.5039359349471911 -0.09429636235243392 0  -0.4443698733329565 -0.06504910829438185 0  -0.4591732631572807 -0.1101808375872686 0  -0.3781529137449485 -0.06938867383567243 0  -0.4093636829369103 -0.03826193096164464 0  -0.9250976628550895 -0.1602945345043427 0  -0.9580096122100478 -0.1125 0  -0.9212100640255639 -0.1223884131456297 0  -0.8375 0 0  -0.796875 -0.05612725954520804 0  -0.796875 0 0  -0.8791384612718556 -0.4660474366083852 0  -0.8426737126393026 -0.4248567066220136 0  -0.8255712935430096 -0.4767327592893155 0  -0.6021486481965045 -0.1918243260561412 0  -0.626200437149898 -0.222431029024223 0  -0.9 -0.5625 0  -0.9352419687332238 -0.5043952499552635 0  -0.8877887394876834 -0.513606034123601 0  -0.6 -0.45 0  -0.6499999999999999 -0.46875 0  -0.653622989358287 -0.4251658046850684 0  -0.663666392751131 -0.2291665482002191 0  -0.4420044329969804 -0.182064997052006 0  -0.3 -0.225 0  -0.3375 -0.253125 0  -0.3381406287517525 -0.2132083283309966 0  -0.174433417932171 -0.05814447264405702 0  -0.1463812120056347 -0.0338703938700475 0  -0.1403549785342351 -0.06918080581674642 0  -0.9132232884536792 -0.3077563629854663 0  -0.8530129186644771 -0.3105737940567508 0  -0.8813963875998487 -0.2723708670730479 0  -0.7500564088601764 -0.2078105585481217 0  -0.7885719645780571 -0.4348244037664383 0  -0.7406714408295079 -0.4550844911213123 0  -0.7493183979138003 -0.4087731466585416 0  -0.7287479573148252 -0.3663895712273555 0  -0.6864084753639994 -0.3656717620277021 0  -0.7079630578676385 -0.3340625657496266 0  -0.8031334588938832 -0.1251308216368038 0  -0.7597840496366529 -0.0842656276325483 0  -0.7672867072010362 -0.1197317974139009 0  -0.8565172689429089 -0.05653057927721578 0  -0.35 0 0  -0.3315338723030039 -0.04789776805116039 0  -0.30625 0 0  -0.6923623063228496 -0.1780345378311748 0  -0.8531436422747446 -0.3708499042442174 0  -0.8109830974129387 -0.4046573954729487 0  -0.647517381330535 -0.1127228675521234 0  -0.6878926235370693 -0.1010856562627405 0  -0.6079174915928363 -0.08989057633649086 0  -0.6574545968421016 -0.05688248843977383 0  -0.5907525603166561 -0.2363059371572195 0  -0.5521417131721122 -0.2645675492939524 0  -0.5893804215502014 -0.2749370907318421 0  -0.6749999999999999 -0.478125 0  -0.5315344310917188 -0.2213835688955969 0  -0.5667369173237452 -0.2066477425740934 0  -0.5310726561657356 -0.3075281251123525 0  -0.4771270565181938 -0.2862425491099543 0  -0.5046703962666598 -0.2540979786645964 0  -0.240625 -0.03751362538051938 0  -0.2032693491950771 -0.03416180335687187 0  -0.2625 0 0  -0.2187499999999999 0 0  -0.3113819589177774 -0.1032857858140064 0  -0.3234858794533446 -0.1658069616604961 0  -0.553125 -0.05122667093224097 0  -0.5564590941573435 -0.1046582632751309 0  -0.43125 0 0  -0.7928787746273712 -0.3147103710134262 0  -0.8206326090545737 -0.2503418657053845 0  -0.7156250000000001 -0.0695182654052698 0  -0.7310544972979223 -0.1209005724242505 0  -0.7491890440415466 -0.04250305400949507 0  -0.6125086816066936 -0.043105222594299 0  -0.660033884932941 -0.332542802468046 0  -0.6969655378974063 -0.2974183865289586 0  -0.7071618842449133 -0.2538103077119846 0  -0.656383921487838 -0.2917268931402272 0  -0.8 -0.525 0  -0.7823585918992312 -0.4775968032224737 0  -0.8649964397143832 -0.1315854008568497 0  -0.8264804248249955 -0.08822771266796306 0  -0.5837346675254657 -0.1344170555771818 0  -0.45 -0.3375 0  -0.493199338574054 -0.3245113204245659 0  -0.22 -0.165 0  -0.18 -0.135 0  -0.2187632635913395 -0.1197274572113031 0  -0.1869715575687117 -0.09586570073280175 0  -0.9335248016856417 -0.4125 0  -0.9453886185350151 -0.3558612955296183 0  -0.8975864171518644 -0.3530180754309251 0  -0.9642996624134361 -0.389384372653607 0  -0.6953125 -0.03475913270263491 0  -0.5759305630371052 -0.3540122810297601 0  -0.5625 -0.421875 0  -0.6472925553631227 -0.3818918663552464 0  -0.7 -0.4875 0  -0.6972983356126594 -0.4228915437719262 0  -0.7118532302403865 -0.2092724441608836 0  -0.7427467947599181 -0.3181304295444358 0  -0.9597166779891471 -0.5395398248792418 0  -0.8192002772129254 -0.3468711097738009 0  -0.951601168627506 -0.4581258911520824 0  -0.9164713991628215 -0.4456500824649663 0  0 0 0  -1 -0.075 0  -0.9505153634284966 -0.05330157397623098 0  -1 -0.0375 0  -1 -0.1875 0  -0.96009791892415 -0.1806451420375251 0  -0.9645368700221695 -0.2167774043542813 0  -0.3951619061149709 -0.1028931995876116 0  -0.3433572627848236 -0.08355945234826165 0  -0.9429941626409019 -0.2520991553376352 0  -0.9294445150253936 -0.2070938467560766 0  -0.5624632686084142 -0.1687255124056095 0  -0.5236864389014388 -0.1324811280006969 0  -0.8859883252818036 -0.225 0  -0.95 -0.58125 0  -0.8500000000000001 -0.54375 0  -0.8697052287409519 -0.09304706507684367 0  -0.5125 0 0  -0.49089511958524 -0.04557490737736867 0  -0.4718749999999999 0 0  -0.59375 0 0  -0.553125 0 0  -0.7480739465652909 -0.1717783594053569 0  -0.8802295069358919 -0.1773472658405355 0  -0.6174560530270703 -0.3045285236812358 0  -0.6192741592975968 -0.3483384961241873 0  -0.5744224525776063 -0.3105812761695171 0  -0.8884270856546315 -0.4210886699466736 0  -0.7614313887832562 -0.3497103259994278 0  -0.7883175691273152 -0.3746810532702086 0  -0.4708912618897579 -0.2285856472469621 0  -0.4932966075499844 -0.1628886416196969 0  -0.9574274625560812 -0.3130054015523741 0  -0.109375 -0.03645833333333334 0  -0.8997798257520315 -0.04163664837925307 0  -0.878125 0 0  -0.2806422854098193 -0.05462386944037346 0  -0.06999999999999999 -0.0525 0  -0.675 0 0  -0.634375 0 0  -0.9079990132870763 -0.08664690227233401 0  -0.375 -0.28125 0  -0.4373018782438491 -0.2768228516889651 0  -0.13125 0 0  -0.91875 0 0  -0.959375 0 0  -0.2825229449176025 -0.1603528279245177 0  -0.26 -0.195 0  -1 -0.375 0  -1 -0.3375 0  -0.4125 -0.309375 0  -1 -0.6 0  -1 -0.5625 0  -0.75 -0.5062500000000001 0  -0.6013190760116596 -0.3942972326227799 0  -0.8569929356986 -0.4946413982453336 0  -0.3703125 -0.03216420088014824 0  -0.4585045393489812 -0.1480135029515725 0  -0.7562500000000001 0 0  -1 -0.45 0  -1 -0.4125 0  -0.7360377654736432 -0.2798384971368409 0  -0.6299100030474512 -0.2603164374097148 0  -0.390625 0 0  -1 -0.3 0  -1 -0.2625 0  -0.7156250000000001 0 0  -0.105 -0.07875 0  -1 -0.4874999999999999 0  -1 -0.15 0  -1 -0.5249999999999999 0  -0.14 -0.105 0  -1 -0.225 0  -1 -0.1125 0  -1 0 0  -0.175 0 0  </DataArray>
</Points>
<Cells>
<DataArray  type="UInt32"  Name="connectivity"  format="ascii">0 1  0 2  0 50  0 86  0 87  0 114  0 115  0 168  1 2  1 90  1 112  1 114  1 178  2 90  2 168  3 4  3 5  3 70  3 73  3 74  3 98  4 5  4 37  4 73  4 75  4 109  5 37  5 38  5 45  5 70  6 7  6 8  6 165  6 169  6 175  7 8  7 132  7 169  8 132  9 10  9 11  9 63  9 96  9 107  9 145  9 155  10 11  10 12  10 13  10 56  10 96  10 154  11 63  11 65  11 154  12 13  12 56  12 103  12 126  12 193  13 95  13 96  13 127  13 193  14 15  14 16  14 25  14 46  14 139  14 189  15 16  15 90  15 91  15 139  15 140  16 17  16 46  16 91  17 18  17 19  17 46  17 49  17 91  18 19  18 46  18 162  18 173  18 174  19 48  19 49  19 173  20 21  20 22  20 121  20 122  21 22  21 110  21 111  22 83  22 111  22 121  22 158  23 24  23 25  23 92  23 93  23 144  23 150  24 25  24 26  24 27  24 94  24 139  24 150  24 151  25 139  25 144  25 163  25 189  26 27  26 68  26 139  26 140  26 188  27 94  27 188  27 195  28 29  28 30  28 107  28 137  28 142  28 155  29 30  29 133  29 134  29 137  29 172  29 201  29 205  30 107  30 148  30 172  31 32  31 33  31 66  31 167  32 33  32 64  32 66  32 99  32 108  33 99  33 190  34 35  34 36  34 40  34 41  34 131  34 159  34 187  35 36  35 57  35 71  35 72  35 159  36 57  36 105  36 106  36 187  37 38  37 77  37 82  37 109  37 143  38 45  38 77  38 194  39 40  39 41  39 128  39 146  39 147  40 41  40 128  40 130  40 131  40 200  41 147  41 187  42 43  42 44  42 122  42 186  43 44  43 80  44 80  44 123  44 125  44 186  45 70  45 103  45 104  45 126  45 194  46 162  46 163  46 189  47 48  47 49  47 91  47 178  47 179  48 49  48 173  49 91  50 51  50 52  50 87  50 115  51 52  51 87  51 165  51 175  51 207  52 115  52 165  52 199  52 203  53 54  53 55  53 117  53 118  53 141  53 164  54 55  54 71  54 95  54 96  54 118  54 129  55 96  55 141  55 145  56 126  56 154  57 58  57 59  57 72  57 106  58 59  58 106  58 124  58 125  58 185  59 60  59 72  59 125  59 160  59 161  60 61  60 62  60 125  60 127  60 160  61 62  61 101  61 123  61 125  62 101  62 102  62 127  63 64  63 65  63 107  63 108  64 65  64 97  64 98  64 99  64 108  65 98  65 154  66 108  66 148  66 166  66 167  67 68  67 69  67 188  67 195  68 69  68 90  68 140  68 168  68 188  69 88  69 168  70 98  70 126  70 154  71 72  71 118  71 129  71 159  72 129  72 161  73 74  73 75  73 76  74 76  74 97  74 98  75 76  75 92  75 93  75 100  75 109  76 97  76 100  76 120  76 170  76 171  77 78  77 79  77 82  77 194  78 79  78 81  78 82  78 83  78 85  78 158  79 156  79 158  79 194  80 124  80 125  81 82  81 85  81 143  81 162  81 163  82 143  83 84  83 85  83 111  83 158  84 85  84 110  84 111  84 162  84 174  85 162  86 87  86 88  86 89  86 168  87 89  87 207  88 89  88 168  89 207  90 91  90 140  90 168  90 178  91 178  92 93  92 100  92 149  92 150  92 152  92 153  93 109  93 144  94 151  94 195  95 96  95 127  95 129  95 160  96 145  97 98  97 99  97 120  98 154  99 120  99 190  99 198  100 152  100 171  101 102  101 104  101 123  101 156  101 157  102 103  102 104  102 127  102 193  103 104  103 126  103 193  104 156  104 194  105 106  105 147  105 185  105 187  106 185  107 108  107 148  107 155  108 148  109 143  109 144  110 111  110 174  110 182  112 113  112 114  112 178  112 179  113 114  113 115  113 203  114 115  115 203  116 117  116 118  116 119  116 130  116 131  116 159  116 192  117 118  117 119  117 164  117 180  117 181  118 159  119 180  119 192  120 170  120 198  121 122  121 157  121 158  121 186  122 186  123 125  123 157  123 186  124 125  124 185  126 154  127 160  127 193  128 146  128 184  128 200  128 202  129 160  129 161  130 131  130 191  130 192  130 200  131 159  133 134  133 135  133 205  134 135  134 166  134 172  134 176  134 177  135 177  135 206  136 137  136 138  136 201  136 204  137 138  137 142  137 201  138 141  138 142  138 197  138 204  139 140  141 142  141 145  141 164  141 197  142 145  142 155  143 144  143 163  144 163  145 155  146 183  146 184  147 187  148 166  148 172  149 150  149 151  149 153  150 151  152 153  152 171  156 157  156 158  156 194  157 158  157 186  160 161  162 163  162 174  163 189  164 181  164 196  164 197  165 169  165 175  165 199  166 167  166 172  166 176  167 176  169 199  170 171  170 198  173 174  173 182  174 182  175 207  176 177  177 206  178 179  180 181  180 192  181 196  183 184  184 202  188 195  190 198  191 192  191 200  196 197  197 204  199 203  200 202  201 205  </DataArray>
<DataArray  type="UInt32"  Name="offsets"  format="ascii">2 4 6 8 10 12 14 16 18 20 22 24 26 28 30 32 34 36 38 40 42 44 46 48 50 52 54 56 58 60 62 64 66 68 70 72 74 76 78 80 82 84 86 88 90 92 94 96 98 100 102 104 106 108 110 112 114 116 118 120 122 124 126 128 130 132 134 136 138 140 142 144 146 148 150 152 154 156 158 160 162 164 166 168 170 172 174 176 178 180 182 184 186 188 190 192 194 196 198 200 202 204 206 208 210 212 214 216 218 220 222 224 226 228 230 232 234 236 238 240 242 244 246 248 250 252 254 256 258 260 262 264 266 268 270 272 274 276 278 280 282 284 286 288 290 292 294 296 298 300 302 304 306 308 310 312 314 316 318 320 322 324 326 328 330 332 334 336 338 340 342 344 346 348 350 352 354 356 358 360 362 364 366 368 370 372 374 376 378 380 382 384 386 388 390 392 394 396 398 400 402 404 406 408 410 412 414 416 418 420 422 424 426 428 430 432 434 436 438 440 442 444 446 448 450 452 454 456 458 460 462 464 466 468 470 472 474 476 478 480 482 484 486 488 490 492 494 496 498 500 502 504 506 508 510 512 514 516 518 520 522 524 526 528 530 532 534 536 538 540 542 544 546 548 550 552 554 556 558 560 562 564 566 568 570 572 574 576 578 580 582 584 586 588 590 592 594 596 598 600 602 604 606 608 610 612 614 616 618 620 622 624 626 628 630 632 634 636 638 640 642 644 646 648 650 652 654 656 658 660 662 664 666 668 670 672 674 676 678 680 682 684 686 688 690 692 694 696 698 700 702 704 706 708 710 712 714 716 718 720 722 724 726 728 730 732 734 736 738 740 742 744 746 748 750 752 754 756 758 760 762 764 766 768 770 772 774 776 778 780 782 784 786 788 790 792 794 796 798 800 802 804 806 808 810 812 814 816 818 820 822 824 826 828 830 832 834 836 838 840 842 844 846 848 850 852 854 856 858 860 862 864 866 868 870 872 874 876 878 880 882 884 886 888 890 892 894 896 898 900 902 904 906 908 910 912 914 916 918 920 922 924 926 928 930 932 934 936 938 940 942 944 946 948 950 952 954 956 958 960 962 964 966 968 970 972 974 976 978 980 982 984 986 988 990 992 994 996 998 1000 1002 1004 1006 1008 1010 1012 1014 1016 1018 1020 1022 1024 1026 1028 1030 1032 1034 1036 1038 1040 1042 1044 1046 1048 1050 1052 1054 1056 1058 1060 1062 1064 1066 1068 1070 1072 1074 1076 1078 1080 1082 1084 1086 1088 1090 1092 1094 1096 1098 1100 1102 1104 1106 1108 1110 1112 </DataArray>
<DataArray  type="UInt8"  Name="types"  format="ascii">3 3 3 3 3 3 3 3 3 3 3 3 3 3 3 3 3 3 3 3 3 3 3 3 3 3 3 3 3 3 3 3 3 3 3 3 3 3 3 3 3 3 3 3 3 3 3 3 3 3 3 3 3 3 3 3 3 3 3 3 3 3 3 3 3 3 3 3 3 3 3 3 3 3 3 3 3 3 3 3 3 3 3 3 3 3 3 3 3 3 3 3 3 3 3 3 3 3 3 3 3 3 3 3 3 3 3 3 3 3 3 3 3 3 3 3 3 3 3 3 3 3 3 3 3 3 3 3 3 3 3 3 3 3 3 3 3 3 3 3 3 3 3 3 3 3 3 3 3 3 3 3 3 3 3 3 3 3 3 3 3 3 3 3 3 3 3 3 3 3 3 3 3 3 3 3 3 3 3 3 3 3 3 3 3 3 3 3 3 3 3 3 3 3 3 3 3 3 3 3 3 3 3 3 3 3 3 3 3 3 3 3 3 3 3 3 3 3 3 3 3 3 3 3 3 3 3 3 3 3 3 3 3 3 3 3 3 3 3 3 3 3 3 3 3 3 3 3 3 3 3 3 3 3 3 3 3 3 3 3 3 3 3 3 3 3 3 3 3 3 3 3 3 3 3 3 3 3 3 3 3 3 3 3 3 3 3 3 3 3 3 3 3 3 3 3 3 3 3 3 3 3 3 3 3 3 3 3 3 3 3 3 3 3 3 3 3 3 3 3 3 3 3 3 3 3 3 3 3 3 3 3 3 3 3 3 3 3 3 3 3 3 3 3 3 3 3 3 3 3 3 3 3 3 3 3 3 3 3 3 3 3 3 3 3 3 3 3 3 3 3 3 3 3 3 3 3 3 3 3 3 3 3 3 3 3 3 3 3 3 3 3 3 3 3 3 3 3 3 3 3 3 3 3 3 3 3 3 3 3 3 3 3 3 3 3 3 3 3 3 3 3 3 3 3 3 3 3 3 3 3 3 3 3 3 3 3 3 3 3 3 3 3 3 3 3 3 3 3 3 3 3 3 3 3 3 3 3 3 3 3 3 3 3 3 3 3 3 3 3 3 3 3 3 3 3 3 3 3 3 3 3 3 3 3 3 3 3 3 3 3 3 3 3 3 3 3 3 3 3 3 3 3 3 3 3 3 3 3 3 3 3 3 3 3 3 3 3 3 3 3 3 3 3 3 3 3 3 3 3 3 3 3 3 3 3 3 3 3 3 3 3 3 3 3 3 3 3 3 3 3 3 3 3 3 3 </DataArray>
</Cells>
<CellData  Scalars="f">
<DataArray  type="Float64"  Name="f"  format="ascii">0 0 0 0 0 0 0 0 0 0 0 0 0 0 0 0 0 0 0 0 0 0 0 0 0 0 0 0 0 0 0 2 0 0 2 0 5 5 2 0 0 0 0 0 0 0 0 0 0 0 0 0 0 0 0 0 0 0 0 0 0 0 0 0 0 0 0 0 0 0 0 0 0 0 0 0 0 0 0 0 0 0 0 0 0 0 0 0 0 0 0 5 0 0 5 0 5 0 0 0 0 0 0 0 0 0 0 0 0 0 0 0 0 0 0 0 0 0 0 0 0 0 0 0 0 0 0 0 0 0 0 0 0 0 0 0 0 0 0 0 0 0 0 0 2 0 2 0 0 0 0 0 0 2 0 0 0 0 0 0 0 0 0 0 0 0 0 0 0 0 0 0 0 0 0 0 0 0 0 0 0 6 6 0 0 0 0 0 0 0 6 0 5 0 0 6 0 0 0 0 0 0 0 0 0 0 0 0 5 0 0 0 5 0 5 0 0 0 0 0 0 0 0 0 0 0 0 0 0 0 0 0 0 0 0 0 0 0 0 0 0 0 0 0 0 0 0 0 0 0 0 0 0 0 0 0 0 0 0 0 0 0 0 0 0 0 0 0 0 0 0 0 0 0 0 0 0 0 0 0 0 0 0 0 0 0 0 0 2 0 2 0 0 0 0 0 2 0 0 0 0 0 0 0 0 0 0 0 0 0 0 0 0 0 0 0 0 0 0 0 0 0 0 0 0 0 0 0 0 0 0 0 0 0 0 0 6 0 0 0 0 0 0 0 0 0 0 0 0 0 0 0 0 0 0 0 0 0 0 0 2 0 2 0 0 0 0 0 0 0 0 0 0 0 0 0 2 2 0 0 0 0 0 0 0 0 0 0 0 0 0 0 0 0 0 0 0 0 0 0 0 0 0 0 0 0 0 6 6 0 0 0 0 0 0 0 0 0 0 5 5 0 0 5 0 0 5 0 0 0 0 0 0 0 0 0 0 0 0 0 0 0 0 0 0 0 0 0 0 0 0 0 0 0 0 6 0 0 0 0 0 0 0 0 0 0 0 0 0 0 0 0 0 0 0 0 0 0 0 0 0 0 0 0 0 0 0 0 0 0 0 0 0 0 0 0 0 0 0 0 0 0 6 0 0 0 0 0 2 2 0 2 2 0 0 0 0 0 0 0 0 0 0 0 0 0 0 0 0 0 0 2 5 2 2 0 5 0 2 2 2 0 0 0 0 0 0 0 2 0 0 0 0 5 0 0 </DataArray>
</CellData>
</Piece>
</UnstructuredGrid>
</VTKFile>