<?xml version="1.0"?>
<VTKFile type="UnstructuredGrid"  version="0.1"  >
<UnstructuredGrid>
<Piece  NumberOfPoints="10" NumberOfCells="17">
<Points>
<DataArray  type="Float64"  NumberOfComponents="3"  format="ascii">1 -1 0  1 -0.7 0  0.65 -0.6 0  0.3 -0.25 0  0 -1 0  0.5 -1 0  -1 -0.6 0  -1 -1 0  -0.6 -0.45 0  -0.2339298524310177 -0.3686510783180039 0  </DataArray>
</Points>
<Cells>
<DataArray  type="UInt32"  Name="connectivity"  format="ascii">0 1  0 2  0 5  1 2  2 3  2 4  2 5  3 4  3 9  4 5  4 7  4 8  4 9  6 7  6 8  7 8  8 9  </DataArray>
<DataArray  type="UInt32"  Name="offsets"  format="ascii">2 4 6 8 10 12 14 16 18 20 22 24 26 28 30 32 34 </DataArray>
<DataArray  type="UInt8"  Name="types"  format="ascii">3 3 3 3 3 3 3 3 3 3 3 3 3 3 3 3 3 </DataArray>
</Cells>
<CellData  Scalars="f">
<DataArray  type="Float64"  Name="f"  format="ascii">0 0 0 10 10 0 0 0 9 0 0 0 0 0 6 0 9 </DataArray>
</CellData>
</Piece>
</UnstructuredGrid>
</VTKFile>