<?xml version="1.0"?>
<VTKFile type="UnstructuredGrid"  version="0.1"  >
<UnstructuredGrid>
<Piece  NumberOfPoints="872" NumberOfCells="2483">
<Points>
<DataArray  type="Float64"  NumberOfComponents="3"  format="ascii">0.225 0 0  0.1875 0 0  0.2075172414278187 0.03370964573818979 0  -0.30625 0.05687281873357458 0  -0.3370402937739327 0.08439838349436038 0  -0.2989622049818877 0.09600890229721556 0  0.9181475656672287 0.1841573865682406 0  0.9062902090085185 0.1409020263155535 0  0.9562420185795882 0.1626262571005939 0  0.075 0 0  0.09276252712496756 0.05683747052305588 0  0.06101545565090058 0.03556462915029696 0  0.09687500000000002 0.7577848544301788 0  0.05625000000000002 0.7593450514720596 0  0.09687500000000002 0.8 0  0.0183169298820067 0.2847133013756113 0  -0.006170837486096262 0.2241197227161011 0  -0.0340551134286978 0.2706335611059442 0  0.05636664384192934 0.2051382592691633 0  0.03377613607964724 0.2432208237335263 0  0.01368008827494364 0.190406063801234 0  0.1361683362480479 0.4771933613550361 0  0.1807005796549853 0.4803158116785358 0  0.1638161821512228 0.4439220858713513 0  -0.3367062555394627 0.3112375454663442 0  -0.2922982883145748 0.3280374445435115 0  -0.2871793592684038 0.2862401341470492 0  -0.5022955611790106 0.5642243390526419 0  -0.4987367951664542 0.5145021898991169 0  -0.5342270416396566 0.5369504750610535 0  -0.2566416384289286 0.4946400375963668 0  -0.3099126767579737 0.5139751343921514 0  -0.2428399829535331 0.5341449762905603 0  -0.1460155772150131 0.2025609984407903 0  -0.1049059686431823 0.2039222291454561 0  -0.1449026537576275 0.246325691178228 0  0.5663369835163674 0.6022933453019813 0  0.5030528961953086 0.5741963533403956 0  0.5206562278163583 0.6198648561815773 0  0.03776833731536916 0.3465342145743217 0  0.05146166723017045 0.3082551647062555 0  0.07563385057939551 0.3585815188854638 0  -0.2571900490767193 0.4340959423713257 0  -0.2051681329058248 0.4315409146387567 0  -0.2296416854136748 0.4641209396515699 0  -0.3907271533619564 0.3517844912370423 0  -0.3942220802506763 0.2908685542202103 0  -0.6539438322435306 0.4276573088498778 0  -0.6174532478887426 0.4465468082908312 0  -0.6441188229280894 0.4761815176316901 0  0.347002926111202 0.2104989027082992 0  0.3893218564891739 0.1677337594774422 0  0.3427807604917193 0.1639995330205579 0  0.3477318379203844 0.660614445369228 0  0.4114700969615736 0.6496308268768471 0  0.3857554625699573 0.6908373511844422 0  0.5517207260711665 0.5498969242823217 0  0.5093188345056258 0.5261610945956354 0  0.3183360018324298 0.09653281948938744 0  0.2625 0.05713079964692407 0  0.3087392744761894 0.04660904351876966 0  0.8175015382738818 0.1704714291001186 0  0.7544563077412699 0.1695317667272953 0  0.7854023045944447 0.2086889411942329 0  -0.5234034762019568 0.1714217247070449 0  -0.5847640024950184 0.1547813916313327 0  -0.5425709315275746 0.1206485649635913 0  0.8368777705614688 0.6350110822458752 0  0.8170794213469619 0.5865266081678449 0  0.7893204458230838 0.6509823681492023 0  0.3895474471482105 0.2102782545938895 0  0.1148472378686027 0.6200233908366404 0  0.05625661750854705 0.6498321697374172 0  0.06542430457808587 0.5880804789890304 0  -0.3212146834007353 0.5899904171368062 0  -0.3139124918008803 0.5522282756194811 0  -0.2842490907359483 0.5960574983532927 0  -0.3084397930151275 0.2498916465876044 0  -0.3029762457113962 0.2090544682967366 0  -0.3374739608685313 0.221051663283723 0  0.2558197850311765 0.5786740491213687 0  0.2287503447126852 0.621071150260492 0  0.2673241091824816 0.6158593746681246 0  0.3481382831754248 0.4813790791643872 0  0.3115897391310321 0.4989178186509997 0  0.322563624966953 0.4527713904974868 0  0.4977297834557881 0.2209396541838547 0  0.5248824300976184 0.2585163926149507 0  0.541401101277913 0.2060763872050337 0  -0.6845386069740159 0.2841534775668987 0  -0.7086399590205755 0.228611551644371 0  -0.7202856813817868 0.2746550934713907 0  -0.7562500000000001 0.1205995892988253 0  -0.7988142292554615 0.113592482677203 0  -0.7834160512372236 0.1528376395192403 0  -0.1889446901939788 0.4931344318407954 0  -0.2084446754370698 0.5579795875930637 0  0.5984682798757915 0.3301861970460566 0  0.6536454554553932 0.3184874322668144 0  0.6211097234608194 0.3010036295248979 0  0.522411940757302 0.1640345926628496 0  0.5650952178959103 0.174095802261638 0  0.1343279702474297 0.2463935576412506 0  0.09656133757083393 0.223471719978805 0  0.1426940342526387 0.2047471183487278 0  -0.673839126730871 0.08845165008155886 0  -0.7156250000000001 0.04476662094326118 0  -0.7202965433009041 0.09106222939482164 0  -0.8431768081702875 0.2133063813580419 0  -0.7998295777092741 0.2398525939065948 0  -0.8073475241737231 0.2034647387689999 0  -0.9452015983540735 0.5305548084963049 0  -0.9028357073527398 0.5421193561394129 0  -0.9304069918277663 0.4926717439660517 0  -0.3598284736780485 0.57714601980441 0  -0.3626327884112306 0.6252989142588076 0  0.8289519842319113 0.2119739708191299 0  0.7628521528460565 0.1070410166656941 0  0.7224297092706309 0.1049818699355722 0  0.7411168500393464 0.1359301849296718 0  -0.2039861112138261 0.1450953103536204 0  -0.1567030899476922 0.1276728730848506 0  -0.1928616974560796 0.1024137494177633 0  -0.263423176182692 0.07000527681707731 0  -0.2775260396934204 0.03370504243413279 0  0.0266875548241184 0.5437810413984518 0  0.02866685615669154 0.584461618589359 0  -0.8300156703367865 0.5619969219722043 0  -0.7959140442087924 0.5274912165955964 0  -0.8436947354099599 0.5149124725844331 0  -0.8260602064577593 0.147036015409409 0  -0.8495879918932155 0.1121136614324625 0  -0.8539725482985111 0.1751723515188055 0  -0.9230593738049012 0.2239893965437205 0  -0.8935138344110308 0.1778628773528684 0  -0.8833521848028636 0.2168974454442602 0  0.203230592016617 0.4364327299473547 0  0.2147197660678447 0.3799956838752298 0  0.2522249890039271 0.4329156907942064 0  0.139743072334956 0.7010332599882741 0  0.0935400412454991 0.6827046927900319 0  0.1247350916416815 0.6583466784984633 0  0.7419809831074963 0.2133406732517426 0  0.21875 0.8 0  0.2245020641921673 0.7351844183575907 0  0.1687892992513056 0.7512003796535967 0  0.845782986111111 0.5427222222222221 0  0.8312806040811628 0.4855139948255568 0  0.8720694532358038 0.5056162556809607 0  -0.4509444680131831 0.6100213581749688 0  -0.4139571448236684 0.6590976370016077 0  -0.4024812185807883 0.6206560340057621 0  -0.634375 0.7504020616528573 0  -0.6674663949157041 0.7104319465167307 0  -0.6316677378048349 0.7144774129926916 0  0.3545019782826687 0.4315015860596703 0  0.5937059052462181 0.3848823584023598 0  0.644934267111076 0.3656020799788651 0  -0.560367848098725 0.1862739441089994 0  -0.5795967413981272 0.1180241097032523 0  -0.59375 0.8 0  -0.553125 0.7532983230552424 0  -0.593503504236257 0.7449351463614385 0  0.7333333333333333 0.423611111111111 0  0.7090587801689535 0.477407003459839 0  0.6762238692196944 0.4439136073311345 0  0.5684565726391683 0.2434408378904788 0  0.5876477057551677 0.2853655162816823 0  0.605928596265809 0.2516426546697899 0  0.2720018964045338 0.3740041203216073 0  0.3000476436926924 0.4216989979182276 0  0.45 0.4000000000000001 0  0.4623937773206675 0.4587891010909128 0  0.4083809030662442 0.4343338145963546 0  0.6503058567883678 0.4830057496731667 0  0.003116724680563399 0.6111336441329194 0  -0.02977198630404024 0.5887527065947769 0  -0.002648824080242106 0.5648775859009186 0  0.1337922158205643 0.4173110429949612 0  0.1141509483319661 0.3683471635970198 0  0.1755245232237025 0.4014044882322594 0  0.2201690421988045 0.5428857932535556 0  0.218319113526989 0.5803796207698589 0  0.2822074260064179 0.651825814449049 0  0.3217029655808046 0.5962435836772244 0  0.7334251858242926 0.5124216138027854 0  0.749274572131287 0.4631790472161889 0  0.7275259362738473 0.6717349606193616 0  0.7636640598845168 0.6861210898267751 0  0.7515299943857959 0.640832953796142 0  0.7982725686382716 0.538991262411277 0  0.3556513785205468 0.05353958103299758 0  0.3837740415303123 0.08507549384043572 0  0.08989994138825917 0.3214949540816608 0  0.1254893352567079 0.2918567817514861 0  0.1299756785401386 0.3316073567797326 0  -1 0.05 0  -0.970711653360298 0.075 0  -0.964133650910916 0.03763750238488075 0  -0.7985386096990998 0.3972198209643686 0  -0.8469156659819385 0.4000715133491092 0  -0.802582978086505 0.3591286356720377 0  0.7614072487540183 0.2524516688135862 0  0.8099290550358619 0.2505965270082031 0  0.7868967071384144 0.2836573393469023 0  0.9332046509302179 0.4103738146386862 0  0.9157387657512028 0.3745101695600752 0  0.9699325571981516 0.3859375 0  -0.1011476133743973 0.2448823027737354 0  -0.1257354463379816 0.2900604644993324 0  -0.2737691507751112 0.1799946836230149 0  -0.230394743369921 0.1804825988477951 0  -0.2657859862146291 0.2172257848616443 0  -0.02616044654637974 0.09960989548156179 0  0.01637992605804332 0.1513755510331027 0  -0.03609219081119155 0.1511340821497533 0  -0.6443939952072328 0.2357714455507918 0  -0.6803481768466578 0.1971721555976918 0  -0.6208857670752213 0.2038423344212416 0  -0.8997515069277292 0.4001881527035021 0  -0.859795552117792 0.4467896068159617 0  -0.8962687174479167 0.3 0  -0.8992835054215048 0.3487594424759625 0  -0.8574179808848976 0.3117470876133813 0  -0.7009752373163246 0.5924343959385799 0  -0.6544376948490206 0.612931039245987 0  -0.6444930431155212 0.5770576740881979 0  -0.8167461316849657 0.437354172401973 0  -0.449239265310216 0.5204141667350261 0  -0.7469291153232078 0.5377709843999467 0  -0.6799728411405678 0.5454529463763318 0  -0.727305475034617 0.4944888795222768 0  -0.7156250000000001 0.7297554885780901 0  -0.7597134843040338 0.7511272128553522 0  -0.7156250000000001 0.8 0  -0.7625434747108968 0.6286172594106585 0  -0.7814954137420258 0.5738125691619193 0  -0.7402330078065575 0.5787894931501909 0  -0.10234375 0.3971923828125001 0  -0.0583024818203509 0.4409319155417106 0  -0.05877204395797019 0.3835425909473663 0  -0.3131197738935154 0.4572854680839167 0  -0.6054413160035038 0.4858417116253357 0  -0.5655586904458192 0.4632226994652563 0  -0.5438497977971497 0.4932943157571764 0  -0.5784080988076622 0.5206632743931796 0  -0.8086047467564083 0.4806669635106973 0  -0.75625 0.266015625 0  -0.7774800775100421 0.3301952692022343 0  -0.7911790960332359 0.2748201614245502 0  0.475 0.6375000000000001 0  0.4731278268794769 0.6787822599510847 0  0.4545184131268566 0.8034631737462866 0  0.4944654420664114 0.7992196713505575 0  0.471076646401797 0.8404201350885473 0  -0.91875 0 0  -0.9328175149688973 0.06815591317554184 0  -0.8781249999999999 0.04391481817577063 0  0.3518364867159848 0.7256040470933799 0  0.343665986295324 0.7751680274093522 0  0.3806328584042187 0.7634703166690203 0  -0.8526591133806176 0.6480086381537516 0  -0.8131736324757244 0.6124171709134356 0  -0.8648463084543141 0.5988138230512224 0  -0.4616044448001979 0.3506593593029598 0  -0.4517514776134559 0.2938990350224024 0  -0.42579146296703 0.3276407531003438 0  -0.3473790710361719 0.3532777287307991 0  -0.4991412797635082 0.08810366610607848 0  -0.4464251838834453 0.05851604703858959 0  -0.4568973894218339 0.1016135733827468 0  0.5474387798057213 0.4144408323599325 0  0.6030812708369804 0.4540310154373126 0  0.2889810319665732 0.1645052093047204 0  0.2371156855526791 0.180001766961643 0  0.2934592220097705 0.2184505823387867 0  -0.1756011081528675 0.711186316201337 0  -0.1247963753769236 0.742998517629022 0  -0.1316362940111879 0.6992295221372387 0  -0.2882571176758736 0.6333026354264091 0  -0.2343115250776447 0.6607199706860043 0  -0.2720629841353079 0.668219102589638 0  -0.10625 0.8 0  -0.065625 0.7525842032129476 0  -0.1185258769505615 0.6317716886794411 0  -0.05860173338897248 0.6161647360405123 0  -0.08122705940714489 0.6521382348189173 0  0.07076224385644264 0.5388576613854803 0  -0.2761416236720196 0.559485193348635 0  -0.0254304764325484 0.1893893144420543 0  0.1643389548702655 0.3520866324259163 0  0.2032753423647613 0.3412272113250908 0  0.6406672934064692 0.4133249022634388 0  0.5506765625714813 0.6514910460131358 0  -0.01930576170531107 0.4892230725635784 0  0.005175049577544798 0.4275883139647041 0  -0.0951726488882111 0.5661942638413099 0  -0.3871643410004001 0.07045616712633723 0  -0.4111439026838519 0.03643993084502438 0  -0.6456993939683222 0.1729167972740901 0  -0.6282293602749067 0.1201766428713147 0  0.8670566625942017 0.5879685996577079 0  0.8897675127172819 0.6291226296976986 0  0.6546614516006638 0.6444921774009957 0  0.6808067830644583 0.6856272945211621 0  0.6927142032137147 0.6491824838446232 0  0.4385725680067071 0.202289754021198 0  0.4658933645934684 0.1511674902910049 0  0.4259599005690345 0.1518346893904454 0  0.4881606012756622 0.09765037204297369 0  0.465095092701468 0.05038255777418461 0  0.4478824172542907 0.08804351410181004 0  0.05625000000000001 0.7155697088603578 0  -0.35 0.8 0  -0.390625 0.8 0  -0.3530820625986408 0.7603518277014715 0  -0.4285215336477257 0.1385358435684325 0  -0.4130909639830982 0.1870875435667941 0  -0.3769926644811443 0.1447496449118895 0  -0.3619401226975005 0.2481705121526794 0  -0.2501201216691226 0.3062359211912735 0  -0.2244576690068036 0.3831599088016018 0  -0.1684820098625097 0.384135877020121 0  -0.6755790174242251 0.659179279488599 0  -0.6313829950073642 0.6784520251184577 0  0.7 0.201313752276867 0  0.6 0 0  0.5625 0 0  0.5574441809771966 0.04093908816434185 0  0.6999084911877882 0.1386123437046061 0  0.8035530755493967 0.3203461898811091 0  0.8229674068275822 0.2894069421593564 0  0.565639838946925 0.1342979083030402 0  0.5245748197806592 0.1208904391465448 0  0.5612059703786511 0.08201729633142479 0  0.6027725787328131 0.1048203941926291 0  0.1731890540600857 0.5243208952725322 0  0.1127569148533528 0.5531147821294974 0  0.1159252580953263 0.512521456268791 0  0.21875 0.6703688367151814 0  0.1943845012310544 0.6314807991403597 0  -0.13125 0.08418303941590474 0  -0.1101356974937704 0.1469265319703799 0  -0.215159458418885 0.2210961848933382 0  -0.1874166669098682 0.1863530522214157 0  0.600653543392857 0.720697030391886 0  0.662366833809042 0.737300250713563 0  0.6227708336492492 0.761482359959872 0  -0.481719610516347 0.1383684534091962 0  -0.6329414020410991 0.04499832555788293 0  -0.6742736542887175 0.04147572997999902 0  -0.585661042451993 0.08140413407912189 0  -0.535260648476417 0.08515392401092134 0  0.3968927982729935 0.2521844686046124 0  0.4471128394784444 0.2505500081638948 0  0.5068359430160772 0.3524543880267355 0  0.5073860363681341 0.3135118882701575 0  0.4686499967908058 0.3645505737876505 0  0.3637230975369925 0.122269009623915 0  0.3156123516206198 0.1356814701967278 0  -0.43125 0.7180679717475292 0  -0.4815794646579502 0.7494103042650443 0  -0.4746626270172681 0.7120884650534443 0  -0.5095487086911831 0.6971310712121024 0  -0.5490224990235096 0.7114936269516832 0  -0.5180169524256769 0.7352829083616699 0  -0.729977989642168 0.6749619451452257 0  -0.7556618617448025 0.7088218823554736 0  -0.675 0.8 0  -0.634375 0.8 0  -0.6788879145522106 0.7553787988154443 0  -0.0252985208887341 0.6436305328661295 0  -0.0493627842117475 0.6735225213131091 0  -0.1414214597854018 0.5288464913268072 0  -0.1472258572727455 0.5846041893738443 0  -0.8563247204716852 0.7399215230625864 0  -0.8383285491980242 0.6959152081012567 0  -0.8750375937514758 0.7065861019452341 0  -1 0.75 0  -0.959375 0.8 0  -0.9484078983203004 0.7495853236352441 0  -0.2625 0 0  -0.2187499999999999 0 0  -0.240625 0.03335145524608776 0  0.1717928339215533 0.2928628763749537 0  0.2001373274750196 0.2556376855348687 0  -0.07521901799332351 0.1107190448373644 0  -0.175 0 0  -0.1700996251414301 0.05091324739906802 0  0.5188432835820896 0.7657649253731343 0  0.5823518802057061 0.7842623037434597 0  0.5598178258084054 0.7433569797739206 0  0.5 0.9 0  0.45 0.875 0  -0.9135274101551247 0.5847138977346933 0  -0.9597594149228554 0.5754103928224997 0  -1 0 0  -0.9481343587239583 0.348351632821165 0  -0.9626722784564123 0.3119527784641687 0  -0.9271500394155513 0.3188676772673804 0  -0.4262422561937219 0.2389294145549007 0  -0.390968506254841 0.2218214631107478 0  -0.8261844555810793 0.2833164202645604 0  -0.8695316860420927 0.2567702077160075 0  -0.834643344668126 0.2484650274994312 0  -0.8505222566123861 0.3517448723725785 0  0.06444964170610482 0.397844805150155 0  0.05319120982249809 0.4493430277017236 0  0.09778118672361864 0.4123503491515029 0  0.8 0.7 0  0.8250000000000001 0.69375 0  0.7682486619265971 0.6054547827410369 0  -0.07820078314156219 0.3021332412980078 0  -0.01832357024703771 0.3165606826338021 0  -0.5092048670489406 0.298132640718682 0  -0.5585594772473395 0.2757178248315029 0  -0.5375272839209119 0.321811250060045 0  -0.6410383624187663 0.3561824528399448 0  -0.64971545567091 0.3122728097117525 0  -0.6035381849406551 0.3437449211181695 0  -0.6872932668049369 0.3231871318479599 0  -0.7135592991236009 0.3521924738309877 0  -0.7019899515095879 0.4043327925289134 0  -0.7492842043382157 0.387473139770728 0  0.2697636247459458 0.1061008112665909 0  0.1478095996951428 0.1625778413465251 0  0.184633395355617 0.2114930002746903 0  0.1933794646984061 0.1665906454966394 0  0.8969711552895802 0.5436653863107624 0  0.249616982039561 0.5196020589080823 0  0.2856648806900029 0.530083587843445 0  -0.5397734556326165 0.6219279711492497 0  -0.566975154437121 0.5632381948108687 0  -0.2187499999999999 0.06670291049217551 0  -0.08749999999999998 0 0  -0.13125 0 0  -0.1152228493939714 0.04209151970795237 0  -0.5802247182342779 0.4291567963457426 0  -0.4003762184404339 0.580593299470644 0  -0.4430933831555808 0.5653509418661533 0  -0.4058480890096289 0.5299356354842195 0  0.6450084083243759 0.2072010734069497 0  0.6011739894937438 0.2135793381090915 0  0.421210883681148 0.2921562222743322 0  0.5655337764205987 0.7055325517957157 0  0.5247921480488499 0.7279764290437545 0  0.6320659602003178 0.6857189698611613 0  0.45 0 0  0.4125 0.05052459741282198 0  -0.91875 0.8 0  -0.8998455662090692 0.7571717689080089 0  -0.878125 0.8 0  0.3804214033847313 0.3150762717179808 0  0.3239645040639709 0.3404057426357627 0  0.3437554324911972 0.298197052917709 0  0.37603509000562 0.4595936279288935 0  0.2236498619378 0.4924907675416405 0  0.2801493281558624 0.4733267262113126 0  0.5838188298918388 0.5059795968534907 0  0.5453436380330452 0.5115475416761653 0  -0.5990222023234669 0.3829949071974187 0  -0.555582854867706 0.3905905334134277 0  -0.4848659298106452 0.4661121763094586 0  -0.4412750945837603 0.475934252602952 0  -0.1579937549862426 0.6636234313067139 0  -0.1875 0.622372632402674 0  -0.2404647263961394 0.6039973121483443 0  -0.3977978656273477 0.4862475770312982 0  -0.3508827127742274 0.4906895427972524 0  -0.3711348710925735 0.4546135757859332 0  -0.3619130184527948 0.5365054241456988 0  -0.7121183779412243 0.6348783591516144 0  -0.6797851628242746 0.4939910961866709 0  -0.6919620042002224 0.4448235514219153 0  -0.4569775449055392 0.678502750891237 0  -0.5777935402132057 0.6117625213581882 0  0.7885877992477374 0.140125288620412 0  0.857572720103432 0.3010956376232398 0  0.8444455447850223 0.3465973019961174 0  0.5338851047414974 0.3790276515378904 0  0.499566056242379 0.401507578237595 0  0.4999709684944701 0.4424723952431886 0  0.7534091779569549 0.3617555713359235 0  0.8069473797301796 0.3755215445974723 0  0.7734277619232611 0.4045985880836875 0  0.09486485002095416 0.1683385288423709 0  0.1743729437268456 0.1216761679434383 0  0.1175362502920486 0.1305245687405073 0  -0.675 0 0  -0.634375 0 0  1 0.65 0  1 0.609375 0  0.9547322029115862 0.6168619262697282 0  -0.01700728554665713 0.3650895332002291 0  -0.03124008795288571 0.4120139064826686 0  0.4614295752100974 0.518862676293674 0  0.5190758364458011 0.4787116585744964 0  0.4543238814348715 0.5675296192700002 0  0.4747665331034684 0.5995289212055503 0  -0.3644898558779411 0.4137789203429097 0  -0.4053331146914901 0.3945153220610952 0  -0.104885986622206 0.4819533380745408 0  -0.1534952178266623 0.4380767983607506 0  -0.1470128571380441 0.4868107457688662 0  0.3426747508481758 0.5313631841212447 0  0.1633033742098805 0.6494623321979085 0  0.3 0.8 0  0.35 0.8250000000000001 0  -0.4905078356492524 0.04173002878746119 0  0.8208094817899322 0.06718824775222078 0  0.8247963389403353 0.1190105023364915 0  0.9439093777885766 0.1206419403863204 0  0.8697617504166485 0.1630683217765556 0  -0.948572466916685 0.6500000000000001 0  -0.9003118940828296 0.6636413830812308 0  -0.9548681380254324 0.6949724949058191 0  -0.9156273851878869 0.6256356519716166 0  -0.959375 0 0  0.65 0.1006568761384335 0  0.6512335815157667 0.1508254403874527 0  0.604620951594494 0.1694176240673353 0  0.9086335128812395 0.5088596473753185 0  0.9169748890091888 0.5907925425968836 0  0.9561118469789767 0.570823381218747 0  0.9141803802828984 0.310275973618362 0  0.9506452947094954 0.3552023364477087 0  0.8882526978365658 0.345600409028326 0  -0.26875 0.8 0  -0.3053830497807671 0.7551427699001608 0  -0.309375 0.8 0  0.7736409777866261 0.4981936575591353 0  0.7521220918421732 0.5508779491257132 0  0.8092750620149546 0.4307521788879577 0  0.787648779415086 0.4624602281255822 0  0.9344381791451276 0.2477915133936403 0  0.8949639911416863 0.2695198427486883 0  0.9593120982559574 0.3046875 0  0.375 0 0  0.03344035717224367 0.06202260093844532 0  1 0.24375 0  1 0.203125 0  0.955639460237375 0.2084615957452724 0  0.01562500000000001 0.757784854430179 0  -0.4913171730153587 0.646128328741135 0  -0.3518709036776563 0.7206024909706044 0  -0.3928280054028175 0.7590339858737647 0  -0.3915607457571954 0.7193444366450915 0  0.170513903201458 0.04223842192196847 0  0.2767403385599013 0.3243511283257711 0  -0.43125 0 0  -0.3207806264128304 0.1718989908036585 0  -0.2928888435689251 0.142785136058334 0  0.2625 0 0  0.6739048129909371 0.2337965352085225 0  0.7357308692208542 0.2819375258557946 0  0.7098271921708947 0.3134880061065145 0  0.7568416140327197 0.3148469270191845 0  -0.1736031288042473 0.2793842704145273 0  -0.2140950053973532 0.2642950640338362 0  -0.2134564273465821 0.3012858936072858 0  -1 0.3 0  -1 0.25 0  -0.9481343587239583 0.2755539241071723 0  0.7625000000000001 0.725 0  0.9 0.675 0  0.8500000000000001 0.6875 0  0.7259890941767482 0.7108586412651221 0  -1 0.6000000000000001 0  -1 0.55 0  0.259375 0.8 0  0.2639862235396075 0.7557298188563141 0  0.2579914353557591 0.6868071594997738 0  0.3114089101449878 0.6827674050490086 0  0.4142557901181613 0.744160098310871 0  0.4737506827513149 0.7201022559509035 0  0.4341053997753767 0.6923830026428393 0  0.2415938755958764 0.2339471399957093 0  0.07499999999999998 0.1189247678831777 0  0.1094953985321 0.09221988400755939 0  0.5249999999999999 0 0  0.5177598327498334 0.05219620819961129 0  0.4874999999999999 0 0  -0.3627103243094603 0.1946480461281901 0  -0.2414014514440646 0.144720883884784 0  -0.8904031967081469 0.5 0  -0.7335973709912792 0.4473843159844606 0  0.4151380606236376 0.1133897354455484 0  0.4125 0 0  0.8632121189842989 0.440034336132865 0  0.8407528350186998 0.4091907948611833 0  -0.1445169069364594 0.1641404321910974 0  0.2593010356227121 0.1419072767255423 0  -0.5839868310860452 0.2183534835933975 0  -0.5920507328396436 0.2562455367531692 0  -0.5222757590752526 0.2354463297673685 0  -0.4988585977991056 0.2632694331922213 0  -0.5641932422467952 0.3473408897827842 0  -0.6108116624387414 0.2901403995605675 0  -0.367797684421565 0.674590833871561 0  -0.3191994877679367 0.6775825250119945 0  -0.3265425354534784 0.6395002091077661 0  0.697396843437418 0.5352624370559662 0  0.7076373946017859 0.6138652183976117 0  0.1846227003398909 0.5969253475969729 0  0.142189990640825 0.5856822064280099 0  0.1712146915788814 0.5618343184488296 0  0.4175657960854711 0.369271067768056 0  0.5540050604911453 0.3468876007552075 0  0.4747333847197021 0.7642279816722015 0  0.5112968952797003 0.8356953429195506 0  -0.08762820233090904 0.6941504159222359 0  -0.7562500000000001 0 0  -0.7687875033481781 0.06508480434291189 0  -0.7110816936389933 0.1681151167270225 0  -0.7184809213976766 0.1299225482102566 0  -0.7480963616286299 0.1644889899787451 0  -0.7488199047357543 0.2264706482068905 0  -0.5125 0.4 0  -0.5332971679240471 0.4449259158403367 0  -0.8188722931657481 0.3244594342552633 0  0.09958394827893688 0.4486567225700125 0  0.3073299464494944 0.2808049450667712 0  0.2610057220361808 0.2762535164396974 0  -1 0.7000000000000001 0  -1 0.6500000000000001 0  -0.9101262465745318 0.2621576053691069 0  -0.3290302413672106 0.124914281195471 0  -0.3700372332258715 0.1059543104487151 0  -0.35 0 0  -0.30625 0 0  -0.349819440731181 0.0451250807413407 0  -0.9239234451014418 0.3742517034301074 0  -0.1769909715760862 0.2252451907748799 0  -0.6089938318070861 0.6357501224351318 0  -0.7968750000000001 0.719196556770818 0  -0.8017387798123108 0.6655572319946881 0  -0.7663539123721281 0.6740406135495793 0  0.147070353937637 0.08126420530709039 0  -0.035278701089819 0.5493541055081506 0  0.002414187495674042 0.517578344924612 0  0.408359011302665 0.5850279888059788 0  0.3926075783778731 0.5372770380861782 0  0.4299758611641998 0.5391224376622912 0  0.398071110705122 0.4872929331293206 0  0.370571557678371 0.5095777328857511 0  -0.1371111504710401 0.3377667481557313 0  -0.1949039296524372 0.3332942375783142 0  -0.8902150962461182 0.123184609300029 0  -0.9455967003699964 0.1608932060467051 0  -0.5679441928168566 0.6610873708513839 0  -0.5280389134140218 0.66176161741432 0  0.4012758805921183 0.7962918295078542 0  0.6343102068653389 0.5735550558872382 0  0.6509171291612554 0.5298012107562328 0  0.6118368478881051 0.533469932861539 0  0.8500000000000001 0 0  0.8684483306154093 0.04795019863218596 0  0.8250000000000001 0.0290736937603316 0  0.7085120595875259 0.06697511978296113 0  0.6622144115881231 0.04837577783192749 0  0.686084707561988 0.1049989171301678 0  0.8760978437572581 0.1106680384526055 0  0.9179266541893877 0.06178703163942517 0  0.225 0.1272441360307893 0  0.2392706259281583 0.08560007199280346 0  0.4379674107539812 0.6159784634783813 0  -1 0.2 0  -0.9614624247354335 0.2371936630232252 0  0.03053454839129778 0.1077729611150414 0  1 0.4875 0  1 0.446875 0  0.9558538277856995 0.4671875 0  -0.6647651826775515 0.3888008792878123 0  -0.7739878517650076 0.432554850064088 0  0.3732013879735176 0.3745667407716211 0  0.4438197834340705 0.3331189861131329 0  0.9 0 0  0.95 0 0  -0.4290157674304546 0.4329651591026131 0  -0.4730757576315434 0.4223525929340504 0  -0.3085680339812212 0.3726423718273034 0  -0.2975995176331122 0.415676145812426 0  0.9017363018168174 0.4335292099773468 0  0.8709365400310004 0.3858522553576976 0  -0.433878242581917 0.7590339858737647 0  -0.4718749999999999 0.8 0  0.1870644065512575 0.7058438018744377 0  0.287192919494329 0.7177487500997334 0  0.373391386735243 0.6190882578501647 0  0.3625899268422822 0.5736301526541121 0  -0.0740862001733546 0.06043114017221478 0  -0.06473052419331315 0.195102561962623 0  -0.07549643440252135 0.5212450549603671 0  -0.1703230459509505 0.5540187942713124 0  -0.1007778130910436 0.4396579522839481 0  -0.06036382694020544 0.4824876751378507 0  0.575 0.8500000000000001 0  0.5375 0.875 0  0.5496520238368909 0.8138852158618174 0  -0.9363742561324957 0.1149149261388027 0  -0.9722993887126924 0.125 0  -1 0.1 0  -0.8240675385586067 0.07861987161428764 0  -0.8939364138724749 0.08206016393323159 0  1 0.08125 0  1 0.040625 0  0.9614725214511298 0.06093750000000001 0  0.4390312697938504 0.7706585720281234 0  -0.6087500275752172 0.5874610997706479 0  -0.6285509068000835 0.5434177764137894 0  -0.6758589605504699 0.1360445394877298 0  -0.4639755396367685 0.1895634299639709 0  -0.5125669738816077 0.3490108596262211 0  -0.4862887387110096 0.3251971677797513 0  0.4 0.8500000000000001 0  -0.2736822540672866 0.7066741101332326 0  -0.226511284641257 0.7495695044532005 0  -0.2654148521001133 0.759889356759809 0  -0.2290974413074462 0.7050293826409301 0  0.3494733564886344 0.2582394905041623 0  0.8799471876315388 0.2057509732450277 0  -0.2638664923129656 0.1147981530855458 0  -0.2295554510546855 0.101775424507443 0  -0.5125 0.8 0  -0.553125 0.8 0  0.6917232204365481 0.3759204460368998 0  0.0297230317934499 0.4945565142614869 0  0.01923774209335348 0.4604167445541851 0  0.8 0 0  0.75 0 0  0.7677923277737901 0.05215579035653222 0  0.7053186591687824 0.2573653930384482 0  0.6785801424192732 0.2871639244801666 0  -1 0.8 0  0.4849948893470825 0.2816456455504909 0  0.3288037729577244 0.3859943328302803 0  0.593709351275004 0.658534871569564 0  0.6117578461520703 0.614969056438266 0  -0.025250854891621 0.7591036456961338 0  -0.005917045442861511 0.7242221800542156 0  -0.04736566271572456 0.7123491233614065 0  -0.04636561120870943 0.231638621466981 0  -0.06848590901644708 0.2600625329754089 0  -0.9031761900099119 0.4435542545997611 0  -0.9664076302982207 0.4849007728732965 0  -0.796875 0 0  -0.8038332355147388 0.04160585648711924 0  -0.6475644091888887 0.2739866738592593 0  0.6659389520786583 0.6028689018198866 0  0.6954599794115343 0.575483248108574 0  0.4294277242736049 0.5037252798693644 0  -0.59375 0 0  -0.5921650886565107 0.04094646908077119 0  -0.6239062615980393 0.08216884900896196 0  -0.4742343748700181 0.2365087125075734 0  -0.5005731711417051 0.203041830314762 0  0.2289653963070653 0.3100183916388531 0  0.9457524489958131 0.5281250000000001 0  -0.1875 0.8 0  -0.1690902491449597 0.7572625384756343 0  -0.146875 0.8 0  -0.8375 0 0  0.05625000000000001 0.8 0  0.01562500000000001 0.8 0  -0.01272145346164857 0.6849257061075226 0  0.03803917833036842 0.6190134431139295 0  0 0 0  -0.01648052923941644 0.04891192880886894 0  -0.04374999999999999 0 0  -0.8171875 0.7606469071607411 0  -0.2651800225893725 0.3900798246390585 0  -0.254069428111322 0.3502960338839587 0  0.475268328747318 0.1890391969585902 0  -0.256073375601486 0.2540435932010645 0  0.02205678662269914 0.3872965405897746 0  -0.43125 0.8 0  0.15 0 0  0.07903564696677393 0.4952873884345086 0  0.725 0.03085114936993828 0  0.7 0 0  -0.4718749999999999 0 0  0.6470676072147352 0.2624685629920325 0  0.6499999999999999 0 0  0.3375 0 0  -0.6964866526202406 0.6887570771042864 0  0.8580012122986348 0.24375 0  0.2441208973722733 0.3462908110136247 0  0.5585409174134088 0.4577339918413758 0  0.1375 0.8 0  0.131443921198603 0.7393306674681593 0  1 0.325 0  1 0.284375 0  0.2938053799365024 0.5685445380096952 0  -0.3126991336167341 0.7164353037416534 0  0.7346211331621838 0.5857201857637293 0  0.424686129905788 0.8237171987525717 0  0.9075147532000541 0.4721690705985251 0  -0.05398932774161583 0.3331159612331858 0  0.5914935485442463 0.5670389375843581 0  -0.4921661551910084 0.6045543611741756 0  -0.5771334765588518 0.3102899256625057 0  0.6129555614689663 0.05631135696810498 0  -0.228125 0.8 0  -0.07362361077483791 0.1579993038276805 0  0.9656544704233879 0.430358934780646 0  1 0.5687500000000001 0  1 0.5281250000000001 0  -0.487882679970796 0.3744730511494296 0  -0.7716063966338805 0.1933076071494127 0  0.9662875050455422 0.2677527634480206 0  1 0.1625 0  1 0.121875 0  0.05667389866522691 0.1549918722511189 0  -0.6482357263834423 0.5125551782991716 0  -0.4159949396386038 0.09954380892396811 0  -0.9452015983540735 0.4547886794357985 0  -1 0.4 0  -1 0.45 0  -0.9705159132240463 0.428536318029532 0  -1 0.5 0  -0.9604673741526459 0.197600803508814 0  -0.9498727091757218 0.3984720677751086 0  -1 0.35 0  -0.9637268525428971 0.6141391417726323 0  0.7820895853491586 0.5716940272220318 0  0.3054529294899976 0.758780356138564 0  0.3161173689416705 0.1894110905565675 0  -0.08957648727462063 0.3498395249544066 0  0.09356226969716464 0.7203178534205076 0  0.5088999590374084 0.6573467071447225 0  -0.1990022760038112 0.6790264638294556 0  -0.5903216318679605 0.7038225933271026 0  -0.7343885625163897 0.3088483877385971 0  -0.9128517174596892 0.7121998329359975 0  -0.9743726883863755 0.7249682301245027 0  1 0 0  -0.7692389969310576 0.495129624158591 0  -0.8411464951422883 0.03737490312451302 0  0.5440735632136178 0.3004410710061543 0  0.5305080986610431 0.6901520010655496 0  0.7250000000000001 0.75 0  0.3 0 0  0.95 0.6625000000000001 0  0.65 0.8 0  0.2052912098428287 0.07161784862978124 0  0.1307708157396492 0.04491836445161515 0  0.1125 0 0  -0.8375 0.8 0  -0.796875 0.8 0  -0.7562500000000001 0.8 0  0.6875 0.775 0  0.6125 0.8250000000000001 0  -0.4468692633705901 0.3897814230881774 0  -0.5396466017115216 0.04918069523080663 0  -0.5125 0 0  0.07589799367249739 0.2625198365081781 0  -0.8649395618646754 0.5466138194338421 0  -0.390625 0 0  -0.7156250000000001 0 0  0.01520215164826936 0.6503727037431122 0  -0.553125 0 0  0.02699899350881488 0.6884657524206572 0  0.0375 0 0  -0.02499999999999999 0.8 0  -0.06562499999999999 0.8 0  1 0.365625 0  0.178125 0.8 0  -0.878125 0 0  -1 0.15 0  -0.622063126340175 0.4107612750924774 0  1 0.40625 0  0.425 0.8625 0  </DataArray>
</Points>
<Cells>
<DataArray  type="UInt32"  Name="connectivity"  format="ascii">0 1  0 2  0 59  0 552  1 2  1 547  1 776  2 59  2 547  2 844  3 4  3 5  3 123  3 124  3 629  3 630  4 5  4 297  4 626  4 627  4 630  5 123  5 551  5 626  5 721  6 7  6 8  6 512  6 534  6 541  6 720  7 8  7 511  7 512  7 661  8 511  8 540  8 541  8 810  8 811  9 10  9 11  9 846  9 862  10 11  10 538  10 577  10 578  10 845  10 846  11 538  11 862  12 13  12 14  12 788  12 789  12 828  13 14  13 312  13 542  13 762  13 763  13 828  14 762  14 788  15 16  15 17  15 19  15 39  15 40  15 413  15 855  16 17  16 19  16 20  16 289  16 741  17 412  17 413  17 741  17 742  18 19  18 20  18 103  18 485  18 812  18 855  19 20  19 855  20 214  20 289  20 812  21 22  21 23  21 178  21 336  21 338  21 620  21 777  22 23  22 136  22 336  22 456  23 136  23 178  23 180  24 25  24 26  24 45  24 46  24 77  24 267  24 319  25 26  25 267  25 320  25 680  25 771  26 77  26 320  26 773  27 28  27 29  27 228  27 431  27 432  27 439  27 799  28 29  28 228  28 244  28 462  29 244  29 245  29 432  30 31  30 32  30 42  30 44  30 95  30 241  31 32  31 75  31 241  31 288  31 468  31 470  32 95  32 96  32 288  32 466  33 34  33 35  33 344  33 590  33 632  34 35  34 208  34 342  34 590  34 691  34 803  35 208  35 209  35 557  35 632  36 37  36 38  36 56  36 293  36 736  36 737  36 798  37 38  37 56  37 57  37 497  37 498  38 250  38 293  38 498  38 829  39 40  39 41  39 406  39 413  39 493  39 774  40 41  40 193  40 855  41 179  41 193  41 406  42 43  42 44  42 241  42 321  42 681  42 770  43 44  43 95  43 321  43 322  43 502  44 95  45 46  45 266  45 267  45 499  45 500  45 852  46 265  46 266  46 319  46 400  46 401  47 48  47 49  47 422  47 473  47 672  47 869  48 49  48 242  48 243  48 437  48 869  49 242  49 472  49 473  49 813  50 51  50 52  50 70  50 275  50 719  50 826  51 52  51 70  51 306  51 308  51 358  51 586  52 358  52 359  52 826  53 54  53 55  53 183  53 184  53 258  53 572  53 688  54 55  54 250  54 251  54 575  54 665  54 688  55 258  55 573  55 575  56 57  56 458  56 459  56 654  56 798  57 459  57 495  57 496  57 497  58 59  58 60  58 191  58 192  58 358  58 359  58 424  59 60  59 424  59 552  59 664  59 844  60 191  60 552  60 783  60 841  61 62  61 63  61 116  61 476  61 510  61 512  62 63  62 119  62 142  62 325  62 329  62 476  63 116  63 142  63 202  63 203  64 65  64 66  64 158  64 348  64 711  64 755  65 66  65 158  65 159  65 218  65 299  65 300  66 159  66 268  66 348  66 352  67 68  67 69  67 301  67 302  67 410  67 565  68 69  68 146  68 190  68 301  68 411  68 824  69 188  69 189  69 409  69 410  69 411  70 306  70 353  70 719  71 72  71 73  71 141  71 337  71 505  71 604  72 73  72 140  72 141  72 312  72 765  72 859  72 861  73 125  73 126  73 287  73 337  73 765  74 75  74 76  74 114  74 115  74 279  74 600  75 76  75 114  75 288  75 470  76 279  76 288  76 466  77 78  77 79  77 212  77 319  77 773  78 79  78 210  78 212  78 550  79 319  79 401  79 550  79 582  80 81  80 82  80 181  80 182  80 429  80 430  80 792  81 82  81 182  81 183  81 339  81 340  81 603  82 183  82 184  82 792  83 84  83 85  83 155  83 455  83 504  83 643  83 644  84 85  84 430  84 457  84 504  85 155  85 170  85 457  86 87  86 88  86 100  86 306  86 354  86 734  86 772  87 88  87 166  87 356  87 734  87 838  88 100  88 101  88 166  88 442  89 90  89 91  89 216  89 418  89 420  89 747  89 832  90 91  90 216  90 217  90 613  90 616  91 247  91 616  91 832  92 93  92 94  92 107  92 612  92 614  92 615  93 94  93 130  93 131  93 612  93 702  94 110  94 130  94 615  94 808  95 96  95 373  95 502  95 503  95 693  96 465  96 466  96 693  97 98  97 99  97 156  97 157  97 167  97 607  97 838  98 99  98 157  98 555  98 725  98 732  98 781  99 167  99 168  99 781  100 101  100 307  100 332  100 333  100 772  101 332  101 442  101 520  102 103  102 104  102 194  102 384  102 385  102 426  102 855  103 104  103 485  103 855  104 425  104 426  104 485  105 106  105 107  105 300  105 349  105 350  105 614  105 710  105 753  106 107  106 350  106 611  106 612  106 858  107 612  107 614  108 109  108 110  108 132  108 135  108 403  108 404  109 110  109 247  109 249  109 402  109 404  109 616  109 808  110 130  110 132  110 808  111 112  111 113  111 394  111 395  111 568  111 744  111 819  112 113  112 394  112 584  112 856  113 584  113 743  113 744  113 815  114 115  114 438  114 470  115 150  115 151  115 438  115 598  115 600  116 203  116 512  116 720  116 785  117 118  117 119  117 476  117 509  117 510  117 730  118 119  118 329  118 658  118 660  118 730  119 329  119 476  120 121  120 122  120 211  120 344  120 583  120 590  120 722  121 122  121 341  121 342  121 590  122 341  122 388  122 433  122 722  123 124  123 383  123 433  123 721  123 722  124 381  124 383  124 629  125 126  125 177  125 287  125 639  125 726  126 175  126 177  126 765  127 128  127 129  127 236  127 262  127 263  127 856  128 129  128 229  128 236  128 246  128 836  129 220  129 246  129 584  129 856  130 131  130 132  131 132  131 647  131 702  131 703  132 134  132 135  132 647  133 134  133 135  133 625  133 648  133 667  133 820  134 135  134 647  134 648  135 403  135 625  136 137  136 138  136 180  136 456  137 138  137 169  137 180  137 290  137 291  137 786  138 169  138 170  138 456  138 457  139 140  139 141  139 145  139 505  139 686  139 789  139 828  140 141  140 312  140 828  141 505  142 202  142 325  142 731  143 144  143 145  143 569  143 570  143 866  144 145  144 339  144 570  144 571  144 686  144 687  145 686  145 788  145 789  145 866  146 147  146 148  146 190  146 301  146 428  147 148  147 190  147 530  147 532  147 533  147 588  148 428  148 521  148 588  148 796  149 150  149 151  149 438  149 439  149 474  149 543  149 799  150 151  150 360  150 474  150 546  150 598  151 438  152 153  152 154  152 160  152 162  152 369  152 370  153 154  153 232  153 323  153 324  153 370  153 784  154 162  154 324  154 831  155 170  155 173  155 455  155 674  155 735  156 157  156 271  156 272  156 292  156 479  156 607  157 292  157 725  158 218  158 592  158 594  158 755  159 300  159 351  159 352  159 753  160 161  160 162  160 369  160 724  161 162  161 364  161 365  161 723  161 724  162 364  162 831  163 164  163 165  163 186  163 482  163 484  163 725  164 165  164 174  164 185  164 186  164 601  165 174  165 292  165 725  166 167  166 168  166 442  166 838  167 168  167 838  168 441  168 442  168 781  169 170  169 453  169 548  169 735  169 786  170 457  170 735  171 172  171 173  171 357  171 480  171 481  171 606  172 173  172 481  172 495  172 496  172 643  172 750  173 455  173 606  173 643  173 674  174 272  174 292  174 458  174 601  174 653  174 654  175 176  175 177  175 371  175 765  175 859  176 177  176 285  176 296  176 371  176 638  177 638  177 639  178 179  178 180  178 408  178 620  179 180  179 193  179 195  179 290  179 406  179 408  180 290  181 182  181 336  181 429  181 456  181 605  182 603  182 605  183 184  183 339  183 571  183 572  184 504  184 688  184 689  184 792  185 186  185 530  185 531  185 601  186 484  186 530  186 533  187 188  187 189  187 304  187 305  187 566  188 189  188 409  188 563  188 566  189 305  189 411  189 602  189 794  190 530  190 531  190 824  191 192  191 448  191 537  191 783  192 358  192 448  192 586  193 194  193 195  193 855  194 195  194 384  194 855  195 290  195 384  196 197  196 198  196 396  196 701  197 198  197 256  197 699  197 700  197 701  198 255  198 256  198 396  198 517  199 200  199 201  199 227  199 423  199 673  200 201  200 219  200 220  200 227  200 405  201 248  201 405  201 423  201 619  202 203  202 204  202 554  202 731  203 204  203 331  203 785  204 330  204 331  204 554  204 556  205 206  205 207  205 671  205 682  205 804  206 207  206 525  206 526  206 682  206 683  207 525  207 804  207 865  207 870  208 209  208 412  208 691  208 741  208 742  209 412  209 557  209 645  210 211  210 212  210 550  210 551  210 583  211 212  211 343  211 344  211 583  212 343  212 773  213 214  213 215  213 386  213 538  213 668  213 690  213 767  214 215  214 289  214 668  214 812  215 289  215 386  215 691  215 803  216 217  216 218  216 593  216 747  217 218  217 299  217 613  217 710  218 299  218 592  218 593  219 220  219 222  219 405  219 631  219 743  219 821  220 227  220 246  220 584  220 743  221 222  221 223  221 399  221 403  221 562  221 625  222 223  222 397  222 399  222 405  222 631  223 402  223 403  223 405  223 619  224 225  224 226  224 230  224 237  224 471  225 226  225 323  225 324  225 471  225 633  225 708  226 230  226 708  226 709  227 246  227 673  228 439  228 440  228 462  228 463  228 467  229 230  229 231  229 236  229 237  229 836  230 231  230 237  230 472  230 709  230 813  231 472  231 473  231 585  231 836  232 233  232 234  232 366  232 367  232 370  232 784  233 234  233 367  233 634  233 769  233 848  233 849  234 368  234 370  234 849  235 236  235 237  235 262  235 366  235 471  235 635  235 636  236 237  236 262  237 471  238 239  238 240  238 322  238 502  238 645  238 694  238 827  239 240  239 294  239 295  239 494  239 694  239 695  240 493  240 494  240 797  240 827  241 468  241 469  241 499  241 681  242 243  242 245  242 709  242 813  243 244  243 245  243 437  243 618  244 245  244 462  244 618  245 432  245 709  246 673  246 836  247 248  247 249  247 616  247 832  248 249  248 421  248 423  248 619  248 832  249 402  249 619  250 251  250 498  250 665  250 829  251 574  251 575  251 829  251 839  252 253  252 254  252 608  252 651  252 707  252 795  253 254  253 389  253 608  253 609  253 698  254 392  254 393  254 609  254 795  254 871  255 256  255 257  255 517  255 867  256 257  256 699  256 703  257 702  257 703  257 837  257 867  258 259  258 260  258 572  258 573  258 687  258 825  259 260  259 506  259 507  259 651  259 825  260 573  260 651  261 262  261 263  261 376  261 377  261 514  261 516  261 635  262 263  262 635  263 394  263 516  263 856  264 265  264 266  264 713  264 807  264 852  265 266  265 400  265 414  265 595  265 713  265 754  266 852  267 499  267 680  268 269  268 270  268 348  268 352  268 508  268 853  269 270  269 297  269 298  269 508  269 549  269 780  269 814  270 316  270 348  270 814  271 272  271 479  271 480  271 481  271 787  272 292  272 458  272 787  273 274  273 275  273 359  273 591  273 826  274 275  274 426  274 427  274 576  274 591  274 663  275 576  275 621  275 622  275 719  275 826  276 277  276 278  276 464  276 716  276 718  276 759  276 830  277 278  277 282  277 283  277 610  277 759  277 760  278 284  278 286  278 464  278 610  279 280  279 281  279 466  279 599  279 600  280 281  280 465  280 466  280 718  280 830  281 599  281 715  281 718  282 283  282 760  282 864  283 610  283 738  283 740  283 864  284 285  284 286  284 296  284 374  284 464  284 465  285 286  285 296  285 371  286 371  286 372  286 610  287 337  287 338  287 726  287 777  288 466  289 691  289 741  290 291  290 384  291 384  291 756  291 786  292 725  293 444  293 736  293 829  293 839  294 295  294 638  294 639  294 692  294 695  294 726  294 727  295 406  295 407  295 494  295 727  295 774  296 373  296 374  296 638  296 692  297 298  297 627  297 630  297 814  298 549  298 630  298 857  299 300  299 710  300 710  300 753  301 302  301 428  301 522  302 492  302 522  302 564  302 565  302 842  303 304  303 305  303 446  303 736  303 737  303 748  304 305  304 346  304 446  304 566  305 602  305 748  306 307  306 308  306 353  306 354  306 772  307 308  307 309  307 311  307 333  307 586  307 772  308 586  309 310  309 311  309 333  309 580  310 311  310 447  310 448  310 580  310 581  311 448  311 586  312 542  312 739  312 828  312 861  313 314  313 315  313 529  314 315  314 545  314 775  315 528  315 529  315 544  315 545  316 317  316 318  316 348  316 711  316 814  317 318  317 400  317 401  317 582  317 711  318 550  318 582  318 626  318 627  318 814  319 401  320 558  320 559  320 771  320 773  321 322  321 646  321 770  321 771  322 502  322 645  322 646  323 324  323 471  323 784  324 633  324 649  324 831  325 329  325 441  325 519  325 553  325 731  326 327  326 328  326 782  326 801  327 328  327 579  328 334  328 579  328 580  328 801  329 519  329 660  330 331  330 477  330 478  330 482  330 483  330 556  331 477  331 785  332 333  332 334  332 335  332 520  333 334  333 580  334 335  334 580  334 801  335 518  335 519  335 520  335 801  336 337  336 338  336 456  336 605  337 338  337 604  337 605  338 777  339 340  339 505  339 571  339 686  340 505  340 603  341 342  341 386  341 388  341 436  341 690  342 386  342 590  342 803  343 344  343 558  343 632  343 773  344 590  344 632  345 346  345 347  345 391  345 444  345 446  345 736  346 347  346 446  346 566  346 840  346 843  346 850  347 390  347 391  347 843  347 851  348 711  349 350  349 489  349 752  349 753  350 488  350 489  350 858  351 352  351 752  351 753  351 853  352 853  353 354  353 443  353 452  353 719  354 443  354 734  355 356  355 357  355 479  355 480  355 607  356 357  356 607  356 675  356 734  356 838  357 480  357 606  357 675  358 359  358 586  359 424  359 591  359 826  360 361  360 362  360 474  360 545  360 546  360 684  361 362  361 365  361 684  361 685  361 723  362 363  362 365  362 474  363 364  363 365  363 474  363 543  363 650  364 365  364 649  364 650  364 831  365 723  366 367  366 471  366 636  366 784  367 634  367 636  368 369  368 370  369 370  371 372  371 764  371 859  372 610  372 740  372 764  373 374  373 501  373 503  373 692  373 693  374 465  374 693  375 376  375 377  375 450  375 451  375 634  375 769  375 847  376 377  376 634  376 635  377 450  377 514  377 833  378 379  378 380  378 623  378 733  378 834  379 380  379 449  379 733  380 449  380 450  380 515  380 833  380 834  381 382  381 383  381 629  382 383  382 387  382 388  382 433  383 433  384 385  384 756  385 426  385 576  385 622  385 756  386 690  386 803  387 388  387 435  388 433  388 435  388 436  389 390  389 391  389 445  389 608  389 698  390 391  390 698  390 851  391 444  391 445  392 393  392 609  392 697  393 871  394 395  394 516  394 823  394 856  395 567  395 568  395 823  396 517  397 398  397 399  397 631  397 821  397 822  398 399  398 560  398 562  398 822  399 562  400 401  400 711  400 754  401 582  402 403  402 404  402 619  403 404  403 625  405 619  406 407  406 408  406 774  407 408  407 620  407 726  407 727  407 777  408 620  409 410  409 563  410 565  411 794  411 824  412 413  412 645  412 742  412 797  412 827  413 493  413 797  414 415  414 416  414 595  414 712  414 713  415 416  415 592  415 593  415 594  415 595  415 597  415 800  416 596  416 712  416 800  417 418  417 419  417 420  417 460  417 672  417 869  418 419  418 420  418 597  418 747  419 460  419 596  419 597  419 800  420 421  420 672  420 832  421 422  421 423  421 672  421 832  422 423  422 473  422 585  422 672  423 585  423 673  424 591  424 663  424 664  425 426  425 427  425 485  425 486  425 487  426 427  426 576  427 486  427 663  428 521  428 522  428 523  428 757  429 430  429 456  429 457  430 457  430 504  430 792  431 432  431 475  431 543  431 649  431 650  431 799  432 475  432 708  432 709  433 722  434 435  434 436  434 690  434 768  435 436  436 690  437 460  437 461  437 618  437 869  438 439  438 440  438 470  439 440  439 799  440 467  440 470  441 442  441 519  441 520  441 553  441 781  442 520  443 452  443 675  443 734  444 445  444 736  444 839  445 574  445 608  445 839  446 736  447 448  447 581  447 587  448 537  448 586  448 587  449 450  449 451  450 451  450 833  451 847  452 453  452 454  452 606  452 674  452 675  452 719  453 454  453 548  453 621  453 674  453 735  454 621  454 719  455 643  456 457  458 459  458 654  458 787  459 496  459 787  460 461  460 596  460 869  461 596  461 617  461 618  461 712  462 463  462 618  462 679  463 467  463 678  463 679  464 465  464 830  465 466  465 693  465 830  467 468  467 469  467 470  467 678  468 469  468 470  469 499  469 678  471 784  472 473  472 813  473 585  474 543  475 633  475 649  475 708  476 510  477 478  477 524  477 526  477 535  477 785  478 483  478 526  478 589  478 683  479 480  479 607  480 481  481 496  481 787  482 483  482 484  482 555  482 556  482 725  483 484  483 532  483 589  484 532  484 533  485 487  485 577  485 812  486 487  486 637  486 663  486 844  487 577  487 578  487 637  488 489  488 858  489 751  489 752  490 491  490 492  490 842  491 492  491 523  491 805  492 522  492 523  492 842  493 494  493 774  493 797  494 774  495 496  495 497  495 642  495 750  496 787  497 498  497 640  497 642  497 665  498 665  499 500  499 678  499 680  499 681  500 678  500 852  501 502  501 503  501 692  501 694  501 695  502 503  502 694  504 641  504 644  504 689  504 792  505 603  505 604  505 686  506 507  506 569  506 570  506 825  507 651  507 714  508 780  508 853  508 854  509 510  509 656  509 657  509 661  509 730  510 512  510 661  511 661  511 662  511 704  511 706  511 811  512 661  512 720  513 514  513 515  513 516  513 624  513 823  514 515  514 516  514 833  515 623  515 624  515 833  515 834  516 823  518 519  518 659  518 660  518 801  519 520  519 660  521 671  521 757  521 796  522 523  523 757  523 805  523 806  524 525  524 526  524 534  524 535  524 536  525 526  525 536  525 790  525 865  526 683  527 528  527 529  527 717  527 802  528 529  528 544  528 715  528 717  528 793  530 531  530 533  531 601  531 749  531 794  531 824  532 533  532 588  532 589  534 535  534 536  534 541  534 720  534 809  535 720  535 785  536 790  536 791  536 809  537 587  537 783  538 577  538 668  538 766  538 767  538 862  539 540  539 541  539 791  539 809  540 541  540 810  541 809  542 738  542 739  542 763  543 650  543 799  544 545  544 546  544 598  544 599  544 793  545 546  545 684  545 775  546 598  547 637  547 776  547 844  547 845  548 621  548 622  548 756  548 786  549 780  549 857  550 551  550 582  550 626  551 583  551 626  551 721  552 841  553 731  553 732  553 781  554 555  554 556  554 731  555 556  555 725  555 731  555 732  557 558  557 559  557 632  557 645  557 646  558 559  558 632  558 773  559 646  559 771  560 561  560 562  560 822  561 562  561 666  561 667  562 625  562 667  563 566  563 840  564 565  564 842  566 840  567 568  567 624  567 823  568 819  569 570  570 687  570 825  571 572  571 687  572 687  573 574  573 575  573 651  573 707  574 575  574 608  574 707  574 839  576 622  577 578  577 668  577 812  578 637  578 845  579 580  579 581  580 581  583 721  583 722  584 743  584 856  585 673  585 836  588 589  588 682  588 683  588 796  589 683  591 663  592 593  592 594  593 597  593 747  594 595  594 754  594 755  595 754  596 712  596 800  597 747  597 800  598 599  598 600  599 600  599 715  599 793  601 653  601 749  602 748  602 749  602 794  603 604  603 605  604 605  606 674  606 675  607 838  608 707  609 697  609 698  610 740  611 612  611 745  611 746  611 858  612 702  612 746  613 614  613 615  613 616  613 710  614 615  614 710  615 616  615 808  616 808  617 618  617 679  617 712  617 807  618 679  620 777  621 622  621 719  622 756  623 624  623 834  624 823  625 667  626 627  627 814  628 629  628 630  628 857  629 630  630 857  631 821  633 649  633 708  634 635  634 636  634 769  635 636  637 844  637 845  638 639  638 692  639 726  640 641  640 642  640 665  640 688  640 689  641 642  641 643  641 644  641 689  641 750  642 750  643 644  643 750  645 646  645 827  646 771  647 648  647 699  647 703  648 699  648 700  648 820  648 868  649 650  649 831  651 707  651 714  651 795  652 653  652 654  652 737  652 748  652 749  652 798  653 654  653 749  654 798  655 656  655 657  655 676  655 728  656 657  656 661  656 662  656 676  657 728  657 730  658 659  658 660  658 730  658 778  659 660  659 778  659 779  659 782  659 801  661 662  662 676  662 677  662 706  663 664  663 844  664 844  665 688  666 667  666 820  666 868  667 820  668 812  669 670  669 671  669 757  669 806  670 671  670 804  670 870  671 682  671 757  671 796  671 804  672 869  673 836  674 735  675 734  676 677  677 705  677 706  677 835  678 679  678 852  679 807  679 852  680 681  680 770  680 771  681 770  682 683  682 796  684 685  684 775  685 723  685 775  687 825  688 689  690 767  690 768  691 741  691 803  692 695  694 695  696 697  696 698  696 851  697 698  698 851  699 700  699 703  700 701  700 868  701 868  702 703  702 746  702 837  704 705  704 706  704 811  705 706  705 835  708 709  709 813  711 754  711 755  712 713  712 807  713 807  714 795  714 871  715 716  715 717  715 718  715 793  716 717  716 718  716 758  716 759  716 802  717 802  718 830  720 785  721 722  723 724  726 727  726 777  728 729  728 730  729 730  729 778  729 779  730 778  731 732  732 781  736 737  737 748  737 798  738 739  738 740  738 763  738 863  738 864  739 740  739 764  739 861  740 764  741 742  743 815  743 821  744 815  744 817  744 819  745 746  745 761  746 761  746 837  748 749  749 794  751 752  751 860  752 753  752 853  752 860  754 755  756 786  757 806  758 759  758 760  758 802  759 760  761 837  761 867  762 763  763 863  764 859  764 861  765 859  766 767  766 768  766 862  767 768  769 847  769 848  770 771  776 845  776 846  778 779  779 782  780 854  782 801  783 841  788 789  788 866  789 828  790 791  790 865  791 809  794 824  795 871  797 827  804 870  805 806  807 852  810 811  815 817  815 818  815 821  816 817  816 818  816 821  816 822  817 818  817 819  818 821  820 868  821 822  829 839  837 867  840 850  843 850  843 851  845 846  847 848  848 849  853 854  853 860  854 860  859 861  863 864  865 870  </DataArray>
<DataArray  type="UInt32"  Name="offsets"  format="ascii">2 4 6 8 10 12 14 16 18 20 22 24 26 28 30 32 34 36 38 40 42 44 46 48 50 52 54 56 58 60 62 64 66 68 70 72 74 76 78 80 82 84 86 88 90 92 94 96 98 100 102 104 106 108 110 112 114 116 118 120 122 124 126 128 130 132 134 136 138 140 142 144 146 148 150 152 154 156 158 160 162 164 166 168 170 172 174 176 178 180 182 184 186 188 190 192 194 196 198 200 202 204 206 208 210 212 214 216 218 220 222 224 226 228 230 232 234 236 238 240 242 244 246 248 250 252 254 256 258 260 262 264 266 268 270 272 274 276 278 280 282 284 286 288 290 292 294 296 298 300 302 304 306 308 310 312 314 316 318 320 322 324 326 328 330 332 334 336 338 340 342 344 346 348 350 352 354 356 358 360 362 364 366 368 370 372 374 376 378 380 382 384 386 388 390 392 394 396 398 400 402 404 406 408 410 412 414 416 418 420 422 424 426 428 430 432 434 436 438 440 442 444 446 448 450 452 454 456 458 460 462 464 466 468 470 472 474 476 478 480 482 484 486 488 490 492 494 496 498 500 502 504 506 508 510 512 514 516 518 520 522 524 526 528 530 532 534 536 538 540 542 544 546 548 550 552 554 556 558 560 562 564 566 568 570 572 574 576 578 580 582 584 586 588 590 592 594 596 598 600 602 604 606 608 610 612 614 616 618 620 622 624 626 628 630 632 634 636 638 640 642 644 646 648 650 652 654 656 658 660 662 664 666 668 670 672 674 676 678 680 682 684 686 688 690 692 694 696 698 700 702 704 706 708 710 712 714 716 718 720 722 724 726 728 730 732 734 736 738 740 742 744 746 748 750 752 754 756 758 760 762 764 766 768 770 772 774 776 778 780 782 784 786 788 790 792 794 796 798 800 802 804 806 808 810 812 814 816 818 820 822 824 826 828 830 832 834 836 838 840 842 844 846 848 850 852 854 856 858 860 862 864 866 868 870 872 874 876 878 880 882 884 886 888 890 892 894 896 898 900 902 904 906 908 910 912 914 916 918 920 922 924 926 928 930 932 934 936 938 940 942 944 946 948 950 952 954 956 958 960 962 964 966 968 970 972 974 976 978 980 982 984 986 988 990 992 994 996 998 1000 1002 1004 1006 1008 1010 1012 1014 1016 1018 1020 1022 1024 1026 1028 1030 1032 1034 1036 1038 1040 1042 1044 1046 1048 1050 1052 1054 1056 1058 1060 1062 1064 1066 1068 1070 1072 1074 1076 1078 1080 1082 1084 1086 1088 1090 1092 1094 1096 1098 1100 1102 1104 1106 1108 1110 1112 1114 1116 1118 1120 1122 1124 1126 1128 1130 1132 1134 1136 1138 1140 1142 1144 1146 1148 1150 1152 1154 1156 1158 1160 1162 1164 1166 1168 1170 1172 1174 1176 1178 1180 1182 1184 1186 1188 1190 1192 1194 1196 1198 1200 1202 1204 1206 1208 1210 1212 1214 1216 1218 1220 1222 1224 1226 1228 1230 1232 1234 1236 1238 1240 1242 1244 1246 1248 1250 1252 1254 1256 1258 1260 1262 1264 1266 1268 1270 1272 1274 1276 1278 1280 1282 1284 1286 1288 1290 1292 1294 1296 1298 1300 1302 1304 1306 1308 1310 1312 1314 1316 1318 1320 1322 1324 1326 1328 1330 1332 1334 1336 1338 1340 1342 1344 1346 1348 1350 1352 1354 1356 1358 1360 1362 1364 1366 1368 1370 1372 1374 1376 1378 1380 1382 1384 1386 1388 1390 1392 1394 1396 1398 1400 1402 1404 1406 1408 1410 1412 1414 1416 1418 1420 1422 1424 1426 1428 1430 1432 1434 1436 1438 1440 1442 1444 1446 1448 1450 1452 1454 1456 1458 1460 1462 1464 1466 1468 1470 1472 1474 1476 1478 1480 1482 1484 1486 1488 1490 1492 1494 1496 1498 1500 1502 1504 1506 1508 1510 1512 1514 1516 1518 1520 1522 1524 1526 1528 1530 1532 1534 1536 1538 1540 1542 1544 1546 1548 1550 1552 1554 1556 1558 1560 1562 1564 1566 1568 1570 1572 1574 1576 1578 1580 1582 1584 1586 1588 1590 1592 1594 1596 1598 1600 1602 1604 1606 1608 1610 1612 1614 1616 1618 1620 1622 1624 1626 1628 1630 1632 1634 1636 1638 1640 1642 1644 1646 1648 1650 1652 1654 1656 1658 1660 1662 1664 1666 1668 1670 1672 1674 1676 1678 1680 1682 1684 1686 1688 1690 1692 1694 1696 1698 1700 1702 1704 1706 1708 1710 1712 1714 1716 1718 1720 1722 1724 1726 1728 1730 1732 1734 1736 1738 1740 1742 1744 1746 1748 1750 1752 1754 1756 1758 1760 1762 1764 1766 1768 1770 1772 1774 1776 1778 1780 1782 1784 1786 1788 1790 1792 1794 1796 1798 1800 1802 1804 1806 1808 1810 1812 1814 1816 1818 1820 1822 1824 1826 1828 1830 1832 1834 1836 1838 1840 1842 1844 1846 1848 1850 1852 1854 1856 1858 1860 1862 1864 1866 1868 1870 1872 1874 1876 1878 1880 1882 1884 1886 1888 1890 1892 1894 1896 1898 1900 1902 1904 1906 1908 1910 1912 1914 1916 1918 1920 1922 1924 1926 1928 1930 1932 1934 1936 1938 1940 1942 1944 1946 1948 1950 1952 1954 1956 1958 1960 1962 1964 1966 1968 1970 1972 1974 1976 1978 1980 1982 1984 1986 1988 1990 1992 1994 1996 1998 2000 2002 2004 2006 2008 2010 2012 2014 2016 2018 2020 2022 2024 2026 2028 2030 2032 2034 2036 2038 2040 2042 2044 2046 2048 2050 2052 2054 2056 2058 2060 2062 2064 2066 2068 2070 2072 2074 2076 2078 2080 2082 2084 2086 2088 2090 2092 2094 2096 2098 2100 2102 2104 2106 2108 2110 2112 2114 2116 2118 2120 2122 2124 2126 2128 2130 2132 2134 2136 2138 2140 2142 2144 2146 2148 2150 2152 2154 2156 2158 2160 2162 2164 2166 2168 2170 2172 2174 2176 2178 2180 2182 2184 2186 2188 2190 2192 2194 2196 2198 2200 2202 2204 2206 2208 2210 2212 2214 2216 2218 2220 2222 2224 2226 2228 2230 2232 2234 2236 2238 2240 2242 2244 2246 2248 2250 2252 2254 2256 2258 2260 2262 2264 2266 2268 2270 2272 2274 2276 2278 2280 2282 2284 2286 2288 2290 2292 2294 2296 2298 2300 2302 2304 2306 2308 2310 2312 2314 2316 2318 2320 2322 2324 2326 2328 2330 2332 2334 2336 2338 2340 2342 2344 2346 2348 2350 2352 2354 2356 2358 2360 2362 2364 2366 2368 2370 2372 2374 2376 2378 2380 2382 2384 2386 2388 2390 2392 2394 2396 2398 2400 2402 2404 2406 2408 2410 2412 2414 2416 2418 2420 2422 2424 2426 2428 2430 2432 2434 2436 2438 2440 2442 2444 2446 2448 2450 2452 2454 2456 2458 2460 2462 2464 2466 2468 2470 2472 2474 2476 2478 2480 2482 2484 2486 2488 2490 2492 2494 2496 2498 2500 2502 2504 2506 2508 2510 2512 2514 2516 2518 2520 2522 2524 2526 2528 2530 2532 2534 2536 2538 2540 2542 2544 2546 2548 2550 2552 2554 2556 2558 2560 2562 2564 2566 2568 2570 2572 2574 2576 2578 2580 2582 2584 2586 2588 2590 2592 2594 2596 2598 2600 2602 2604 2606 2608 2610 2612 2614 2616 2618 2620 2622 2624 2626 2628 2630 2632 2634 2636 2638 2640 2642 2644 2646 2648 2650 2652 2654 2656 2658 2660 2662 2664 2666 2668 2670 2672 2674 2676 2678 2680 2682 2684 2686 2688 2690 2692 2694 2696 2698 2700 2702 2704 2706 2708 2710 2712 2714 2716 2718 2720 2722 2724 2726 2728 2730 2732 2734 2736 2738 2740 2742 2744 2746 2748 2750 2752 2754 2756 2758 2760 2762 2764 2766 2768 2770 2772 2774 2776 2778 2780 2782 2784 2786 2788 2790 2792 2794 2796 2798 2800 2802 2804 2806 2808 2810 2812 2814 2816 2818 2820 2822 2824 2826 2828 2830 2832 2834 2836 2838 2840 2842 2844 2846 2848 2850 2852 2854 2856 2858 2860 2862 2864 2866 2868 2870 2872 2874 2876 2878 2880 2882 2884 2886 2888 2890 2892 2894 2896 2898 2900 2902 2904 2906 2908 2910 2912 2914 2916 2918 2920 2922 2924 2926 2928 2930 2932 2934 2936 2938 2940 2942 2944 2946 2948 2950 2952 2954 2956 2958 2960 2962 2964 2966 2968 2970 2972 2974 2976 2978 2980 2982 2984 2986 2988 2990 2992 2994 2996 2998 3000 3002 3004 3006 3008 3010 3012 3014 3016 3018 3020 3022 3024 3026 3028 3030 3032 3034 3036 3038 3040 3042 3044 3046 3048 3050 3052 3054 3056 3058 3060 3062 3064 3066 3068 3070 3072 3074 3076 3078 3080 3082 3084 3086 3088 3090 3092 3094 3096 3098 3100 3102 3104 3106 3108 3110 3112 3114 3116 3118 3120 3122 3124 3126 3128 3130 3132 3134 3136 3138 3140 3142 3144 3146 3148 3150 3152 3154 3156 3158 3160 3162 3164 3166 3168 3170 3172 3174 3176 3178 3180 3182 3184 3186 3188 3190 3192 3194 3196 3198 3200 3202 3204 3206 3208 3210 3212 3214 3216 3218 3220 3222 3224 3226 3228 3230 3232 3234 3236 3238 3240 3242 3244 3246 3248 3250 3252 3254 3256 3258 3260 3262 3264 3266 3268 3270 3272 3274 3276 3278 3280 3282 3284 3286 3288 3290 3292 3294 3296 3298 3300 3302 3304 3306 3308 3310 3312 3314 3316 3318 3320 3322 3324 3326 3328 3330 3332 3334 3336 3338 3340 3342 3344 3346 3348 3350 3352 3354 3356 3358 3360 3362 3364 3366 3368 3370 3372 3374 3376 3378 3380 3382 3384 3386 3388 3390 3392 3394 3396 3398 3400 3402 3404 3406 3408 3410 3412 3414 3416 3418 3420 3422 3424 3426 3428 3430 3432 3434 3436 3438 3440 3442 3444 3446 3448 3450 3452 3454 3456 3458 3460 3462 3464 3466 3468 3470 3472 3474 3476 3478 3480 3482 3484 3486 3488 3490 3492 3494 3496 3498 3500 3502 3504 3506 3508 3510 3512 3514 3516 3518 3520 3522 3524 3526 3528 3530 3532 3534 3536 3538 3540 3542 3544 3546 3548 3550 3552 3554 3556 3558 3560 3562 3564 3566 3568 3570 3572 3574 3576 3578 3580 3582 3584 3586 3588 3590 3592 3594 3596 3598 3600 3602 3604 3606 3608 3610 3612 3614 3616 3618 3620 3622 3624 3626 3628 3630 3632 3634 3636 3638 3640 3642 3644 3646 3648 3650 3652 3654 3656 3658 3660 3662 3664 3666 3668 3670 3672 3674 3676 3678 3680 3682 3684 3686 3688 3690 3692 3694 3696 3698 3700 3702 3704 3706 3708 3710 3712 3714 3716 3718 3720 3722 3724 3726 3728 3730 3732 3734 3736 3738 3740 3742 3744 3746 3748 3750 3752 3754 3756 3758 3760 3762 3764 3766 3768 3770 3772 3774 3776 3778 3780 3782 3784 3786 3788 3790 3792 3794 3796 3798 3800 3802 3804 3806 3808 3810 3812 3814 3816 3818 3820 3822 3824 3826 3828 3830 3832 3834 3836 3838 3840 3842 3844 3846 3848 3850 3852 3854 3856 3858 3860 3862 3864 3866 3868 3870 3872 3874 3876 3878 3880 3882 3884 3886 3888 3890 3892 3894 3896 3898 3900 3902 3904 3906 3908 3910 3912 3914 3916 3918 3920 3922 3924 3926 3928 3930 3932 3934 3936 3938 3940 3942 3944 3946 3948 3950 3952 3954 3956 3958 3960 3962 3964 3966 3968 3970 3972 3974 3976 3978 3980 3982 3984 3986 3988 3990 3992 3994 3996 3998 4000 4002 4004 4006 4008 4010 4012 4014 4016 4018 4020 4022 4024 4026 4028 4030 4032 4034 4036 4038 4040 4042 4044 4046 4048 4050 4052 4054 4056 4058 4060 4062 4064 4066 4068 4070 4072 4074 4076 4078 4080 4082 4084 4086 4088 4090 4092 4094 4096 4098 4100 4102 4104 4106 4108 4110 4112 4114 4116 4118 4120 4122 4124 4126 4128 4130 4132 4134 4136 4138 4140 4142 4144 4146 4148 4150 4152 4154 4156 4158 4160 4162 4164 4166 4168 4170 4172 4174 4176 4178 4180 4182 4184 4186 4188 4190 4192 4194 4196 4198 4200 4202 4204 4206 4208 4210 4212 4214 4216 4218 4220 4222 4224 4226 4228 4230 4232 4234 4236 4238 4240 4242 4244 4246 4248 4250 4252 4254 4256 4258 4260 4262 4264 4266 4268 4270 4272 4274 4276 4278 4280 4282 4284 4286 4288 4290 4292 4294 4296 4298 4300 4302 4304 4306 4308 4310 4312 4314 4316 4318 4320 4322 4324 4326 4328 4330 4332 4334 4336 4338 4340 4342 4344 4346 4348 4350 4352 4354 4356 4358 4360 4362 4364 4366 4368 4370 4372 4374 4376 4378 4380 4382 4384 4386 4388 4390 4392 4394 4396 4398 4400 4402 4404 4406 4408 4410 4412 4414 4416 4418 4420 4422 4424 4426 4428 4430 4432 4434 4436 4438 4440 4442 4444 4446 4448 4450 4452 4454 4456 4458 4460 4462 4464 4466 4468 4470 4472 4474 4476 4478 4480 4482 4484 4486 4488 4490 4492 4494 4496 4498 4500 4502 4504 4506 4508 4510 4512 4514 4516 4518 4520 4522 4524 4526 4528 4530 4532 4534 4536 4538 4540 4542 4544 4546 4548 4550 4552 4554 4556 4558 4560 4562 4564 4566 4568 4570 4572 4574 4576 4578 4580 4582 4584 4586 4588 4590 4592 4594 4596 4598 4600 4602 4604 4606 4608 4610 4612 4614 4616 4618 4620 4622 4624 4626 4628 4630 4632 4634 4636 4638 4640 4642 4644 4646 4648 4650 4652 4654 4656 4658 4660 4662 4664 4666 4668 4670 4672 4674 4676 4678 4680 4682 4684 4686 4688 4690 4692 4694 4696 4698 4700 4702 4704 4706 4708 4710 4712 4714 4716 4718 4720 4722 4724 4726 4728 4730 4732 4734 4736 4738 4740 4742 4744 4746 4748 4750 4752 4754 4756 4758 4760 4762 4764 4766 4768 4770 4772 4774 4776 4778 4780 4782 4784 4786 4788 4790 4792 4794 4796 4798 4800 4802 4804 4806 4808 4810 4812 4814 4816 4818 4820 4822 4824 4826 4828 4830 4832 4834 4836 4838 4840 4842 4844 4846 4848 4850 4852 4854 4856 4858 4860 4862 4864 4866 4868 4870 4872 4874 4876 4878 4880 4882 4884 4886 4888 4890 4892 4894 4896 4898 4900 4902 4904 4906 4908 4910 4912 4914 4916 4918 4920 4922 4924 4926 4928 4930 4932 4934 4936 4938 4940 4942 4944 4946 4948 4950 4952 4954 4956 4958 4960 4962 4964 4966 </DataArray>
<DataArray  type="UInt8"  Name="types"  format="ascii">3 3 3 3 3 3 3 3 3 3 3 3 3 3 3 3 3 3 3 3 3 3 3 3 3 3 3 3 3 3 3 3 3 3 3 3 3 3 3 3 3 3 3 3 3 3 3 3 3 3 3 3 3 3 3 3 3 3 3 3 3 3 3 3 3 3 3 3 3 3 3 3 3 3 3 3 3 3 3 3 3 3 3 3 3 3 3 3 3 3 3 3 3 3 3 3 3 3 3 3 3 3 3 3 3 3 3 3 3 3 3 3 3 3 3 3 3 3 3 3 3 3 3 3 3 3 3 3 3 3 3 3 3 3 3 3 3 3 3 3 3 3 3 3 3 3 3 3 3 3 3 3 3 3 3 3 3 3 3 3 3 3 3 3 3 3 3 3 3 3 3 3 3 3 3 3 3 3 3 3 3 3 3 3 3 3 3 3 3 3 3 3 3 3 3 3 3 3 3 3 3 3 3 3 3 3 3 3 3 3 3 3 3 3 3 3 3 3 3 3 3 3 3 3 3 3 3 3 3 3 3 3 3 3 3 3 3 3 3 3 3 3 3 3 3 3 3 3 3 3 3 3 3 3 3 3 3 3 3 3 3 3 3 3 3 3 3 3 3 3 3 3 3 3 3 3 3 3 3 3 3 3 3 3 3 3 3 3 3 3 3 3 3 3 3 3 3 3 3 3 3 3 3 3 3 3 3 3 3 3 3 3 3 3 3 3 3 3 3 3 3 3 3 3 3 3 3 3 3 3 3 3 3 3 3 3 3 3 3 3 3 3 3 3 3 3 3 3 3 3 3 3 3 3 3 3 3 3 3 3 3 3 3 3 3 3 3 3 3 3 3 3 3 3 3 3 3 3 3 3 3 3 3 3 3 3 3 3 3 3 3 3 3 3 3 3 3 3 3 3 3 3 3 3 3 3 3 3 3 3 3 3 3 3 3 3 3 3 3 3 3 3 3 3 3 3 3 3 3 3 3 3 3 3 3 3 3 3 3 3 3 3 3 3 3 3 3 3 3 3 3 3 3 3 3 3 3 3 3 3 3 3 3 3 3 3 3 3 3 3 3 3 3 3 3 3 3 3 3 3 3 3 3 3 3 3 3 3 3 3 3 3 3 3 3 3 3 3 3 3 3 3 3 3 3 3 3 3 3 3 3 3 3 3 3 3 3 3 3 3 3 3 3 3 3 3 3 3 3 3 3 3 3 3 3 3 3 3 3 3 3 3 3 3 3 3 3 3 3 3 3 3 3 3 3 3 3 3 3 3 3 3 3 3 3 3 3 3 3 3 3 3 3 3 3 3 3 3 3 3 3 3 3 3 3 3 3 3 3 3 3 3 3 3 3 3 3 3 3 3 3 3 3 3 3 3 3 3 3 3 3 3 3 3 3 3 3 3 3 3 3 3 3 3 3 3 3 3 3 3 3 3 3 3 3 3 3 3 3 3 3 3 3 3 3 3 3 3 3 3 3 3 3 3 3 3 3 3 3 3 3 3 3 3 3 3 3 3 3 3 3 3 3 3 3 3 3 3 3 3 3 3 3 3 3 3 3 3 3 3 3 3 3 3 3 3 3 3 3 3 3 3 3 3 3 3 3 3 3 3 3 3 3 3 3 3 3 3 3 3 3 3 3 3 3 3 3 3 3 3 3 3 3 3 3 3 3 3 3 3 3 3 3 3 3 3 3 3 3 3 3 3 3 3 3 3 3 3 3 3 3 3 3 3 3 3 3 3 3 3 3 3 3 3 3 3 3 3 3 3 3 3 3 3 3 3 3 3 3 3 3 3 3 3 3 3 3 3 3 3 3 3 3 3 3 3 3 3 3 3 3 3 3 3 3 3 3 3 3 3 3 3 3 3 3 3 3 3 3 3 3 3 3 3 3 3 3 3 3 3 3 3 3 3 3 3 3 3 3 3 3 3 3 3 3 3 3 3 3 3 3 3 3 3 3 3 3 3 3 3 3 3 3 3 3 3 3 3 3 3 3 3 3 3 3 3 3 3 3 3 3 3 3 3 3 3 3 3 3 3 3 3 3 3 3 3 3 3 3 3 3 3 3 3 3 3 3 3 3 3 3 3 3 3 3 3 3 3 3 3 3 3 3 3 3 3 3 3 3 3 3 3 3 3 3 3 3 3 3 3 3 3 3 3 3 3 3 3 3 3 3 3 3 3 3 3 3 3 3 3 3 3 3 3 3 3 3 3 3 3 3 3 3 3 3 3 3 3 3 3 3 3 3 3 3 3 3 3 3 3 3 3 3 3 3 3 3 3 3 3 3 3 3 3 3 3 3 3 3 3 3 3 3 3 3 3 3 3 3 3 3 3 3 3 3 3 3 3 3 3 3 3 3 3 3 3 3 3 3 3 3 3 3 3 3 3 3 3 3 3 3 3 3 3 3 3 3 3 3 3 3 3 3 3 3 3 3 3 3 3 3 3 3 3 3 3 3 3 3 3 3 3 3 3 3 3 3 3 3 3 3 3 3 3 3 3 3 3 3 3 3 3 3 3 3 3 3 3 3 3 3 3 3 3 3 3 3 3 3 3 3 3 3 3 3 3 3 3 3 3 3 3 3 3 3 3 3 3 3 3 3 3 3 3 3 3 3 3 3 3 3 3 3 3 3 3 3 3 3 3 3 3 3 3 3 3 3 3 3 3 3 3 3 3 3 3 3 3 3 3 3 3 3 3 3 3 3 3 3 3 3 3 3 3 3 3 3 3 3 3 3 3 3 3 3 3 3 3 3 3 3 3 3 3 3 3 3 3 3 3 3 3 3 3 3 3 3 3 3 3 3 3 3 3 3 3 3 3 3 3 3 3 3 3 3 3 3 3 3 3 3 3 3 3 3 3 3 3 3 3 3 3 3 3 3 3 3 3 3 3 3 3 3 3 3 3 3 3 3 3 3 3 3 3 3 3 3 3 3 3 3 3 3 3 3 3 3 3 3 3 3 3 3 3 3 3 3 3 3 3 3 3 3 3 3 3 3 3 3 3 3 3 3 3 3 3 3 3 3 3 3 3 3 3 3 3 3 3 3 3 3 3 3 3 3 3 3 3 3 3 3 3 3 3 3 3 3 3 3 3 3 3 3 3 3 3 3 3 3 3 3 3 3 3 3 3 3 3 3 3 3 3 3 3 3 3 3 3 3 3 3 3 3 3 3 3 3 3 3 3 3 3 3 3 3 3 3 3 3 3 3 3 3 3 3 3 3 3 3 3 3 3 3 3 3 3 3 3 3 3 3 3 3 3 3 3 3 3 3 3 3 3 3 3 3 3 3 3 3 3 3 3 3 3 3 3 3 3 3 3 3 3 3 3 3 3 3 3 3 3 3 3 3 3 3 3 3 3 3 3 3 3 3 3 3 3 3 3 3 3 3 3 3 3 3 3 3 3 3 3 3 3 3 3 3 3 3 3 3 3 3 3 3 3 3 3 3 3 3 3 3 3 3 3 3 3 3 3 3 3 3 3 3 3 3 3 3 3 3 3 3 3 3 3 3 3 3 3 3 3 3 3 3 3 3 3 3 3 3 3 3 3 3 3 3 3 3 3 3 3 3 3 3 3 3 3 3 3 3 3 3 3 3 3 3 3 3 3 3 3 3 3 3 3 3 3 3 3 3 3 3 3 3 3 3 3 3 3 3 3 3 3 3 3 3 3 3 3 3 3 3 3 3 3 3 3 3 3 3 3 3 3 3 3 3 3 3 3 3 3 3 3 3 3 3 3 3 3 3 3 3 3 3 3 3 3 3 3 3 3 3 3 3 3 3 3 3 3 3 3 3 3 3 3 3 3 3 3 3 3 3 3 3 3 3 3 3 3 3 3 3 3 3 3 3 3 3 3 3 3 3 3 3 3 3 3 3 3 3 3 3 3 3 3 3 3 3 3 3 3 3 3 3 3 3 3 3 3 3 3 3 3 3 3 3 3 3 3 3 3 3 3 3 3 3 3 3 3 3 3 3 3 3 3 3 3 3 3 3 3 3 3 3 3 3 3 3 3 3 3 3 3 3 3 3 3 3 3 3 3 3 3 3 3 3 3 3 3 3 3 3 3 3 3 3 3 3 3 3 3 3 3 3 3 3 3 3 3 3 3 3 3 3 3 3 3 3 3 3 3 3 3 3 3 3 3 3 3 3 3 3 3 3 3 3 3 3 3 3 3 3 3 3 3 3 3 3 3 3 3 3 3 3 3 3 3 3 3 3 3 3 3 3 3 3 3 3 3 3 3 3 3 3 3 3 3 3 3 3 3 3 3 3 3 3 3 3 3 3 3 3 3 3 3 3 3 3 3 3 3 3 3 3 3 3 3 3 3 3 3 3 3 3 3 3 3 3 3 3 3 3 3 3 3 3 3 3 3 3 3 3 3 3 3 3 3 3 3 3 3 3 3 3 3 3 3 3 3 3 3 3 3 3 3 3 3 3 3 3 3 3 3 3 3 3 3 3 3 3 3 3 3 3 3 3 3 3 3 3 3 3 3 3 3 3 3 3 3 3 3 3 3 3 3 3 3 3 3 3 3 3 3 3 3 3 3 3 3 3 3 3 3 3 3 3 3 3 3 3 3 3 3 3 3 3 3 3 3 3 3 3 3 3 3 3 3 3 3 3 3 3 3 3 3 3 3 3 3 3 3 3 3 3 3 3 3 3 3 3 3 3 3 3 3 3 3 3 3 3 3 3 3 3 3 3 3 3 3 3 3 3 3 3 3 3 3 3 3 3 3 3 3 3 3 3 3 3 3 3 3 3 3 3 3 3 3 3 3 3 3 3 3 3 3 3 3 3 3 3 3 3 3 3 3 3 3 3 3 3 3 3 3 3 3 3 3 3 3 3 3 3 3 3 3 3 3 3 3 3 3 3 3 3 3 3 3 3 3 3 3 3 3 3 3 3 3 3 3 3 3 3 3 3 3 3 3 3 3 3 3 3 3 3 3 3 3 3 3 3 3 3 3 3 3 3 3 3 3 3 3 3 3 3 3 3 3 3 3 3 3 3 3 3 3 3 3 3 3 3 3 3 3 3 3 3 3 3 3 3 3 3 3 3 3 3 3 3 3 3 3 3 3 3 3 3 3 3 3 3 3 3 3 3 3 3 3 3 3 3 3 3 3 3 3 3 3 3 3 3 3 3 3 3 3 3 3 3 3 3 3 3 3 3 3 3 3 3 3 3 3 3 3 3 3 3 3 3 3 3 3 3 3 3 3 3 3 3 3 3 3 3 3 3 3 3 3 3 3 3 3 3 3 3 3 3 3 3 3 3 3 3 3 3 3 3 3 3 3 3 3 3 3 3 3 3 3 3 3 3 3 3 3 3 3 3 3 3 3 3 3 3 3 3 3 3 3 3 3 3 3 3 3 3 3 3 3 3 3 3 3 3 3 3 3 3 3 3 3 3 3 3 3 3 3 3 3 3 3 3 3 3 3 3 3 3 3 3 3 3 3 3 3 3 3 3 3 3 3 3 3 3 3 3 3 3 3 3 3 3 3 3 3 3 3 3 3 3 3 3 3 3 3 3 3 3 3 3 3 3 3 3 3 3 3 3 3 3 3 3 3 3 3 3 3 3 3 3 3 3 3 3 3 3 </DataArray>
</Cells>
<CellData  Scalars="f">
<DataArray  type="Float64"  Name="f"  format="ascii">3 0 0 3 0 0 3 0 0 0 0 0 0 0 0 0 0 0 0 0 0 0 0 0 0 0 0 0 0 0 0 0 0 0 0 0 0 0 0 0 0 0 3 3 0 0 0 0 0 0 0 0 0 0 0 0 0 0 0 0 0 0 0 1 1 0 0 0 0 0 0 0 0 0 0 0 0 0 0 0 0 0 0 0 0 0 0 0 0 0 0 0 0 0 0 0 0 0 0 0 0 0 0 0 0 0 0 0 0 0 0 0 0 0 0 0 0 0 0 0 0 0 0 0 0 0 0 0 0 0 0 0 0 0 0 0 0 0 0 0 0 0 0 0 0 0 0 0 0 0 0 0 0 0 0 0 0 0 0 0 0 0 0 0 0 0 0 0 0 0 0 0 0 0 0 0 0 0 0 0 0 0 0 0 0 0 0 0 0 0 0 0 0 0 0 0 0 0 0 0 0 0 0 0 0 0 0 0 0 0 0 0 0 0 0 0 0 0 0 0 0 0 0 0 0 0 0 0 0 0 0 0 0 0 0 0 0 0 0 0 0 0 0 0 0 0 0 0 0 0 0 0 0 0 0 0 0 0 0 0 0 0 0 0 0 0 0 0 0 0 0 0 0 0 0 0 0 0 0 0 0 0 0 0 0 0 0 0 0 0 0 0 0 0 0 0 0 0 0 0 0 0 0 0 0 0 0 0 0 0 0 0 0 0 0 0 0 0 0 0 0 0 0 0 0 0 0 0 0 0 0 0 0 0 0 0 0 0 0 0 0 0 0 0 0 0 0 0 0 0 0 0 0 0 0 0 0 0 0 0 0 0 0 0 0 0 0 0 0 0 0 0 0 0 0 0 0 0 0 0 0 0 0 0 0 0 0 0 0 0 0 0 0 0 0 0 0 0 0 0 0 0 0 0 0 0 0 0 0 0 0 0 0 0 0 0 0 0 0 0 0 0 0 0 0 0 0 0 0 0 0 0 0 0 0 0 0 0 0 0 0 0 0 0 0 0 0 0 0 0 0 0 0 0 0 0 0 0 0 0 0 0 0 0 0 0 0 0 0 0 0 0 0 0 0 0 0 0 0 0 0 0 0 0 0 0 0 0 0 0 0 0 0 0 0 0 0 0 0 0 0 0 0 0 0 0 0 0 0 0 0 0 0 0 0 0 0 0 0 0 0 0 0 0 0 0 0 0 0 0 0 0 0 0 0 0 0 0 0 0 0 0 0 0 0 0 0 0 0 0 0 0 0 0 0 0 0 0 0 0 0 0 0 0 0 0 0 0 0 0 0 0 0 0 0 0 0 0 0 0 0 0 0 0 0 0 0 0 0 0 0 0 0 0 0 0 0 0 0 0 0 0 0 0 0 0 0 0 0 0 0 0 0 0 0 0 0 0 0 0 0 0 0 0 0 0 0 0 0 0 0 0 0 0 0 0 0 0 0 0 0 0 0 0 0 0 0 0 0 0 0 0 0 0 0 0 0 0 0 0 0 0 0 0 0 0 0 0 0 0 0 0 1 0 1 0 0 0 0 0 0 0 0 0 0 0 0 0 0 0 0 0 0 0 0 0 0 0 0 0 0 0 0 0 0 0 0 0 0 0 0 0 0 0 0 0 0 0 0 0 0 0 0 0 0 0 0 0 0 0 0 0 0 0 0 0 0 0 0 0 0 0 0 0 0 0 0 0 0 0 0 1 1 0 0 0 0 0 0 0 0 0 0 0 0 0 0 0 0 0 0 0 0 0 0 0 0 0 0 0 0 0 0 0 0 0 0 0 0 0 0 0 0 0 0 0 0 0 0 0 0 0 0 0 0 0 0 0 0 0 0 0 0 0 0 0 0 0 0 0 0 0 0 0 0 0 0 0 0 0 0 0 0 0 0 0 0 0 0 0 0 0 0 0 0 0 0 0 0 0 0 0 0 0 0 0 0 0 0 0 0 0 0 0 0 0 0 0 0 0 0 0 0 0 0 0 0 0 0 0 0 0 0 0 0 0 0 0 0 0 0 0 0 0 0 0 0 0 0 0 0 0 0 0 0 0 0 0 0 0 0 0 0 0 0 0 0 0 0 0 0 0 0 0 0 0 0 0 0 0 0 0 0 0 0 0 0 0 0 0 0 0 0 0 0 0 0 0 0 0 0 0 0 0 0 0 0 0 0 0 0 0 0 0 0 0 0 0 0 0 0 0 0 0 0 0 0 0 0 0 0 0 0 0 0 0 0 0 0 0 0 0 0 0 0 0 0 0 0 0 0 0 0 0 0 0 0 0 0 0 0 0 0 0 0 0 0 0 0 0 0 0 0 0 0 0 0 0 0 0 0 0 0 0 0 0 0 0 0 0 0 0 0 0 0 0 0 0 0 0 0 0 0 0 0 0 0 1 0 1 0 0 0 0 0 0 0 0 0 0 0 0 0 0 0 0 0 0 0 0 0 0 0 0 0 0 0 0 0 0 0 0 0 0 0 0 0 0 0 0 0 0 0 0 0 0 0 0 0 0 0 0 0 0 0 0 0 0 0 0 0 0 0 0 0 0 0 0 0 0 0 0 0 0 0 0 0 0 0 0 0 0 0 2 2 0 0 0 0 0 0 0 0 0 0 0 0 0 0 0 0 0 0 0 0 0 0 0 0 0 0 0 0 0 0 0 0 0 0 0 0 0 0 0 0 0 0 0 0 0 0 0 0 0 0 0 0 0 0 0 0 0 0 0 0 0 0 0 0 0 0 0 0 0 0 0 0 0 0 0 0 0 0 0 0 0 0 0 0 0 0 0 0 0 0 0 0 0 0 0 0 0 0 0 0 0 0 0 0 0 0 0 0 0 0 0 0 0 0 0 0 0 1 1 0 0 0 0 0 0 0 0 0 0 0 0 0 0 0 0 0 0 0 0 0 0 0 0 0 0 0 0 0 0 0 0 0 0 0 0 0 0 0 0 0 0 0 0 0 0 0 0 0 0 0 0 0 0 0 0 0 0 0 0 0 0 0 0 0 0 0 0 0 0 0 0 0 0 0 0 0 0 0 0 0 0 0 0 0 0 0 0 0 0 0 0 0 0 0 0 0 0 0 0 0 0 0 0 0 0 0 1 0 1 0 0 1 0 0 0 0 0 0 0 0 0 0 0 0 0 0 0 0 0 0 0 0 0 0 0 0 0 0 0 0 0 0 0 0 0 0 0 0 0 0 0 0 0 0 3 0 4 0 0 3 0 0 0 0 0 0 0 0 0 0 0 0 0 0 0 0 0 0 0 0 0 0 0 0 0 0 0 0 0 0 0 0 0 0 0 0 0 0 0 0 0 0 0 0 0 0 0 0 0 0 0 0 0 0 0 0 0 0 0 0 0 0 0 0 0 0 0 0 0 0 0 0 0 0 0 0 0 0 0 0 0 0 0 0 0 0 0 0 0 0 0 0 0 0 0 0 0 0 0 0 0 0 0 0 0 0 0 0 0 0 0 0 0 0 0 0 0 0 0 0 0 0 0 0 0 0 0 0 0 0 0 0 0 0 0 0 0 0 1 0 0 0 0 0 0 0 0 0 0 0 0 0 0 0 0 0 0 0 0 0 0 0 0 0 0 0 0 0 0 0 0 0 0 1 1 0 0 0 0 0 2 0 2 0 2 0 0 0 0 0 0 0 0 0 0 0 0 2 0 0 0 0 0 0 0 0 0 0 0 0 0 1 0 1 1 0 0 0 0 0 0 0 2 0 0 0 0 0 0 0 0 0 0 0 0 0 0 0 0 0 0 0 0 0 0 0 0 0 0 0 0 0 1 1 1 0 0 0 0 0 0 0 0 0 0 0 0 0 0 0 0 0 0 0 0 0 0 0 0 0 0 0 0 0 0 0 0 0 0 0 0 0 0 0 0 0 0 0 0 0 0 0 0 0 0 0 0 0 0 0 0 0 0 0 0 0 0 0 0 0 0 0 0 0 0 0 0 0 0 0 0 0 0 0 0 0 0 0 2 0 0 2 0 0 0 0 0 0 0 0 0 0 0 0 0 0 0 0 0 0 0 0 0 0 0 0 0 0 0 0 0 0 3 3 0 0 0 0 1 0 0 1 0 0 0 0 0 0 0 0 0 0 0 0 0 0 0 0 0 0 0 0 0 0 0 0 0 0 0 0 0 0 0 0 0 0 0 0 0 0 0 0 0 0 0 0 0 0 0 0 0 0 0 0 0 0 0 0 0 0 0 0 0 0 0 0 0 0 0 0 0 0 0 0 0 0 0 0 0 0 0 0 0 0 0 0 0 0 0 0 0 2 2 2 0 0 0 1 0 0 0 0 0 0 0 0 0 0 0 0 0 0 0 0 0 0 0 0 0 0 0 0 0 0 0 0 0 0 0 0 0 0 0 0 0 0 0 0 1 1 0 0 0 1 0 0 0 0 0 0 0 0 0 0 0 0 0 0 0 0 0 0 0 0 0 0 0 0 0 0 0 0 0 0 0 0 0 0 0 0 0 0 0 0 0 0 0 0 0 0 0 0 0 0 0 0 0 0 1 0 1 0 0 0 0 0 0 0 0 0 0 0 0 0 0 0 0 0 0 0 0 0 0 0 0 3 3 0 0 0 0 0 0 0 0 0 0 0 0 0 0 0 0 0 0 0 0 0 0 0 0 0 0 0 0 0 0 0 0 0 0 2 2 0 0 0 0 0 0 3 0 0 0 0 0 0 0 0 0 0 0 0 0 0 0 0 0 0 0 0 0 0 0 0 0 0 0 0 0 1 1 1 0 0 0 0 0 0 0 0 0 0 0 0 0 0 0 0 0 0 0 0 0 0 0 0 0 0 3 0 0 0 0 0 0 0 0 0 0 0 0 0 0 0 0 0 0 0 0 0 0 0 0 0 0 0 0 0 0 0 0 0 0 0 0 0 0 0 0 0 0 0 0 0 0 2 0 2 0 0 0 0 0 0 0 0 0 0 0 0 0 0 0 0 0 0 0 0 0 0 0 0 0 0 2 0 2 0 0 0 0 0 0 0 0 0 0 0 0 0 0 0 0 0 0 0 0 0 0 0 0 0 0 0 0 0 0 0 0 0 0 0 0 0 0 0 0 0 0 0 0 0 0 0 0 0 0 0 0 0 4 4 0 0 0 0 0 0 0 0 0 0 0 0 0 0 0 0 0 0 0 0 0 0 0 0 0 0 0 0 0 0 0 0 0 0 0 0 0 0 0 0 0 0 0 4 0 0 4 0 0 0 0 0 0 0 0 0 0 0 0 1 1 0 0 0 0 0 0 0 0 1 0 1 0 0 0 0 0 0 0 0 0 0 0 0 0 0 0 0 0 0 0 0 0 0 0 1 0 0 0 0 0 0 0 0 0 0 0 0 0 1 0 0 4 0 0 0 4 0 0 0 0 0 0 0 0 0 0 0 0 0 0 0 0 0 0 0 0 0 0 2 0 0 0 0 0 2 0 0 0 0 0 0 0 1 1 0 0 2 1 1 0 0 0 0 2 3 0 0 0 0 0 3 0 4 2 0 3 0 1 0 0 0 0 0 0 0 0 0 0 0 0 0 0 0 0 0 0 0 0 0 0 0 0 0 1 1 1 0 1 1 0 0 2 0 1 0 </DataArray>
</CellData>
</Piece>
</UnstructuredGrid>
</VTKFile>