<?xml version="1.0"?>
<VTKFile type="UnstructuredGrid"  version="0.1"  >
<UnstructuredGrid>
<Piece  NumberOfPoints="20" NumberOfCells="41">
<Points>
<DataArray  type="Float64"  NumberOfComponents="3"  format="ascii">-0.35 0 0  -0.175 0 0  -0.14 -0.105 0  -0.6 -0.45 0  -0.8 -0.525 0  -0.8531436422747446 -0.3708499042442174 0  -0.3 -0.225 0  -0.675 0 0  -0.7508333333333334 -0.2438888888888889 0  -0.5624632686084142 -0.1687255124056095 0  -0.8375 0 0  -1 -0.3 0  -1 -0.15 0  -0.45 -0.3375 0  -0.5890755215265254 -0.3083159712979661 0  -1 -0.45 0  0 0 0  -1 0 0  -0.5125 0 0  -1 -0.6 0  </DataArray>
</Points>
<Cells>
<DataArray  type="UInt32"  Name="connectivity"  format="ascii">0 1  0 2  0 6  0 9  0 18  1 2  1 16  2 6  2 16  3 4  3 5  3 8  3 13  3 14  4 5  4 15  4 19  5 8  5 11  5 15  6 9  6 13  7 8  7 9  7 10  7 18  8 9  8 10  8 11  8 12  8 14  9 13  9 14  9 18  10 12  10 17  11 12  11 15  12 17  13 14  15 19  </DataArray>
<DataArray  type="UInt32"  Name="offsets"  format="ascii">2 4 6 8 10 12 14 16 18 20 22 24 26 28 30 32 34 36 38 40 42 44 46 48 50 52 54 56 58 60 62 64 66 68 70 72 74 76 78 80 82 </DataArray>
<DataArray  type="UInt8"  Name="types"  format="ascii">3 3 3 3 3 3 3 3 3 3 3 3 3 3 3 3 3 3 3 3 3 3 3 3 3 3 3 3 3 3 3 3 3 3 3 3 3 3 3 3 3 </DataArray>
</Cells>
<CellData  Scalars="f">
<DataArray  type="Float64"  Name="f"  format="ascii">0 0 0 0 0 0 0 0 0 0 0 0 0 0 0 0 0 0 0 0 0 0 0 0 0 0 0 0 0 0 0 0 0 0 0 0 1 1 1 0 1 </DataArray>
</CellData>
</Piece>
</UnstructuredGrid>
</VTKFile>