<?xml version="1.0"?>
<VTKFile type="UnstructuredGrid"  version="0.1"  >
<UnstructuredGrid>
<Piece  NumberOfPoints="17" NumberOfCells="32">
<Points>
<DataArray  type="Float64"  NumberOfComponents="3"  format="ascii">0.5 0.9 0  0.3 0.8 0  0.65 0.8 0  0.8 0.7 0  0.4969999999999993 0.4080000000000001 0  -1 0 0  -1 0.8 0  -0.675 0.8 0  1 0.65 0  1 0.325 0  -0.02499999999999999 0.8 0  -0.35 0 0  -0.35 0.8 0  0 0 0  0.3 0 0  0.6 0 0  1 0 0  </DataArray>
</Points>
<Cells>
<DataArray  type="UInt32"  Name="connectivity"  format="ascii">0 1  0 2  1 2  1 4  1 10  2 3  2 4  3 4  3 8  3 9  4 9  4 10  4 13  4 14  4 15  5 6  5 7  5 11  6 7  7 11  7 12  8 9  9 15  9 16  10 11  10 12  10 13  11 12  11 13  13 14  14 15  15 16  </DataArray>
<DataArray  type="UInt32"  Name="offsets"  format="ascii">2 4 6 8 10 12 14 16 18 20 22 24 26 28 30 32 34 36 38 40 42 44 46 48 50 52 54 56 58 60 62 64 </DataArray>
<DataArray  type="UInt8"  Name="types"  format="ascii">3 3 3 3 3 3 3 3 3 3 3 3 3 3 3 3 3 3 3 3 3 3 3 3 3 3 3 3 3 3 3 3 </DataArray>
</Cells>
<CellData  Scalars="f">
<DataArray  type="Float64"  Name="f"  format="ascii">0 0 0 0 0 0 0 0 0 0 0 0 0 0 0 1 0 0 0 0 0 2 0 2 0 0 0 0 0 0 0 0 </DataArray>
</CellData>
</Piece>
</UnstructuredGrid>
</VTKFile>