<?xml version="1.0"?>
<VTKFile type="UnstructuredGrid"  version="0.1"  >
<UnstructuredGrid>
<Piece  NumberOfPoints="760" NumberOfCells="2149">
<Points>
<DataArray  type="Float64"  NumberOfComponents="3"  format="ascii">-0.2187632635913395 -0.1197274572113031 0  -0.2420992643258716 -0.1039676402339583 0  -0.2229404364999481 -0.09837901446429116 0  -0.682031339806098 -0.1426937110461005 0  -0.6957834883799814 -0.1234140981348565 0  -0.6711385576494456 -0.1203793786585913 0  -0.04374999999999999 0 0  -0.06562499999999999 0 0  -0.05468749999999999 -0.01822916666666667 0  -0.7957601067742852 -0.1660183166030734 0  -0.7710784613814844 -0.1619560356539797 0  -0.7881097770494042 -0.1855495123613489 0  -0.8206326090545737 -0.2503418657053845 0  -0.8189622573279312 -0.2161338146370865 0  -0.7987877521474077 -0.2239820158229038 0  -0.7945164073979392 -0.4972556482725018 0  -0.775 -0.515625 0  -0.7685462482862856 -0.4948141712365716 0  -0.3843012946793431 -0.1596239724922465 0  -0.4037674941413986 -0.1499019382238751 0  -0.4007900988766187 -0.1682897427583597 0  -0.415839226766089 -0.2419784817616651 0  -0.4386454003060511 -0.2519630734916783 0  -0.4380834209438831 -0.2341368307792654 0  -0.5249999999999999 -0.39375 0  -0.5266787139086269 -0.3719804647884974 0  -0.5457911607102258 -0.3863288970964758 0  -0.4971803352977729 -0.1283697744011923 0  -0.481745656094904 -0.1027770013691841 0  -0.4733535966135839 -0.1293537295750969 0  -0.3781529137449485 -0.06938867383567243 0  -0.3966842328980004 -0.05675913548556744 0  -0.3935532682054458 -0.08264016784056764 0  -0.021875 0 0  -0.0175 -0.013125 0  -0.96009791892415 -0.1806451420375251 0  -0.9353446199550157 -0.1829442982893817 0  -0.9461567143641623 -0.1649503236574359 0  -0.796875 0 0  -0.7765625 -0.02521251807593234 0  -0.7765625 0 0  -0.9 -0.5625 0  -0.925 -0.571875 0  -0.9165694895141756 -0.5520798802822042 0  -0.8791384612718556 -0.4660474366083852 0  -0.8831830268379693 -0.4898777679725748 0  -0.9029304748173069 -0.4635074951169333 0  -0.663666392751131 -0.2291665482002191 0  -0.6522530700876759 -0.2506636440534434 0  -0.6347017578516359 -0.2407229346421111 0  -0.875 -0.553125 0  -0.8941563645712532 -0.5400621944766582 0  -0.6293055242891527 -0.4066231439060901 0  -0.6060014973853733 -0.422466753486169 0  -0.6293616632525453 -0.431766219991678 0  -0.626200437149898 -0.222431029024223 0  -0.6302833098178178 -0.194468860023453 0  -0.6475456158934225 -0.2112685642907954 0  -0.4420044329969804 -0.182064997052006 0  -0.4073690461363889 -0.1857165523090006 0  -0.422304613977571 -0.1612960621476923 0  -0.1398171030514314 -0.06878552926475814 0  -0.1592592911707413 -0.06848953666878489 0  -0.1399085515257157 -0.08689276463237908 0  -0.9039184540357521 -0.2607905196989798 0  -0.9186604272271901 -0.2348829232994982 0  -0.8990226578376268 -0.2408566612766062 0  -0.7360377654736432 -0.2798384971368409 0  -0.7596110966819999 -0.275484268229023 0  -0.7307699534538126 -0.2566509885220581 0  -0.7406714408295079 -0.4550844911213123 0  -0.7453357204147539 -0.4806672455606562 0  -0.7595019194208297 -0.4678934059937054 0  -0.6864084753639994 -0.3656717620277021 0  -0.7073985566727726 -0.376627768498965 0  -0.6901770723431226 -0.3842088155092774 0  -0.7310544972979223 -0.1209005724242505 0  -0.7109147248461555 -0.1416314181191543 0  -0.7372852080094801 -0.1471018332292795 0  -0.8171875 -0.02806362977260402 0  -0.8405374297205271 -0.03990556104861633 0  -0.8358566462816838 -0.02019346279581468 0  -0.7500564088601764 -0.2078105585481217 0  -0.7316326392057575 -0.2262548334675644 0  -0.732292629163584 -0.2084903086344998 0  -0.8531436422747446 -0.3708499042442174 0  -0.8550857905156872 -0.340707495369856 0  -0.8733937422859079 -0.3570208940316842 0  -0.6125086816066936 -0.043105222594299 0  -0.629347092098786 -0.06837557801104145 0  -0.6368277650122932 -0.04655390730713113 0  -0.5907525603166561 -0.2363059371572195 0  -0.5608537034797928 -0.2359640574305869 0  -0.5759448164802452 -0.2237440694212446 0  -0.6499999999999999 -0.46875 0  -0.6749999999999999 -0.478125 0  -0.676639596793573 -0.4466691566022976 0  -0.375 -0.28125 0  -0.35625 -0.2671875 0  -0.3753210435000509 -0.2612906919999322 0  -0.5667369173237452 -0.2066477425740934 0  -0.5509737644683507 -0.2184066783813476 0  -0.5086420338229576 -0.2853737628934712 0  -0.4924910621651237 -0.2715346698996556 0  -0.5207755276743981 -0.2645618759668373 0  -0.240625 -0.03751362538051938 0  -0.2207816256042484 -0.04882761684030585 0  -0.2345265035875622 -0.06150549355326255 0  -0.2231370666973468 -0.02257651092102432 0  -0.2515625 -0.01696668673033722 0  -0.2625 0 0  -0.240625 0 0  -0.3632090037694178 -0.1226636598503719 0  -0.3301504334160389 -0.1320844930120225 0  -0.3527846668257503 -0.1068860281945966 0  -0.553125 -0.05122667093224097 0  -0.5449763201142623 -0.07855496163149447 0  -0.5326815760492571 -0.04657818396993041 0  -0.4443698733329565 -0.06504910829438185 0  -0.4738011207928821 -0.08038919056710672 0  -0.4678667304001333 -0.05587160932266993 0  -0.8213057479895369 -0.2887996809863646 0  -0.8192133540183317 -0.3150532430378887 0  -0.7976869565068251 -0.2914363371197569 0  -0.109375 0 0  -0.1203125 -0.01822916666666666 0  -0.1005208333333333 -0.01875000000000002 0  -0.7772646522781539 -0.4748459230200257 0  -0.7837911028921611 -0.4576200114585853 0  -0.7156250000000001 -0.0695182654052698 0  -0.7156610307965954 -0.09751524680043329 0  -0.6998753476537202 -0.0845119355159408 0  -0.7205736171800851 -0.04130868623711632 0  -0.7410796338288166 -0.06678562350151826 0  -0.5564590941573435 -0.1046582632751309 0  -0.5847287578912107 -0.1061267376409391 0  -0.5699210524741896 -0.1183460183670247 0  -0.5899782108596082 -0.05508787105659315 0  -0.6075238117315632 -0.06806868909082413 0  -0.634375 0 0  -0.6546875000000001 -0.02488179347833597 0  -0.6546875000000001 0 0  -0.660033884932941 -0.332542802468046 0  -0.6744149146265856 -0.3106856249340798 0  -0.6837634575959015 -0.3407143760539474 0  -0.6737664187032143 -0.2620463017259361 0  -0.6943829825948257 -0.2738184558574202 0  -0.6776539764467501 -0.2875903922183495 0  -0.8 -0.525 0  -0.8250000000000001 -0.534375 0  -0.8215639398535898 -0.5055169937237608 0  -0.8055704620865703 -0.4802251486513588 0  -0.8269094547126157 -0.1505269867251854 0  -0.85546152138721 -0.1601756553007168 0  -0.8459906533933099 -0.1411320118727188 0  -0.6079174915928363 -0.08989057633649086 0  -0.6113658138563185 -0.1205936177774722 0  -0.2245160350344086 -0.1422234691231717 0  -0.2000603023973367 -0.1290862634702177 0  -0.18 -0.135 0  -0.2 -0.15 0  -0.2286166961817482 -0.07924596719832908 0  -0.2034623196315522 -0.06372082169306406 0  -0.8975864171518644 -0.3530180754309251 0  -0.8886000772514582 -0.3738160295273074 0  -0.8859883252818036 -0.225 0  -0.8630755220806727 -0.2035946624602363 0  -0.8680968688875086 -0.2262038880852971 0  -0.8641953059530534 -0.2657425217038483 0  -0.8470546304373953 -0.2852773389231349 0  -0.8435884501496581 -0.2547199931992922 0  -0.9574274625560812 -0.3130054015523741 0  -0.9330806111358305 -0.3292849070200272 0  -0.9541236352557356 -0.3344101023566 0  -0.9453886185350151 -0.3558612955296183 0  -0.9357370750679345 -0.3834015150268322 0  -0.9173552411817704 -0.3673390151721996 0  -0.5310726561657356 -0.3075281251123525 0  -0.5069951258498383 -0.3094735522490942 0  -0.647517381330535 -0.1127228675521234 0  -0.6600579833665103 -0.08615017133698104 0  -0.6694718372893891 -0.1020108358090093 0  -0.6574545968421016 -0.05688248843977383 0  -0.6849470853736866 -0.07053263360392842 0  -0.3595686904043893 -0.1492396599297822 0  -0.3386638008236986 -0.1512867758839313 0  -0.3552145208944937 -0.1757080726040532 0  -0.6013190760116596 -0.3942972326227799 0  -0.6240137688717298 -0.3728556555649431 0  -0.6420028917941935 -0.3135840706741934 0  -0.6164505596239115 -0.3265129632525454 0  -0.6387670241739257 -0.334715284703459 0  -0.725 -0.4968750000000001 0  -0.7226651029280299 -0.4730840282233461 0  -0.75 -0.5062500000000001 0  -0.7508333333333334 -0.2438888888888889 0  -0.7691552196967233 -0.255815739833464 0  -0.7287479573148252 -0.3663895712273555 0  -0.7360302604026066 -0.3861501120384039 0  -0.7456106592366962 -0.3590708351179995 0  -0.8877887394876834 -0.513606034123601 0  -0.9069639807909951 -0.4855523278065638 0  -0.9112761921327216 -0.5090799802368966 0  -0.8477476356366421 -0.3978220853561341 0  -0.837442399096393 -0.3795091726167471 0  -0.951601168627506 -0.4581258911520824 0  -0.9756204314622962 -0.4529899324977525 0  -0.9601381573102508 -0.4423731945275965 0  -0.035 -0.02625 0  -0.9505153634284966 -0.05330157397623098 0  -0.940738205669568 -0.08461289897874644 0  -0.9698354446223175 -0.07651654253207983 0  -1 -0.20625 0  -0.9759068898459576 -0.1999024866401009 0  -0.9821883681575894 -0.2179856015476257 0  -0.4344731247964966 -0.0417153450383002 0  -0.4254666631761547 -0.05930101053935245 0  -0.3462000113993955 -0.08915913409843274 0  -0.3339997920366929 -0.1090606409279065 0  -0.5326379546206251 -0.2796665517779161 0  -0.5046703962666598 -0.2540979786645964 0  -0.5308579725305023 -0.2482152337998362 0  -0.5145672910027492 -0.2369253431848886 0  -0.35 0 0  -0.3390625 -0.02329176915560561 0  -0.36015625 -0.01608210044007412 0  -0.9294445150253936 -0.2070938467560766 0  -0.9089626851690612 -0.1853947268312435 0  -0.9070306995981529 -0.2143827578723263 0  -0.5624632686084142 -0.1687255124056095 0  -0.5390161705225729 -0.1621156125380408 0  -0.568732452726605 -0.1488640246662042 0  -0.7568965851425766 -0.1115837421300308 0  -0.7812067543314446 -0.1142898386766428 0  -0.7741721476388027 -0.09665432245834196 0  -0.8328139164376284 -0.1848111012697755 0  -0.815507076033422 -0.1730091029618925 0  -0.9160790417394727 -0.5325123986181306 0  -0.9358531317631769 -0.5487230932311534 0  -0.8695850942460105 -0.5295439153439722 0  -0.7927474983340087 -0.0927232322588902 0  -0.8114940934280718 -0.1045833743774039 0  -0.8105958989288397 -0.07317521494370292 0  -0.8031334588938832 -0.1251308216368038 0  -0.8347899022801135 -0.1193216029658286 0  -0.5625 -0.421875 0  -0.5673356978500441 -0.3875716562011586 0  -0.54375 -0.4078125 0  -0.5806516973568117 -0.03133451082823092 0  -0.572047902779504 -0.04842036270463401 0  -0.7833906092663631 -0.2724517717507603 0  -0.7988151922371433 -0.2560127633577239 0  -0.8055687570003445 -0.1466785612141512 0  -0.7848598406409802 -0.1464975241832188 0  -0.8802295069358919 -0.1773472658405355 0  -0.8551411495328273 -0.1826089390140481 0  -0.8872609557406761 -0.2006718602008953 0  -0.5229087995453502 -0.3295532956282426 0  -0.6174560530270703 -0.3045285236812358 0  -0.5962542892856458 -0.3097947328238651 0  -0.447807962632534 -0.08891505161966762 0  -0.4291660591575041 -0.08251661527620895 0  -0.6972983356126594 -0.4228915437719262 0  -0.7183636162610506 -0.3976131219478058 0  -0.7241153159240338 -0.4320758643544379 0  -0.766884876684533 -0.4503052249165085 0  -0.7478459004873584 -0.4324611357907123 0  -0.7072210046573593 -0.4548373323301135 0  -0.8264804248249955 -0.08822771266796306 0  -0.8498357614131061 -0.0919180567217425 0  -0.8697052287409519 -0.09304706507684367 0  -0.8619342710591358 -0.07521388870089668 0  -0.6031592480995002 -0.2157838709440391 0  -0.5837346675254657 -0.1344170555771818 0  -0.59214108501288 -0.1633774829063702 0  -0.601166204455913 -0.1450574485052156 0  -0.2599950983111957 -0.1257088427630552 0  -0.2921979497410183 -0.1294149375554519 0  -0.2745635671787178 -0.1408819978116753 0  -0.7562500000000001 0 0  -0.7491890440415466 -0.04250305400949507 0  -0.7701475089040403 -0.05941121449503304 0  -0.8832334261340697 -0.3413804738472729 0  -0.8530129186644771 -0.3105737940567508 0  -0.8376583703492539 -0.3244730411720114 0  -0.8361178741940621 -0.3012032963073284 0  -0.823938886851813 -0.3913060842106223 0  -0.7614313887832562 -0.3497103259994278 0  -0.7559663188238217 -0.3793630297467769 0  -0.4708912618897579 -0.2285856472469621 0  -0.4548859961702169 -0.2005678760548942 0  -0.4777591240518086 -0.2083866242368721 0  -0.5264312384145869 -0.1829741040641251 0  -0.5461204369629744 -0.1806277519609609 0  -0.9378035236072404 -0.2851134776966873 0  -0.9354278676734785 -0.30719767409345 0  -0.8513778329410542 -0.2326867420441681 0  -0.8719846887444495 -0.2437092705487241 0  -0.1325624275927994 -0.04021866490940314 0  -0.1533270281764342 -0.05110900939214474 0  -0.22 -0.165 0  -0.24 -0.18 0  -0.245873367077991 -0.1513355105626787 0  -0.8997798257520315 -0.04163664837925307 0  -0.8824071575511211 -0.02422244937934223 0  -0.8768878512576315 -0.04632699618988687 0  0 0 0  -0.878125 0 0  -0.8578125 -0.02463079625456109 0  -0.8578125000000001 0 0  -0.8565172689429089 -0.05653057927721578 0  -0.8425670681381597 -0.07339141401905702 0  -0.3202408904669474 -0.07514898467770766 0  -0.2949954381098742 -0.07539355131375869 0  -0.3092425536428032 -0.05462571231028945 0  -0.49089511958524 -0.04557490737736867 0  -0.5069381854581633 -0.02527178327525 0  -0.4820312499999999 -0.02251777425922528 0  -0.6295649928918005 -0.02465874983625253 0  -0.9580096122100478 -0.1125 0  -0.9564461956155802 -0.1466524799554003 0  -0.9795355676693711 -0.13125 0  -0.9790048061050238 -0.09946500696889901 0  -0.9607324531325176 -0.09345986462749556 0  -0.4373018782438491 -0.2768228516889651 0  -0.4626280055418332 -0.258645009562501 0  -0.4548086981361669 -0.2403300410039088 0  -0.1181058683088789 -0.05873365304344724 0  -0.3567748064364762 -0.05445351191850607 0  -0.3592404311584667 -0.07452870715328327 0  -0.2825229449176025 -0.1603528279245177 0  -0.97591169179298 -0.35625 0  -0.9754885647326317 -0.330858162070475 0  -0.553125 0 0  -0.5328125 -0.02561333546612049 0  -0.5328124999999999 0 0  -0.4932966075499844 -0.1628886416196969 0  -0.5161571897230134 -0.1625494824092942 0  -0.5044887944978361 -0.1466699645384885 0  -0.4989778460332646 -0.206165386133302 0  -0.5034139703112293 -0.1835717452725142 0  -0.523372634479221 -0.2029242239274808 0  -0.4125 -0.309375 0  -0.43125 -0.3234375 0  -0.4309553142923641 -0.2977118280217844 0  -0.685859218828494 -0.1915548926989052 0  -0.6767433069681675 -0.1676885182492373 0  -0.6939124868867326 -0.158264134612894 0  -0.109375 -0.03645833333333334 0  -0.0828125 -0.02760416666666667 0  -0.530104756530993 -0.1394430766062793 0  -0.5088633892589838 -0.1129797180241273 0  -0.5280246717739974 -0.1104911767788123 0  -0.540033868420885 -0.1241790343488038 0  -0.28 -0.21 0  -0.3077581622953641 -0.1938224502728479 0  -0.2842134034605289 -0.1853264237011137 0  -0.6481353330325758 -0.2718172779870491 0  -0.7071618842449133 -0.2538103077119846 0  -0.7157121975352582 -0.2733561832007226 0  -0.4522633265705686 -0.3024654391728206 0  -0.7861167117701457 -0.2064306723731895 0  -0.7673849864077379 -0.1887865180002959 0  -1 -0.075 0  -0.9291880423523352 -0.02989554948134674 0  -0.9228917258159651 -0.06185807169050356 0  -0.14 -0.105 0  -0.1225 -0.091875 0  -0.9541559973008151 -0.2016407733606172 0  -0.9250976628550895 -0.1602945345043427 0  -0.6 -0.45 0  -0.625 -0.459375 0  -0.8884270856546315 -0.4210886699466736 0  -0.9120458020489834 -0.4224119881911458 0  -0.9010592808122255 -0.4070642526937935 0  -0.8748486379839269 -0.3931155884268938 0  -0.8649965726064694 -0.4162478513264098 0  -0.8569929356986 -0.4946413982453336 0  -0.8453832862239596 -0.5180404034027744 0  -0.8394061226634746 -0.5004951499756108 0  -0.4116693155894968 -0.07344332935935285 0  -0.5744224525776063 -0.3105812761695171 0  -0.5539418867303275 -0.2920971169424867 0  -0.5511926927071078 -0.3126846835095272 0  -0.7928787746273712 -0.3147103710134262 0  -0.7680584675180673 -0.3244719204898005 0  -0.7524237847935911 -0.3331910577814746 0  -0.2032693491950771 -0.03416180335687187 0  -0.1900795265851894 -0.04762981465087376 0  -0.5114498730447196 -0.04532681049941881 0  -0.5039359349471911 -0.09429636235243392 0  -0.4964428137943314 -0.06990261873247229 0  -0.5252769331272771 -0.08856563532895594 0  -0.4175533374038551 -0.1330674083119678 0  -0.4585045393489812 -0.1480135029515725 0  -0.4359894694497097 -0.1444785298909038 0  -0.4447176155496388 -0.1623562853755396 0  -0.8629946794792668 -0.5121988473935715 0  -0.9352419687332238 -0.5043952499552635 0  -0.376281257503505 -0.2014166566619933 0  -0.3764593102495625 -0.1797849583989082 0  -0.35431142908133 -0.197933899545075 0  -0.5811457206704401 -0.4070109501169717 0  -0.6192741592975968 -0.3483384961241873 0  -0.5996969882959019 -0.3671768186782474 0  -0.9412084985508158 -0.2288180573602171 0  -0.9064146381099901 -0.3307360765986549 0  -0.9206406598598855 -0.3464204647656553 0  -0.5521417131721122 -0.2645675492939524 0  -0.5746661247776317 -0.2897229076778938 0  -0.5325807666252346 -0.3509591299725955 0  -0.5059929619119286 -0.3458508760723442 0  -0.7359375000000001 0 0  -0.7460937500000001 -0.02015079940952622 0  -0.796875 -0.05612725954520804 0  -0.7800732810353875 -0.04357208053266744 0  -0.8903908190717826 -0.4449332965464077 0  -0.841583546917233 -0.211850726373138 0  -0.9335248016856417 -0.4125 0  -0.9439097373787236 -0.4347793803845975 0  -0.9164713991628215 -0.4456500824649663 0  -0.6021486481965045 -0.1918243260561412 0  -0.6324626079408953 -0.1300597110658355 0  -0.6281148344480816 -0.1115075233848701 0  -0.5206182883135777 -0.06372516921150528 0  -0.6022233427773432 -0.02194688668846467 0  -0.7910927673633438 -0.3447333297170417 0  -0.8038577477447956 -0.361018683954561 0  -0.7781778045308065 -0.3586389727560703 0  -0.7885719645780571 -0.4348244037664383 0  -0.8020255751127024 -0.4602335549493173 0  -0.8159797063829348 -0.4317775292148218 0  -0.7092181256815239 -0.1704844933263038 0  -0.7118532302403865 -0.2092724441608836 0  -0.7302769998948054 -0.1908281692414409 0  -0.7108599048255569 -0.1898564420143998 0  -0.7224933394123003 -0.3019452825253838 0  -0.5125 0 0  -0.6299100030474512 -0.2603164374097148 0  -0.6139985261325993 -0.2796944866219986 0  -0.6047839097276937 -0.2613030060472643 0  -0.2187499999999999 0 0  -0.196875 0 0  -0.9079990132870763 -0.08664690227233401 0  -0.9034180399410615 -0.06079686741711933 0  -0.9794209084180766 -0.3088176100969353 0  -0.7963335947135282 -0.03435246469632882 0  -0.653622989358287 -0.4251658046850684 0  -0.6755017251752635 -0.4248172500617987 0  -0.6509480473445426 -0.4034571144440443 0  -0.7493183979138003 -0.4087731466585416 0  -0.6472925553631227 -0.3818918663552464 0  -0.5759305630371052 -0.3540122810297601 0  -0.6009806144792051 -0.3489191293186766 0  -0.5950408109199807 -0.3316070049369935 0  -0.4885862929992525 -0.32511410933433 0  -0.4738218303822758 -0.3083417782239743 0  -0.4692931464996262 -0.331307054667165 0  -0.2530966761521877 -0.06369613721327225 0  -0.262873197705059 -0.04702631692685895 0  -0.4732776145794015 -0.1875279537593993 0  -0.5315344310917188 -0.2213835688955969 0  -0.6762663261234825 -0.02176583055916173 0  -0.105 -0.07875 0  -0.6974189324634742 -0.4015756591570508 0  -0.6641085243994614 -0.3671693105337321 0  -0.9375134519428688 -0.5265320670388808 0  -0.9344045358382652 -0.4508510515532222 0  -0.7460230906738965 -0.2978226963724451 0  -0.7883175691273152 -0.3746810532702086 0  -0.7800415355047621 -0.405078987763258 0  -0.7953495323863831 -0.3929211195968881 0  -0.824880948827342 -0.3407730020181911 0  -0.5572512038592474 -0.02413328094982397 0  -0.4093636829369103 -0.03826193096164464 0  -0.4244602946799926 -0.02150679418600566 0  -0.40078125 -0.01874557903789162 0  -0.3703125 -0.03216420088014824 0  -0.3893784343111639 -0.03815680982194442 0  -0.38046875 -0.01608210044007412 0  -0.7135536495701966 -0.1240469036848246 0  -0.2071365919150357 -0.08590820619202685 0  -0.2390951106670057 -0.1246763482855785 0  -0.7156250000000001 0 0  -0.7093899001864579 -0.02169769578794493 0  -0.7275702012674226 -0.01685205813943714 0  -0.6923405508625253 -0.03649587675121061 0  -0.7040622316719239 -0.05295104560977054 0  -0.45 -0.3375 0  -0.9134246324395792 -0.2833118181483867 0  -0.9253606766084504 -0.2650067314289116 0  -0.3759215664747441 -0.2413378371433619 0  -0.3381406287517525 -0.2132083283309966 0  -0.31875 -0.2390625 0  -0.3190703143758762 -0.2191041641654983 0  -0.3022220582873943 -0.1722920521799981 0  -0.656383921487838 -0.2917268931402272 0  -0.977201711575302 -0.1616152585879068 0  -1 -0.15 0  -0.6209936290886088 -0.1499512889046635 0  -0.5564610253652493 -0.1320356725411358 0  -0.9597166779891471 -0.5395398248792418 0  -0.980618147345909 -0.5343749999999999 0  -0.9840372665555484 -0.5520288190852741 0  -0.1869715575687117 -0.09586570073280175 0  -0.1608321636253917 -0.08678709237683124 0  -0.17863747588033 -0.07769147492366013 0  -0.9642996624134361 -0.389384372653607 0  -0.978434331314767 -0.4066804948078057 0  -0.9544435575000426 -0.4083062854199617 0  -0.9667624008428208 -0.4257254612184158 0  -1 -0.43125 0  -0.5893804215502014 -0.2749370907318421 0  -0.575586193583546 -0.2551071887042766 0  -0.8649964397143832 -0.1315854008568497 0  -0.889736612432573 -0.0951391183983059 0  -0.8731850677828543 -0.115558847540495 0  -0.4387508254103566 -0.2163142237498915 0  -0.4569790549237285 -0.2825279917194126 0  -0.9252965269372152 -0.1005656031868616 0  -0.9085971744194767 -0.1087325543007106 0  -0.8557998822795807 -0.1109048851574845 0  -1 -0.3375 0  -0.3234858794533446 -0.1658069616604961 0  -0.95 -0.58125 0  -0.975 -0.590625 0  -0.9706949975564029 -0.5640841731829254 0  -0.9510471639545546 -0.5614546697064425 0  -0.9273155405830642 -0.1409146580335243 0  -0.3951619061149709 -0.1028931995876116 0  -0.4276649062525241 -0.1021687676461021 0  -0.4591732631572807 -0.1101808375872686 0  -0.3405961581802935 -0.06848776143216556 0  -0.3750817404176932 -0.0503166588633259 0  -0.3315338723030039 -0.04789776805116039 0  -0.3522169941183309 -0.0364294674523488 0  -0.328125 0 0  -0.7665847503461373 -0.2984195992319369 0  -0.271185004081349 -0.07226298061422486 0  -0.3115003884061284 -0.1261122466206111 0  -0.8008575831830436 -0.4205432726229493 0  -0.8109830974129387 -0.4046573954729487 0  -0.6969655378974063 -0.2974183865289586 0  -0.7427467947599181 -0.3181304295444358 0  -0.6137247850378903 -0.2427769038693128 0  -0.8507843472336661 -0.4635167883864255 0  -0.8638629541339979 -0.4770894650809854 0  -0.153125 -0.02886183841905233 0  -0.178025463294496 -0.0331364262658333 0  -0.1673954129361025 -0.01695700467292181 0  -0.7286352207507724 -0.1714562205533449 0  -1 -0.225 0  -0.963357058119561 -0.2214262085856205 0  -0.9728598355008039 -0.2498304782170458 0  -0.9570192967845447 -0.2393143958591076 0  -0.1859375 -0.01570770118507937 0  -0.8669603060236206 -0.440092477926144 0  -0.7480739465652909 -0.1717783594053569 0  -0.7551416772937978 -0.1523452962229808 0  -0.7680750259041293 -0.2068191888913854 0  -0.749366369363785 -0.1897778876570322 0  -0.4718749999999999 0 0  -0.4515625 0 0  -0.4440875941368619 -0.01841043475882932 0  -0.4580882358609176 -0.03251009280385008 0  -0.8076998831092526 -0.274025493438259 0  -0.7835855544038423 -0.2393929893449616 0  -0.8330365112831057 -0.2285883748296631 0  -0.5433800354666967 -0.2002659827190777 0  -0.4956979982074266 -0.2308592304147085 0  -0.9226349474803337 -0.3970387371323232 0  -0.9056355237806087 -0.3887526543452947 0  -0.7854277111369851 -0.07336691718498466 0  -0.5532970882506406 -0.3660959392672477 0  -0.5808567996071451 -0.3731542352722743 0  -0.4103668070427209 -0.2140337958155053 0  -0.4259330988435676 -0.1980685961645438 0  -0.394683529255885 -0.2040525076302847 0  -0.9426910223713469 -0.1289107772685962 0  -0.9327539683369113 -0.4774888864213466 0  -0.5762559841252362 -0.07660313237749444 0  -0.3 -0.225 0  -0.9730087781924432 -0.4774129201451265 0  -0.9534950288316871 -0.4900218000234512 0  -1 -0.4874999999999999 0  -0.9702689004547348 -0.5060968582402648 0  -0.7662490152861988 -0.1374129674631837 0  -0.9212100640255639 -0.1223884131456297 0  -0.7649987610171775 -0.2255363147233548 0  -0.9709993328983599 -0.28125 0  -0.9529344569242761 -0.2705772140444403 0  -0.59375 0 0  -0.5734375 0 0  -0.806645256982107 -0.3313070772322055 0  -0.8400140138634197 -0.3548701574694839 0  -0.6886417695763348 -0.4630654076340323 0  -0.654600166646458 -0.4471897140987988 0  -0.6765582013892031 -0.397192580380432 0  -0.8500000000000001 -0.54375 0  -0.9132232884536792 -0.3077563629854663 0  -0.8837612648569727 -0.3229098618363156 0  -0.4391341236892799 -0.1230258887897479 0  -0.4116698813884688 -0.1140382255490162 0  -0.13125 0 0  -0.1421875 -0.01443091920952618 0  -0.2902220026177376 -0.1078571777502201 0  -0.3101263301998421 -0.1456469303876229 0  -0.3113819589177774 -0.1032857858140064 0  -0.3321511076365621 -0.1890940301673968 0  -0.6776226522835836 -0.2428705978442689 0  -0.6920894743735485 -0.2297066616775648 0  -0.2608767169190895 -0.1693436763774784 0  -0.3957131730010747 -0.2520776267185523 0  -0.4056704220673576 -0.2722742591122083 0  -0.4212534186311266 -0.2606502329522382 0  -0.6557912100027636 -0.1823074549810696 0  -0.959375 0 0  -0.9796875 0 0  -0.9701532709532162 -0.02941567615034118 0  -0.4715356247294496 -0.1656604287796825 0  -0.7664598101793296 -0.421728455892796 0  -0.8872033993206073 -0.2885067473848879 0  -0.8665545203072038 -0.2940342953840805 0  -0.6511629640796589 -0.1433829623625631 0  -0.639950672076297 -0.1644535424150241 0  -0.6325242431554811 -0.09296988823510816 0  -0.8426737126393026 -0.4248567066220136 0  -0.830738099168451 -0.4086231481731203 0  -0.6774672632759704 -0.05108648355211736 0  -0.7372547791543191 -0.3426972624353747 0  -0.8266825422420039 -0.05833891629479689 0  -0.3190398298088021 -0.01848020879885133 0  -0.3035488214889763 -0.03204807878228129 0  -0.2953125 -0.01521600476709852 0  -0.2852347801798773 -0.03637468744769261 0  -0.6180199446067929 -0.1739545681501643 0  -0.580442277128969 -0.1834768541825423 0  -0.8760380232541318 -0.1569447502893184 0  -1 -0.0375 0  -1 -0.01875 0  -0.4771270565181938 -0.2862425491099543 0  -0.4907269364075912 -0.2995733716720244 0  -0.6878926235370693 -0.1010856562627405 0  -0.9429941626409019 -0.2520991553376352 0  -0.8944457824319449 -0.1471986957889706 0  -0.8911793554534083 -0.115227709993453 0  -0.9034970447247495 -0.130121586255763 0  -0.2806422854098193 -0.05462386944037346 0  -0.4828696516924853 -0.2491636890016025 0  -0.06999999999999999 -0.0525 0  -0.05249999999999999 -0.039375 0  -0.08838443396226414 -0.04621658805031447 0  -0.174433417932171 -0.05814447264405702 0  -0.5556297780658601 -0.3329755247549948 0  -0.5754018798463298 -0.3342088092734135 0  -1 -0.2625 0  -0.9526425785994397 -0.3738647795449238 0  -0.8255712935430096 -0.4767327592893155 0  -0.2681706092576315 -0.02844135760762059 0  -0.2757613467992818 -0.09174721784480037 0  -0.2489413989882008 -0.08419875457429779 0  -0.9049342570429448 -0.1650690985982717 0  -0.3882301361831721 -0.2214865270700051 0  -0.6436820156509795 -0.07902612979393014 0  -1 -0.45 0  -0.58125 -0.4359375 0  -0.2618629046529128 -0.1059354961713243 0  -0.8475818300527622 -0.4440078355669063 0  -0.8289456832500559 -0.4525119649827824 0  -0.08749999999999998 0 0  -0.9495608119326346 -0.0202785256129601 0  -1 -0.05624999999999999 0  -0.9759300961945406 -0.0530061624040079 0  -0.8706679633320423 -0.3747703017451642 0  -0.8439143287982683 -0.4810687215507737 0  -0.6585363060263659 -0.1639178603016385 0  -0.16 -0.12 0  -0.7597840496366529 -0.0842656276325483 0  -0.7486403797850677 -0.129181017830172 0  -0.3767718314575684 -0.1429117832647632 0  -0.7392282275484716 -0.09590457910755536 0  -0.8171875 0 0  -1 -0.6 0  -1 -0.58125 0  -1 -0.54375 0  -0.6782018650635996 -0.2123899436601766 0  -0.7119634564279477 -0.229153808782306 0  -0.1795731253032542 -0.1147358329289944 0  -0.808061729158487 -0.1925892127355337 0  -0.4874999999999999 -0.365625 0  -0.5062499999999999 -0.3796875000000001 0  -0.7079630578676385 -0.3340625657496266 0  -0.6915814145904731 -0.3218109231809275 0  -0.7051702803926122 -0.3553118724297893 0  -0.6453208146657384 -0.3550634265300718 0  -0.3701005234736375 -0.09809541656842648 0  -0.380021003070131 -0.1141288377207347 0  -0.4921874999999999 0 0  -0.9813749826441375 -0.1809219014890442 0  -1 -0.1875 0  -0.7233263576818095 -0.3216676378473425 0  -0.7074636623764338 -0.3124588647832949 0  -0.26 -0.195 0  -1 -0.31875 0  -1 -0.4687499999999999 0  -1 -0.5249999999999999 0  -0.6633027697952721 -0.2001004581771511 0  -0.2843749999999999 0 0  -0.3524680467764277 -0.2334017478568838 0  -0.3375 -0.253125 0  -0.6140625 0 0  -1 -0.1125 0  -0.91875 0 0  -0.9083496065237293 -0.02040129924479939 0  -0.8984375 0 0  -0.39375 -0.2953125 0  -0.4121934713774375 -0.2902524548300833 0  -0.4870606057573306 -0.3466796089902258 0  -0.4687499999999999 -0.3515625 0  -0.7296972742607385 -0.08068025879974518 0  -0.9562222958138117 -0.520050997425047 0  -0.8320550644263747 -0.2715035087119476 0  -0.8836792279036407 -0.2602371338170126 0  -0.7 -0.4875 0  -0.6341003191941832 -0.2895535141220881 0  -0.5866377707682293 -0.2044796517037128 0  -0.8375 0 0  -0.3280546010109622 -0.09172575764927018 0  -0.2043974374725009 -0.1057580800369 0  -1 -0.3 0  -0.08749999999999999 -0.065625 0  -0.175 0 0  -0.390625 0 0  -0.4109375 0 0  -0.43125 0 0  -0.3626845518040517 -0.216150906161303 0  -0.5922252883208412 -0.2924826664024237 0  -0.8851285046115568 -0.06756764975707619 0  -0.675 0 0  -0.6953125 0 0  -1 0 0  -0.3899414826666245 -0.1301622588730428 0  -1 -0.375 0  -0.9797316931719717 -0.3761906493637226 0  -1 -0.35625 0  -0.9390624999999999 0 0  -0.4803306723019393 -0.1479019550166907 0  -0.8207431994836154 -0.3729785755241501 0  -1 -0.4125 0  -0.30625 0 0  -1 -0.39375 0  -1 -0.16875 0  -0.3703125 0 0  -1 -0.5625 0  -1 -0.28125 0  -1 -0.13125 0  -1 -0.09375 0  -1 -0.24375 0  -1 -0.5062499999999999 0  -0.153125 0 0  </DataArray>
</Points>
<Cells>
<DataArray  type="UInt32"  Name="connectivity"  format="ascii">0 1  0 2  0 157  0 158  0 482  0 728  1 2  1 161  1 276  1 482  1 660  1 666  2 161  2 481  2 728  3 4  3 5  3 77  3 346  3 347  3 623  3 675  4 5  4 77  4 130  4 480  4 642  5 179  5 181  5 623  5 642  6 7  6 8  6 33  6 34  6 208  7 8  7 349  7 669  8 208  8 349  8 650  9 10  9 11  9 236  9 252  9 253  9 688  10 11  10 253  10 362  10 557  10 558  10 586  11 361  11 362  11 688  12 13  12 14  12 170  12 251  12 565  12 567  12 721  13 14  13 235  13 417  13 567  13 688  14 251  14 361  14 566  14 688  15 16  15 17  15 127  15 148  15 150  15 151  16 17  16 148  16 194  17 71  17 72  17 127  17 194  18 19  18 20  18 184  18 186  18 400  18 679  19 20  19 60  19 393  19 679  19 741  20 59  20 60  20 400  21 22  21 23  21 575  21 612  21 614  21 662  22 23  22 324  22 325  22 326  22 614  23 326  23 517  23 575  24 25  24 26  24 247  24 690  25 26  25 410  25 411  25 573  25 690  26 246  26 247  26 573  27 28  27 29  27 338  27 350  27 351  27 746  28 29  28 119  28 351  28 390  28 531  29 394  29 531  29 601  29 746  30 31  30 32  30 328  30 329  30 533  30 695  31 32  31 216  31 380  31 474  31 478  31 533  32 380  32 529  32 695  33 34  33 306  34 208  34 306  35 36  35 37  35 213  35 368  35 497  35 698  36 37  36 226  36 227  36 368  36 369  37 320  37 369  37 497  37 528  38 39  38 40  38 79  38 446  38 681  39 40  39 279  39 280  39 413  39 415  39 446  40 279  41 42  41 43  41 50  41 51  42 43  42 238  42 524  42 527  43 51  43 237  43 238  44 45  44 46  44 416  44 545  44 546  44 556  45 46  45 200  45 201  45 377  45 397  45 546  46 201  46 416  46 420  46 467  46 579  47 48  47 49  47 57  47 609  47 610  47 685  47 706  48 49  48 145  48 357  48 438  48 609  49 55  49 57  49 438  49 544  50 51  50 239  50 598  51 200  51 237  51 239  52 53  52 54  52 187  52 188  52 447  52 449  52 451  53 54  53 187  53 370  53 402  53 665  54 370  54 371  54 447  54 596  55 56  55 57  55 272  55 544  56 57  56 272  56 421  56 615  56 624  56 635  57 615  57 706  58 59  58 60  58 290  58 396  58 460  58 576  58 619  59 60  59 400  59 575  59 576  59 577  60 393  60 395  60 396  61 62  61 63  61 298  61 299  61 327  61 367  62 63  62 299  62 505  62 506  62 652  63 366  63 367  63 505  64 65  64 66  64 489  64 490  64 621  64 722  65 66  65 226  65 228  65 405  65 490  65 643  66 165  66 228  66 297  66 722  67 68  67 69  67 359  67 436  67 468  68 69  68 195  68 196  68 250  68 468  68 537  69 83  69 195  69 358  69 359  69 686  70 71  70 72  70 193  70 264  70 265  70 266  70 267  71 72  71 192  71 193  71 194  72 127  72 128  72 265  73 74  73 75  73 144  73 465  73 693  74 75  74 197  74 198  74 263  74 464  74 693  75 464  75 465  75 597  76 77  76 78  76 130  76 232  76 480  76 678  76 680  77 78  77 347  77 432  77 480  77 550  78 550  78 557  78 558  78 678  79 80  79 81  79 414  79 446  79 630  79 681  80 81  80 308  80 310  80 630  81 308  81 309  81 681  81 726  82 83  82 84  82 559  82 560  82 588  83 84  83 195  83 433  83 588  83 686  84 433  84 434  84 560  85 86  85 87  85 203  85 204  85 594  85 673  86 87  86 282  86 283  86 284  86 472  86 594  86 600  87 163  87 164  87 282  87 673  88 89  88 90  88 137  88 138  88 248  88 318  88 425  89 90  89 138  89 155  89 182  89 625  89 663  90 140  90 182  90 318  91 92  91 93  91 272  91 440  91 513  91 544  92 93  92 101  92 221  92 408  92 461  92 513  93 100  93 101  93 272  93 725  94 95  94 96  94 371  94 596  95 96  95 595  95 723  96 262  96 267  96 448  96 595  96 596  97 98  97 99  97 613  97 715  98 99  98 491  98 708  98 709  99 491  99 612  99 613  100 101  100 293  100 568  100 636  100 725  101 461  101 568  102 103  102 104  102 177  102 178  102 219  102 641  103 104  103 220  103 325  103 640  103 641  103 648  104 219  104 220  104 221  104 408  105 106  105 107  105 108  105 109  105 458  105 459  105 658  106 107  106 108  106 162  106 387  107 161  107 162  107 458  107 660  108 109  108 111  108 387  108 441  108 442  109 110  109 111  109 658  110 111  110 658  110 707  111 441  112 113  112 114  112 184  112 679  112 695  112 696  112 741  113 114  113 184  113 185  113 218  113 539  113 606  114 217  114 218  114 695  115 116  115 117  115 249  115 473  115 580  116 117  116 134  116 392  116 424  116 580  117 334  117 389  117 424  117 473  118 119  118 120  118 215  118 216  118 260  118 261  118 564  119 120  119 260  119 390  119 391  119 531  120 315  120 391  120 564  121 122  121 123  121 169  121 285  121 565  121 721  122 123  122 284  122 285  122 384  122 472  122 593  123 250  123 384  123 537  123 565  124 125  124 126  124 603  124 669  125 126  125 298  125 348  125 603  125 604  126 348  126 349  126 669  127 128  127 151  127 430  128 265  128 429  128 430  129 130  129 131  129 132  129 133  129 183  129 487  129 719  130 131  130 480  130 642  130 680  130 719  131 183  131 642  132 133  132 280  132 413  132 484  132 485  132 486  132 487  133 280  133 281  133 677  133 719  134 135  134 136  134 352  134 353  134 392  134 500  134 580  135 136  135 155  135 156  135 273  135 580  136 273  136 500  137 138  137 248  137 249  137 580  138 155  138 580  139 140  139 141  139 318  139 710  140 141  140 182  140 318  140 462  140 628  141 462  141 738  142 143  142 144  142 189  142 191  142 465  142 694  143 144  143 147  143 189  143 496  143 542  143 692  144 465  144 691  144 692  144 693  145 146  145 147  145 357  145 358  145 609  146 147  146 358  146 359  146 542  147 357  147 496  147 542  148 149  148 150  149 150  149 378  149 598  150 151  150 378  150 379  150 657  151 430  151 657  152 153  152 154  152 235  152 236  152 243  152 244  152 252  153 154  153 235  153 254  153 255  153 514  153 637  154 244  154 514  154 521  155 156  155 423  155 580  155 625  156 273  156 275  156 422  156 423  156 499  157 158  157 160  157 300  157 302  157 482  158 159  158 160  158 687  158 728  159 160  159 676  159 687  160 300  161 162  161 481  161 660  162 387  162 388  162 481  162 506  162 652  163 164  163 176  163 282  163 406  163 407  164 176  164 375  164 571  164 673  165 166  165 167  165 228  165 256  165 297  166 167  166 254  166 255  166 256  166 417  167 296  167 297  167 417  168 169  168 170  168 297  168 621  168 622  168 722  169 170  169 283  169 285  169 622  169 721  170 296  170 297  170 567  170 721  171 172  171 173  171 294  171 295  171 332  171 445  171 589  172 173  172 174  172 295  172 406  172 407  172 599  173 174  173 331  173 332  174 175  174 176  174 331  174 407  174 656  175 176  175 418  175 507  175 509  175 570  175 656  176 407  176 570  176 571  177 178  177 219  177 257  177 382  177 383  178 257  178 455  178 641  179 180  179 181  179 422  179 423  179 623  179 625  180 181  180 182  180 183  180 625  180 663  181 183  181 642  182 183  182 628  182 663  183 487  183 628  183 642  184 185  184 186  184 679  185 186  185 523  185 606  186 400  186 401  186 523  186 608  187 188  187 402  187 404  187 574  188 403  188 404  188 451  188 694  189 190  189 191  189 258  189 496  189 724  190 191  190 258  190 259  190 403  190 453  190 454  191 403  191 694  192 193  192 194  192 723  193 267  193 723  195 196  195 588  196 250  196 251  196 566  196 588  197 198  197 199  197 629  197 693  198 199  198 263  198 288  198 450  199 287  199 288  199 629  200 201  200 202  200 237  200 239  200 397  201 202  201 398  201 579  202 237  202 398  202 466  203 204  203 286  203 375  203 376  203 626  203 627  203 673  204 286  204 594  204 747  205 206  205 207  205 419  205 467  205 579  205 582  205 583  206 207  206 510  206 511  206 582  206 664  206 704  207 419  207 510  208 650  209 210  209 211  209 364  209 365  209 618  209 670  209 672  210 211  210 319  210 323  210 365  210 443  210 519  211 322  211 323  211 363  211 672  212 213  212 214  212 551  212 699  213 214  213 368  213 552  213 698  213 699  214 551  214 552  214 553  214 757  215 216  215 474  215 475  215 563  215 564  216 261  216 380  216 474  217 218  217 329  217 532  217 695  217 727  218 539  218 607  218 727  219 382  219 408  220 221  220 222  220 569  220 648  221 222  221 408  221 461  222 339  222 341  222 461  222 569  223 224  223 225  223 536  223 752  224 225  224 534  224 535  224 536  224 631  225 477  225 479  225 535  225 752  226 227  226 228  226 368  226 405  227 228  227 254  227 256  227 369  227 661  228 256  229 230  229 231  229 274  229 293  229 636  230 231  230 292  230 293  230 337  230 350  230 500  231 273  231 274  231 500  232 233  232 234  232 586  232 677  232 678  232 680  233 234  233 240  233 241  233 243  233 253  233 586  234 240  234 572  234 677  235 236  235 255  235 417  235 688  236 252  236 688  237 238  237 466  238 466  238 501  238 527  239 378  239 397  239 598  240 241  240 242  240 572  241 242  241 243  241 244  241 268  242 268  242 414  242 572  242 630  243 244  243 252  243 253  244 268  244 269  244 521  245 246  245 247  245 402  245 665  246 247  246 402  246 573  246 574  248 249  248 425  248 473  248 591  248 592  249 473  249 580  250 251  250 537  250 565  251 565  251 566  252 253  253 586  254 255  254 256  254 637  254 661  255 417  257 383  257 410  257 411  257 455  257 653  258 259  258 439  258 724  258 736  259 381  259 454  259 736  260 261  260 530  260 531  261 380  261 530  262 263  262 264  262 267  262 448  262 464  263 264  263 450  263 464  264 266  264 267  264 450  265 266  265 429  265 620  266 450  266 620  267 595  267 723  268 269  268 311  268 630  269 270  269 271  269 311  269 521  270 271  270 515  270 516  270 521  270 737  271 310  271 311  271 737  272 421  272 544  272 725  273 274  273 275  273 500  274 275  274 421  274 499  274 635  274 636  275 499  276 277  276 278  276 302  276 482  276 605  276 666  277 278  277 330  277 539  277 605  277 606  278 302  278 330  278 611  279 412  279 413  280 281  280 413  280 415  281 414  281 415  281 572  281 677  282 406  282 600  283 284  283 285  283 600  283 622  284 285  284 472  286 471  286 541  286 627  286 747  287 288  287 385  287 386  287 426  287 428  287 629  288 428  288 450  288 469  288 470  289 290  289 291  289 326  289 517  289 569  289 648  290 291  290 460  290 517  290 576  291 339  291 460  291 569  292 293  292 337  292 340  292 341  292 568  293 568  293 636  294 295  294 489  294 490  294 589  294 590  295 489  295 599  296 297  296 417  296 567  297 722  298 299  298 327  298 348  298 547  298 604  299 547  299 548  299 652  300 301  300 302  301 302  301 611  301 702  302 482  302 611  303 304  303 305  303 364  303 365  303 444  303 713  303 737  304 305  304 307  304 308  304 713  304 714  305 308  305 310  305 737  307 308  307 309  307 714  308 309  308 310  309 726  310 311  310 630  310 737  311 630  312 313  312 314  312 532  312 534  312 607  312 727  313 314  313 538  313 605  313 607  313 647  313 659  314 534  314 632  314 634  314 647  315 316  315 317  315 389  315 391  315 564  316 317  316 334  316 389  316 437  316 697  317 561  317 564  317 697  318 425  318 710  319 320  319 321  319 322  319 323  319 519  319 578  320 321  320 497  320 528  320 578  321 322  321 497  321 498  321 711  321 755  322 323  322 363  322 711  322 756  324 325  324 344  324 360  324 518  324 613  324 614  324 716  325 326  325 518  325 640  325 648  326 517  326 648  327 348  327 367  327 463  327 651  327 730  328 329  328 477  328 532  328 533  328 534  328 535  329 532  329 695  330 356  330 495  330 606  330 611  331 332  331 522  331 656  331 743  331 744  332 445  332 522  332 703  333 334  333 335  333 473  333 592  334 335  334 389  334 437  334 473  335 437  336 337  336 338  336 340  336 460  336 619  336 746  337 338  337 340  337 350  338 350  338 746  339 340  339 341  339 460  339 569  340 341  340 460  341 461  341 568  342 343  342 344  342 715  342 716  343 344  343 360  343 488  344 360  344 716  345 346  345 347  345 432  345 433  345 435  345 615  345 685  345 706  346 347  346 615  346 675  347 432  348 349  348 651  349 649  349 650  349 651  349 669  350 351  350 352  350 353  350 500  351 352  351 390  352 353  352 390  352 392  353 500  354 355  354 356  354 581  354 702  355 356  355 494  355 495  355 523  355 581  355 608  356 495  356 611  356 702  357 438  357 496  357 724  358 359  358 609  358 610  358 686  359 436  359 542  360 456  360 457  360 488  360 518  360 640  361 362  361 559  361 566  361 588  361 688  362 557  362 559  362 560  363 671  363 672  363 756  364 365  364 670  364 712  364 713  364 745  365 443  365 444  366 367  366 505  366 676  367 463  368 405  368 552  369 528  369 644  369 661  370 371  370 665  371 596  372 373  372 374  372 375  372 376  372 416  372 556  373 374  373 416  373 418  373 419  373 420  373 570  374 375  374 570  374 571  375 376  375 571  375 673  376 556  376 626  377 378  377 379  377 397  377 546  377 674  378 379  378 397  378 598  379 657  379 674  380 529  380 530  381 382  381 383  381 409  381 454  381 653  381 654  381 736  382 383  382 408  382 409  383 653  384 385  384 426  384 537  384 593  385 386  385 426  385 537  385 543  386 543  386 629  387 388  387 442  387 548  387 555  388 548  388 652  389 391  389 424  390 391  390 392  391 392  391 424  392 424  393 395  393 601  393 602  393 741  394 395  394 396  394 601  394 619  394 746  395 396  395 601  396 619  398 466  398 579  398 583  398 720  399 400  399 401  399 577  399 662  399 735  400 401  400 577  401 492  401 608  401 735  402 574  402 665  403 404  403 453  403 694  404 452  404 453  404 574  405 552  405 554  405 643  406 407  406 599  406 600  408 409  408 513  409 512  409 513  409 736  410 411  410 573  410 653  411 455  411 689  411 690  411 717  412 413  412 483  412 485  413 485  414 415  414 446  414 572  414 630  415 446  416 420  416 556  417 567  418 419  418 509  418 570  419 420  419 467  419 509  419 510  420 467  421 635  421 636  421 725  422 423  422 499  422 623  423 625  425 591  425 710  426 427  426 428  426 593  427 428  427 469  427 472  427 593  427 747  428 469  429 430  429 431  429 470  429 540  429 620  430 431  430 657  430 668  431 540  431 541  431 626  431 627  431 668  432 435  432 550  433 434  433 435  433 610  433 685  433 686  434 435  434 550  434 557  434 560  435 550  436 468  436 542  436 543  436 700  436 701  437 697  438 439  438 440  438 544  438 724  439 440  439 512  439 724  439 736  440 512  440 513  440 544  441 442  442 555  442 731  443 444  443 515  443 519  443 520  443 737  444 737  445 589  445 703  445 729  447 448  447 449  447 596  448 449  448 464  448 596  448 597  449 451  449 597  450 470  450 620  451 465  451 597  451 694  452 453  452 454  452 573  452 574  452 653  452 654  453 454  454 654  455 456  455 457  455 641  455 717  456 457  456 640  456 641  457 488  457 717  457 718  458 459  458 538  458 660  459 538  459 634  459 647  459 658  460 619  461 568  462 484  462 486  462 628  462 738  462 739  463 730  464 597  465 597  465 694  466 501  466 720  467 579  468 537  468 543  469 470  469 471  469 747  470 471  470 540  470 620  471 540  471 541  471 747  472 593  472 594  472 747  473 592  474 475  474 476  474 478  475 476  475 563  475 733  475 734  476 478  476 479  476 732  476 733  477 478  477 479  477 533  477 535  478 479  478 533  479 732  479 752  481 504  481 506  481 728  483 484  483 485  483 739  484 485  484 486  484 739  486 487  486 628  487 628  488 718  489 490  489 599  489 621  490 590  490 643  491 612  491 662  491 708  491 735  492 493  492 494  492 608  492 708  492 735  493 494  493 581  493 708  493 709  494 581  494 608  495 523  495 606  496 724  497 498  497 698  497 751  498 751  498 755  499 623  499 624  499 635  501 502  501 503  501 526  501 527  501 720  502 503  502 585  502 684  502 705  502 720  503 526  503 684  503 753  504 505  504 506  504 687  504 728  505 506  505 676  505 687  506 652  507 508  507 509  507 656  507 743  508 509  508 510  508 511  508 743  508 748  508 750  509 510  510 511  511 664  511 748  512 513  512 736  514 516  514 521  514 637  514 644  514 645  515 516  515 520  515 645  515 737  516 521  516 645  517 575  517 576  518 640  519 520  519 578  519 587  520 587  520 645  520 646  522 703  522 744  523 606  523 608  524 525  524 526  524 527  525 526  525 682  525 683  526 527  526 683  526 753  528 578  528 587  528 644  528 646  529 530  529 602  529 695  529 696  529 741  530 531  530 601  530 602  531 601  532 534  532 727  534 535  534 631  534 632  536 631  536 749  537 543  538 647  538 659  538 660  539 605  539 606  539 607  540 541  541 627  542 692  542 701  543 629  543 700  545 546  545 556  545 657  545 667  545 668  545 674  546 674  547 548  547 549  547 604  548 549  548 555  548 652  549 555  549 604  549 731  549 759  550 557  551 757  552 553  552 554  553 554  553 589  553 590  553 643  553 655  553 757  554 643  555 731  556 626  556 667  557 558  557 560  558 586  558 678  559 560  559 588  561 562  561 563  561 564  561 697  562 563  562 734  563 564  563 734  565 721  566 588  569 648  570 571  572 677  573 574  573 653  575 576  575 577  575 662  577 662  578 587  579 583  582 583  582 584  582 585  582 704  583 585  583 720  584 585  584 704  584 758  585 705  585 720  585 758  586 678  587 646  589 590  589 655  589 729  589 754  590 643  591 592  591 710  594 747  595 723  599 600  599 621  600 621  600 622  601 602  602 741  603 604  603 759  604 759  605 607  605 659  605 666  607 727  609 610  610 685  610 686  611 702  612 613  612 614  612 662  613 614  613 715  613 716  615 624  615 675  615 706  616 617  616 618  616 670  616 745  617 618  617 639  617 740  618 638  618 639  618 670  618 672  619 746  621 622  621 722  623 624  623 675  624 635  624 675  625 663  626 627  626 667  626 668  629 691  629 693  629 700  631 632  631 633  631 749  632 633  632 634  633 634  633 658  633 707  633 749  634 647  634 658  636 725  637 644  637 661  638 639  638 671  638 672  639 740  640 641  644 645  644 646  644 661  645 646  649 650  649 651  649 730  651 730  653 654  655 754  655 757  656 743  657 668  657 674  658 707  659 660  659 666  660 666  662 735  664 704  667 668  670 745  671 672  676 687  677 680  677 719  679 741  680 719  681 726  682 683  683 753  684 705  684 753  685 706  687 728  689 690  689 717  689 718  691 692  691 693  691 700  691 701  692 701  695 696  696 741  698 699  698 751  699 751  700 701  703 729  705 758  707 749  708 709  708 735  711 755  711 756  712 713  712 714  712 745  713 714  715 716  717 718  729 754  731 759  732 733  732 752  733 734  738 739  742 743  742 744  742 750  743 744  743 750  748 750  </DataArray>
<DataArray  type="UInt32"  Name="offsets"  format="ascii">2 4 6 8 10 12 14 16 18 20 22 24 26 28 30 32 34 36 38 40 42 44 46 48 50 52 54 56 58 60 62 64 66 68 70 72 74 76 78 80 82 84 86 88 90 92 94 96 98 100 102 104 106 108 110 112 114 116 118 120 122 124 126 128 130 132 134 136 138 140 142 144 146 148 150 152 154 156 158 160 162 164 166 168 170 172 174 176 178 180 182 184 186 188 190 192 194 196 198 200 202 204 206 208 210 212 214 216 218 220 222 224 226 228 230 232 234 236 238 240 242 244 246 248 250 252 254 256 258 260 262 264 266 268 270 272 274 276 278 280 282 284 286 288 290 292 294 296 298 300 302 304 306 308 310 312 314 316 318 320 322 324 326 328 330 332 334 336 338 340 342 344 346 348 350 352 354 356 358 360 362 364 366 368 370 372 374 376 378 380 382 384 386 388 390 392 394 396 398 400 402 404 406 408 410 412 414 416 418 420 422 424 426 428 430 432 434 436 438 440 442 444 446 448 450 452 454 456 458 460 462 464 466 468 470 472 474 476 478 480 482 484 486 488 490 492 494 496 498 500 502 504 506 508 510 512 514 516 518 520 522 524 526 528 530 532 534 536 538 540 542 544 546 548 550 552 554 556 558 560 562 564 566 568 570 572 574 576 578 580 582 584 586 588 590 592 594 596 598 600 602 604 606 608 610 612 614 616 618 620 622 624 626 628 630 632 634 636 638 640 642 644 646 648 650 652 654 656 658 660 662 664 666 668 670 672 674 676 678 680 682 684 686 688 690 692 694 696 698 700 702 704 706 708 710 712 714 716 718 720 722 724 726 728 730 732 734 736 738 740 742 744 746 748 750 752 754 756 758 760 762 764 766 768 770 772 774 776 778 780 782 784 786 788 790 792 794 796 798 800 802 804 806 808 810 812 814 816 818 820 822 824 826 828 830 832 834 836 838 840 842 844 846 848 850 852 854 856 858 860 862 864 866 868 870 872 874 876 878 880 882 884 886 888 890 892 894 896 898 900 902 904 906 908 910 912 914 916 918 920 922 924 926 928 930 932 934 936 938 940 942 944 946 948 950 952 954 956 958 960 962 964 966 968 970 972 974 976 978 980 982 984 986 988 990 992 994 996 998 1000 1002 1004 1006 1008 1010 1012 1014 1016 1018 1020 1022 1024 1026 1028 1030 1032 1034 1036 1038 1040 1042 1044 1046 1048 1050 1052 1054 1056 1058 1060 1062 1064 1066 1068 1070 1072 1074 1076 1078 1080 1082 1084 1086 1088 1090 1092 1094 1096 1098 1100 1102 1104 1106 1108 1110 1112 1114 1116 1118 1120 1122 1124 1126 1128 1130 1132 1134 1136 1138 1140 1142 1144 1146 1148 1150 1152 1154 1156 1158 1160 1162 1164 1166 1168 1170 1172 1174 1176 1178 1180 1182 1184 1186 1188 1190 1192 1194 1196 1198 1200 1202 1204 1206 1208 1210 1212 1214 1216 1218 1220 1222 1224 1226 1228 1230 1232 1234 1236 1238 1240 1242 1244 1246 1248 1250 1252 1254 1256 1258 1260 1262 1264 1266 1268 1270 1272 1274 1276 1278 1280 1282 1284 1286 1288 1290 1292 1294 1296 1298 1300 1302 1304 1306 1308 1310 1312 1314 1316 1318 1320 1322 1324 1326 1328 1330 1332 1334 1336 1338 1340 1342 1344 1346 1348 1350 1352 1354 1356 1358 1360 1362 1364 1366 1368 1370 1372 1374 1376 1378 1380 1382 1384 1386 1388 1390 1392 1394 1396 1398 1400 1402 1404 1406 1408 1410 1412 1414 1416 1418 1420 1422 1424 1426 1428 1430 1432 1434 1436 1438 1440 1442 1444 1446 1448 1450 1452 1454 1456 1458 1460 1462 1464 1466 1468 1470 1472 1474 1476 1478 1480 1482 1484 1486 1488 1490 1492 1494 1496 1498 1500 1502 1504 1506 1508 1510 1512 1514 1516 1518 1520 1522 1524 1526 1528 1530 1532 1534 1536 1538 1540 1542 1544 1546 1548 1550 1552 1554 1556 1558 1560 1562 1564 1566 1568 1570 1572 1574 1576 1578 1580 1582 1584 1586 1588 1590 1592 1594 1596 1598 1600 1602 1604 1606 1608 1610 1612 1614 1616 1618 1620 1622 1624 1626 1628 1630 1632 1634 1636 1638 1640 1642 1644 1646 1648 1650 1652 1654 1656 1658 1660 1662 1664 1666 1668 1670 1672 1674 1676 1678 1680 1682 1684 1686 1688 1690 1692 1694 1696 1698 1700 1702 1704 1706 1708 1710 1712 1714 1716 1718 1720 1722 1724 1726 1728 1730 1732 1734 1736 1738 1740 1742 1744 1746 1748 1750 1752 1754 1756 1758 1760 1762 1764 1766 1768 1770 1772 1774 1776 1778 1780 1782 1784 1786 1788 1790 1792 1794 1796 1798 1800 1802 1804 1806 1808 1810 1812 1814 1816 1818 1820 1822 1824 1826 1828 1830 1832 1834 1836 1838 1840 1842 1844 1846 1848 1850 1852 1854 1856 1858 1860 1862 1864 1866 1868 1870 1872 1874 1876 1878 1880 1882 1884 1886 1888 1890 1892 1894 1896 1898 1900 1902 1904 1906 1908 1910 1912 1914 1916 1918 1920 1922 1924 1926 1928 1930 1932 1934 1936 1938 1940 1942 1944 1946 1948 1950 1952 1954 1956 1958 1960 1962 1964 1966 1968 1970 1972 1974 1976 1978 1980 1982 1984 1986 1988 1990 1992 1994 1996 1998 2000 2002 2004 2006 2008 2010 2012 2014 2016 2018 2020 2022 2024 2026 2028 2030 2032 2034 2036 2038 2040 2042 2044 2046 2048 2050 2052 2054 2056 2058 2060 2062 2064 2066 2068 2070 2072 2074 2076 2078 2080 2082 2084 2086 2088 2090 2092 2094 2096 2098 2100 2102 2104 2106 2108 2110 2112 2114 2116 2118 2120 2122 2124 2126 2128 2130 2132 2134 2136 2138 2140 2142 2144 2146 2148 2150 2152 2154 2156 2158 2160 2162 2164 2166 2168 2170 2172 2174 2176 2178 2180 2182 2184 2186 2188 2190 2192 2194 2196 2198 2200 2202 2204 2206 2208 2210 2212 2214 2216 2218 2220 2222 2224 2226 2228 2230 2232 2234 2236 2238 2240 2242 2244 2246 2248 2250 2252 2254 2256 2258 2260 2262 2264 2266 2268 2270 2272 2274 2276 2278 2280 2282 2284 2286 2288 2290 2292 2294 2296 2298 2300 2302 2304 2306 2308 2310 2312 2314 2316 2318 2320 2322 2324 2326 2328 2330 2332 2334 2336 2338 2340 2342 2344 2346 2348 2350 2352 2354 2356 2358 2360 2362 2364 2366 2368 2370 2372 2374 2376 2378 2380 2382 2384 2386 2388 2390 2392 2394 2396 2398 2400 2402 2404 2406 2408 2410 2412 2414 2416 2418 2420 2422 2424 2426 2428 2430 2432 2434 2436 2438 2440 2442 2444 2446 2448 2450 2452 2454 2456 2458 2460 2462 2464 2466 2468 2470 2472 2474 2476 2478 2480 2482 2484 2486 2488 2490 2492 2494 2496 2498 2500 2502 2504 2506 2508 2510 2512 2514 2516 2518 2520 2522 2524 2526 2528 2530 2532 2534 2536 2538 2540 2542 2544 2546 2548 2550 2552 2554 2556 2558 2560 2562 2564 2566 2568 2570 2572 2574 2576 2578 2580 2582 2584 2586 2588 2590 2592 2594 2596 2598 2600 2602 2604 2606 2608 2610 2612 2614 2616 2618 2620 2622 2624 2626 2628 2630 2632 2634 2636 2638 2640 2642 2644 2646 2648 2650 2652 2654 2656 2658 2660 2662 2664 2666 2668 2670 2672 2674 2676 2678 2680 2682 2684 2686 2688 2690 2692 2694 2696 2698 2700 2702 2704 2706 2708 2710 2712 2714 2716 2718 2720 2722 2724 2726 2728 2730 2732 2734 2736 2738 2740 2742 2744 2746 2748 2750 2752 2754 2756 2758 2760 2762 2764 2766 2768 2770 2772 2774 2776 2778 2780 2782 2784 2786 2788 2790 2792 2794 2796 2798 2800 2802 2804 2806 2808 2810 2812 2814 2816 2818 2820 2822 2824 2826 2828 2830 2832 2834 2836 2838 2840 2842 2844 2846 2848 2850 2852 2854 2856 2858 2860 2862 2864 2866 2868 2870 2872 2874 2876 2878 2880 2882 2884 2886 2888 2890 2892 2894 2896 2898 2900 2902 2904 2906 2908 2910 2912 2914 2916 2918 2920 2922 2924 2926 2928 2930 2932 2934 2936 2938 2940 2942 2944 2946 2948 2950 2952 2954 2956 2958 2960 2962 2964 2966 2968 2970 2972 2974 2976 2978 2980 2982 2984 2986 2988 2990 2992 2994 2996 2998 3000 3002 3004 3006 3008 3010 3012 3014 3016 3018 3020 3022 3024 3026 3028 3030 3032 3034 3036 3038 3040 3042 3044 3046 3048 3050 3052 3054 3056 3058 3060 3062 3064 3066 3068 3070 3072 3074 3076 3078 3080 3082 3084 3086 3088 3090 3092 3094 3096 3098 3100 3102 3104 3106 3108 3110 3112 3114 3116 3118 3120 3122 3124 3126 3128 3130 3132 3134 3136 3138 3140 3142 3144 3146 3148 3150 3152 3154 3156 3158 3160 3162 3164 3166 3168 3170 3172 3174 3176 3178 3180 3182 3184 3186 3188 3190 3192 3194 3196 3198 3200 3202 3204 3206 3208 3210 3212 3214 3216 3218 3220 3222 3224 3226 3228 3230 3232 3234 3236 3238 3240 3242 3244 3246 3248 3250 3252 3254 3256 3258 3260 3262 3264 3266 3268 3270 3272 3274 3276 3278 3280 3282 3284 3286 3288 3290 3292 3294 3296 3298 3300 3302 3304 3306 3308 3310 3312 3314 3316 3318 3320 3322 3324 3326 3328 3330 3332 3334 3336 3338 3340 3342 3344 3346 3348 3350 3352 3354 3356 3358 3360 3362 3364 3366 3368 3370 3372 3374 3376 3378 3380 3382 3384 3386 3388 3390 3392 3394 3396 3398 3400 3402 3404 3406 3408 3410 3412 3414 3416 3418 3420 3422 3424 3426 3428 3430 3432 3434 3436 3438 3440 3442 3444 3446 3448 3450 3452 3454 3456 3458 3460 3462 3464 3466 3468 3470 3472 3474 3476 3478 3480 3482 3484 3486 3488 3490 3492 3494 3496 3498 3500 3502 3504 3506 3508 3510 3512 3514 3516 3518 3520 3522 3524 3526 3528 3530 3532 3534 3536 3538 3540 3542 3544 3546 3548 3550 3552 3554 3556 3558 3560 3562 3564 3566 3568 3570 3572 3574 3576 3578 3580 3582 3584 3586 3588 3590 3592 3594 3596 3598 3600 3602 3604 3606 3608 3610 3612 3614 3616 3618 3620 3622 3624 3626 3628 3630 3632 3634 3636 3638 3640 3642 3644 3646 3648 3650 3652 3654 3656 3658 3660 3662 3664 3666 3668 3670 3672 3674 3676 3678 3680 3682 3684 3686 3688 3690 3692 3694 3696 3698 3700 3702 3704 3706 3708 3710 3712 3714 3716 3718 3720 3722 3724 3726 3728 3730 3732 3734 3736 3738 3740 3742 3744 3746 3748 3750 3752 3754 3756 3758 3760 3762 3764 3766 3768 3770 3772 3774 3776 3778 3780 3782 3784 3786 3788 3790 3792 3794 3796 3798 3800 3802 3804 3806 3808 3810 3812 3814 3816 3818 3820 3822 3824 3826 3828 3830 3832 3834 3836 3838 3840 3842 3844 3846 3848 3850 3852 3854 3856 3858 3860 3862 3864 3866 3868 3870 3872 3874 3876 3878 3880 3882 3884 3886 3888 3890 3892 3894 3896 3898 3900 3902 3904 3906 3908 3910 3912 3914 3916 3918 3920 3922 3924 3926 3928 3930 3932 3934 3936 3938 3940 3942 3944 3946 3948 3950 3952 3954 3956 3958 3960 3962 3964 3966 3968 3970 3972 3974 3976 3978 3980 3982 3984 3986 3988 3990 3992 3994 3996 3998 4000 4002 4004 4006 4008 4010 4012 4014 4016 4018 4020 4022 4024 4026 4028 4030 4032 4034 4036 4038 4040 4042 4044 4046 4048 4050 4052 4054 4056 4058 4060 4062 4064 4066 4068 4070 4072 4074 4076 4078 4080 4082 4084 4086 4088 4090 4092 4094 4096 4098 4100 4102 4104 4106 4108 4110 4112 4114 4116 4118 4120 4122 4124 4126 4128 4130 4132 4134 4136 4138 4140 4142 4144 4146 4148 4150 4152 4154 4156 4158 4160 4162 4164 4166 4168 4170 4172 4174 4176 4178 4180 4182 4184 4186 4188 4190 4192 4194 4196 4198 4200 4202 4204 4206 4208 4210 4212 4214 4216 4218 4220 4222 4224 4226 4228 4230 4232 4234 4236 4238 4240 4242 4244 4246 4248 4250 4252 4254 4256 4258 4260 4262 4264 4266 4268 4270 4272 4274 4276 4278 4280 4282 4284 4286 4288 4290 4292 4294 4296 4298 </DataArray>
<DataArray  type="UInt8"  Name="types"  format="ascii">3 3 3 3 3 3 3 3 3 3 3 3 3 3 3 3 3 3 3 3 3 3 3 3 3 3 3 3 3 3 3 3 3 3 3 3 3 3 3 3 3 3 3 3 3 3 3 3 3 3 3 3 3 3 3 3 3 3 3 3 3 3 3 3 3 3 3 3 3 3 3 3 3 3 3 3 3 3 3 3 3 3 3 3 3 3 3 3 3 3 3 3 3 3 3 3 3 3 3 3 3 3 3 3 3 3 3 3 3 3 3 3 3 3 3 3 3 3 3 3 3 3 3 3 3 3 3 3 3 3 3 3 3 3 3 3 3 3 3 3 3 3 3 3 3 3 3 3 3 3 3 3 3 3 3 3 3 3 3 3 3 3 3 3 3 3 3 3 3 3 3 3 3 3 3 3 3 3 3 3 3 3 3 3 3 3 3 3 3 3 3 3 3 3 3 3 3 3 3 3 3 3 3 3 3 3 3 3 3 3 3 3 3 3 3 3 3 3 3 3 3 3 3 3 3 3 3 3 3 3 3 3 3 3 3 3 3 3 3 3 3 3 3 3 3 3 3 3 3 3 3 3 3 3 3 3 3 3 3 3 3 3 3 3 3 3 3 3 3 3 3 3 3 3 3 3 3 3 3 3 3 3 3 3 3 3 3 3 3 3 3 3 3 3 3 3 3 3 3 3 3 3 3 3 3 3 3 3 3 3 3 3 3 3 3 3 3 3 3 3 3 3 3 3 3 3 3 3 3 3 3 3 3 3 3 3 3 3 3 3 3 3 3 3 3 3 3 3 3 3 3 3 3 3 3 3 3 3 3 3 3 3 3 3 3 3 3 3 3 3 3 3 3 3 3 3 3 3 3 3 3 3 3 3 3 3 3 3 3 3 3 3 3 3 3 3 3 3 3 3 3 3 3 3 3 3 3 3 3 3 3 3 3 3 3 3 3 3 3 3 3 3 3 3 3 3 3 3 3 3 3 3 3 3 3 3 3 3 3 3 3 3 3 3 3 3 3 3 3 3 3 3 3 3 3 3 3 3 3 3 3 3 3 3 3 3 3 3 3 3 3 3 3 3 3 3 3 3 3 3 3 3 3 3 3 3 3 3 3 3 3 3 3 3 3 3 3 3 3 3 3 3 3 3 3 3 3 3 3 3 3 3 3 3 3 3 3 3 3 3 3 3 3 3 3 3 3 3 3 3 3 3 3 3 3 3 3 3 3 3 3 3 3 3 3 3 3 3 3 3 3 3 3 3 3 3 3 3 3 3 3 3 3 3 3 3 3 3 3 3 3 3 3 3 3 3 3 3 3 3 3 3 3 3 3 3 3 3 3 3 3 3 3 3 3 3 3 3 3 3 3 3 3 3 3 3 3 3 3 3 3 3 3 3 3 3 3 3 3 3 3 3 3 3 3 3 3 3 3 3 3 3 3 3 3 3 3 3 3 3 3 3 3 3 3 3 3 3 3 3 3 3 3 3 3 3 3 3 3 3 3 3 3 3 3 3 3 3 3 3 3 3 3 3 3 3 3 3 3 3 3 3 3 3 3 3 3 3 3 3 3 3 3 3 3 3 3 3 3 3 3 3 3 3 3 3 3 3 3 3 3 3 3 3 3 3 3 3 3 3 3 3 3 3 3 3 3 3 3 3 3 3 3 3 3 3 3 3 3 3 3 3 3 3 3 3 3 3 3 3 3 3 3 3 3 3 3 3 3 3 3 3 3 3 3 3 3 3 3 3 3 3 3 3 3 3 3 3 3 3 3 3 3 3 3 3 3 3 3 3 3 3 3 3 3 3 3 3 3 3 3 3 3 3 3 3 3 3 3 3 3 3 3 3 3 3 3 3 3 3 3 3 3 3 3 3 3 3 3 3 3 3 3 3 3 3 3 3 3 3 3 3 3 3 3 3 3 3 3 3 3 3 3 3 3 3 3 3 3 3 3 3 3 3 3 3 3 3 3 3 3 3 3 3 3 3 3 3 3 3 3 3 3 3 3 3 3 3 3 3 3 3 3 3 3 3 3 3 3 3 3 3 3 3 3 3 3 3 3 3 3 3 3 3 3 3 3 3 3 3 3 3 3 3 3 3 3 3 3 3 3 3 3 3 3 3 3 3 3 3 3 3 3 3 3 3 3 3 3 3 3 3 3 3 3 3 3 3 3 3 3 3 3 3 3 3 3 3 3 3 3 3 3 3 3 3 3 3 3 3 3 3 3 3 3 3 3 3 3 3 3 3 3 3 3 3 3 3 3 3 3 3 3 3 3 3 3 3 3 3 3 3 3 3 3 3 3 3 3 3 3 3 3 3 3 3 3 3 3 3 3 3 3 3 3 3 3 3 3 3 3 3 3 3 3 3 3 3 3 3 3 3 3 3 3 3 3 3 3 3 3 3 3 3 3 3 3 3 3 3 3 3 3 3 3 3 3 3 3 3 3 3 3 3 3 3 3 3 3 3 3 3 3 3 3 3 3 3 3 3 3 3 3 3 3 3 3 3 3 3 3 3 3 3 3 3 3 3 3 3 3 3 3 3 3 3 3 3 3 3 3 3 3 3 3 3 3 3 3 3 3 3 3 3 3 3 3 3 3 3 3 3 3 3 3 3 3 3 3 3 3 3 3 3 3 3 3 3 3 3 3 3 3 3 3 3 3 3 3 3 3 3 3 3 3 3 3 3 3 3 3 3 3 3 3 3 3 3 3 3 3 3 3 3 3 3 3 3 3 3 3 3 3 3 3 3 3 3 3 3 3 3 3 3 3 3 3 3 3 3 3 3 3 3 3 3 3 3 3 3 3 3 3 3 3 3 3 3 3 3 3 3 3 3 3 3 3 3 3 3 3 3 3 3 3 3 3 3 3 3 3 3 3 3 3 3 3 3 3 3 3 3 3 3 3 3 3 3 3 3 3 3 3 3 3 3 3 3 3 3 3 3 3 3 3 3 3 3 3 3 3 3 3 3 3 3 3 3 3 3 3 3 3 3 3 3 3 3 3 3 3 3 3 3 3 3 3 3 3 3 3 3 3 3 3 3 3 3 3 3 3 3 3 3 3 3 3 3 3 3 3 3 3 3 3 3 3 3 3 3 3 3 3 3 3 3 3 3 3 3 3 3 3 3 3 3 3 3 3 3 3 3 3 3 3 3 3 3 3 3 3 3 3 3 3 3 3 3 3 3 3 3 3 3 3 3 3 3 3 3 3 3 3 3 3 3 3 3 3 3 3 3 3 3 3 3 3 3 3 3 3 3 3 3 3 3 3 3 3 3 3 3 3 3 3 3 3 3 3 3 3 3 3 3 3 3 3 3 3 3 3 3 3 3 3 3 3 3 3 3 3 3 3 3 3 3 3 3 3 3 3 3 3 3 3 3 3 3 3 3 3 3 3 3 3 3 3 3 3 3 3 3 3 3 3 3 3 3 3 3 3 3 3 3 3 3 3 3 3 3 3 3 3 3 3 3 3 3 3 3 3 3 3 3 3 3 3 3 3 3 3 3 3 3 3 3 3 3 3 3 3 3 3 3 3 3 3 3 3 3 3 3 3 3 3 3 3 3 3 3 3 3 3 3 3 3 3 3 3 3 3 3 3 3 3 3 3 3 3 3 3 3 3 3 3 3 3 3 3 3 3 3 3 3 3 3 3 3 3 3 3 3 3 3 3 3 3 3 3 3 3 3 3 3 3 3 3 3 3 3 3 3 3 3 3 3 3 3 3 3 3 3 3 3 3 3 3 3 3 3 3 3 3 3 3 3 3 3 3 3 3 3 3 3 3 3 3 3 3 3 3 3 3 3 3 3 3 3 3 3 3 3 3 3 3 3 3 3 3 3 3 3 3 3 3 3 3 3 3 3 3 3 3 3 3 3 3 3 3 3 3 3 3 3 3 3 3 3 3 3 3 3 3 3 3 3 3 3 3 3 3 3 3 3 3 3 3 3 3 3 3 3 3 3 3 3 3 3 3 3 3 3 3 3 3 3 3 3 3 3 3 3 3 3 3 3 3 3 3 3 3 3 3 3 3 3 3 3 3 3 3 3 3 3 3 3 3 3 3 3 3 3 3 3 3 3 3 3 3 3 3 3 3 3 3 3 3 3 3 3 3 3 3 3 3 3 3 3 3 3 3 3 3 3 3 3 3 3 3 3 3 3 3 3 3 3 3 3 3 3 3 3 3 3 3 3 3 3 3 3 3 3 3 3 3 3 3 3 3 3 3 3 3 3 3 3 3 3 3 3 3 3 3 3 3 3 3 3 3 3 3 3 3 3 3 3 3 3 3 3 3 3 3 3 3 3 3 3 3 3 3 3 3 3 3 3 3 3 3 3 3 3 3 3 3 3 3 3 3 3 3 3 3 3 3 3 3 3 3 3 3 3 3 3 3 3 3 3 3 3 3 3 3 3 3 3 3 3 3 3 3 3 3 3 3 3 3 3 3 3 3 3 3 3 3 3 3 3 3 3 3 3 3 3 3 3 3 3 3 3 3 3 3 3 3 3 3 3 3 3 3 3 3 3 3 3 3 3 3 3 3 3 3 3 3 3 3 3 3 3 3 3 3 3 3 3 3 3 3 3 3 3 3 3 3 3 3 3 3 3 3 3 3 3 3 3 3 3 3 3 3 3 3 3 3 3 3 3 3 3 3 3 3 3 3 3 3 3 3 3 3 3 3 3 3 3 3 3 3 3 3 3 3 3 3 3 3 3 3 3 3 3 3 3 3 3 3 3 3 3 3 3 3 3 3 3 3 3 3 3 3 3 3 3 3 3 3 3 3 3 3 3 3 3 3 3 3 3 3 3 3 3 3 3 3 3 3 3 3 3 3 3 3 3 3 3 3 3 3 </DataArray>
</Cells>
<CellData  Scalars="f">
<DataArray  type="Float64"  Name="f"  format="ascii">0 0 0 0 0 0 0 0 0 0 0 0 0 0 0 0 0 0 0 0 0 0 0 0 0 0 0 0 0 0 0 0 0 0 0 0 0 0 0 0 0 0 0 0 0 0 0 0 0 0 0 0 0 0 0 0 0 0 0 0 0 0 0 0 0 0 0 0 0 0 0 0 0 0 0 0 0 0 0 0 0 0 0 0 0 0 0 0 0 0 0 0 0 0 0 0 0 0 0 0 0 0 0 0 0 0 0 0 0 0 0 0 0 0 0 0 0 0 0 0 0 0 0 0 0 0 0 0 0 0 0 0 0 0 0 0 0 0 0 0 0 0 0 0 0 0 0 0 0 0 0 0 0 0 0 0 0 0 0 0 0 0 0 0 0 0 0 0 0 0 0 0 0 0 0 0 0 0 0 0 0 0 0 0 0 0 0 0 0 0 0 0 0 0 0 0 0 0 0 0 0 0 0 0 0 0 0 0 0 0 0 0 0 0 0 0 0 0 0 0 0 0 0 0 0 0 0 0 0 0 0 0 0 0 0 0 0 0 0 0 0 0 0 0 0 0 0 0 0 0 0 0 0 0 0 0 0 0 0 0 0 0 0 0 0 0 0 0 0 0 0 0 0 0 0 0 0 0 0 0 0 0 0 0 0 0 0 0 0 0 0 0 0 0 0 0 0 0 0 0 0 0 0 0 0 0 0 0 0 0 0 0 0 0 0 0 0 0 0 0 0 0 0 0 0 0 0 0 0 0 0 0 0 0 0 0 0 0 0 0 0 0 0 0 0 0 0 0 0 0 0 0 0 0 0 0 0 0 0 0 0 0 0 0 0 0 0 0 0 0 0 0 0 0 0 0 0 0 0 0 0 0 0 0 0 0 0 0 0 0 0 0 0 0 0 0 0 0 0 0 0 0 0 0 0 0 0 0 0 0 0 0 0 0 0 0 0 0 0 0 0 0 0 0 0 0 0 0 0 0 0 0 0 0 0 0 0 0 0 0 0 0 0 0 0 0 0 0 0 0 0 0 0 0 0 0 0 0 0 0 0 0 0 0 0 0 0 0 0 0 0 0 0 0 0 0 0 0 0 0 0 0 0 0 0 0 0 0 0 0 0 0 0 0 0 0 0 0 0 0 0 0 0 0 0 0 0 0 0 0 0 0 0 0 0 0 0 0 0 0 0 0 0 0 0 0 0 0 0 0 0 0 0 0 0 0 0 0 0 0 0 0 0 0 0 0 0 0 0 0 0 0 0 0 0 0 0 0 0 0 0 0 0 0 0 0 0 0 0 0 0 0 0 0 0 0 0 0 0 0 0 0 0 0 0 0 0 0 0 0 0 0 0 0 0 0 0 0 0 0 0 0 0 0 0 0 0 0 0 0 0 0 0 0 0 0 0 0 0 0 0 0 0 0 0 0 0 0 0 0 0 0 0 0 0 0 0 0 0 0 0 0 0 0 0 0 0 0 0 0 0 0 0 0 0 0 0 0 0 0 0 0 0 0 0 0 0 0 0 0 0 0 0 0 0 0 0 0 0 0 0 0 0 0 0 0 0 0 0 0 0 0 0 0 0 0 0 0 0 0 0 0 0 0 0 0 0 0 0 0 0 0 0 0 0 0 0 0 0 0 0 0 0 0 0 0 0 0 0 0 0 0 0 0 0 0 0 0 0 0 0 0 0 0 0 0 0 0 0 0 0 0 0 0 0 0 0 0 0 0 0 0 0 0 0 0 0 0 0 0 0 0 0 0 0 0 0 0 0 0 0 0 0 0 0 0 0 0 0 0 0 0 0 0 0 0 0 0 0 0 0 0 0 0 0 0 0 0 0 0 0 0 0 0 0 0 0 0 0 0 0 0 0 0 0 0 0 0 0 0 0 0 0 0 0 0 0 0 0 0 0 0 0 0 0 0 0 0 0 0 0 0 0 0 0 0 0 0 0 0 0 0 0 0 0 0 0 0 0 0 0 0 0 0 0 0 0 0 0 0 0 0 0 0 0 0 0 0 0 0 0 0 0 0 0 0 0 0 0 0 0 0 0 0 0 0 0 0 0 0 0 0 0 0 0 0 0 0 0 0 0 0 0 0 0 0 0 0 0 0 0 0 0 0 0 0 0 0 0 0 0 0 1 1 0 0 0 0 0 0 0 0 0 0 0 0 0 0 0 0 0 0 0 0 0 0 0 0 0 0 0 0 0 0 0 0 0 0 0 0 0 0 0 0 0 0 0 0 0 0 0 0 0 0 0 0 0 0 0 0 0 0 0 0 0 0 0 0 0 0 0 0 0 0 0 0 0 0 0 0 0 0 0 0 0 0 0 0 0 0 0 0 0 0 0 0 0 0 0 0 0 0 0 0 0 0 0 0 0 0 0 0 0 0 0 0 0 0 0 0 0 0 0 0 0 0 0 0 0 0 0 0 0 0 0 0 0 0 0 0 0 0 0 0 0 0 0 0 0 0 0 0 0 0 0 0 0 0 0 0 0 0 0 0 0 0 0 0 0 0 0 0 0 0 0 0 0 0 0 0 0 0 0 0 0 0 0 0 0 0 0 0 0 0 0 0 0 0 0 0 0 0 0 0 0 0 0 0 0 0 0 0 0 0 0 0 0 0 0 0 0 0 0 0 0 0 0 0 0 0 0 0 0 0 0 0 0 0 0 0 0 0 0 0 0 0 0 0 0 0 0 0 0 0 0 0 0 0 0 0 0 0 0 0 0 0 0 0 0 0 0 0 0 0 0 0 0 0 0 0 0 0 0 0 0 0 0 0 0 0 0 0 0 0 0 0 0 0 0 0 0 0 0 0 0 0 0 0 0 0 0 0 0 0 0 0 0 0 0 0 0 0 0 0 0 0 0 0 0 0 0 0 0 0 0 0 0 0 0 0 0 0 0 0 0 0 0 0 0 0 0 0 0 0 0 0 0 0 0 0 0 0 0 0 0 0 0 0 0 0 0 0 0 0 0 0 0 0 0 0 0 0 0 0 0 0 0 0 0 0 0 0 0 0 0 0 0 0 0 0 0 0 0 0 0 0 0 0 0 0 0 0 0 0 0 0 0 0 0 0 0 0 0 0 0 0 0 0 0 0 0 0 0 0 0 0 0 0 0 0 0 0 0 0 0 0 0 0 0 0 0 0 0 0 0 0 0 0 0 0 0 0 0 0 0 0 0 0 0 0 0 0 0 0 0 0 0 0 0 0 0 0 0 0 0 0 0 0 0 0 0 0 0 0 0 0 0 0 0 0 0 0 0 0 0 0 0 0 0 0 0 0 0 0 0 0 0 0 1 0 1 0 0 0 0 0 0 0 0 0 0 0 0 0 0 0 0 0 0 0 0 0 0 0 0 0 0 0 0 0 0 0 0 0 0 0 0 0 0 0 0 0 0 0 0 0 0 0 0 0 0 0 0 0 0 0 0 0 0 0 0 0 0 0 0 0 0 0 0 0 0 0 0 0 0 0 0 0 0 0 0 0 0 0 0 0 0 0 0 0 0 0 0 0 0 0 0 0 0 0 0 0 0 0 0 0 0 0 0 0 0 0 0 0 0 0 0 0 0 0 0 0 0 0 0 0 0 0 0 0 0 0 0 0 0 0 0 0 0 0 0 0 0 0 0 0 0 0 0 0 0 0 0 0 0 0 0 0 0 0 0 0 0 0 0 0 0 0 0 0 0 0 0 0 0 0 0 0 0 0 0 0 0 0 0 0 0 0 0 0 0 0 0 0 0 0 0 0 0 0 0 0 0 0 0 0 0 0 0 0 0 0 0 0 0 0 0 0 0 0 0 0 0 0 0 0 0 0 0 0 0 0 0 0 0 0 0 0 0 0 0 0 0 0 0 0 0 0 0 0 0 0 0 0 0 0 0 0 0 0 0 0 0 0 0 0 0 0 0 0 0 0 0 0 0 0 0 0 0 0 0 0 0 0 0 0 0 0 0 0 0 0 0 0 0 0 0 0 0 0 0 0 0 0 0 0 0 0 0 0 0 0 0 0 0 0 0 0 0 0 0 0 0 0 0 0 0 0 0 0 0 0 0 0 0 0 0 0 0 0 0 0 0 0 0 0 0 0 0 0 0 0 0 0 0 0 1 1 0 0 0 0 0 0 0 0 0 0 0 0 0 0 0 0 0 0 0 0 0 0 0 0 0 0 0 0 0 0 0 0 0 0 0 0 1 1 0 0 0 0 0 0 0 0 0 0 0 0 0 0 0 0 0 0 0 0 0 0 1 1 0 0 0 0 0 0 0 0 0 0 0 0 0 0 0 0 0 0 0 0 0 0 0 0 0 0 0 0 0 0 0 0 0 0 0 0 0 0 0 0 0 0 0 0 0 0 0 0 0 0 0 0 0 0 0 0 0 0 0 0 0 0 1 0 0 0 0 0 0 0 0 0 0 0 0 0 0 0 0 0 0 0 0 0 0 0 0 0 0 0 0 0 0 0 0 0 0 0 0 0 0 0 0 0 0 0 0 0 0 1 1 0 0 0 0 0 0 0 0 0 0 0 0 0 0 0 0 0 0 0 0 0 0 0 0 0 0 0 0 0 0 0 0 0 0 0 0 0 0 0 0 0 0 0 0 0 0 0 0 0 0 0 0 0 0 0 0 0 0 0 0 0 0 0 0 0 0 0 0 0 0 0 0 0 0 0 0 0 0 0 1 1 0 1 0 0 0 0 0 0 0 0 0 0 1 1 0 0 0 0 0 0 0 0 1 0 0 0 0 0 0 0 0 0 1 1 1 1 0 0 0 0 0 0 0 0 0 0 0 0 0 0 1 0 1 1 0 0 0 1 1 0 0 0 0 0 0 1 0 0 0 0 0 0 1 1 0 0 1 </DataArray>
</CellData>
</Piece>
</UnstructuredGrid>
</VTKFile>