<?xml version="1.0"?>
<VTKFile type="UnstructuredGrid"  version="0.1"  >
<UnstructuredGrid>
<Piece  NumberOfPoints="524" NumberOfCells="967">
<Points>
<DataArray  type="Float64"  NumberOfComponents="3"  format="ascii">-1 0 0  -1 -1 0  1 -1 0  1 0 0  -1 1 0  1 1 0  0 -1 0  0 0 0  0 1 0  -0.5 -1 0  -0.5 0 0  -1 -0.5 0  1 -0.5 0  0.5 0 0  0.5 -1 0  -0.25 -0.5 0  -1 0.5 0  -0.25 0.5 0  1 0.5 0  0.3125 0.53125 0  0.5 -0.5 0  -0.5 1 0  0.5 1 0  -0.625 0.375 0  -0.625 -0.625 0  0.125 -0.375 0  -0.71875 0.71875 0  0.6629464285714286 0.6629464285714286 0  1 -0.75 0  0.75 -1 0  1 0.25 0  0.75 0 0  -0.71875 -0.28125 0  0.25 -1 0  0.5881618897972686 0.329829196399036 0  0.125 -0.7 0  0.25 0 0  0.04138513513513514 0.3331925675675675 0  0.25 1 0  0.02232142857142857 0.6763392857142857 0  -0.25 1 0  -0.375 0.75 0  -0.4320652173913043 -0.2785326086956522 0  0.7083333333333333 -0.7083333333333334 0  -0.1488636363636364 -0.7619318181818182 0  -0.125 -0.25 0  -0.25 0 0  0.625 -0.25 0  0.3259854724217269 0.2603620032445027 0  -0.75 -1 0  -1 -0.75 0  -0.75 0 0  -1 0.25 0  -0.375 0.25 0  0.3579545454545455 -0.2443181818181818 0  0.4276009316770186 0.7570846273291925 0  0.4583333333333333 -0.75 0  -1 -0.25 0  -0.25 -1 0  -1 0.75 0  -0.75 1 0  1 0.75 0  0.75 1 0  1 -0.25 0  -0.3901336191835071 -0.7045991424494787 0  0.7430555555555556 -0.4652777777777778 0  -0.4732142857142857 0.5446428571428572 0  0.7742056621559426 0.4630156749487892 0  -0.125 0.1846924455348885 0  -0.04778708133971296 -0.5724132775119617 0  0.3108739837398374 -0.5969512195121951 0  -0.160433116048476 0.798966558024238 0  0.780443071042488 0.219556928957512 0  0.2246500893388922 0.7182733929634986 0  -0.4620753803475469 -0.4887738589573591 0  -0.5570033656898061 -0.8106677885632687 0  -0.5625 0.1875 0  -0.8333333333333334 0.375 0  -0.8333333333333334 -0.625 0  0.0625 -0.1875 0  0.125 0.1536404810228479 0  -0.8184523809523809 0.181547619047619 0  -0.8184523809523809 -0.8184523809523809 0  0.8125 -0.1875 0  0.4937218093759243 0.5811358510795621 0  0.5968255508725229 0.8388952048210589 0  0.8635993153041907 0.625 0  0.8149772505415394 0.8149772505415394 0  -0.7291666666666667 0.53125 0  -0.7291666666666667 -0.46875 0  0.125 0.8692437640297089 0  0.869047619047619 -0.625 0  0.6041666666666665 -0.8541666666666666 0  -0.625 0.8715277777777778 0  -0.625 -0.1284722222222222 0  0.6110753471468792 0.1470072898941065 0  0.340305410888887 -0.4214212363748607 0  -0.846875 0.846875 0  -1 -0.125 0  -0.875 0 0  0.8385416666666666 -0.8385416666666666 0  -0.8706224437627812 -0.3668519938650306 0  -1 0.625 0  -0.5441816706021252 0.7047483766233766 0  0.1203547297297297 0.5096826737451737 0  -0.06503055567819664 0.5127941357128027 0  0.4289421022301622 0.4012671065543736 0  -0.2207942287308654 0.3291471143654327 0  0.278611111111111 -0.8120370370370371 0  0.1167678129628202 -0.8726115887345084 0  0.8632478632478633 -0.3477564102564102 0  -0.2868571330085485 -0.1746785665042743 0  -0.04431470964322415 -0.4011294192864484 0  -0.5884065557205177 -0.3825306543118232 0  -0.2793764106228006 -0.3385796139075677 0  -0.2949535986452346 -0.8403862505646844 0  0.1564119681997804 -0.5375 0  0.2017457911319522 0.3673523364185749 0  -0.8506944444444444 -0.1875 0  0.4488275200136013 0.1541313972122217 0  -0.241683377066603 0.6604083114666985 0  -0.3839285714285715 0.4107142857142857 0  0.875 0 0  0.875106136233474 0.3437914692100325 0  0.630564250712966 0.5140034700634035 0  0.375 1 0  0.3040466976719478 0.8531330464872861 0  0.2212243401759531 -0.1587243401759531 0  -0.8460102201257862 0.6317806603773586 0  0.5684523809523809 -0.6398809523809524 0  -0.02246622704754268 0.8533960934157091 0  0.4767973972824623 -0.3455923550450968 0  0.6103606703555905 -0.4044691369335779 0  0.375 -1 0  -0.0007288037633571831 -0.7805058444092411 0  -0.4815066425120773 -0.143040458937198 0  0.375 0 0  0.4933406647116324 -0.1595796676441837 0  0.625 0 0  -0.2498118026925814 -0.6504184844551517 0  -0.125 -1 0  1 0.125 0  1 -0.125 0  -0.4788162589194699 0.854341870540265 0  0.6875 -0.125 0  -0.0625 -0.125 0  -0.2878419778197174 0.8626709889098587 0  -0.5 0.3125 0  -0.2683580135195941 0.147070993240203 0  -0.4375 0.125 0  -0.7291666666666666 0.2857142857142858 0  -0.7291666666666667 -0.7142857142857142 0  0.125 0 0  -0.375 0 0  0.2623024539371762 0.1376785942467038 0  -0.125 1 0  -0.6860118188241868 -0.8721945421483859 0  0.2488943084229333 -0.322880763236138 0  -0.6891298185941043 0.1266298185941043 0  -0.108020472521065 0.6408563078985153 0  -0.4266498532834097 -0.8314469976742455 0  0.4375 -0.8819444444444444 0  -0.5638920179569745 -0.2498698138406373 0  -0.08941310081570317 0.3122816921271554 0  1 0.875 0  0.875 1 0  0.4400624274099884 -0.6160206155632985 0  -0.8685292833540387 -0.4983168222498294 0  0.8698864551457561 -0.4947846763658489 0  -0.3659363454475667 0.6195006124190227 0  0.7448607889876734 -0.2970823669630203 0  -0.8683092622013515 0.5019765392870869 0  -0.875 -1 0  -1 -0.875 0  -1 0.125 0  -0.6035301857308966 0.5826608775661284 0  0.4748649341589187 0.8752446335339429 0  0.5409858118578244 0.6992958572843125 0  0.3411958302350599 0.6588736298767539 0  -0.375 1 0  -0.08794122203869277 -0.876055157210214 0  -0.004681198926340363 0.13147803518823 0  -0.125 0 0  0.125 -1 0  -1 -0.375 0  0.875 -1 0  -0.625 0 0  -0.875 1 0  -0.375 -1 0  -0.625 1 0  0.625 -1 0  1 -0.625 0  0.125 1 0  1 0.375 0  1 0.625 0  -1 -0.625 0  -1 0.375 0  0.625 1 0  -1 0.875 0  1 -0.875 0  1 -0.375 0  -0.625 -1 0  -0.3602916235475765 -0.5747488752974355 0  -0.5162644948376385 -0.6904630870908628 0  0.4702694539335958 0.2802245718217081 0  0.6331340784160523 -0.5299594752414492 0  0.7490079365079364 -0.5901360544217688 0  -0.5852466687504656 -0.5070035560035928 0  0.3404091084935372 -0.1203403817765047 0  0.7216757186839551 0.3398605845503208 0  -0.1608901317822657 -0.3662640239978662 0  0.04296288283043327 -0.4885758904479692 0  -0.1521482635867612 0.4288042029527886 0  0.896777018237005 0.1875 0  0.02727793553516374 -0.3034073548216121 0  -0.1875 -0.1044151901566412 0  0.8110262223921818 0.1034273311161613 0  -0.352912348914086 -0.4353454535301299 0  0.7236328124999999 -0.8805338541666666 0  -0.4999268149882904 0.4301083138173302 0  -0.7471797545390932 -0.12230289931131 0  0.1370860099549051 0.631686233144039 0  0.5235049360704198 0.4688098872998775 0  0.1565336136586093 -0.254038731439365 0  0.3167020093161012 0.3752120092010349 0  0.7313413830795341 0.5700848197646725 0  0.8907358727120013 0.4593276238574144 0  -0.132019775179799 -0.4820561547369455 0  0.20522070480964 0.2451789566499722 0  -0.7388888888888889 0.8857638888888889 0  0.6615802234179844 0.2461840225292694 0  0.7120197866306627 0.8827410123578098 0  0.6879473757791458 0.7727400636858809 0  0.7730401255737605 0.695620436732894 0  0.2235936038294448 -0.4402274567686137 0  -0.06116412953317529 0.7494141443828268 0  0.3920888612926081 -0.5177444000128278 0  0.05999925785964455 0.7800632006864325 0  0.344640921409214 -0.711978884372177 0  0.2361641098654653 -0.6813527289019109 0  0.6041666666666666 -0.7440476190476191 0  -0.1347773684231967 -0.6477314760754115 0  0.8199404761904761 -0.7269345238095238 0  -0.8262158487681034 0.7394091512318967 0  0.06263948028531544 -0.6036593997828218 0  -0.03223982956723419 -0.678264593501496 0  -0.1875 0.9088993665608465 0  -0.4778191147701204 -0.3792641000350033 0  0.333622851554254 -0.9025225553980037 0  -0.1914030746129143 -0.8579633916930971 0  -0.3727147762785561 0.5149163396238197 0  -0.4654398710899741 -0.595994179364346 0  -0.6352679794839895 0.4810019025662292 0  -0.03760028128452247 0.4077198879663102 0  -0.7291666666666667 -0.6088789682539681 0  -0.7291666666666667 0.4184027777777778 0  -0.8874458874458875 -0.726461038961039 0  -0.8874458874458874 0.273538961038961 0  -0.2715192036646278 0.7599977354847006 0  -0.01061907582438156 0.2389515316117375 0  0.5827545565684715 -0.09924772171576424 0  0.2446792767037295 0.6135372124869771 0  -0.1875 0.08248276858839687 0  0.01478349304659175 -0.8963404249079552 0  0.7047709462415375 0.09640454323131915 0  -0.5625 -0.915569968169556 0  -0.1606652148137436 0.551936845214383 0  0.4375 -0.07732062776283305 0  0.1038943159958328 0.2530570354728081 0  0.2537330452894923 0.4515918670353057 0  0.3285284178737342 0.7571329907254192 0  -0.6112893384091296 -0.7252637899414397 0  0.0625 -0.08333333333333333 0  -0.595690794643046 0.09439693154768199 0  -0.6258267195767195 0.2705577601410935 0  -0.46875 0.21875 0  -0.02992718085855903 -0.2227184574243229 0  0.8125 -0.08333333333333333 0  0.8961037452885279 -0.2491887641344163 0  0.8993055555555556 -0.1354166666666667 0  -0.4467725667019169 0.6794506900145968 0  -0.3885764871434925 -0.1858967371371104 0  0.6815321711824416 0.4297636804865794 0  0.8125 0.9180281757886644 0  0.9180281757886644 0.8125 0  -0.3470694274766855 -0.09548396745862189 0  -0.2959171954150668 -0.7398098957899141 0  0.8688619142098204 0.7251223368810608 0  0.1875 0.07497371883307895 0  -0.9256078970552232 0.6875 0  -0.8125 -0.9198868071818891 0  -0.780001868171511 0.09236658678622965 0  0.5323326872181655 0.2048011527265292 0  0.3765852761764692 -0.8048755081771806 0  0.05916143989962761 0.4311509745191091 0  0.05140729090261713 0.5812869866426933 0  -0.9006782964934752 -0.8741694290522762 0  0.9091496556237351 0.9091496556237351 0  0.4165630266850451 0.5073250033634306 0  -0.3850217913284316 0.897316900066214 0  -0.8943824404761904 0.1056175595238095 0  0.1777377526985192 -0.7890172664026699 0  0.2336299054736443 -0.9013491707966907 0  -0.09160100553470879 0.09022812689790272 0  -0.839369243011413 -0.09070655825045064 0  0.9089256250312532 0.09107437496874683 0  -0.2135034543988252 0.2299919343043741 0  0.588431202582236 0.601155391539297 0  0.4381805938466604 0.6606620492419005 0  0.5159396029824748 0.7902819624057653 0  0.5557508820489667 0.9238578759492364 0  -0.6935000696552747 0.6233078742401078 0  -0.6886020212185153 -0.3769642395619344 0  -0.3388867336849771 -0.265750052475669 0  -0.1798932030570908 -0.5641199326095805 0  0.6600466992165128 -0.6197870577592384 0  0.353602255535813 0.1681564389774261 0  0.5239691293842457 -0.256045639500291 0  0.1570190040519728 -0.08911841970564628 0  -0.5592583403295768 0.8004137533866319 0  0.8199352308359883 0.5434379021452869 0  0.9317996576520953 0.5625 0  0.07139416262040765 0.07682024051142396 0  0.5625 0.06824307028210197 0  0.805082775297619 -0.925199962797619 0  0.9292674731182795 -0.8125 0  0.9075246902758297 -0.9078102849914793 0  -0.4375 -0.9269618756798756 0  -0.9332017390346332 0.4375 0  -0.9166666666666667 -0.5799214388387555 0  -0.2842122245467377 0.4062290511058207 0  -0.7785445108800959 -0.3526891277235396 0  -0.3125 0.06687974830960289 0  0.9121050213379069 -0.7218021798168305 0  0.7084715779753469 -0.2136107889876734 0  0.6789615720692226 -0.7991071428571429 0  -0.9323341836734694 0.8125 0  0.9345238095238094 -0.5625 0  0.1538669420375046 0.779924891893749 0  0.1875 0.9346218820148544 0  0.0625 0.9346218820148545 0  -0.3374790678803903 0.3326896549590259 0  -0.9028523346966598 -0.2724877868666212 0  -0.8080690749157455 -0.2672335334205144 0  -0.9313661077006911 -0.4335682217076223 0  -0.9350778573935691 0.5625 0  0.2937150818197979 -0.5038417539849207 0  -0.6510287680758025 -0.217653117064596 0  -0.690921833773087 0.8068267187041923 0  -0.5625 0.9357638888888888 0  -0.5625 -0.0642361111111111 0  0.5625 -0.9345238095238095 0  0.5138888888888888 -0.8263888888888888 0  -0.09456352479426559 0.9121293990539316 0  -0.9289538858840919 0.1911496177497984 0  -0.6292866792510521 0.7389182972724908 0  0.0886521659291967 -0.781664777148019 0  -0.3125 -0.9314652550713731 0  -0.2253113916918616 -0.2539907544053885 0  -0.4375 -0.06463523542758082 0  0.4348492774989916 -0.4308429678539493 0  0.338126826737756 -0.3317731944102535 0  0.3125 0.06380417755063778 0  -0.7923252853243461 -0.5453761020312101 0  -0.4767143454150258 0.7643458598690281 0  -0.8125 0.9362625591016549 0  0.9201744571617161 -0.418850076938542 0  -0.9137392241379311 0.9137392241379311 0  -0.9375 0 0  -1 -0.0625 0  -0.6660247350767096 -0.5454839261611075 0  -0.3928294330583489 -0.3571109775960216 0  -0.5135396414540443 0.6225495310784053 0  0.5152288245819031 0.3804293710411801 0  0.391175113558811 0.3207959543947039 0  -0.5536443965524485 0.5113028664969134 0  0.5947808002931638 0.4172309158573409 0  -0.6875 0 0  0.3926384052084243 0.8396024415153853 0  0.7015223157535263 -0.3807246103186349 0  0.5787043236058884 -0.3235407387934166 0  -0.06169885779374244 -0.3133075792473361 0  -0.04648851489216884 -0.4867624767096216 0  0.04034264517838793 -0.3880647096432241 0  -0.8135209736990647 -0.4316919117326596 0  0.4375 0.0648101252489847 0  -0.3536802361235981 0.1417925744966093 0  -0.9160087374074857 0.3539330149290139 0  -0.02923503300871931 0.6085868201781814 0  0.3792441011338571 0.5832806733085618 0  1 -0.0625 0  0.8196486815583797 -0.4233889973591431 0  0.1002218033442627 0.7067471010881906 0  0.2357864343805164 0.8025186468943841 0  -0.4594520309545383 -0.7533241248416915 0  -0.1386201905768462 0.7184550472207425 0  -0.3046044510748994 0.5630137003225644 0  0.2386921827076926 -0.2401902023691866 0  0.4424704016207366 -0.2288265866831851 0  -0.647173698022838 -0.4501300917557468 0  0.349560996972118 0.4541724561831888 0  0.1439543906339759 -0.6193779313399917 0  0.2259162055828293 -0.5970152601919835 0  0.142327426513777 -0.4559365680151213 0  -0.6331954688315893 -0.3056586094508891 0  -0.5317301805241265 -0.443368419224506 0  1 0.6875 0  -0.6397028584849836 -0.8032795806603418 0  0.765024246602851 -0.7934408993757154 0  0.6051891156116193 0.7545821573541075 0  -0.9147546193757442 -0.1309454487556358 0  -0.2718821785313976 -0.4205990165055381 0  -0.6872428443183811 0.2116849920411805 0  0.1712361838413995 0.4443422865959147 0  0.1173637710212494 0.3699970030098822 0  0.2586800761079034 0.3078355811093986 0  -0.4183590359814912 0.3195319280370176 0  -0.7340297070823746 -0.8004660333851754 0  1 -0.3125 0  0.3125 1 0  0.3591436089086528 0.9170877248387229 0  -0.2915279004130425 0.2619815315493935 0  -0.3125 1 0  -0.789946647818231 0.4748263888888889 0  0.2086730393991545 0.5302984820243264 0  -0.5445184415753214 -0.6143559864751799 0  0.4106913765702325 0.2254860546090636 0  0.6379316539114881 0.9186779013562929 0  -0.7301361338698167 -0.2012704921379654 0  0.2630400731063785 -0.08433466520794086 0  0.1421430424789334 -0.1746614407285412 0  -0.6875 1 0  -0.5116103488149831 0.08393017440749158 0  -0.7729651054170712 0.8110146503595059 0  -0.3171783039053939 0.692054858752181 0  -0.9375 -1 0  0.05348597241168954 0.1904069747931429 0  -0.2662023314689956 -0.08061122784825615 0  0.4375 1 0  -0.4955099953084893 -0.8719984409580374 0  0.5706022489843241 -0.1881440362988253 0  -0.3577321760826734 -0.7906949229557625 0  -0.9314391496428966 -0.7969668222081012 0  -0.8096590909090908 0.2972132034632035 0  -0.8096590909090909 -0.7027867965367965 0  0.04738134508716858 -0.6818889111050419 0  0.8184975899431328 -0.266868163880399 0  -0.1777635916899995 -0.1864434451788337 0  -0.6108773742989916 0.6617012923786588 0  0.4133190600122804 -0.1538185362013715 0  0.9173564081137409 0.2700016159373109 0  -0.2274575947148444 -0.7845544884279269 0  0.2955840335466776 -0.1853858477058205 0  -0.1875 -1 0  -0.15625 -0.9280693389625363 0  0.265721335168467 0.9224074084723334 0  0.7993776604052477 0.3033118345030446 0  0.8039328735700978 0.3858654966786342 0  0.4110839564331644 -0.3023387994428889 0  0.5249440750975991 -0.4173045592070976 0  0.5749983607214338 -0.4775125853935726 0  0.6849866915739334 0.1718165373957865 0  0.5566707380865371 -0.5589569741683917 0  0.5297935663627152 -0.7113411854103344 0  -0.534798161776864 -0.3238415524433838 0  0.6875 -1 0  0.651892495436428 -0.9217534530328911 0  -0.4575647551415964 0.9318020657067781 0  -0.8075188990278241 0.5583508025777608 0  -0.7682524563128501 0.6545926617069779 0  0.7729946145124715 -0.6644876700680272 0  0.7959328272834876 -0.5253279769254565 0  -0.2346434692396176 -0.9232299790534102 0  -0.4388024296745967 0.476234777782335 0  -0.1953725915124515 -0.4363566837741519 0  1 -0.1875 0  -0.0625 -1 0  -0.3734382922323083 -0.8858653475172704 0  -0.9280835472275042 -0.6583812156349118 0  0.670067802219061 -0.3113778971254078 0  0.07847265286094272 -0.9390465254024919 0  0.1589021269968937 0.3049976489775859 0  -0.1911342864848194 -0.6987489405179704 0  -0.3306247931595718 -0.6499211173617297 0  -0.2544162481795498 -0.5752148853846162 0  0.04452494946723674 0.5056632836958428 0  0.9317996576520953 0.65625 0  -0.07808805921715228 -0.7974724844347642 0  -0.5193241961404962 -0.543395475133188 0  0.7089848104574371 0.4990197853206015 0  -0.1598445504487594 0.2837830475671506 0  -0.09574296902652095 0.8370638896148441 0  0.05126688647622865 0.861319928722709 0  -0.02144820423675244 0.928263452109498 0  -0.1945754791626196 0.157866145311539 0  -0.3559322629507126 0.8252964904237221 0  0.5593373706311514 0.5333297222635965 0  0.51230381677154 -0.07386584217292028 0  0.7739045240364157 -0.3651799570494847 0  0.1875 -1 0  -0.9382193509677418 -0.204190196461092 0  0.6589920853568118 0.5815071671309687 0  0.6704883274088612 -0.4484460963364428 0  0.8495161114208649 0.2431063603744013 0  0.15625 -0.934020340818323 0  -0.760756480622552 0.3520585317460317 0  -0.1480320252160525 0.3558709547408896 0  0.634445016372531 0.07823401768000417 0  -0.5735293162496828 0.4397803741491851 0  -0.5501798575095834 0.3683902849808332 0  -0.2315845353984155 0.571123463083161 0  -0.5532533212560387 -0.1357563405797102 0  -0.456324135923845 -0.2106180240179633 0  -0.08643010695990644 -0.725843343400509 0  0.7551605832012925 0.150806803053457 0  0.7919228383762376 0.6109030563615853 0  -0.7379100380939022 -0.9261318985959925 0  -0.65625 0.9357638888888888 0  -0.65625 -0.0642361111111111 0  0.4990151231971541 0.102387818719596 0  -0.2299247109085764 0.8192444455180889 0  -0.28125 0.9347328404381895 0  -0.6875 -1 0  -0.6357729656947582 -0.9266771507820866 0  </DataArray>
</Points>
<Cells>
<DataArray  type="UInt32"  Name="connectivity"  format="ascii">68 181 303  82 256 444  81 257 443  207 399 405  42 281 512  64 203 251  118 220 304  137 260 440  28 199 325  131 380 459  134 263 356  70 238 239  109 301 302  169 280 434  37 163 253  105 212 253  84 307 496  80 228 268  136 208 267  60 229 365  90 338 393  76 274 412  162 347 511  75 271 407  25 234 403  116 234 403  27 232 233  95 230 461  100 324 326  56 161 293  14 133 161  72 213 216  110 366 391  67 282 457  95 323 507  89 312 331  108 238 239  204 292 426  154 316 362  139 241 482  109 263 356  68 163 490  37 253 294  19 261 424  46 182 262  120 159 266  71 235 395  39 295 388  26 311 448  146 258 520  79 214 276  281 285 359  91 206 471  64 202 483  7 152 272  135 281 512  149 275 386  53 341 421  129 240 463  131 360 458  72 209 230  117 269 413  82 296 442  151 271 407  174 300 354  76 158 412  107 330 341  23 252 255  316 362 385  127 223 397  104 295 485  73 338 393  56 352 463  56 238 293  51 99 304  115 286 451  77 171 423  26 311 469  27 232 409  30 141 213  87 284 297  47 380 479  110 446 498  24 254 370  205 315 462  91 242 333  121 330 341  169 396 434  18 193 226  226 320 321  182 262 303  80 268 436  111 313 358  112 227 382  96 234 346  116 234 346  39 235 237  8 192 340  122 277 279  130 235 237  130 492 493  64 203 394  74 251 488  82 290 516  49 172 290  150 274 412  51 291 377  171 345 468  32 347 404  167 329 363  181 259 436  127 318 430  7 181 322  36 152 288  81 158 291  110 278 446  84 308 389  19 298 400  85 232 409  27 307 501  85 231 232  87 231 232  88 175 311  175 311 448  113 399 405  113 312 399  73 338 392  92 218 335  218 335 408  41 280 434  93 319 349  42 247 464  94 220 518  95 230 292  95 461 507  20 460 462  96 157 361  128 289 345  174 300 368  0 174 368  32 331 343  51 220 304  98 369 410  59 289 336  128 243 289  143 364 495  143 319 349  106 298 400  117 224 269  120 159 395  71 246 491  34 373 376  106 224 400  107 341 421  76 149 275  108 301 302  109 301 356  12 168 337  15 217 411  114 210 358  214 276 381  112 214 381  113 247 464  94 347 511  42 281 313  114 217 411  115 357 477  58 188 357  116 211 244  116 401 402  117 414 481  228 268 481  101 331 343  32 312 331  154 288 362  119 316 385  66 169 250  169 250 396  107 306 421  17 250 330  31 122 216  141 213 305  123 456 457  34 209 282  209 282 457  73 178 270  22 197 310  54 157 361  136 208 429  128 345 468  26 348 355  129 315 462  132 459 460  40 155 246  205 460 502  131 317 458  132 460 502  110 391 498  133 161 248  108 238 293  69 211 244  241 245 513  135 281 359  149 153 332  137 317 398  137 398 449  138 144 260  13 138 323  31 138 144  31 122 277  69 241 314  15 411 474  180 249 454  213 216 305  122 216 305  3 122 390  246 353 491  47 144 440  144 260 440  46 182 215  111 285 437  179 299 467  143 299 467  121 219 416  23 252 508  76 149 432  149 332 386  10 149 153  53 275 386  23 150 274  77 255 423  24 151 271  78 329 363  152 272 318  127 223 430  153 285 359  111 281 285  136 362 385  48 154 316  155 246 353  130 353 491  156 407 417  79 214 223  25 214 223  10 186 350  10 186 273  105 159 266  295 388 485  75 203 394  9 201 265  92 218 466  56 161 352  162 347 404  42 162 464  68 303 494  68 163 259  165 283 297  61 164 284  87 283 297  164 284 297  70 239 402  70 166 236  11 184 344  78 256 444  63 278 418  91 168 471  175 252 375  66 169 280  83 278 446  170 379 479  16 328 345  77 257 443  172 296 435  172 290 296  82 290 296  81 300 354  52 174 354  219 375 508  121 219 473  176 378 420  55 176 378  27 177 409  55 177 309  84 222 298  55 178 308  179 299 422  180 263 487  44 249 487  68 181 259  46 153 332  145 182 215  7 145 182  33 302 499  6 263 476  101 184 344  98 410 500  100 325 326  29 185 324  158 291 377  186 273 377  198 336 367  97 229 365  188 327 477  9 188 327  93 229 348  21 179 467  92 351 352  14 190 351  91 168 337  28 325 333  90 339 340  38 339 455  123 193 226  30 213 450  61 284 287  18 226 321  11 167 329  11 195 329  171 328 345  16 196 328  85 310 427  62 165 283  4 187 367  4 198 367  199 325 326  185 324 326  12 168 366  12 200 366  201 265 523  49 290 516  202 483 484  15 202 484  207 425 488  89 363 370  34 230 292  106 222 373  65 205 206  65 206 471  205 206 315  91 206 470  203 251 425  251 425 488  127 397 452  54 157 397  34 282 376  222 373 376  112 210 227  45 276 381  112 214 383  69 227 382  163 490 506  17 250 396  72 209 456  213 450 503  25 214 383  25 157 223  45 210 358  45 358 447  264 461 514  31 216 264  74 202 217  15 202 217  190 465 466  175 372 375  66 372 375  51 220 518  158 273 377  73 221 261  237 338 392  124 307 496  106 222 298  157 223 397  79 223 430  48 228 415  106 204 374  27 225 501  209 456 457  86 320 321  67 226 320  139 241 314  139 483 484  80 154 228  48 154 228  60 229 431  34 209 230  34 204 292  85 231 427  197 310 427  87 284 287  87 232 233  27 233 515  86 233 515  96 157 234  25 157 234  159 235 395  39 159 235  20 166 236  96 360 361  73 221 392  90 237 338  56 166 238  70 166 238  239 401 402  35 239 401  92 240 335  43 240 335  134 245 513  69 241 245  91 242 470  43 242 470  229 348 433  26 243 433  134 263 487  134 245 445  244 245 445  69 244 245  146 299 521  71 258 520  74 217 247  42 247 371  33 133 248  180 249 487  139 286 482  121 250 473  121 250 330  64 202 251  74 202 251  88 175 252  88 252 255  104 294 485  105 388 485  151 417 444  24 151 254  81 150 443  150 443 505  78 256 478  195 329 478  77 257 387  196 328 387  41 364 495  120 396 434  37 294 414  37 163 259  137 260 497  137 267 497  19 178 261  73 178 261  262 303 494  148 262 494  6 263 480  109 263 480  264 461 507  31 138 264  188 357 477  75 265 439  17 212 266  105 212 266  13 267 497  13 136 267  37 259 268  259 268 436  19 269 424  104 413 424  55 178 270  126 378 420  75 203 271  24 207 425  7 145 272  79 145 272  76 273 432  76 158 273  76 147 274  23 508 509  147 219 416  76 147 275  79 145 276  45 145 276  31 144 277  83 144 277  83 278 279  83 277 279  142 279 475  41 280 364  103 280 364  114 313 358  111 281 313  124 307 501  124 282 489  62 231 283  87 231 283  61 406 486  46 153 437  153 285 437  64 286 441  115 286 441  87 233 287  86 233 287  80 154 288  7 152 322  59 198 336  59 102 289  156 417 516  82 417 516  99 300 368  51 99 291  119 292 426  95 323 519  108 248 293  161 248 293  117 413 414  269 413 424  104 221 295  39 221 295  50 173 442  173 296 442  5 164 297  5 165 297  84 298 389  178 308 389  143 299 495  146 299 495  99 291 300  81 291 300  108 239 301  35 239 301  33 248 302  108 248 302  7 182 303  7 181 303  118 304 410  3 122 305  3 141 305  68 306 490  107 306 490  27 177 307  84 177 307  84 177 308  55 177 308  85 176 309  55 176 309  22 176 310  85 176 310  128 468 469  88 423 468  101 331 384  89 331 384  217 247 371  114 217 371  69 227 314  15 227 314  129 240 315  43 240 315  119 316 426  48 316 426  131 317 380  47 317 380  36 136 429  36 152 318  26 348 433  103 319 355  27 225 515  67 225 320  18 194 321  194 406 486  152 288 322  80 288 322  13 323 519  13 136 385  100 218 324  29 218 324  100 242 333  100 325 333  2 185 326  2 199 326  9 265 439  9 327 439  77 328 387  77 171 328  78 329 478  78 254 363  107 212 330  17 212 330  118 342 343  101 342 343  46 262 332  148 262 332  28 191 333  91 191 333  83 144 334  47 144 334  43 242 408  43 335 408  243 289 336  97 243 336  91 191 337  12 191 337  339 393 455  90 339 393  38 192 339  192 339 340  130 353 493  90 340 492  121 341 416  53 341 416  57 184 342  101 184 342  94 220 428  118 220 428  11 167 344  101 344 384  102 289 345  16 102 345  70 236 346  96 236 346  94 347 428  32 347 428  319 348 355  93 319 348  21 189 349  189 431 517  135 162 511  10 153 359  161 351 352  14 161 351  92 240 352  240 352 463  8 155 493  155 353 493  81 257 354  52 257 354  26 355 448  103 355 448  35 301 356  134 356 445  115 249 472  115 357 472  111 215 447  111 358 447  10 350 359  135 350 359  96 236 360  20 236 360  360 361 458  54 361 458  36 288 362  36 136 362  254 363 370  167 344 384  143 319 364  103 319 364  60 187 365  97 336 367  110 200 366  168 366 391  97 365 367  187 365 367  99 304 410  368 369 410  99 368 410  0 368 369  24 207 370  89 312 399  114 313 371  42 313 371  66 280 372  103 280 372  106 204 373  34 204 373  106 224 374  48 224 374  252 375 508  66 219 375  124 282 376  124 222 376  51 377 518  186 377 518  126 270 378  55 270 378  132 380 459  65 205 502  132 379 479  132 380 479  45 210 381  112 210 381  69 211 382  112 211 382  112 211 383  25 383 403  167 363 384  89 363 384  13 385 519  119 385 519  148 332 386  53 386 421  52 196 387  52 257 387  39 159 388  105 159 388  19 178 389  19 298 389  122 279 390  142 279 390  65 379 498  65 391 498  39 237 392  39 221 392  73 270 393  126 270 393  160 327 439  64 394 441  71 258 395  120 258 395  17 396 510  120 396 510  208 429 452  127 429 452  54 397 452  54 398 449  89 370 399  207 370 399  19 269 400  224 269 400  116 244 401  35 244 401  70 346 402  116 346 402  211 383 403  116 211 403  32 312 404  113 312 404  74 247 405  113 247 405  86 321 486  194 321 486  265 407 523  75 265 407  100 218 408  100 242 408  85 309 409  177 309 409  118 342 500  118 410 500  210 411 474  114 210 411  81 150 412  81 158 412  104 294 413  294 413 414  37 268 414  268 414 481  48 224 415  117 224 415  147 275 416  53 275 416  151 407 417  82 417 444  110 278 418  110 200 418  126 393 455  125 420 438  125 419 420  126 420 455  148 386 421  148 306 421  299 422 521  40 422 521  88 255 423  171 423 468  221 261 424  104 221 424  24 271 425  203 271 425  204 374 426  48 374 426  62 231 427  62 197 427  118 343 428  32 343 428  36 318 429  127 318 429  272 318 430  79 272 430  93 349 517  189 349 517  10 273 432  10 149 432  97 229 433  97 243 433  120 258 434  41 258 434  173 296 435  1 173 435  181 322 436  80 322 436  111 215 437  46 215 437  176 420 438  22 176 438  160 394 439  75 394 439  137 317 440  47 317 440  160 394 441  115 441 477  82 256 442  50 256 442  77 255 505  77 443 505  151 254 444  78 254 444  35 356 445  35 244 445  83 334 446  170 334 446  45 145 447  145 215 447  175 372 448  103 372 448  137 267 449  208 267 449  30 193 450  123 193 450  115 249 451  44 249 451  54 449 452  208 449 452  58 357 472  58 453 472  140 453 454  180 263 476  419 420 455  38 419 455  123 450 503  123 456 503  123 226 457  67 226 457  317 398 458  54 398 458  131 360 459  20 360 459  20 459 460  205 460 462  72 461 514  72 230 461  20 166 462  129 166 462  129 166 463  56 166 463  162 404 464  113 404 464  29 218 465  218 465 466  92 351 466  190 351 466  21 349 467  143 349 467  88 311 469  88 468 469  26 243 469  128 243 469  206 315 470  43 315 470  168 391 471  65 391 471  453 454 472  249 454 472  66 250 473  66 219 473  15 227 474  210 227 474  278 279 475  63 278 475  180 454 476  140 454 476  160 441 477  160 327 477  50 195 478  50 256 478  170 334 479  47 334 479  6 183 480  183 499 504  228 415 481  117 415 481  286 451 482  44 451 482  64 286 483  139 286 483  139 314 484  15 314 484  105 253 485  253 294 485  61 287 486  86 287 486  134 487 513  44 487 513  74 405 488  207 405 488  67 282 489  67 225 489  107 212 506  107 490 506  71 235 491  130 235 491  130 237 492  90 237 492  340 492 493  8 340 493  68 306 494  148 306 494  41 258 495  146 258 495  84 222 496  124 222 496  138 260 497  13 138 497  170 446 498  170 379 498  109 480 504  183 480 504  57 98 500  57 342 500  124 489 501  225 489 501  65 379 502  132 379 502  72 456 503  72 213 503  302 499 504  109 302 504  23 150 505  23 255 505  163 253 506  212 253 506  138 323 507  138 264 507  147 219 509  219 508 509  23 274 509  147 274 509  17 266 510  120 266 510  135 350 511  94 350 511  135 162 512  42 162 512  241 482 513  44 482 513  216 264 514  72 216 514  225 320 515  86 320 515  156 407 523  229 431 517  93 229 517  94 350 518  186 350 518  95 292 519  119 292 519  71 246 520  146 246 520  146 246 521  40 246 521  156 516 523  49 516 522  516 522 523  201 522 523  </DataArray>
<DataArray  type="UInt32"  Name="offsets"  format="ascii">3 6 9 12 15 18 21 24 27 30 33 36 39 42 45 48 51 54 57 60 63 66 69 72 75 78 81 84 87 90 93 96 99 102 105 108 111 114 117 120 123 126 129 132 135 138 141 144 147 150 153 156 159 162 165 168 171 174 177 180 183 186 189 192 195 198 201 204 207 210 213 216 219 222 225 228 231 234 237 240 243 246 249 252 255 258 261 264 267 270 273 276 279 282 285 288 291 294 297 300 303 306 309 312 315 318 321 324 327 330 333 336 339 342 345 348 351 354 357 360 363 366 369 372 375 378 381 384 387 390 393 396 399 402 405 408 411 414 417 420 423 426 429 432 435 438 441 444 447 450 453 456 459 462 465 468 471 474 477 480 483 486 489 492 495 498 501 504 507 510 513 516 519 522 525 528 531 534 537 540 543 546 549 552 555 558 561 564 567 570 573 576 579 582 585 588 591 594 597 600 603 606 609 612 615 618 621 624 627 630 633 636 639 642 645 648 651 654 657 660 663 666 669 672 675 678 681 684 687 690 693 696 699 702 705 708 711 714 717 720 723 726 729 732 735 738 741 744 747 750 753 756 759 762 765 768 771 774 777 780 783 786 789 792 795 798 801 804 807 810 813 816 819 822 825 828 831 834 837 840 843 846 849 852 855 858 861 864 867 870 873 876 879 882 885 888 891 894 897 900 903 906 909 912 915 918 921 924 927 930 933 936 939 942 945 948 951 954 957 960 963 966 969 972 975 978 981 984 987 990 993 996 999 1002 1005 1008 1011 1014 1017 1020 1023 1026 1029 1032 1035 1038 1041 1044 1047 1050 1053 1056 1059 1062 1065 1068 1071 1074 1077 1080 1083 1086 1089 1092 1095 1098 1101 1104 1107 1110 1113 1116 1119 1122 1125 1128 1131 1134 1137 1140 1143 1146 1149 1152 1155 1158 1161 1164 1167 1170 1173 1176 1179 1182 1185 1188 1191 1194 1197 1200 1203 1206 1209 1212 1215 1218 1221 1224 1227 1230 1233 1236 1239 1242 1245 1248 1251 1254 1257 1260 1263 1266 1269 1272 1275 1278 1281 1284 1287 1290 1293 1296 1299 1302 1305 1308 1311 1314 1317 1320 1323 1326 1329 1332 1335 1338 1341 1344 1347 1350 1353 1356 1359 1362 1365 1368 1371 1374 1377 1380 1383 1386 1389 1392 1395 1398 1401 1404 1407 1410 1413 1416 1419 1422 1425 1428 1431 1434 1437 1440 1443 1446 1449 1452 1455 1458 1461 1464 1467 1470 1473 1476 1479 1482 1485 1488 1491 1494 1497 1500 1503 1506 1509 1512 1515 1518 1521 1524 1527 1530 1533 1536 1539 1542 1545 1548 1551 1554 1557 1560 1563 1566 1569 1572 1575 1578 1581 1584 1587 1590 1593 1596 1599 1602 1605 1608 1611 1614 1617 1620 1623 1626 1629 1632 1635 1638 1641 1644 1647 1650 1653 1656 1659 1662 1665 1668 1671 1674 1677 1680 1683 1686 1689 1692 1695 1698 1701 1704 1707 1710 1713 1716 1719 1722 1725 1728 1731 1734 1737 1740 1743 1746 1749 1752 1755 1758 1761 1764 1767 1770 1773 1776 1779 1782 1785 1788 1791 1794 1797 1800 1803 1806 1809 1812 1815 1818 1821 1824 1827 1830 1833 1836 1839 1842 1845 1848 1851 1854 1857 1860 1863 1866 1869 1872 1875 1878 1881 1884 1887 1890 1893 1896 1899 1902 1905 1908 1911 1914 1917 1920 1923 1926 1929 1932 1935 1938 1941 1944 1947 1950 1953 1956 1959 1962 1965 1968 1971 1974 1977 1980 1983 1986 1989 1992 1995 1998 2001 2004 2007 2010 2013 2016 2019 2022 2025 2028 2031 2034 2037 2040 2043 2046 2049 2052 2055 2058 2061 2064 2067 2070 2073 2076 2079 2082 2085 2088 2091 2094 2097 2100 2103 2106 2109 2112 2115 2118 2121 2124 2127 2130 2133 2136 2139 2142 2145 2148 2151 2154 2157 2160 2163 2166 2169 2172 2175 2178 2181 2184 2187 2190 2193 2196 2199 2202 2205 2208 2211 2214 2217 2220 2223 2226 2229 2232 2235 2238 2241 2244 2247 2250 2253 2256 2259 2262 2265 2268 2271 2274 2277 2280 2283 2286 2289 2292 2295 2298 2301 2304 2307 2310 2313 2316 2319 2322 2325 2328 2331 2334 2337 2340 2343 2346 2349 2352 2355 2358 2361 2364 2367 2370 2373 2376 2379 2382 2385 2388 2391 2394 2397 2400 2403 2406 2409 2412 2415 2418 2421 2424 2427 2430 2433 2436 2439 2442 2445 2448 2451 2454 2457 2460 2463 2466 2469 2472 2475 2478 2481 2484 2487 2490 2493 2496 2499 2502 2505 2508 2511 2514 2517 2520 2523 2526 2529 2532 2535 2538 2541 2544 2547 2550 2553 2556 2559 2562 2565 2568 2571 2574 2577 2580 2583 2586 2589 2592 2595 2598 2601 2604 2607 2610 2613 2616 2619 2622 2625 2628 2631 2634 2637 2640 2643 2646 2649 2652 2655 2658 2661 2664 2667 2670 2673 2676 2679 2682 2685 2688 2691 2694 2697 2700 2703 2706 2709 2712 2715 2718 2721 2724 2727 2730 2733 2736 2739 2742 2745 2748 2751 2754 2757 2760 2763 2766 2769 2772 2775 2778 2781 2784 2787 2790 2793 2796 2799 2802 2805 2808 2811 2814 2817 2820 2823 2826 2829 2832 2835 2838 2841 2844 2847 2850 2853 2856 2859 2862 2865 2868 2871 2874 2877 2880 2883 2886 2889 2892 2895 2898 2901 </DataArray>
<DataArray  type="UInt8"  Name="types"  format="ascii">5 5 5 5 5 5 5 5 5 5 5 5 5 5 5 5 5 5 5 5 5 5 5 5 5 5 5 5 5 5 5 5 5 5 5 5 5 5 5 5 5 5 5 5 5 5 5 5 5 5 5 5 5 5 5 5 5 5 5 5 5 5 5 5 5 5 5 5 5 5 5 5 5 5 5 5 5 5 5 5 5 5 5 5 5 5 5 5 5 5 5 5 5 5 5 5 5 5 5 5 5 5 5 5 5 5 5 5 5 5 5 5 5 5 5 5 5 5 5 5 5 5 5 5 5 5 5 5 5 5 5 5 5 5 5 5 5 5 5 5 5 5 5 5 5 5 5 5 5 5 5 5 5 5 5 5 5 5 5 5 5 5 5 5 5 5 5 5 5 5 5 5 5 5 5 5 5 5 5 5 5 5 5 5 5 5 5 5 5 5 5 5 5 5 5 5 5 5 5 5 5 5 5 5 5 5 5 5 5 5 5 5 5 5 5 5 5 5 5 5 5 5 5 5 5 5 5 5 5 5 5 5 5 5 5 5 5 5 5 5 5 5 5 5 5 5 5 5 5 5 5 5 5 5 5 5 5 5 5 5 5 5 5 5 5 5 5 5 5 5 5 5 5 5 5 5 5 5 5 5 5 5 5 5 5 5 5 5 5 5 5 5 5 5 5 5 5 5 5 5 5 5 5 5 5 5 5 5 5 5 5 5 5 5 5 5 5 5 5 5 5 5 5 5 5 5 5 5 5 5 5 5 5 5 5 5 5 5 5 5 5 5 5 5 5 5 5 5 5 5 5 5 5 5 5 5 5 5 5 5 5 5 5 5 5 5 5 5 5 5 5 5 5 5 5 5 5 5 5 5 5 5 5 5 5 5 5 5 5 5 5 5 5 5 5 5 5 5 5 5 5 5 5 5 5 5 5 5 5 5 5 5 5 5 5 5 5 5 5 5 5 5 5 5 5 5 5 5 5 5 5 5 5 5 5 5 5 5 5 5 5 5 5 5 5 5 5 5 5 5 5 5 5 5 5 5 5 5 5 5 5 5 5 5 5 5 5 5 5 5 5 5 5 5 5 5 5 5 5 5 5 5 5 5 5 5 5 5 5 5 5 5 5 5 5 5 5 5 5 5 5 5 5 5 5 5 5 5 5 5 5 5 5 5 5 5 5 5 5 5 5 5 5 5 5 5 5 5 5 5 5 5 5 5 5 5 5 5 5 5 5 5 5 5 5 5 5 5 5 5 5 5 5 5 5 5 5 5 5 5 5 5 5 5 5 5 5 5 5 5 5 5 5 5 5 5 5 5 5 5 5 5 5 5 5 5 5 5 5 5 5 5 5 5 5 5 5 5 5 5 5 5 5 5 5 5 5 5 5 5 5 5 5 5 5 5 5 5 5 5 5 5 5 5 5 5 5 5 5 5 5 5 5 5 5 5 5 5 5 5 5 5 5 5 5 5 5 5 5 5 5 5 5 5 5 5 5 5 5 5 5 5 5 5 5 5 5 5 5 5 5 5 5 5 5 5 5 5 5 5 5 5 5 5 5 5 5 5 5 5 5 5 5 5 5 5 5 5 5 5 5 5 5 5 5 5 5 5 5 5 5 5 5 5 5 5 5 5 5 5 5 5 5 5 5 5 5 5 5 5 5 5 5 5 5 5 5 5 5 5 5 5 5 5 5 5 5 5 5 5 5 5 5 5 5 5 5 5 5 5 5 5 5 5 5 5 5 5 5 5 5 5 5 5 5 5 5 5 5 5 5 5 5 5 5 5 5 5 5 5 5 5 5 5 5 5 5 5 5 5 5 5 5 5 5 5 5 5 5 5 5 5 5 5 5 5 5 5 5 5 5 5 5 5 5 5 5 5 5 5 5 5 5 5 5 5 5 5 5 5 5 5 5 5 5 5 5 5 5 5 5 5 5 5 5 5 5 5 5 5 5 5 5 5 5 5 5 5 5 5 5 5 5 5 5 5 5 5 5 5 5 5 5 5 5 5 5 5 5 5 5 5 5 5 5 5 5 5 5 5 5 5 5 5 5 5 5 5 5 5 5 5 5 5 5 5 5 5 5 5 5 5 5 5 5 5 5 5 5 5 5 5 5 5 5 5 5 5 5 5 5 5 5 5 5 5 5 5 5 5 5 5 5 5 5 5 5 5 5 5 5 5 5 5 5 5 5 </DataArray>
</Cells>
</Piece>
</UnstructuredGrid>
</VTKFile>