<?xml version="1.0"?>
<VTKFile type="UnstructuredGrid"  version="0.1"  >
<UnstructuredGrid>
<Piece  NumberOfPoints="38" NumberOfCells="54">
<Points>
<DataArray  type="Float64"  NumberOfComponents="3"  format="ascii">-1 0 0  -1 -1 0  1 -1 0  1 0 0  -1 1 0  1 1 0  0 -1 0  0 0 0  0 1 0  -0.5 -1 0  -0.5 0 0  -1 -0.5 0  1 -0.5 0  0.5 0 0  0.5 -1 0  -0.25 -0.5 0  -1 0.5 0  -0.25 0.5 0  1 0.5 0  0.3125 0.53125 0  0.5 -0.5 0  -0.5 1 0  0.5 1 0  -0.625 0.375 0  -0.625 -0.625 0  0.125 -0.375 0  -0.71875 0.71875 0  0.25 -1 0  0.6629464285714286 0.6629464285714286 0  1 -0.75 0  0.75 -1 0  1 0.25 0  0.75 0 0  -0.71875 -0.28125 0  0.5881618897972686 0.329829196399036 0  0.125 -0.7 0  0.25 0 0  0.04138513513513514 0.3331925675675675 0  </DataArray>
</Points>
<Cells>
<DataArray  type="UInt32"  Name="connectivity"  format="ascii">7 10 17  11 24 33  8 19 22  16 23 26  15 24 33  7 10 15  9 15 24  10 15 33  13 20 36  12 20 29  13 20 32  6 9 15  20 25 35  14 20 35  17 21 26  10 17 23  8 17 19  19 22 28  7 36 37  20 25 36  3 12 32  17 23 26  8 17 21  5 18 28  5 22 28  0 16 23  0 10 23  1 11 24  1 9 24  7 25 36  7 15 25  4 21 26  4 16 26  14 27 35  6 27 35  18 28 34  18 31 34  2 29 30  20 29 30  14 20 30  3 31 32  12 20 32  31 32 34  13 32 34  0 10 33  0 11 33  19 28 34  13 34 36  15 25 35  6 15 35  19 34 36  19 36 37  17 19 37  7 17 37  </DataArray>
<DataArray  type="UInt32"  Name="offsets"  format="ascii">3 6 9 12 15 18 21 24 27 30 33 36 39 42 45 48 51 54 57 60 63 66 69 72 75 78 81 84 87 90 93 96 99 102 105 108 111 114 117 120 123 126 129 132 135 138 141 144 147 150 153 156 159 162 </DataArray>
<DataArray  type="UInt8"  Name="types"  format="ascii">5 5 5 5 5 5 5 5 5 5 5 5 5 5 5 5 5 5 5 5 5 5 5 5 5 5 5 5 5 5 5 5 5 5 5 5 5 5 5 5 5 5 5 5 5 5 5 5 5 5 5 5 5 5 </DataArray>
</Cells>
</Piece>
</UnstructuredGrid>
</VTKFile>