<?xml version="1.0"?>
<VTKFile type="UnstructuredGrid"  version="0.1"  >
<UnstructuredGrid>
<Piece  NumberOfPoints="12" NumberOfCells="21">
<Points>
<DataArray  type="Float64"  NumberOfComponents="3"  format="ascii">-1 -1 0  -0.5 -1 0  -1 -0.5 0  0 -1 0  -0.5 0 0  0 0 0  -1 0 0  1 -0.5 0  0.5 0 0  0.5 -1 0  1 -1 0  1 0 0  </DataArray>
</Points>
<Cells>
<DataArray  type="UInt32"  Name="connectivity"  format="ascii">0 1  0 2  1 2  1 3  1 4  2 4  2 6  3 4  3 5  3 9  4 5  4 6  5 8  5 9  7 8  7 9  7 10  7 11  8 9  8 11  9 10  </DataArray>
<DataArray  type="UInt32"  Name="offsets"  format="ascii">2 4 6 8 10 12 14 16 18 20 22 24 26 28 30 32 34 36 38 40 42 </DataArray>
<DataArray  type="UInt8"  Name="types"  format="ascii">3 3 3 3 3 3 3 3 3 3 3 3 3 3 3 3 3 3 3 3 3 </DataArray>
</Cells>
<CellData  Scalars="f">
<DataArray  type="Float64"  Name="f"  format="ascii">1 1 0 1 0 0 1 0 0 1 0 0 0 0 0 0 1 1 0 0 1 </DataArray>
</CellData>
</Piece>
</UnstructuredGrid>
</VTKFile>