<?xml version="1.0"?>
<VTKFile type="UnstructuredGrid"  version="0.1"  >
<UnstructuredGrid>
<Piece  NumberOfPoints="1055" NumberOfCells="3044">
<Points>
<DataArray  type="Float64"  NumberOfComponents="3"  format="ascii">-0.7510993440567013 -0.7858349159786097 0  -0.7738676021377208 -0.7397193188601493 0  -0.7954921605006489 -0.7800151594827573 0  -0.5317301805241265 -0.443368419224506 0  -0.5353965568011808 -0.4946060083089963 0  -0.5003527723979565 -0.4713636437367665 0  -0.3885764871434925 -0.1858967371371104 0  -0.3488242166283482 -0.2165470771132653 0  -0.3232586406512664 -0.1875940139522669 0  -0.4591614255123773 -0.66027837861484 0  -0.4403280343261782 -0.7068605269983154 0  -0.482210678994326 -0.7167894402075529 0  -0.7471797545390932 -0.12230289931131 0  -0.7071820153661825 -0.1152658865587972 0  -0.7282112727628844 -0.1595319846598401 0  0.4933406647116324 -0.1595796676441837 0  0.4556038238210511 -0.1251139789677604 0  0.4946408833629827 -0.111313879956162 0  0.5249440750975991 -0.4173045592070976 0  0.4760005490770104 -0.3981459899955059 0  0.5076598854023346 -0.3723431683120077 0  -0.0007288037633571831 -0.7805058444092411 0  0.011451768445654 -0.725404416548466 0  0.04406291422919575 -0.7732778544212244 0  0.3108739837398374 -0.5969512195121951 0  0.3000179938019852 -0.6626081067150947 0  0.2575189983226386 -0.6359665322716468 0  0.1167678129628202 -0.8726115887345084 0  0.1765853552099646 -0.852208286868738 0  0.1756309054480577 -0.8956497791070966 0  0.3404091084935372 -0.1203403817765047 0  0.34375 -0.05615906457433147 0  0.3047988665314478 -0.07426818164635629 0  -0.5945712615404414 -0.1857421898699518 0  -0.5566908176609316 -0.1749844104427483 0  -0.5906308189949534 -0.1469298516369339 0  -0.5570033656898061 -0.8106677885632687 0  -0.6170279878745576 -0.7994641332610405 0  -0.5848745791739519 -0.8353645853891229 0  0.04034264517838793 -0.3880647096432241 0  0.06958910343241463 -0.4375920243667767 0  0.0851757215026971 -0.3955675646810996 0  0.1564119681997804 -0.5375 0  0.08801871686373428 -0.5400962675125434 0  0.1235664132540686 -0.5743892733585571 0  0.8385416666666666 -0.8385416666666666 0  0.8568033792097669 -0.8893388595808006 0  0.8165405532669543 -0.8864973999672022 0  0.4707427358801725 -0.6960294030860331 0  0.4935276984974694 -0.7296802644511113 0  0.439429053415735 -0.7172414199238222 0  0.530535622577833 -0.8838993058252845 0  0.4843713270121874 -0.8660973801973132 0  0.469573744386572 -0.899570017656267 0  0.8196486815583797 -0.4233889973591431 0  0.8707988175750606 -0.4407698739474371 0  0.8792648160222662 -0.3932693631416891 0  -0.7291666666666667 -0.46875 0  -0.7671605306454142 -0.5062427103339502 0  -0.7752420338207927 -0.4590943523491531 0  0.2317334235129189 -0.8426250964866489 0  0.1995726407829773 -0.8210214815432482 0  -0.2498118026925814 -0.6504184844551517 0  -0.1924922542365422 -0.6406125188925936 0  -0.2291404216256193 -0.5988203459587149 0  0.0886521659291967 -0.781664777148019 0  0.1304531738843702 -0.8185615482286118 0  0.09573667691469769 -0.8385289745257571 0  -0.1875 -0.1044151901566412 0  -0.21875 -0.04821494179247303 0  -0.1672175895923521 -0.05634884504314885 0  0.0625 -0.1875 0  0.02992677437133703 -0.2409069483343901 0  0.009094042211422584 -0.2018857252644085 0  -0.417859713620692 -0.1272112306393873 0  -0.3751115671527397 -0.1277537167608107 0  -0.4049008016543854 -0.08877373161207149 0  0.869047619047619 -0.625 0  0.853449603554214 -0.5597891552311799 0  0.8076658267024869 -0.6122573465636135 0  -0.4167352873240194 -0.6723363464673825 0  -0.4377616406439948 -0.623473563638787 0  0.0625 -0.08333333333333333 0  0.04303124119461745 -0.131624025584144 0  0.02353196529212897 -0.0956929096217639 0  -0.5000531400606433 -0.08107837657333156 0  -0.4608281488367209 -0.1030942587947347 0  -0.5153510618789281 -0.1194140633348686 0  0.6427046677509448 -0.6866832571307322 0  0.5878278468516586 -0.6914437178141253 0  0.6174540989404984 -0.6444413964834126 0  0.4767973972824623 -0.3455923550450968 0  0.4385501967378091 -0.3712952877716106 0  -0.8350393154043597 -0.7590243458606291 0  -0.8800711613214151 -0.7730449059939281 0  -0.8485760879197385 -0.794831392649387 0  -0.612481986835161 -0.8603559310264466 0  0.2386921827076926 -0.2401902023691866 0  0.2242354008503732 -0.2839484739398493 0  0.1977480703910156 -0.2479163972116089 0  0.5138888888888888 -0.8263888888888888 0  0.5716956654456654 -0.7991071428571428 0  0.5141508731152034 -0.76780189025965 0  0.3765852761764692 -0.8048755081771806 0  0.3962280664044122 -0.7461802801456662 0  0.4254036655422012 -0.778609058301985 0  -0.2949535986452346 -0.8403862505646844 0  -0.2464502997926412 -0.8684506235888316 0  -0.2254220138453994 -0.8291131960549248 0  0.670067802219061 -0.3113778971254078 0  0.6482532404287618 -0.3630795970356545 0  0.625104987257003 -0.3228596537336221 0  0.8632478632478633 -0.3477564102564102 0  0.8384207246850216 -0.3086688222951354 0  0.8294477726265269 -0.3786548924493781 0  -0.625 -0.625 0  -0.6666885753311971 -0.6817700748120162 0  -0.6789601646392747 -0.6290667017961432 0  0.5566707380865371 -0.5589569741683917 0  0.5449272886501801 -0.5135299696499298 0  0.5881275287186685 -0.52659358331982 0  0.8199404761904761 -0.7269345238095238 0  0.7636829471371881 -0.7203576743197279 0  0.7949435447542111 -0.6968567995154411 0  -0.2868571330085485 -0.1746785665042743 0  -0.2399089840152375 -0.1356858845964898 0  -0.2341140089642547 -0.1972858869013941 0  -0.09730592001891748 -0.3659874199367823 0  -0.1288646437850417 -0.4197743119365076 0  -0.08673328569468908 -0.4098006347314676 0  0.340305410888887 -0.4214212363748607 0  0.3842124400942648 -0.459897768760871 0  0.334393480500191 -0.472457817831391 0  0.2735271363732026 -0.5556979556232924 0  0.2602226318210615 -0.5154798157568113 0  0.232172995580929 -0.5616039910124717 0  0.9375 0 0  0.96875 0 0  0.9256075376593842 -0.03395488502250707 0  -0.4620753803475469 -0.4887738589573591 0  -0.3931737140779547 -0.4913180822146095 0  -0.4295967337866813 -0.5434559615335508 0  -0.6112893384091296 -0.7252637899414397 0  -0.6800234948803819 -0.7324302819852676 0  -0.71875 -0.28125 0  -0.6963391289856171 -0.2372592812179405 0  -0.7499380019921282 -0.2544900455611588 0  -0.8333333333333334 -0.625 0  -0.8697300379463634 -0.6707489581169179 0  -0.8851138253628825 -0.6211573849412756 0  0.1570190040519728 -0.08911841970564628 0  0.1717923389697152 -0.04439942700128354 0  0.1932198758295791 -0.07290061945906789 0  0.8961037452885279 -0.2491887641344163 0  0.9462297992131585 -0.2838344769960618 0  0.8969594122157428 -0.3056963865795505 0  -0.647173698022838 -0.4501300917557468 0  -0.6805318247416843 -0.4930756367316577 0  -0.6341170841187495 -0.5084396074032205 0  -0.6331954688315893 -0.3056586094508891 0  -0.6373840432500096 -0.3595830329857544 0  -0.6844134468000951 -0.323039816027069 0  0.6789615720692226 -0.7991071428571429 0  0.705107927502782 -0.8377299035902722 0  0.72274948338666 -0.8027143298921868 0  0.7236328124999999 -0.8805338541666666 0  0.7458513465250871 -0.8455074011877769 0  -0.534798161776864 -0.3238415524433838 0  -0.4985614872143695 -0.2668819626402417 0  -0.47650985987626 -0.3209171721810216 0  -0.625 -0.1284722222222222 0  -0.6873688545752057 -0.1507169422115436 0  -0.6391768592823802 -0.1727233839860283 0  0.5 -0.5 0  0.4983464722515407 -0.5457839876496475 0  0.2753696919769387 -0.3899898712067487 0  0.2809113579286488 -0.4475008941979546 0  0.3026698517204568 -0.416381777815902 0  -0.7342700764273562 -0.329003254841681 0  -0.839369243011413 -0.09070655825045064 0  -0.777962592310082 -0.06182877019943638 0  -0.8062694457479417 -0.03708026987152604 0  -1 -0.0625 0  -0.9549904418883908 -0.09375 0  -0.9472672110417248 -0.04668433271027895 0  0.2189445828686909 -0.8991138187351485 0  0.14241259005626 -0.749814732014578 0  0.8698864551457561 -0.4947846763658489 0  0.8354592931070025 -0.4608152288974524 0  -0.325955789413919 -0.5066694108401401 0  -0.2910285870369208 -0.4685913450640704 0  -0.3303554774544553 -0.4675762204741468 0  -0.2206999093490297 -0.3846196591495384 0  -0.2326996721479808 -0.4219436812051779 0  -0.2536539133683556 -0.3662077935543634 0  -0.02992718085855903 -0.2227184574243229 0  -0.07746359042927953 -0.2363592287121614 0  -0.02072026569591908 -0.2768136209436289 0  -0.06169885779374244 -0.3133075792473361 0  -0.008938030314161391 -0.3121603270889021 0  -0.505439170254834 -0.3506589398832102 0  -0.3388867336849771 -0.265750052475669 0  -0.3490064141210164 -0.3213803325002552 0  -0.3835246447413579 -0.2863655625565267 0  -0.3316365370697056 -0.3751894707479894 0  -0.3708081251055461 -0.3951757435135663 0  -0.314758160118714 -0.4149993496420325 0  -0.2904160534247302 -0.8884900725657097 0  0.08779244632711106 -0.575901465988248 0  0.1430539636386748 -0.4970945330390926 0  0.190438185813897 -0.525867204942021 0  -0.7662303620614223 -0.2922172987503631 0  -0.793131831862493 -0.3182289392841901 0  -0.6713099107357036 -0.2774988359064854 0  0.1864315491956203 -0.3103047573005095 0  0.2170122437510934 -0.341821971338711 0  0.28125 -0.03834351317610702 0  0.5684523809523809 -0.6398809523809524 0  0.500307855206478 -0.6492028900614579 0  0.53888579695478 -0.6028658943978663 0  0.5278486436082512 -0.463290446020168 0  0.5705674237111584 -0.430285799253936 0  0.6331340784160523 -0.5299594752414492 0  0.6819456336464264 -0.5095600839279733 0  0.6231281805183515 -0.4826064498278654 0  0.469785472880377 -0.2847005861688032 0  0.4478144927551179 -0.3180802397663127 0  0.4376349974036635 -0.2658042130925737 0  0.5749983607214338 -0.4775125853935726 0  0.608328260225916 -0.4449129811224475 0  0.7015223157535263 -0.3807246103186349 0  0.7563863217199454 -0.4062522660703026 0  0.7397822311082405 -0.3474997990404733 0  0.333622851554254 -0.9025225553980037 0  0.3801069730800983 -0.8646997290236796 0  0.32973209728501 -0.8376494004530852 0  0.06263948028531544 -0.6036593997828218 0  0.05327322360667823 -0.5663890163028358 0  0.02308680995945949 -0.5901740249382921 0  -0.1347773684231967 -0.6477314760754115 0  -0.09641069369199015 -0.6041491473134789 0  -0.08227375015985926 -0.65885111593082 0  0.5208511688268059 -0.2039402717143754 0  0.5342547888526751 -0.1649172264868477 0  0.4514975695006778 -0.1821494872323529 0  0.59375 -0.04531311846021484 0  0.5474867021255037 -0.04378613144038584 0  0.5493301163315517 -0.0815580651722457 0  -0.1590300437384934 -0.6068401764169082 0  -0.25 -0.5 0  -0.2497924133615108 -0.4572270360265132 0  -0.2167388064111898 -0.4766640081606996 0  -0.07808805921715228 -0.7974724844347642 0  -0.1021121882569775 -0.7570725934871274 0  -0.1223796389112533 -0.7894074462066534 0  0.6330314662026646 -0.1206484179246527 0  0.6054793110383317 -0.1577837670316238 0  0.5714504744802932 -0.1373152749883657 0  0.6582951048467671 -0.1474904636318305 0  -0.25 0 0  -0.1875 0 0  -0.3470694274766855 -0.09548396745862189 0  -0.3407111383884555 -0.1531369556887106 0  -0.2974422409703632 -0.1230530407070959 0  -0.5795449747249775 -0.7650409818904099 0  -0.6387628271264842 -0.7604610772454414 0  -0.7923252853243461 -0.5453761020312101 0  -0.7838544488781575 -0.6001107375296592 0  -0.8220777591819097 -0.5857499641714072 0  0.1116644258439355 -0.05510248604961827 0  0.1151356040577885 -0.09771860073118639 0  0.2212243401759531 -0.1587243401759531 0  0.2707518534476707 -0.1376171050095874 0  0.2501299882171391 -0.1951320663656516 0  -0.375 0 0  -0.3835020898162934 -0.05431404701549268 0  -0.4156918523927581 -0.03231761771379041 0  -0.6392543606325429 -0.928339100441906 0  -0.6424611570252104 -0.8878130520586869 0  -0.603675526111467 -0.9051338735311464 0  0.02727793553516374 -0.3034073548216121 0  0.160354595702416 -0.3470571842434721 0  0.1448335300393704 -0.296332183255021 0  0.1232182738084018 -0.3364080981174307 0  -0.5532533212560387 -0.1357563405797102 0  -0.53570375156116 -0.0890721130652791 0  -0.5 0 0  -0.46875 -0.03231761771379041 0  -0.5226101597167778 -0.04052438664193384 0  -0.5211007895721732 -0.8361635446022054 0  -0.5213378693904243 -0.7984708989614423 0  0.6041666666666665 -0.8541666666666666 0  0.6253286187574439 -0.804581996758587 0  -0.6510287680758025 -0.217653117064596 0  -0.606359656089133 -0.2307842937318909 0  -0.5868395664604171 -0.3301336774590602 0  -0.5646566248318243 -0.2952459604456549 0  0.2361641098654653 -0.6813527289019109 0  0.2521925324577093 -0.7163926742730918 0  0.2785380852416126 -0.6916636660422004 0  0.4400624274099884 -0.6160206155632985 0  0.4485218440171055 -0.6586635089128352 0  -0.8874458874458875 -0.726461038961039 0  -0.8507319222740649 -0.7074629232887405 0  -0.9040363810686979 -0.6905126720083855 0  1 -0.3125 0  0.9626196171312683 -0.3178540743507923 0  0.7959328272834876 -0.5253279769254565 0  0.8096042246830397 -0.5677392219181114 0  0.83750231639883 -0.5211764408848575 0  0.933182360376644 -0.1933011403088585 0  0.8728728477420269 -0.1897417832737486 0  0.7897730444881872 -0.3557839878982123 0  0.7921310275624416 -0.3074480511664045 0  -0.9375 -1 0  -0.904970676275109 -0.9673413049796636 0  -0.9645427661586714 -0.9645427661586714 0  -0.875 -1 0  -0.8714621829071937 -0.9383238504215687 0  -0.7606017807302846 -0.8659494507342824 0  -0.811476465095391 -0.8689348819476268 0  -0.7603570622464548 -0.8253576645003748 0  -0.08794122203869277 -0.876055157210214 0  -0.1424119603343134 -0.8772642214477738 0  -0.09582379360578719 -0.8351577330497103 0  -0.1914030746129143 -0.8579633916930971 0  -0.1362099493065013 -0.8249747734999436 0  -0.1331138218155937 -0.139551742755241 0  -0.1524211745063773 -0.09090486988070649 0  -0.1018569533007011 -0.1126226259424551 0  0 0 0  -0.03125 0 0  -0.0298664333906359 -0.03903921906399122 0  0.1553501667334355 -0.9340784905014774 0  0.2056927978716679 -0.9503269260678009 0  0.1727071196072603 -0.9664139978665589 0  -0.9382193509677418 -0.204190196461092 0  -0.9596758325959658 -0.2398178975324052 0  -0.9228780928725633 -0.2377041822169406 0  0.9075246902758297 -0.9078102849914793 0  0.8608298863995192 -0.9431685186249879 0  -0.7172239914578936 -0.06898298980410671 0  -0.734375 -0.03485402245524755 0  -0.6887818682707686 -0.04034301849809161 0  -0.4375 -0.9269618756798756 0  -0.40625 -0.9676806299481768 0  -0.4012224685075311 -0.9130333780876254 0  0.5625 -0.9345238095238095 0  0.5682936427345054 -0.8954622694019476 0  0.5268683862433863 -0.9317956349206349 0  0.7729946145124715 -0.6644876700680272 0  0.8312302737153349 -0.6695774146226814 0  0.9121050213379069 -0.7218021798168305 0  0.9485986787711828 -0.6855515924681991 0  0.9664668942374791 -0.724022622873944 0  -0.9166666666666667 -0.5799214388387555 0  -0.9630453337105916 -0.59375 0  -0.9497120611632289 -0.5537801495032056 0  0.8978614017526444 -0.8554706419005474 0  0.875 -1 0  0.9090169373952113 -0.9582931485428797 0  0.9201744571617161 -0.418850076938542 0  0.9544346796004991 -0.3866350270877735 0  0.9159767480779838 -0.3800607349399496 0  -0.6757308985535517 -0.9111747394827666 0  -0.2794786330805862 -0.5752462423908574 0  -0.2900502091962593 -0.6228584787482366 0  -0.3303567878995098 -0.6063751996423228 0  -0.418157027079653 -0.5897562071629902 0  -0.3845677290177842 -0.536121465211055 0  -0.5445184415753214 -0.6143559864751799 0  -0.5594733074083322 -0.5690935075841254 0  -0.5868339430636311 -0.6039905947126694 0  -0.7552181402628515 -0.5676561287221107 0  0.7143545151108724 -0.6476106937556666 0  0.70201478120135 -0.6047836960028232 0  0.7510184381224986 -0.6305324392815796 0  0.7490079365079364 -0.5901360544217688 0  0.6901491088785237 -0.5618229396104227 0  0.7397519353932206 -0.5340419204295054 0  0.6600466992165128 -0.6197870577592384 0  0.6741647879941981 -0.6591429574576282 0  0.7366430421793064 -0.6804806427656802 0  -0.4654398710899741 -0.595994179364346 0  -0.4988194622118696 -0.631702962379445 0  -0.4744658005408907 -0.5513406844847896 0  -0.5087412878219353 -0.5889727571707226 0  0.2851540983318835 -0.2314902437523869 0  0.2985434496876782 -0.2768237209372945 0  0.325351964683029 -0.2163520278828765 0  -0.1608901317822657 -0.3662640239978662 0  -0.1184469603514395 -0.3133243034580094 0  -0.125 -0.25 0  -0.09110436171711805 -0.188822819141441 0  -0.04431470964322415 -0.4011294192864484 0  -0.01266240826284257 -0.3492324151715392 0  -0.05466647162084671 -0.359214847599304 0  -0.1125920478767513 -0.5483854952900444 0  -0.09043589967528368 -0.5058861641490596 0  -0.07330837545679723 -0.5418402356406384 0  0.1565336136586093 -0.254038731439365 0  0.09471982297468834 -0.2416807031166935 0  0.1177901923341603 -0.2708279873723243 0  0.2235936038294448 -0.4402274567686137 0  0.2327314315715403 -0.3978454801069752 0  -0.2253113916918616 -0.2539907544053885 0  -0.1756962831088177 -0.2384072043504977 0  -0.2080194260056558 -0.2222707509957832 0  -0.1777635916899995 -0.1864434451788337 0  -0.1343099557202181 -0.1831161612738108 0  -0.3602916235475765 -0.5747488752974355 0  -0.3683500337939881 -0.6123563620784812 0  -0.352912348914086 -0.4353454535301299 0  0.651892495436428 -0.9217534530328911 0  0.7112249152348107 -0.9419783562313279 0  0.6720319799874652 -0.9598138093570263 0  -0.787905892770392 -0.1724159085960544 0  -0.7937684840456307 -0.1079460428020594 0  0.2488943084229333 -0.322880763236138 0  -0.1798932030570908 -0.5641199326095805 0  0.1971182202754394 -0.3731183487980031 0  0.125 -0.375 0  0.4348492774989916 -0.4308429678539493 0  0.4433857742692955 -0.4927037955031761 0  0.3926431109481483 -0.3752988579967147 0  0.3939090121317004 -0.4181445438363475 0  0.3568909380914675 -0.3641748759391096 0  0.2894816596569729 -0.7260998414771758 0  0.344640921409214 -0.711978884372177 0  0.3440973853063052 -0.6676189287645843 0  0.1853582362223181 -0.7191491602193002 0  0.1822705133896039 -0.6619538671923594 0  0.557747933124439 -0.8444372729011282 0  0.6333913193870202 -0.7677972453624368 0  -0.04361369316383909 -0.7377465650392508 0  0.8699082999280406 -0.7767596347475686 0  0.8146944004087778 -0.7875810405379673 0  -0.03644233697128067 -0.8025130479515786 0  0.0133764037438051 -0.8241705772647706 0  -0.001529472780230523 -0.6196864770348117 0  0.0374684058504455 -0.6393527060775293 0  0.002921636280073641 -0.659359244936905 0  -0.03223982956723419 -0.678264593501496 0  -0.05053444064267352 -0.6214708140952718 0  -0.4778191147701204 -0.3792641000350033 0  0.25 -1 0  0.1875 -1 0  -0.2479622158965386 -0.707958036388183 0  -0.2136399348566402 -0.7398128095748051 0  -0.2547789830559065 -0.7516122639963034 0  -0.7291666666666667 -0.7142857142857142 0  -0.5776592255373502 -0.6699571859147362 0  -0.6214661578746582 -0.6811976227890988 0  -0.9268123644808427 -0.6581277350033388 0  0.51230381677154 -0.07386584217292028 0  0.4133190600122804 -0.1538185362013715 0  0 -1 0  0.004393681104963054 -0.9477426409611773 0  -0.03125 -1 0  0.01478349304659175 -0.8963404249079552 0  -0.04561372886898752 -0.9319503974517274 0  -0.3734382922323083 -0.8858653475172704 0  -0.3370659640579785 -0.8581729185527721 0  -0.3285194028727323 -0.8960714521276412 0  0.474762484056872 -0.07970638412767467 0  0.4375 -0.07732062776283305 0  0.3852623300278073 -0.09049755751602391 0  0.4010312731958934 -0.04287872796694527 0  -0.5162644948376385 -0.6904630870908628 0  -0.6467748522211775 -0.5858933169157059 0  -0.001322819141440973 -0.1588956382828819 0  -0.0449444924740019 -0.1776665225779943 0  -0.01820575542552472 -0.1172109112411419 0  -0.09628465574777986 -0.1506950647789081 0  0.7395833333333334 -0.07291666666666667 0  0.7596835985109722 -0.1132127886702055 0  0.7757698777313768 -0.08002752254702918 0  0.8125 -0.1875 0  0.7485241666268811 -0.1995357873125526 0  0.8040104545124303 -0.2280522178757218 0  0.8993055555555556 -0.1354166666666667 0  0.8490827489148723 -0.120741714771509 0  0.8830069905836979 -0.09791858239180913 0  0.7495774161627325 -0.157095167674535 0  0.7988599422741892 -0.1354166666666667 0  0.9636262109046104 -0.15625 0  -0.1732951044344302 -0.2987631045290198 0  -0.229181564803697 -0.3110894049582936 0  -0.2998694096530154 -0.2276427170574508 0  -0.2588234840921031 -0.2301573522507446 0  -0.3901336191835071 -0.7045991424494787 0  -0.370895981399999 -0.6658141980820086 0  -0.2959171954150668 -0.7398098957899141 0  0.125 0 0  -0.7284794930043373 -0.9308534765154455 0  -0.7742940719973851 -0.9545167630481006 0  -0.768209063872339 -0.9101154368819242 0  -0.7231725292959333 -0.8674683001266833 0  -0.96875 0 0  0.278611111111111 -0.8120370370370371 0  0.2777117303590095 -0.8745491043022947 0  0.4375 -0.8819444444444444 0  0.4087391398516448 -0.8329984605288406 0  -0.9314391496428966 -0.7969668222081012 0  -0.9568799584952571 -0.84375 0  -0.9161346984869917 -0.8355983975186182 0  0.1777377526985192 -0.7890172664026699 0  0.2391039846982064 -0.7526335078721981 0  0.2358126879371875 -0.7976615705500758 0  0.209784127323205 -0.7731247110233259 0  0.2752077170077608 -0.9370174751522705 0  0.238098915796227 -0.9313912038021491 0  -0.9147546193757442 -0.1309454487556358 0  -0.9025067923193083 -0.06315643785599603 0  -0.8804997101998907 -0.09884435452071587 0  -0.8135209736990647 -0.4316919117326596 0  -0.8723397359192129 -0.4391497188302458 0  -0.8544281270069836 -0.4034059163869806 0  -0.8213187420261887 -0.3809957898116723 0  -0.7848789233914911 -0.3895886164787442 0  -0.41225504609896 -0.4607202751354044 0  -0.2793764106228006 -0.3385796139075677 0  -0.3153150322308403 -0.2987735439826033 0  -0.3154330316217853 -0.3350065758081119 0  -0.1891450158390907 -0.503289551160507 0  -0.1492661755043851 -0.5231174308319524 0  -0.2363741357122303 -0.5487355266967104 0  0.5787043236058884 -0.3235407387934166 0  0.5624908965087534 -0.3765384865097943 0  0.5282989255121158 -0.3370993148516206 0  0.5239691293842457 -0.256045639500291 0  0.5737202095417638 -0.2402494040847409 0  0.5625 0 0  0.5105569653263733 -0.03620685356130304 0  0.761187012889364 -0.9505566137254722 0  0.7644505213715278 -0.9055331340026415 0  0.75 -1 0  0.6875 -1 0  0.8762428528715298 -0.8188290859038477 0  0.9073541046866916 -0.7618325900951584 0  -0.375 -1 0  -0.4375 -1 0  -0.4955099953084893 -0.8719984409580374 0  -0.5309698579729548 -0.8907632867674208 0  -0.4730422553661659 -0.906379768780314 0  -1 -0.6875 0  -0.9477969946719946 -0.71875 0  -0.9603348035688954 -0.6804669015042736 0  -0.7291644787419936 -0.5330939163317181 0  -0.8894257253488973 -0.2222290231467507 0  -0.9028523346966598 -0.2724877868666212 0  -0.8561153825110428 -0.2580507070061512 0  1 -0.6875 0  0.9683655319529977 -0.6502386778112789 0  0.7084715779753469 -0.2136107889876734 0  0.6782228496722345 -0.2581550474531734 0  0.6666914111648971 -0.2177817271779292 0  0.625 -0.25 0  0.6056216246118163 -0.21219446596411 0  0.776227330915363 -0.7638048799965815 0  0.7239460612067338 -0.76352398545723 0  0.9345238095238095 -0.6280470521541951 0  0.8997950044910802 -0.6693006388734191 0  -0.9374484514403697 -0.3369901440528824 0  -0.9184940041127468 -0.38427698845157 0  -0.9538367846751484 -0.3710015098540531 0  -0.9560571902256976 -0.28125 0  -0.9224786694809616 -0.3034901843904951 0  -0.6876329844529718 -0.1952196103297925 0  -0.7776541720747444 -0.2241486456959361 0  -0.8233711498580544 -0.2241535080753227 0  -0.8685292833540387 -0.4983168222498294 0  -0.8107574116976497 -0.4899946585646078 0  -0.8395422708080933 -0.4621421965979374 0  0.3920888612926081 -0.5177444000128278 0  0.338241240244293 -0.5437719612587129 0  0.3339587525664488 -0.5082421483990618 0  -0.7301361338698167 -0.2012704921379654 0  -0.5862381309345327 -0.1036630122438781 0  -0.4375 0 0  0.4912367724867725 -0.9290674603174603 0  0.5625 -1 0  0.53125 -0.9672619047619048 0  0.5297935663627152 -0.7113411854103344 0  0.5574361555577749 -0.7493969814039969 0  0.125 -0.7 0  0.1030137294901038 -0.7446092396894343 0  -0.3125 -0.9314652550713731 0  -0.2705442482777676 -0.9559695579665746 0  -0.2346434692396176 -0.9232299790534102 0  -0.4375 -0.06463523542758082 0  0.4837038403922009 -0.4500853465039287 0  0.338126826737756 -0.3317731944102535 0  0.3426072352185346 -0.2868138212095112 0  -0.6660247350767096 -0.5454839261611075 0  -0.7038148042452206 -0.5709871741729486 0  0.9351358006143162 -0.34375 0  0.7729895494224436 -0.4410201802508025 0  0.7935124860062723 -0.3945352183252364 0  -0.8630964060549428 -0.1369896565134543 0  -0.875 0 0  -0.90625 0 0  -0.6950937950051521 -0.4289518421596096 0  -0.3928294330583489 -0.3571109775960216 0  -0.6875 0 0  -0.71875 0 0  -0.65625 -0.0642361111111111 0  0.7036774773371482 -0.4702032473943464 0  0.7272741267701632 -0.4989810230260185 0  0.6830361824735153 -0.3473026341352402 0  0.6035779589457286 -0.3611070468645365 0  -0.1711742089211172 -0.4087576093425851 0  0.04296288283043327 -0.4885758904479692 0  -0.001807122336674606 -0.4898547085356956 0  0.04972467741364693 -0.528123939942906 0  -0.04648851489216884 -0.4867624767096216 0  -0.08753076217979741 -0.4530890812591908 0  -0.04568833495693674 -0.4439386695087971 0  0.01758364625201442 -0.5521390227182477 0  0.1226736238345385 -0.4597357349367521 0  0.1837091449386822 -0.4845170022938697 0  1 -0.125 0  1 -0.0625 0  0.9469582920645887 -0.1041616381058385 0  0.90625 -0.06428062678062678 0  0.9530087322573105 -0.05726881673771143 0  -0.4266498532834097 -0.8314469976742455 0  -0.3772390601438488 -0.8363568870701591 0  -0.4222049713960459 -0.8803256281054291 0  -0.434884351294584 -0.7889565787656936 0  -0.3964822002837831 -0.7975455032214966 0  0.31016597117023 -0.1474667781920316 0  0.2982044238171222 -0.1115477657789507 0  0.2955840335466776 -0.1853858477058205 0  0.2620497516005934 -0.2872730114518851 0  0.3579545454545455 -0.2443181818181818 0  -0.5898088451711391 -0.4406557228543504 0  -0.6106311057291317 -0.4754182603075522 0  0.1439543906339759 -0.6193779313399917 0  0.1404215801641785 -0.6610865010389714 0  0.2259162055828293 -0.5970152601919835 0  0.2697264603303417 -0.5966705358165051 0  0.2263971334879059 -0.5261111068937285 0  0.1204293951053667 -0.4180067983587188 0  0.2481603867393065 -0.3619472937090531 0  -0.6886020212185153 -0.3769642395619344 0  -0.6007300285182738 -0.2750483060229388 0  -0.636684594842854 -0.2571311112993696 0  -0.4478246564103771 -0.4547935684574905 0  -0.5577699641732096 -0.352204697495597 0  -0.7200470980849201 -0.8301388553657724 0  -0.6860118188241868 -0.8721945421483859 0  0.805082775297619 -0.925199962797619 0  0.8656561846633583 -0.7049990883214285 0  -0.95868397158102 -0.1572531766053086 0  -0.8967451983659971 -0.1751041402153813 0  -0.2718821785313976 -0.4205990165055381 0  -0.288483293797699 -0.3807638038081594 0  0.8993205204990008 -0.3480622935933622 0  -0.6069967757560891 -0.5653706103727785 0  -0.5387075830007095 -0.6554968054157749 0  -0.8080690749157455 -0.2672335334205144 0  0.1875 0 0  0.2108053262716282 -0.1039201172007581 0  0.1730549760936727 -0.1359720589058441 0  0.1421430424789334 -0.1746614407285412 0  0.1501131109778672 -0.2142096231316112 0  0.1862748085802286 -0.1703504157881781 0  -1 -0.9375 0  -0.9330108249466936 -0.9330108249466936 0  -0.2662023314689956 -0.08061122784825615 0  -0.2257584284310943 -0.0889003242084451 0  -0.4855217686400384 -0.8102181824465113 0  -0.4594520309545383 -0.7533241248416915 0  -0.5242329604070446 -0.7547682810041173 0  0.5706022489843241 -0.1881440362988253 0  -0.328896987931629 -0.8187673631010109 0  -0.3577321760826734 -0.7906949229557625 0  -1 -0.75 0  -0.7627051767676769 -0.6615823412698412 0  -0.7702193751681167 -0.700374689248507 0  0.06499816801969828 -0.7330254384848051 0  0.09574560743646217 -0.6505831010008868 0  0.1039382094880778 -0.6103984350313683 0  0.7640635972095499 -0.2390432755522533 0  0.7231716913384615 -0.25771004884406 0  0.8184975899431328 -0.266868163880399 0  0.4172961698901282 -0.1141800471947559 0  -0.1959272495264425 -0.9334335873083531 0  -0.1776756312241 -0.8949464082264453 0  -0.2142983717622766 -0.8875009228312732 0  -0.09759016836337367 -0.7102873254983154 0  -0.1431965215531755 -0.6950675099036052 0  -0.1648618805533297 -0.7269035661472217 0  0.3797373887477308 -0.1308218711674167 0  -0.21875 -0.9663301122178465 0  -0.15625 -0.9280693389625363 0  -0.1715709752418835 -0.9641667518722 0  -0.1009267047941675 -0.9298627837538408 0  -0.1295694879659109 -0.9592316446503779 0  -0.125 -1 0  -0.07440321686224043 -0.9609263224539069 0  0.4424704016207366 -0.2288265866831851 0  0.3959043175336074 -0.2130688334539117 0  0.4011463995642111 -0.2581030302921521 0  0.3577833306556489 -0.1820285800159197 0  0.4106280472265429 -0.644020280502389 0  0.5501645709542344 -0.6761745559577852 0  0.4583333333333333 -0.75 0  -0.5884065557205177 -0.3825306543118232 0  0.6858335943936317 -0.8977862374841056 0  0.6322997856796345 -0.8768361782728991 0  0.610501052372818 -0.9512722638605784 0  0.6071071513969231 -0.9027342538724582 0  0.7963123972779086 -0.471688075426612 0  0.7660955591635324 -0.4982955468823426 0  -0.1692192632235369 -0.4694366670429 0  0.9539816645809986 -0.2365104469538008 0  1 -0.25 0  1 -0.1875 0  -0.3686681357581454 -0.9430086283947257 0  -1 -0.625 0  -1 -0.5625 0  0.7448607889876734 -0.2970823669630203 0  0.7102998549905067 -0.3190655353706285 0  0.6397442232033168 -0.2864086567910606 0  -0.1911342864848194 -0.6987489405179704 0  -0.2274575947148444 -0.7845544884279269 0  -0.3306247931595718 -0.6499211173617297 0  -0.2235960251154488 -0.678375291449454 0  -0.9602322878013484 -0.6345519232996363 0  -0.92424866422242 -0.6190184239959514 0  -0.06621009218357499 -0.6916330000985966 0  -0.1133272219563635 -0.6759633129804661 0  -0.4953695184547824 -0.511190331370949 0  -0.5193241961404962 -0.543395475133188 0  -0.5555196408818875 -0.5310581518305973 0  -0.8096590909090909 -0.7027867965367965 0  0.6588510558202564 -0.4108223094957145 0  0.7067440392064037 -0.4306369802792801 0  0.6103606703555905 -0.4044691369335779 0  -0.5213830656202624 -0.157548227014381 0  -0.4883257079713795 -0.2305802005691775 0  -0.4626345735267391 -0.2574181081026408 0  -0.1488636363636364 -0.7619318181818182 0  -0.656410799404158 -0.8311903874802183 0  -0.8184523809523809 -0.8184523809523809 0  -0.6832700604133274 -0.9507766857012357 0  -0.734375 -0.9669407957382182 0  -0.5625 -0.0642361111111111 0  -0.609375 -0.04732075825825827 0  -0.65625 0 0  -0.6875 -1 0  -0.6471888530208206 -0.9671655287222545 0  -0.9313661077006911 -0.4335682217076223 0  -0.9673606307370604 -0.40625 0  -0.8706224437627812 -0.3668519938650306 0  -0.8901435586616252 -0.3208332601729229 0  0.9702960635075926 -0.3537122761027306 0  0.3125 0 0  0.375 0 0  -1 -0.875 0  -1 -0.8125 0  -0.95539420150757 -0.891174516565133 0  -0.1184350836773305 -0.07484254183866529 0  -0.06473298370126726 -0.05665451216757186 0  -0.1017706015063177 -0.0356715976592044 0  -0.0625 0 0  0.6635050806778672 -0.09866219079915234 0  0.75 0 0  0.78125 -0.04166666666666666 0  0.78125 0 0  0.6449600616308317 -0.1818550308154158 0  0.6923990127106575 -0.07781567937732416 0  0.71875 -0.03273809523809525 0  0.6765137502533302 -0.03975370957565257 0  0.6875 0 0  0.09496041797515031 -0.1354166666666667 0  -0.0625 -0.125 0  0.7190082600980113 -0.104424926764678 0  0.8437047280594419 -0.1611972220774815 0  0.8544784010470285 -0.04971296745193804 0  -0.324057612896294 -0.5503251151113299 0  -0.2856877604523492 -0.5294163128277092 0  0.03554507598199062 -0.3454683121916204 0  0.06438803018935407 -0.3114657792209394 0  0.1016868218937033 -0.3043315331894227 0  0.7617600467341312 -0.8066501706820284 0  0.7989374983429527 -0.8260145910936197 0  0.1182279232552764 -0.9569348047763806 0  0.1178624490475318 -0.9147668838038554 0  0.06456675437136095 -0.8909408675784674 0  0.3248404292045995 -0.7707283413700838 0  0.3572642065449184 -0.7489447809854932 0  -0.4780821528817161 -0.4337643701257473 0  -0.4541722133659779 -0.4066289983797883 0  -0.4398229439150063 -0.3509285482355167 0  -0.7291666666666667 -0.6088789682539681 0  -0.7138178154347203 -0.6674952328707631 0  -0.7140579193703358 -0.7611335966150276 0  -0.8125 0 0  -0.84375 -0.0400759789681433 0  -0.9375 0 0  0.07847265286094272 -0.9390465254024919 0  0.05580836431300747 -0.8416375316764169 0  0.6041666666666666 -0.7440476190476191 0  0.7083333333333333 -0.7083333333333334 0  0.662200044483802 -0.7435447726015655 0  -0.02817487846768386 -0.8436399563187126 0  0.0234081319708143 -0.8600736302947191 0  0.4425072572625283 -0.9304353099907027 0  0.46875 -0.9678531345198012 0  0.375 -1 0  0.3125 -1 0  0.3441338430079038 -0.9555814499683967 0  -0.3125 0 0  -0.2724853984714163 -0.03741447688339915 0  -0.3129261834220501 -0.05384551876921317 0  0.3519585610187457 -0.5844627423215019 0  -0.525558233694191 -0.2366074830808544 0  -0.4815066425120773 -0.143040458937198 0  -0.432361519195083 -0.1710961321008368 0  -0.4680258576122787 -0.1764977611187697 0  -0.5231383251715305 -0.1961165893412805 0  -0.5350480033921595 -0.2730503627133081 0  0.5827545565684715 -0.09924772171576424 0  0.625 0 0  0.3217213085677492 -0.3770223659646477 0  0.2921766781896106 -0.3407121045731805 0  0.4375 -1 0  0.40625 -1 0  0.421875 -0.9639127586842854 0  0.3939238645238481 -0.9344466210877889 0  0.4017956578459463 -0.8966452028932537 0  0.4160192284345735 -0.6875349145392831 0  -0.02513629334659755 -0.5299214456895009 0  -0.1424891344773513 -0.5723075797468495 0  -0.9637802401305949 -0.46875 0  -0.9051254755657311 -0.4709674221626972 0  -1 -0.5 0  -0.9340662102607326 -0.5146576182060719 0  -0.9006782964934752 -0.8741694290522762 0  -0.8773072193753835 -0.8201278527800823 0  -0.8470588302419642 -0.848128591680171 0  0.9672619047619047 -0.59375 0  0.9032399891774892 -0.5952735260770976 0  0.4929506214475029 -0.5912789596050029 0  0.4526477603783771 -0.5490298176284941 0  0.9473711654369413 -0.8733916957212345 0  0.9541344741847272 -0.921496062698192 0  0.6655285906090942 -0.4592690928075095 0  0.9354954434542979 -0.4836154815779281 0  0.9083990380063045 -0.5227299736782901 0  0.9672619047619047 -0.53125 0  1 -0.5 0  0.9345238095238094 -0.5625 0  -0.5595007838169925 -0.7177517121148745 0  -0.04362062955753568 -0.8864669150236866 0  -0.8937381869591594 -0.5368058364414229 0  -0.854846143052628 -0.561388390319842 0  0.25 0 0  0.21875 -0.0480074463539898 0  -0.1801690977121901 -0.8010066760203295 0  0.305555160001948 -0.9615803356440368 0  -0.1975082424160386 -0.1471950892055856 0  -0.5625 -0.915569968169556 0  -0.5600301577933217 -0.8631042869159606 0  -0.5 -1 0  -0.5625 -1 0  -0.5427602649579136 -0.957784984084778 0  -0.6670258537082028 -0.1091978252274139 0  -0.5667001629364445 -0.2118108283905839 0  -0.6508944483263107 -0.4039250740110157 0  0.7714290181668918 -0.5576256627011522 0  0.04367566863104195 -0.9624976200642744 0  0.9562718353509133 -0.4445057136531953 0  1 -0.4375 0  0.5 -1 0  -1 -0.375 0  -1 -0.4375 0  1 -0.625 0  -0.5016361260820145 -0.9358630792868373 0  -0.4651174060956424 -0.9634809378399378 0  0.9292674731182795 -0.8125 0  0.0625 0 0  0.03125 -0.04166666666666666 0  0.03125 0 0  -0.8125 -0.9198868071818891 0  0.8125 -0.08333333333333333 0  0.8187894564671667 -0.03726917568370838 0  0.875 0 0  0.8868407315077508 -0.03398003394540963 0  -0.5950801021711729 -0.9568003654141934 0  -0.625 -1 0  -1 -0.1875 0  -1 -0.125 0  -1 -0.3125 0  -1 -0.25 0  -0.5852466687504656 -0.5070035560035928 0  -0.4568895726071339 -0.8588383282577892 0  -0.4037664946498415 -0.7588746630295321 0  0.3835810899319985 -0.7092501179927224 0  -0.1940605847102441 -0.3374695988006526 0  0.08969681229251709 -0.4931673270904456 0  -0.01094392716165744 -0.5756822054904192 0  0.078009177541563 -0.3513223556478597 0  -0.002540056895578784 -0.3910070679191845 0  0.1051765794912073 -0.1987918607512378 0  0.9476648899455756 -0.7620460096120686 0  0.6651337126665444 -0.8617592959532284 0  -0.8254125529225634 -0.1545147407728974 0  -0.8506944444444444 -0.1875 0  -0.6762728736909962 -0.7846816887693314 0  0.497762952682644 -0.3123284800215116 0  0.5441647656235515 -0.2956092954325498 0  -0.132019775179799 -0.4820561547369455 0  0.84375 0 0  -0.8323382510721246 -0.9599434035909445 0  0.06193785911057009 -0.2735699484380243 0  0.8514562629662322 -0.2323736464426241 0  0.6105335884709689 -0.5856759951029884 0  0.6488515959554925 -0.5687770461899947 0  0.2814986674056665 -0.7687461679543874 0  0.3322799298329447 -0.6300311290364025 0  -0.1983087019071026 -0.4430386001164858 0  -1 -0.78125 0  -0.9608127586609623 -0.7677036077631122 0  -0.921645442567922 -0.7540997121273955 0  0.7430555555555556 -0.4652777777777778 0  0.2473574212433355 -0.4824393096239602 0  -0.7785445108800959 -0.3526891277235396 0  0.3943305813068087 -0.5774973672822781 0  0.4847263816874267 -0.7969643974611121 0  -0.8302785423150593 -0.527249731724213 0  -0.5331640808952995 -0.3791624832114805 0  -0.558894646241393 -0.4118560991345627 0  -0.6135646504482341 -0.4110031553350803 0  0.2937150818197979 -0.5038417539849207 0  0.1898093180851449 -0.2070129666468045 0  -0.8548750955490627 -0.8920402786567145 0  -0.8062938322424931 -0.6592665870009621 0  0.04738134508716858 -0.6818889111050419 0  0.08462332092326012 -0.697661651037044 0  -0.4320652173913043 -0.2785326086956522 0  -0.4116727075543864 -0.3186480030522623 0  0.1622165783049154 -0.4184215642803155 0  -0.2801702036761624 -0.2784999866575109 0  -0.3125 -1 0  -0.34375 -1 0  -0.3354105062391018 -0.9624106326817036 0  0.2630400731063785 -0.08433466520794086 0  -0.2904051070590647 -0.6805228437272763 0  -0.09109848300435019 -0.2784929606010815 0  0.1877457463537097 -0.6184972185082627 0  -0.5098837796243472 -0.4107615476927857 0  0.3657795990660532 -0.491867136014293 0  0.03550222991660302 -0.4522349017235555 0  -0.338112835057603 -0.7014937338566823 0  -0.3592026984509217 -0.7436133082181301 0  0.5341629558436443 -0.1236565108444112 0  0.6414369791274084 -0.03195378546970569 0  0.6460770550160697 -0.06758647249196514 0  0.6111850789184161 -0.07695564335615561 0  -0.2798352830537194 -0.789948612407217 0  0.04288876623613779 -0.9232700391677688 0  0.8125 0 0  0.07228265164908808 -0.04344426126318393 0  0.8125 -1 0  0.8242927447543374 -0.9610628558418733 0  1 -0.875 0  0.9646337365591398 -0.8351223161233733 0  1 -0.9375 0  -0.125 0 0  -0.456324135923845 -0.2106180240179633 0  1 -0.75 0  -0.8125 -1 0  -0.75 -1 0  -0.3012114653740513 -0.08756044885031278 0  0.8497241860469871 -0.08507112887717347 0  0.482787437455631 -0.2437305808321233 0  0.5925543460044255 -0.2809171691373329 0  -0.3189320530793058 -0.7748403562220262 0  -0.5673748654156443 -0.4724438964099208 0  0.907167535329073 -0.4561218891674285 0  -0.7403793323537537 -0.3708061984787221 0  -0.7540212382475122 -0.4107900390681614 0  -0.8302799962838252 -0.3227354235951164 0  -0.859420201509262 -0.2968724144898408 0  -0.34375 0 0  0.5 0 0  0.4375 0 0  0.4733685973558823 -0.04239362985536414 0  0.4371897727077182 -0.04112074735116283 0  -0.01041666666666666 -0.07291666666666667 0  0.2186661539093605 -0.6454026808343712 0  0.1340334017350186 -0.1320799852457023 0  -0.3740577879846054 -0.248229689773818 0  0.9375 -1 0  1 -0.96875 0  0.9491613126842872 -0.9614566192367553 0  0.1962140479069202 -0.5613600890607642 0  0.1627377274306845 -0.5837516468062556 0  -0.8905834128713888 -0.4076478610763152 0  0.4110839564331644 -0.3023387994428889 0  0.8770837093252671 -0.7403282103531029 0  -0.04778708133971296 -0.5724132775119617 0  -1 0 0  -0.4001880309711722 -0.6339341973135464 0  0.4479166666666666 -0.8159722222222222 0  1 -0.8125 0  0.9648829776257091 -0.7965561428677935 0  0.7745393463852879 -0.2747055462699332 0  0.8615128026910046 -0.2733530652845972 0  -0.1692967585852089 -0.6691547823556256 0  -0.4100051240696668 -0.2323628943147637 0  0.5740583034265893 -0.5915559431684488 0  -0.5625 0 0  -0.625 0 0  0.6875 -0.125 0  0.8922386923279141 -0.5580359284129395 0  -0.5638920179569745 -0.2498698138406373 0  -0.25 -1 0  -0.6220988814436424 -0.08546749137761442 0  -0.4240484652891621 -0.4266433284770509 0  -0.4205889955204395 -0.3864219557981743 0  1 -0.375 0  0.6899825062155598 -0.1711995370766037 0  0.3812873543797956 -0.3336181456218896 0  1 -0.5625 0  0.625 -1 0  -0.1875 -1 0  -0.0008993335972967628 -0.4450756435837672 0  -0.71875 -1 0  0.1627052921583709 -0.3827023324449905 0  0.7828281951854635 -0.8643017707077674 0  -1 -1 0  1 -1 0  0.96875 -1 0  -0.3879791311744237 -0.4268966766549867 0  -0.04577974012997975 -0.09024449375171471 0  0.485514979151104 -0.1951435221713297 0  0.371584440944033 -0.6327970553892011 0  0.3822599569553299 -0.6696261863069625 0  -1 -0.53125 0  -0.7175664447558249 -0.3997465266982861 0  -0.0625 -1 0  -1 -0.65625 0  0.1979839222190811 -0.4098810239016753 0  0.0625 -1 0  0.125 -1 0  -0.75 0 0  -1 -0.34375 0  0.78125 -1 0  1 0 0  0.28125 -1 0  </DataArray>
</Points>
<Cells>
<DataArray  type="UInt32"  Name="connectivity"  format="ascii">0 1  0 2  0 321  0 650  0 799  1 2  1 93  1 450  1 680  1 737  1 799  2 93  2 95  2 321  2 746  3 4  3 5  3 636  3 794  3 935  3 954  3 982  4 5  4 734  4 735  4 736  4 898  4 982  5 139  5 648  5 734  5 794  6 7  6 8  6 74  6 75  6 262  6 821  6 996  6 1014  7 8  7 201  7 488  7 996  8 124  8 262  8 488  9 10  9 11  9 80  9 81  9 384  9 468  10 11  10 80  10 490  10 673  10 900  11 468  11 673  11 674  12 13  12 14  12 180  12 341  12 416  12 417  13 14  13 171  13 341  13 870  14 171  14 416  14 568  14 577  15 16  15 17  15 242  15 243  15 244  15 959  15 1040  16 17  16 244  16 455  16 464  16 465  16 687  17 454  17 464  17 959  18 19  18 20  18 220  18 221  18 528  18 591  19 20  19 91  19 92  19 422  19 591  20 91  20 528  20 529  21 22  21 23  21 434  21 437  21 438  22 23  22 434  22 441  22 442  22 681  22 941  23 65  23 438  23 681  23 804  24 25  24 26  24 133  24 575  24 641  24 818  24 923  25 26  25 299  25 428  25 429  25 923  26 297  26 299  26 640  26 641  26 994  27 28  27 29  27 66  27 67  27 790  27 791  28 29  28 60  28 61  28 66  28 185  28 506  29 185  29 333  29 334  29 790  30 31  30 32  30 466  30 631  30 632  30 694  30 705  31 32  31 216  31 466  31 467  31 759  31 760  32 216  32 632  32 950  33 34  33 35  33 172  33 293  33 294  33 871  34 35  34 284  34 741  34 823  34 871  35 170  35 172  35 284  35 578  36 37  36 38  36 264  36 289  36 290  36 674  36 866  37 38  37 96  37 264  37 265  37 745  37 912  38 96  38 866  39 40  39 41  39 784  39 905  39 906  39 956  39 1031  40 41  40 612  40 619  40 643  40 903  40 956  41 421  41 643  41 905  42 43  42 44  42 209  42 210  42 1000  42 1001  43 44  43 208  43 209  43 237  43 614  43 903  44 208  44 638  44 683  44 1001  45 46  45 47  45 358  45 436  45 538  45 788  45 1034  46 47  46 339  46 340  46 358  46 652  47 535  47 652  47 1034  48 49  48 50  48 218  48 301  48 583  48 834  49 50  49 102  49 583  49 708  50 104  50 708  50 834  50 901  51 52  51 53  51 100  51 348  51 349  51 432  51 580  52 53  52 100  52 501  52 932  52 1008  53 501  53 580  53 810  54 55  54 56  54 114  54 188  54 597  54 598  54 714  55 56  55 187  55 188  55 361  55 983  56 112  56 114  56 361  56 363  56 658  57 58  57 59  57 157  57 548  57 602  57 985  58 59  58 266  58 373  58 548  58 572  59 515  59 572  59 985  60 61  60 185  60 499  60 500  60 508  61 506  61 508  61 509  62 63  62 64  62 366  62 447  62 729  62 951  63 64  63 239  63 248  63 729  63 1013  64 248  64 365  64 366  64 419  64 526  65 66  65 67  65 186  65 586  65 681  65 804  66 67  66 186  66 506  67 791  67 804  68 69  68 70  68 125  68 327  68 328  68 671  68 864  69 70  69 259  69 260  69 670  69 671  69 816  70 260  70 328  70 764  70 766  70 972  71 72  71 73  71 83  71 401  71 470  71 777  71 907  72 73  72 195  72 197  72 280  72 401  72 918  73 195  73 470  73 471  74 75  74 76  74 86  74 820  74 821  75 76  75 261  75 262  76 86  76 261  76 275  76 590  77 78  77 79  77 351  77 561  77 562  77 845  78 79  78 187  78 308  78 309  78 845  78 1019  79 308  79 350  79 351  79 376  79 377  79 873  80 81  80 490  80 491  80 1007  81 368  81 383  81 384  81 1007  82 83  82 84  82 269  82 270  82 777  82 885  82 966  83 84  83 470  83 472  83 777  84 472  84 885  84 993  85 86  85 87  85 285  85 287  85 288  85 590  86 87  86 590  86 820  87 284  87 285  87 741  87 820  88 89  88 90  88 381  88 805  88 806  88 807  89 90  89 217  89 583  89 584  89 707  89 805  90 217  90 380  90 381  90 920  90 1015  91 92  91 226  91 529  91 913  92 226  92 422  92 424  92 425  92 1027  93 94  93 95  93 302  93 303  93 737  94 95  94 302  94 503  94 842  94 927  95 746  95 842  95 843  96 278  96 279  96 745  96 866  97 98  97 99  97 273  97 387  97 634  97 938  98 99  98 214  98 215  98 418  98 634  99 214  99 400  99 938  100 101  100 102  100 432  100 932  101 102  101 291  101 292  101 432  101 433  101 584  101 805  102 583  102 584  102 708  102 932  103 104  103 105  103 234  103 235  103 502  103 792  103 793  104 105  104 708  104 793  104 901  105 502  105 708  105 932  105 1008  106 107  106 108  106 207  106 462  106 676  106 963  107 108  107 207  107 325  107 589  107 690  108 325  108 727  108 862  108 963  109 110  109 111  109 555  109 609  109 724  109 725  110 111  110 230  110 609  110 610  110 738  110 740  111 527  111 610  111 725  111 980  112 113  112 114  112 155  112 658  113 114  113 155  113 312  113 313  113 686  113 1012  114 312  114 598  115 116  115 117  115 372  115 451  115 452  115 469  115 659  116 117  116 142  116 143  116 450  116 452  116 798  117 469  117 595  117 797  117 798  118 119  118 120  118 174  118 219  118 920  118 1015  119 120  119 173  119 174  119 220  119 228  120 222  120 224  120 228  120 920  121 122  121 123  121 351  121 435  121 436  121 559  121 653  121 1004  122 123  122 350  122 382  122 559  122 560  122 806  123 350  123 351  124 125  124 126  124 262  124 263  124 488  124 489  125 126  125 263  125 670  125 671  125 864  126 407  126 408  126 489  126 864  127 128  127 129  127 198  127 390  127 391  127 396  128 129  128 390  128 611  128 616  128 716  128 915  129 394  129 396  129 616  129 617  130 131  130 132  130 177  130 425  130 426  130 827  131 132  131 422  131 423  131 425  131 574  131 955  132 176  132 177  132 576  132 937  132 955  133 134  133 135  133 575  133 641  133 937  134 135  134 642  134 929  134 937  135 640  135 641  135 642  135 1000  136 137  136 138  136 890  137 138  137 622  137 625  137 1053  138 624  138 625  138 890  138 891  139 140  139 141  139 385  139 520  139 648  139 734  140 141  140 189  140 191  140 369  140 412  140 520  141 368  141 369  141 383  141 385  142 143  142 264  142 265  142 451  142 452  142 856  143 265  143 450  143 799  143 912  144 145  144 146  144 161  144 178  144 211  144 213  145 146  145 213  145 293  145 568  145 577  145 647  146 211  146 569  146 577  146 661  147 148  147 149  147 267  147 268  147 859  147 940  148 149  148 303  148 304  148 453  148 940  149 355  149 453  149 731  149 859  150 151  150 152  150 269  150 270  150 663  150 664  150 995  151 152  151 269  151 493  151 662  151 861  152 663  152 861  153 154  153 155  153 310  153 311  153 717  153 919  153 1012  154 155  154 305  154 306  154 596  154 717  154 718  155 596  155 658  155 1012  156 157  156 158  156 602  156 636  156 637  156 872  156 936  157 158  157 548  157 594  157 602  158 594  158 637  158 659  158 898  159 160  159 161  159 213  159 295  159 646  159 647  160 161  160 295  160 645  160 709  160 872  160 936  161 178  161 213  161 645  162 163  162 164  162 292  162 433  162 560  162 807  162 909  163 164  163 165  163 166  163 909  164 166  164 560  164 787  165 166  165 414  165 535  165 710  165 909  165 1034  166 787  166 788  166 1034  167 168  167 169  167 200  167 295  167 296  167 649  167 824  168 169  168 742  168 743  168 819  168 824  169 200  169 444  169 743  169 796  169 943  169 944  170 171  170 172  170 578  170 870  170 1022  171 172  171 568  171 870  172 293  172 568  173 174  173 220  173 423  173 591  173 847  174 219  174 846  174 847  175 176  175 177  175 404  175 644  175 827  175 828  176 177  176 403  176 404  176 929  176 937  177 827  178 211  178 212  178 645  178 930  178 984  179 180  179 181  179 417  179 514  179 599  179 801  179 910  180 181  180 341  180 342  180 417  180 1050  181 800  181 801  181 1050  182 183  182 184  182 498  182 895  182 1006  183 184  183 512  183 513  183 654  183 895  184 498  184 513  184 601  184 802  185 334  185 500  185 511  186 430  186 506  186 585  186 586  187 188  187 309  187 851  187 852  187 983  187 1019  188 309  188 714  189 190  189 191  189 369  189 782  189 783  190 191  190 206  190 249  190 250  190 656  190 783  191 206  191 412  192 193  192 194  192 390  192 611  192 902  193 194  193 250  193 611  193 656  193 924  194 487  194 521  194 656  194 657  194 902  195 196  195 197  195 471  196 197  196 392  196 393  196 471  196 952  197 198  197 199  197 280  197 952  198 199  198 391  198 395  198 396  198 952  199 280  199 395  199 784  200 444  200 649  200 934  201 202  201 203  201 488  201 522  201 946  201 996  202 203  202 204  202 522  202 523  202 603  202 944  203 943  203 944  203 996  203 1014  204 205  204 206  204 523  204 603  204 657  205 206  205 412  205 603  205 1024  205 1038  206 412  206 656  206 657  207 462  207 463  207 587  207 588  207 589  208 236  208 237  208 683  209 210  209 619  209 620  209 903  210 620  210 642  210 1000  211 212  211 661  212 661  212 930  212 986  213 647  214 215  214 281  214 282  214 400  215 281  215 418  215 420  215 644  216 759  216 860  216 861  216 950  217 218  217 219  217 707  217 1015  218 219  218 300  218 301  218 583  218 707  218 846  219 846  219 1015  220 221  220 228  220 591  221 228  221 229  221 528  221 740  222 223  222 224  222 378  222 920  222 921  223 224  223 378  223 379  223 607  223 608  223 850  224 228  224 229  224 850  225 226  225 227  225 530  225 913  225 979  226 227  226 913  226 1003  226 1027  227 702  227 704  227 979  227 1003  228 229  229 738  229 740  229 850  230 231  230 232  230 609  230 738  230 739  231 232  231 312  231 597  231 598  231 739  231 928  232 312  232 313  232 609  232 723  232 724  233 234  233 235  233 500  233 510  233 814  233 832  233 833  233 863  234 235  234 501  234 502  234 833  235 499  235 500  235 792  236 237  236 238  236 440  236 682  236 683  237 238  237 614  237 618  238 439  238 440  238 618  238 904  239 240  239 241  239 248  239 692  239 733  239 1013  240 241  240 248  240 397  240 399  240 443  240 836  240 1005  241 442  241 443  241 732  241 733  242 243  242 530  242 531  242 675  242 979  242 1040  243 257  243 675  243 959  244 455  244 702  244 703  244 1040  245 246  245 247  245 532  245 825  245 826  245 960  245 962  246 247  246 454  246 532  246 533  247 454  247 825  247 959  248 419  248 836  249 250  249 251  249 524  249 526  249 783  250 251  250 656  250 924  251 524  251 716  251 924  252 253  252 254  252 324  252 434  252 437  253 254  253 434  253 691  253 693  253 744  254 324  254 326  254 744  254 862  255 256  255 257  255 258  255 768  255 825  255 961  255 962  256 257  256 258  256 558  256 675  256 772  257 675  257 825  257 959  258 768  258 772  258 1018  258 1026  259 260  259 815  259 816  260 972  261 262  261 263  261 275  261 817  261 977  262 263  263 670  263 977  264 265  264 674  264 856  265 912  266 267  266 268  266 373  266 572  266 933  267 268  267 373  267 679  267 797  267 940  268 859  268 933  269 270  269 493  269 966  270 777  270 995  271 272  271 273  271 663  271 664  271 667  271 938  272 273  272 631  272 632  272 633  272 663  272 950  273 387  273 633  273 938  274 275  274 276  274 579  274 988  275 276  275 590  275 817  275 988  276 287  276 579  276 590  277 278  277 279  277 364  277 747  277 753  277 892  278 279  278 364  278 651  278 745  279 865  279 866  279 892  280 784  280 785  280 918  281 282  281 283  281 420  281 421  281 1033  282 283  282 400  282 402  282 786  283 421  283 786  283 905  284 285  284 578  284 741  285 288  285 578  285 749  286 287  286 288  286 579  286 1016  287 288  287 579  287 590  288 749  288 1016  289 290  289 542  289 543  289 672  289 866  290 672  290 674  291 292  291 348  291 432  291 711  291 713  291 909  292 433  292 909  293 294  293 568  293 647  294 646  294 647  294 871  294 1020  295 296  295 646  295 649  295 709  296 646  296 824  296 1020  297 298  297 299  297 430  297 431  297 994  298 299  298 427  298 430  298 507  299 427  299 428  300 301  300 706  300 846  300 847  300 931  301 706  301 834  302 303  302 304  302 546  302 927  303 304  303 737  303 940  304 453  304 546  304 547  305 306  305 718  305 758  305 1025  306 596  306 758  307 308  307 309  307 379  307 714  307 715  307 873  308 309  308 873  309 714  310 311  310 480  310 485  310 717  310 719  311 477  311 480  311 780  311 919  312 313  312 598  313 686  313 723  313 1011  314 315  314 316  314 317  314 1035  315 316  315 317  315 318  315 669  316 668  316 669  316 1035  317 318  317 917  317 975  318 669  318 841  318 887  318 917  318 939  319 320  319 321  319 496  319 497  319 650  320 321  320 496  320 746  320 843  320 887  320 939  321 650  321 746  322 323  322 324  322 460  322 698  322 808  322 857  323 324  323 325  323 326  323 689  323 696  323 698  324 326  324 437  324 808  325 326  325 689  325 690  325 862  326 862  327 328  327 329  327 408  327 409  327 473  327 864  328 329  328 764  329 473  329 764  329 765  329 778  329 1039  330 331  330 332  330 885  330 886  331 332  331 767  332 765  332 767  332 885  332 993  332 1039  333 334  333 335  333 789  333 790  334 335  334 445  334 446  334 511  335 446  335 789  335 1049  336 337  336 338  336 549  336 654  336 655  336 894  337 338  337 566  337 894  337 897  338 549  338 550  338 566  339 340  339 358  339 360  339 848  339 849  340 359  340 360  340 652  340 968  341 342  341 343  341 606  341 870  342 343  342 605  342 1050  343 604  343 605  343 606  343 751  344 345  344 346  344 544  344 628  344 882  345 346  345 540  345 541  345 720  345 882  346 461  346 628  346 720  347 348  347 349  347 581  347 582  347 712  347 713  348 349  348 432  348 713  349 580  349 582  350 351  350 376  350 382  351 562  351 653  352 353  352 354  352 539  352 562  352 653  352 908  352 1004  353 354  353 552  353 553  353 561  353 562  354 552  354 908  354 974  355 356  355 357  355 731  355 858  355 859  356 357  356 721  356 722  356 730  356 731  357 722  357 840  357 858  357 1043  358 538  358 848  358 883  359 360  359 967  359 968  359 997  360 849  360 997  360 999  361 362  361 363  361 875  361 983  362 363  362 596  362 758  362 875  362 876  362 1025  363 596  363 658  364 494  364 497  364 651  364 747  365 366  365 367  365 526  365 782  365 783  366 367  366 728  366 951  367 410  367 411  367 728  367 782  368 369  368 383  368 410  368 411  368 1007  369 410  369 782  370 371  370 372  370 384  370 386  370 451  370 660  371 372  371 386  371 659  371 735  371 736  372 451  372 659  373 548  373 595  373 797  374 375  374 376  374 381  374 382  374 806  375 376  375 377  375 378  375 380  375 381  375 921  376 377  376 382  377 378  377 379  377 873  378 379  378 921  379 608  379 715  379 873  380 381  380 920  380 921  381 806  382 806  383 384  383 385  383 386  384 386  384 468  384 660  385 386  385 734  385 735  386 735  387 388  387 389  387 633  387 634  388 389  388 592  388 593  388 634  388 635  388 828  389 633  389 635  389 705  390 391  390 486  390 611  390 902  391 392  391 486  391 952  392 393  392 406  392 409  392 486  392 952  393 409  393 471  393 473  394 395  394 396  394 617  394 906  394 1031  395 396  395 784  395 906  397 398  397 399  397 525  397 836  398 399  398 525  398 615  398 616  398 915  399 615  399 835  399 1005  400 401  400 402  400 666  400 938  401 402  401 666  401 907  401 918  402 786  402 918  403 404  403 620  403 929  403 945  403 1047  404 420  404 644  404 1047  405 406  405 407  405 486  405 487  405 489  405 946  406 407  406 408  406 409  406 486  407 408  407 489  408 409  408 864  409 473  410 411  410 782  411 491  411 728  411 1007  412 520  412 1038  413 414  413 415  413 710  413 711  413 712  413 713  414 415  414 534  414 535  414 536  414 537  414 710  415 537  415 712  415 1029  416 417  416 569  416 570  416 577  416 910  416 911  417 910  418 634  418 644  418 828  419 524  419 525  419 526  419 836  420 644  420 1033  420 1047  421 643  421 905  421 1033  422 423  422 425  422 591  423 574  423 591  423 847  424 425  424 426  424 1027  425 426  426 592  426 827  426 1027  427 428  427 507  427 792  427 922  428 429  428 792  428 793  428 901  428 1042  429 923  429 1041  429 1042  430 431  430 506  430 507  430 509  430 585  431 585  431 638  431 639  431 953  431 994  433 805  433 807  434 437  434 442  434 691  434 732  435 436  435 538  435 539  435 1004  436 538  436 559  436 787  436 788  437 438  437 808  438 804  438 808  438 809  439 440  439 441  439 443  439 904  440 441  440 682  440 941  441 442  441 443  441 941  442 443  442 732  443 904  443 1005  444 794  444 795  444 796  444 934  444 954  445 446  445 510  445 511  445 1054  446 1049  447 448  447 449  447 492  447 726  447 729  447 951  448 449  448 693  448 726  448 727  448 744  448 862  449 492  449 727  449 963  450 679  450 680  450 798  450 799  451 452  451 660  451 856  453 547  453 730  453 731  454 464  454 533  454 959  454 991  455 687  455 694  455 703  455 705  456 457  456 458  456 874  456 1048  457 458  457 459  457 460  457 874  457 964  458 460  458 701  458 1045  459 460  459 791  459 808  459 809  459 857  459 964  460 698  460 701  460 857  461 462  461 463  461 627  461 628  461 720  462 463  462 627  462 676  463 587  463 720  464 465  464 991  465 466  465 467  465 687  465 991  465 992  466 467  466 687  466 694  467 760  467 990  467 992  468 660  468 674  468 856  469 594  469 595  469 659  470 471  470 472  471 472  471 473  471 778  472 778  472 993  472 1039  473 778  474 475  474 476  474 770  474 773  474 774  474 779  475 476  475 483  475 484  475 779  476 484  476 770  476 888  477 478  477 479  477 483  477 484  477 780  477 919  478 479  478 483  478 554  478 684  478 1026  479 684  479 686  479 919  479 1011  480 481  480 482  480 485  480 623  480 780  481 482  481 484  481 780  481 888  481 978  482 623  482 624  482 781  482 978  483 484  483 779  483 1018  483 1026  484 780  484 888  485 621  485 623  485 719  486 487  486 902  487 521  487 902  487 946  488 489  488 946  489 946  490 491  490 900  490 957  490 958  491 728  491 957  491 1007  492 951  492 957  492 958  492 963  492 981  493 662  493 884  493 966  494 495  494 496  494 497  494 747  494 748  495 496  495 748  495 887  495 917  495 975  495 976  496 497  496 887  497 650  497 651  498 802  498 1006  499 500  499 508  499 792  499 922  500 510  500 511  501 502  501 810  501 833  501 1008  502 1008  503 504  503 505  503 762  503 842  503 926  503 927  504 505  504 761  504 762  504 763  504 841  505 841  505 842  506 509  507 508  507 509  507 922  508 509  508 922  510 511  510 863  510 1054  512 513  512 514  512 599  512 654  512 655  513 514  513 600  513 601  513 801  514 599  514 801  515 516  515 517  515 518  515 519  515 572  515 573  515 985  516 517  516 571  516 573  516 754  516 838  516 1002  517 518  517 756  517 1002  518 519  518 756  518 930  518 986  519 930  519 984  519 985  520 648  520 1023  520 1038  521 522  521 523  521 657  521 946  522 523  522 946  523 657  524 525  524 526  524 716  525 716  525 836  525 915  526 783  527 528  527 529  527 610  527 914  527 980  528 529  528 610  528 740  529 913  529 914  530 531  530 913  530 914  530 979  531 557  531 558  531 675  531 914  531 980  532 533  532 826  532 989  533 989  533 991  534 535  534 536  534 652  534 968  534 1052  535 652  535 1034  536 537  536 1052  537 1029  538 539  538 883  539 883  539 908  539 1004  540 541  540 720  540 948  540 949  541 867  541 882  542 543  542 544  542 672  542 899  543 544  543 865  543 866  543 881  544 628  544 881  544 882  544 899  545 546  545 547  545 678  545 1046  546 547  546 678  546 926  546 927  547 730  547 1046  548 594  548 595  549 550  549 551  549 570  549 655  549 911  550 551  550 566  550 567  550 757  550 987  551 570  551 661  551 987  552 553  552 880  552 974  553 561  553 844  553 880  554 555  554 556  554 684  554 685  554 1026  555 556  555 557  555 685  555 724  555 725  556 557  556 558  556 772  556 1026  557 558  557 725  557 980  558 675  558 772  559 560  559 787  560 787  560 806  560 807  561 562  561 844  561 845  562 653  563 564  563 565  563 566  563 567  563 757  563 896  563 1051  564 565  564 754  564 755  564 756  564 757  564 1002  565 755  565 878  565 1051  566 567  566 896  566 897  567 757  568 577  569 570  569 577  569 661  570 661  570 911  571 572  571 573  571 838  571 858  571 933  572 573  572 933  574 575  574 576  574 847  574 931  574 955  575 576  575 818  575 931  575 937  576 937  576 955  578 749  578 750  578 1022  580 582  580 810  580 811  581 582  581 712  581 877  581 1029  582 811  582 877  583 584  583 707  584 805  585 586  585 639  585 682  585 942  586 681  586 942  587 588  587 720  587 949  588 589  588 695  588 947  588 949  588 1021  589 688  589 690  589 695  592 593  592 827  592 828  592 1027  593 635  593 704  593 1003  593 1027  594 595  594 659  595 797  596 658  596 758  597 598  597 714  597 928  599 655  599 910  599 911  600 601  600 800  600 801  601 802  602 645  602 872  602 985  602 1044  603 796  603 944  603 1024  604 605  604 751  605 1050  606 750  606 751  606 870  606 1022  607 608  607 739  607 850  607 928  608 715  608 928  609 724  610 740  611 716  611 924  612 613  612 614  612 903  612 956  613 614  613 615  613 618  613 835  613 956  613 1031  614 618  614 903  615 616  615 617  615 835  615 1031  616 617  616 915  617 1031  618 835  618 904  619 620  619 643  619 903  619 945  620 642  620 929  620 945  621 622  621 623  621 719  622 623  622 625  622 1053  623 624  623 625  624 625  624 781  624 891  626 627  626 628  626 629  626 630  626 672  626 899  627 628  627 630  627 676  627 677  628 899  629 630  629 672  629 673  629 900  630 677  630 900  631 632  631 633  631 705  632 950  633 705  634 828  635 703  635 704  635 705  636 637  636 935  636 936  636 982  637 898  637 982  638 639  638 682  638 683  638 953  638 1001  639 682  640 641  640 953  640 994  640 1000  642 929  642 1000  643 945  643 1033  644 828  645 872  645 984  645 1044  646 647  646 1020  648 794  648 795  648 1023  649 709  649 934  650 651  650 745  650 799  650 912  651 745  652 968  653 1004  654 655  654 894  654 895  655 911  656 657  659 736  659 898  660 856  661 986  661 987  662 860  662 861  663 664  663 861  663 950  664 665  664 667  664 995  665 666  665 667  665 777  665 907  665 995  666 667  666 907  666 938  667 938  668 669  668 761  668 763  668 1035  669 763  669 841  670 671  670 816  670 817  670 977  672 673  672 674  672 899  673 674  673 900  674 856  676 677  676 963  676 981  677 900  677 958  677 981  678 925  678 926  679 680  679 797  679 798  679 940  680 737  680 940  681 941  681 942  682 683  682 941  682 942  684 685  684 1011  685 723  685 724  685 1011  686 919  686 1011  686 1012  687 694  688 689  688 690  688 695  688 696  688 697  689 690  689 696  691 692  691 693  691 732  691 733  692 693  692 726  692 733  692 1013  693 726  693 744  694 705  695 697  695 1021  695 1030  696 697  696 698  696 699  697 699  697 700  697 1030  698 699  698 701  699 700  699 701  700 701  700 1030  700 1045  701 1045  702 703  702 704  702 979  702 1040  703 704  703 705  704 1003  706 834  706 931  706 1041  706 1042  708 932  709 934  709 935  709 936  710 711  710 909  711 713  711 909  712 713  712 1029  714 715  714 928  715 928  716 915  716 924  717 718  717 719  718 719  720 949  721 722  721 730  721 1046  722 1043  723 724  723 1011  725 980  726 729  726 1013  727 862  727 963  728 951  728 957  729 1013  730 731  730 1046  732 733  734 735  735 736  736 898  737 940  738 739  738 740  738 850  739 850  739 928  741 820  741 822  741 823  742 743  742 819  742 822  742 823  742 973  743 943  743 973  743 1014  744 862  745 912  746 843  747 748  747 752  747 753  747 1032  748 976  748 1032  749 750  749 1016  750 751  750 1016  750 1017  750 1022  751 1017  752 753  752 893  752 1032  753 892  753 893  754 755  754 837  754 838  754 1002  755 837  755 878  755 879  756 757  756 986  756 1002  757 986  757 987  758 1025  759 760  759 860  760 990  761 762  761 763  762 925  762 926  763 841  764 765  764 766  765 766  765 767  765 1039  766 767  766 972  767 972  768 773  768 961  768 1018  769 770  769 771  769 774  769 776  770 771  770 774  770 888  770 889  770 965  771 965  772 1026  773 774  773 775  773 779  773 961  773 1018  774 775  774 776  775 776  775 960  775 961  776 826  776 960  777 907  777 995  778 1039  779 1018  781 888  781 889  781 890  781 891  781 916  781 978  782 783  784 785  784 905  784 906  785 786  785 905  785 918  786 905  786 918  787 788  788 1034  789 790  789 803  789 1048  789 1049  790 791  790 803  791 803  791 804  791 809  791 964  792 793  792 922  793 901  794 795  794 954  795 796  795 1023  795 1024  796 944  796 1024  797 798  799 912  800 801  800 1050  803 874  803 964  803 1048  804 809  805 807  806 807  808 809  808 857  810 811  810 831  810 832  810 833  811 829  811 831  811 877  812 813  812 814  812 830  812 831  812 832  813 814  813 863  813 1054  814 832  814 863  815 816  815 817  815 988  816 817  817 977  817 988  818 923  818 931  818 1041  819 823  819 824  819 871  819 1020  820 821  820 822  821 822  821 973  821 1014  822 823  822 973  823 871  824 1020  825 959  825 962  826 960  827 828  829 830  829 831  829 877  830 831  831 832  832 833  834 901  834 1042  835 904  835 1005  837 838  837 839  837 840  837 879  838 840  838 858  839 840  839 879  839 1043  840 858  840 1043  841 842  841 843  841 939  842 843  843 939  844 845  844 853  844 855  844 880  844 1028  845 855  845 1019  846 847  847 931  848 849  848 883  848 969  848 970  849 969  849 971  849 999  851 852  851 853  851 854  851 875  851 983  852 853  852 855  852 1019  853 854  853 855  853 1028  854 875  854 876  854 1028  855 1019  858 859  858 933  859 933  860 861  861 950  863 1054  865 866  865 869  865 881  865 892  867 868  867 869  867 881  867 882  868 869  868 892  868 893  869 881  869 892  870 1022  871 1020  872 936  874 964  874 1048  875 876  875 983  876 1025  878 879  878 1051  880 1028  881 882  883 908  883 970  883 1010  884 885  884 886  884 966  885 886  885 966  885 993  887 917  887 939  888 889  888 978  889 916  889 965  890 891  890 916  892 893  894 895  894 897  896 897  896 1051  898 982  900 958  901 1042  904 1005  906 1031  908 974  908 1010  910 911  913 914  914 980  916 965  917 975  919 1012  920 921  920 1015  923 1041  925 926  926 927  929 937  930 984  930 986  931 1041  932 1008  934 935  934 954  935 936  935 954  941 942  943 944  943 1014  945 1033  945 1047  947 948  947 949  947 1021  948 949  951 957  953 994  953 1000  953 1001  956 1031  957 958  958 981  960 961  960 962  961 962  963 981  967 968  967 1052  968 1052  969 970  969 971  969 1009  970 1009  970 1010  971 998  971 999  973 1014  974 1009  974 1010  975 976  976 1032  979 1040  984 985  984 1044  985 1044  986 987  989 990  989 991  990 991  990 992  991 992  993 1039  996 1014  997 999  997 1037  998 999  998 1036  998 1037  999 1037  1000 1001  1003 1027  1009 1010  1016 1017  1018 1026  1021 1030  1023 1024  1023 1038  1024 1038  1033 1047  1036 1037  1041 1042  1048 1049  </DataArray>
<DataArray  type="UInt32"  Name="offsets"  format="ascii">2 4 6 8 10 12 14 16 18 20 22 24 26 28 30 32 34 36 38 40 42 44 46 48 50 52 54 56 58 60 62 64 66 68 70 72 74 76 78 80 82 84 86 88 90 92 94 96 98 100 102 104 106 108 110 112 114 116 118 120 122 124 126 128 130 132 134 136 138 140 142 144 146 148 150 152 154 156 158 160 162 164 166 168 170 172 174 176 178 180 182 184 186 188 190 192 194 196 198 200 202 204 206 208 210 212 214 216 218 220 222 224 226 228 230 232 234 236 238 240 242 244 246 248 250 252 254 256 258 260 262 264 266 268 270 272 274 276 278 280 282 284 286 288 290 292 294 296 298 300 302 304 306 308 310 312 314 316 318 320 322 324 326 328 330 332 334 336 338 340 342 344 346 348 350 352 354 356 358 360 362 364 366 368 370 372 374 376 378 380 382 384 386 388 390 392 394 396 398 400 402 404 406 408 410 412 414 416 418 420 422 424 426 428 430 432 434 436 438 440 442 444 446 448 450 452 454 456 458 460 462 464 466 468 470 472 474 476 478 480 482 484 486 488 490 492 494 496 498 500 502 504 506 508 510 512 514 516 518 520 522 524 526 528 530 532 534 536 538 540 542 544 546 548 550 552 554 556 558 560 562 564 566 568 570 572 574 576 578 580 582 584 586 588 590 592 594 596 598 600 602 604 606 608 610 612 614 616 618 620 622 624 626 628 630 632 634 636 638 640 642 644 646 648 650 652 654 656 658 660 662 664 666 668 670 672 674 676 678 680 682 684 686 688 690 692 694 696 698 700 702 704 706 708 710 712 714 716 718 720 722 724 726 728 730 732 734 736 738 740 742 744 746 748 750 752 754 756 758 760 762 764 766 768 770 772 774 776 778 780 782 784 786 788 790 792 794 796 798 800 802 804 806 808 810 812 814 816 818 820 822 824 826 828 830 832 834 836 838 840 842 844 846 848 850 852 854 856 858 860 862 864 866 868 870 872 874 876 878 880 882 884 886 888 890 892 894 896 898 900 902 904 906 908 910 912 914 916 918 920 922 924 926 928 930 932 934 936 938 940 942 944 946 948 950 952 954 956 958 960 962 964 966 968 970 972 974 976 978 980 982 984 986 988 990 992 994 996 998 1000 1002 1004 1006 1008 1010 1012 1014 1016 1018 1020 1022 1024 1026 1028 1030 1032 1034 1036 1038 1040 1042 1044 1046 1048 1050 1052 1054 1056 1058 1060 1062 1064 1066 1068 1070 1072 1074 1076 1078 1080 1082 1084 1086 1088 1090 1092 1094 1096 1098 1100 1102 1104 1106 1108 1110 1112 1114 1116 1118 1120 1122 1124 1126 1128 1130 1132 1134 1136 1138 1140 1142 1144 1146 1148 1150 1152 1154 1156 1158 1160 1162 1164 1166 1168 1170 1172 1174 1176 1178 1180 1182 1184 1186 1188 1190 1192 1194 1196 1198 1200 1202 1204 1206 1208 1210 1212 1214 1216 1218 1220 1222 1224 1226 1228 1230 1232 1234 1236 1238 1240 1242 1244 1246 1248 1250 1252 1254 1256 1258 1260 1262 1264 1266 1268 1270 1272 1274 1276 1278 1280 1282 1284 1286 1288 1290 1292 1294 1296 1298 1300 1302 1304 1306 1308 1310 1312 1314 1316 1318 1320 1322 1324 1326 1328 1330 1332 1334 1336 1338 1340 1342 1344 1346 1348 1350 1352 1354 1356 1358 1360 1362 1364 1366 1368 1370 1372 1374 1376 1378 1380 1382 1384 1386 1388 1390 1392 1394 1396 1398 1400 1402 1404 1406 1408 1410 1412 1414 1416 1418 1420 1422 1424 1426 1428 1430 1432 1434 1436 1438 1440 1442 1444 1446 1448 1450 1452 1454 1456 1458 1460 1462 1464 1466 1468 1470 1472 1474 1476 1478 1480 1482 1484 1486 1488 1490 1492 1494 1496 1498 1500 1502 1504 1506 1508 1510 1512 1514 1516 1518 1520 1522 1524 1526 1528 1530 1532 1534 1536 1538 1540 1542 1544 1546 1548 1550 1552 1554 1556 1558 1560 1562 1564 1566 1568 1570 1572 1574 1576 1578 1580 1582 1584 1586 1588 1590 1592 1594 1596 1598 1600 1602 1604 1606 1608 1610 1612 1614 1616 1618 1620 1622 1624 1626 1628 1630 1632 1634 1636 1638 1640 1642 1644 1646 1648 1650 1652 1654 1656 1658 1660 1662 1664 1666 1668 1670 1672 1674 1676 1678 1680 1682 1684 1686 1688 1690 1692 1694 1696 1698 1700 1702 1704 1706 1708 1710 1712 1714 1716 1718 1720 1722 1724 1726 1728 1730 1732 1734 1736 1738 1740 1742 1744 1746 1748 1750 1752 1754 1756 1758 1760 1762 1764 1766 1768 1770 1772 1774 1776 1778 1780 1782 1784 1786 1788 1790 1792 1794 1796 1798 1800 1802 1804 1806 1808 1810 1812 1814 1816 1818 1820 1822 1824 1826 1828 1830 1832 1834 1836 1838 1840 1842 1844 1846 1848 1850 1852 1854 1856 1858 1860 1862 1864 1866 1868 1870 1872 1874 1876 1878 1880 1882 1884 1886 1888 1890 1892 1894 1896 1898 1900 1902 1904 1906 1908 1910 1912 1914 1916 1918 1920 1922 1924 1926 1928 1930 1932 1934 1936 1938 1940 1942 1944 1946 1948 1950 1952 1954 1956 1958 1960 1962 1964 1966 1968 1970 1972 1974 1976 1978 1980 1982 1984 1986 1988 1990 1992 1994 1996 1998 2000 2002 2004 2006 2008 2010 2012 2014 2016 2018 2020 2022 2024 2026 2028 2030 2032 2034 2036 2038 2040 2042 2044 2046 2048 2050 2052 2054 2056 2058 2060 2062 2064 2066 2068 2070 2072 2074 2076 2078 2080 2082 2084 2086 2088 2090 2092 2094 2096 2098 2100 2102 2104 2106 2108 2110 2112 2114 2116 2118 2120 2122 2124 2126 2128 2130 2132 2134 2136 2138 2140 2142 2144 2146 2148 2150 2152 2154 2156 2158 2160 2162 2164 2166 2168 2170 2172 2174 2176 2178 2180 2182 2184 2186 2188 2190 2192 2194 2196 2198 2200 2202 2204 2206 2208 2210 2212 2214 2216 2218 2220 2222 2224 2226 2228 2230 2232 2234 2236 2238 2240 2242 2244 2246 2248 2250 2252 2254 2256 2258 2260 2262 2264 2266 2268 2270 2272 2274 2276 2278 2280 2282 2284 2286 2288 2290 2292 2294 2296 2298 2300 2302 2304 2306 2308 2310 2312 2314 2316 2318 2320 2322 2324 2326 2328 2330 2332 2334 2336 2338 2340 2342 2344 2346 2348 2350 2352 2354 2356 2358 2360 2362 2364 2366 2368 2370 2372 2374 2376 2378 2380 2382 2384 2386 2388 2390 2392 2394 2396 2398 2400 2402 2404 2406 2408 2410 2412 2414 2416 2418 2420 2422 2424 2426 2428 2430 2432 2434 2436 2438 2440 2442 2444 2446 2448 2450 2452 2454 2456 2458 2460 2462 2464 2466 2468 2470 2472 2474 2476 2478 2480 2482 2484 2486 2488 2490 2492 2494 2496 2498 2500 2502 2504 2506 2508 2510 2512 2514 2516 2518 2520 2522 2524 2526 2528 2530 2532 2534 2536 2538 2540 2542 2544 2546 2548 2550 2552 2554 2556 2558 2560 2562 2564 2566 2568 2570 2572 2574 2576 2578 2580 2582 2584 2586 2588 2590 2592 2594 2596 2598 2600 2602 2604 2606 2608 2610 2612 2614 2616 2618 2620 2622 2624 2626 2628 2630 2632 2634 2636 2638 2640 2642 2644 2646 2648 2650 2652 2654 2656 2658 2660 2662 2664 2666 2668 2670 2672 2674 2676 2678 2680 2682 2684 2686 2688 2690 2692 2694 2696 2698 2700 2702 2704 2706 2708 2710 2712 2714 2716 2718 2720 2722 2724 2726 2728 2730 2732 2734 2736 2738 2740 2742 2744 2746 2748 2750 2752 2754 2756 2758 2760 2762 2764 2766 2768 2770 2772 2774 2776 2778 2780 2782 2784 2786 2788 2790 2792 2794 2796 2798 2800 2802 2804 2806 2808 2810 2812 2814 2816 2818 2820 2822 2824 2826 2828 2830 2832 2834 2836 2838 2840 2842 2844 2846 2848 2850 2852 2854 2856 2858 2860 2862 2864 2866 2868 2870 2872 2874 2876 2878 2880 2882 2884 2886 2888 2890 2892 2894 2896 2898 2900 2902 2904 2906 2908 2910 2912 2914 2916 2918 2920 2922 2924 2926 2928 2930 2932 2934 2936 2938 2940 2942 2944 2946 2948 2950 2952 2954 2956 2958 2960 2962 2964 2966 2968 2970 2972 2974 2976 2978 2980 2982 2984 2986 2988 2990 2992 2994 2996 2998 3000 3002 3004 3006 3008 3010 3012 3014 3016 3018 3020 3022 3024 3026 3028 3030 3032 3034 3036 3038 3040 3042 3044 3046 3048 3050 3052 3054 3056 3058 3060 3062 3064 3066 3068 3070 3072 3074 3076 3078 3080 3082 3084 3086 3088 3090 3092 3094 3096 3098 3100 3102 3104 3106 3108 3110 3112 3114 3116 3118 3120 3122 3124 3126 3128 3130 3132 3134 3136 3138 3140 3142 3144 3146 3148 3150 3152 3154 3156 3158 3160 3162 3164 3166 3168 3170 3172 3174 3176 3178 3180 3182 3184 3186 3188 3190 3192 3194 3196 3198 3200 3202 3204 3206 3208 3210 3212 3214 3216 3218 3220 3222 3224 3226 3228 3230 3232 3234 3236 3238 3240 3242 3244 3246 3248 3250 3252 3254 3256 3258 3260 3262 3264 3266 3268 3270 3272 3274 3276 3278 3280 3282 3284 3286 3288 3290 3292 3294 3296 3298 3300 3302 3304 3306 3308 3310 3312 3314 3316 3318 3320 3322 3324 3326 3328 3330 3332 3334 3336 3338 3340 3342 3344 3346 3348 3350 3352 3354 3356 3358 3360 3362 3364 3366 3368 3370 3372 3374 3376 3378 3380 3382 3384 3386 3388 3390 3392 3394 3396 3398 3400 3402 3404 3406 3408 3410 3412 3414 3416 3418 3420 3422 3424 3426 3428 3430 3432 3434 3436 3438 3440 3442 3444 3446 3448 3450 3452 3454 3456 3458 3460 3462 3464 3466 3468 3470 3472 3474 3476 3478 3480 3482 3484 3486 3488 3490 3492 3494 3496 3498 3500 3502 3504 3506 3508 3510 3512 3514 3516 3518 3520 3522 3524 3526 3528 3530 3532 3534 3536 3538 3540 3542 3544 3546 3548 3550 3552 3554 3556 3558 3560 3562 3564 3566 3568 3570 3572 3574 3576 3578 3580 3582 3584 3586 3588 3590 3592 3594 3596 3598 3600 3602 3604 3606 3608 3610 3612 3614 3616 3618 3620 3622 3624 3626 3628 3630 3632 3634 3636 3638 3640 3642 3644 3646 3648 3650 3652 3654 3656 3658 3660 3662 3664 3666 3668 3670 3672 3674 3676 3678 3680 3682 3684 3686 3688 3690 3692 3694 3696 3698 3700 3702 3704 3706 3708 3710 3712 3714 3716 3718 3720 3722 3724 3726 3728 3730 3732 3734 3736 3738 3740 3742 3744 3746 3748 3750 3752 3754 3756 3758 3760 3762 3764 3766 3768 3770 3772 3774 3776 3778 3780 3782 3784 3786 3788 3790 3792 3794 3796 3798 3800 3802 3804 3806 3808 3810 3812 3814 3816 3818 3820 3822 3824 3826 3828 3830 3832 3834 3836 3838 3840 3842 3844 3846 3848 3850 3852 3854 3856 3858 3860 3862 3864 3866 3868 3870 3872 3874 3876 3878 3880 3882 3884 3886 3888 3890 3892 3894 3896 3898 3900 3902 3904 3906 3908 3910 3912 3914 3916 3918 3920 3922 3924 3926 3928 3930 3932 3934 3936 3938 3940 3942 3944 3946 3948 3950 3952 3954 3956 3958 3960 3962 3964 3966 3968 3970 3972 3974 3976 3978 3980 3982 3984 3986 3988 3990 3992 3994 3996 3998 4000 4002 4004 4006 4008 4010 4012 4014 4016 4018 4020 4022 4024 4026 4028 4030 4032 4034 4036 4038 4040 4042 4044 4046 4048 4050 4052 4054 4056 4058 4060 4062 4064 4066 4068 4070 4072 4074 4076 4078 4080 4082 4084 4086 4088 4090 4092 4094 4096 4098 4100 4102 4104 4106 4108 4110 4112 4114 4116 4118 4120 4122 4124 4126 4128 4130 4132 4134 4136 4138 4140 4142 4144 4146 4148 4150 4152 4154 4156 4158 4160 4162 4164 4166 4168 4170 4172 4174 4176 4178 4180 4182 4184 4186 4188 4190 4192 4194 4196 4198 4200 4202 4204 4206 4208 4210 4212 4214 4216 4218 4220 4222 4224 4226 4228 4230 4232 4234 4236 4238 4240 4242 4244 4246 4248 4250 4252 4254 4256 4258 4260 4262 4264 4266 4268 4270 4272 4274 4276 4278 4280 4282 4284 4286 4288 4290 4292 4294 4296 4298 4300 4302 4304 4306 4308 4310 4312 4314 4316 4318 4320 4322 4324 4326 4328 4330 4332 4334 4336 4338 4340 4342 4344 4346 4348 4350 4352 4354 4356 4358 4360 4362 4364 4366 4368 4370 4372 4374 4376 4378 4380 4382 4384 4386 4388 4390 4392 4394 4396 4398 4400 4402 4404 4406 4408 4410 4412 4414 4416 4418 4420 4422 4424 4426 4428 4430 4432 4434 4436 4438 4440 4442 4444 4446 4448 4450 4452 4454 4456 4458 4460 4462 4464 4466 4468 4470 4472 4474 4476 4478 4480 4482 4484 4486 4488 4490 4492 4494 4496 4498 4500 4502 4504 4506 4508 4510 4512 4514 4516 4518 4520 4522 4524 4526 4528 4530 4532 4534 4536 4538 4540 4542 4544 4546 4548 4550 4552 4554 4556 4558 4560 4562 4564 4566 4568 4570 4572 4574 4576 4578 4580 4582 4584 4586 4588 4590 4592 4594 4596 4598 4600 4602 4604 4606 4608 4610 4612 4614 4616 4618 4620 4622 4624 4626 4628 4630 4632 4634 4636 4638 4640 4642 4644 4646 4648 4650 4652 4654 4656 4658 4660 4662 4664 4666 4668 4670 4672 4674 4676 4678 4680 4682 4684 4686 4688 4690 4692 4694 4696 4698 4700 4702 4704 4706 4708 4710 4712 4714 4716 4718 4720 4722 4724 4726 4728 4730 4732 4734 4736 4738 4740 4742 4744 4746 4748 4750 4752 4754 4756 4758 4760 4762 4764 4766 4768 4770 4772 4774 4776 4778 4780 4782 4784 4786 4788 4790 4792 4794 4796 4798 4800 4802 4804 4806 4808 4810 4812 4814 4816 4818 4820 4822 4824 4826 4828 4830 4832 4834 4836 4838 4840 4842 4844 4846 4848 4850 4852 4854 4856 4858 4860 4862 4864 4866 4868 4870 4872 4874 4876 4878 4880 4882 4884 4886 4888 4890 4892 4894 4896 4898 4900 4902 4904 4906 4908 4910 4912 4914 4916 4918 4920 4922 4924 4926 4928 4930 4932 4934 4936 4938 4940 4942 4944 4946 4948 4950 4952 4954 4956 4958 4960 4962 4964 4966 4968 4970 4972 4974 4976 4978 4980 4982 4984 4986 4988 4990 4992 4994 4996 4998 5000 5002 5004 5006 5008 5010 5012 5014 5016 5018 5020 5022 5024 5026 5028 5030 5032 5034 5036 5038 5040 5042 5044 5046 5048 5050 5052 5054 5056 5058 5060 5062 5064 5066 5068 5070 5072 5074 5076 5078 5080 5082 5084 5086 5088 5090 5092 5094 5096 5098 5100 5102 5104 5106 5108 5110 5112 5114 5116 5118 5120 5122 5124 5126 5128 5130 5132 5134 5136 5138 5140 5142 5144 5146 5148 5150 5152 5154 5156 5158 5160 5162 5164 5166 5168 5170 5172 5174 5176 5178 5180 5182 5184 5186 5188 5190 5192 5194 5196 5198 5200 5202 5204 5206 5208 5210 5212 5214 5216 5218 5220 5222 5224 5226 5228 5230 5232 5234 5236 5238 5240 5242 5244 5246 5248 5250 5252 5254 5256 5258 5260 5262 5264 5266 5268 5270 5272 5274 5276 5278 5280 5282 5284 5286 5288 5290 5292 5294 5296 5298 5300 5302 5304 5306 5308 5310 5312 5314 5316 5318 5320 5322 5324 5326 5328 5330 5332 5334 5336 5338 5340 5342 5344 5346 5348 5350 5352 5354 5356 5358 5360 5362 5364 5366 5368 5370 5372 5374 5376 5378 5380 5382 5384 5386 5388 5390 5392 5394 5396 5398 5400 5402 5404 5406 5408 5410 5412 5414 5416 5418 5420 5422 5424 5426 5428 5430 5432 5434 5436 5438 5440 5442 5444 5446 5448 5450 5452 5454 5456 5458 5460 5462 5464 5466 5468 5470 5472 5474 5476 5478 5480 5482 5484 5486 5488 5490 5492 5494 5496 5498 5500 5502 5504 5506 5508 5510 5512 5514 5516 5518 5520 5522 5524 5526 5528 5530 5532 5534 5536 5538 5540 5542 5544 5546 5548 5550 5552 5554 5556 5558 5560 5562 5564 5566 5568 5570 5572 5574 5576 5578 5580 5582 5584 5586 5588 5590 5592 5594 5596 5598 5600 5602 5604 5606 5608 5610 5612 5614 5616 5618 5620 5622 5624 5626 5628 5630 5632 5634 5636 5638 5640 5642 5644 5646 5648 5650 5652 5654 5656 5658 5660 5662 5664 5666 5668 5670 5672 5674 5676 5678 5680 5682 5684 5686 5688 5690 5692 5694 5696 5698 5700 5702 5704 5706 5708 5710 5712 5714 5716 5718 5720 5722 5724 5726 5728 5730 5732 5734 5736 5738 5740 5742 5744 5746 5748 5750 5752 5754 5756 5758 5760 5762 5764 5766 5768 5770 5772 5774 5776 5778 5780 5782 5784 5786 5788 5790 5792 5794 5796 5798 5800 5802 5804 5806 5808 5810 5812 5814 5816 5818 5820 5822 5824 5826 5828 5830 5832 5834 5836 5838 5840 5842 5844 5846 5848 5850 5852 5854 5856 5858 5860 5862 5864 5866 5868 5870 5872 5874 5876 5878 5880 5882 5884 5886 5888 5890 5892 5894 5896 5898 5900 5902 5904 5906 5908 5910 5912 5914 5916 5918 5920 5922 5924 5926 5928 5930 5932 5934 5936 5938 5940 5942 5944 5946 5948 5950 5952 5954 5956 5958 5960 5962 5964 5966 5968 5970 5972 5974 5976 5978 5980 5982 5984 5986 5988 5990 5992 5994 5996 5998 6000 6002 6004 6006 6008 6010 6012 6014 6016 6018 6020 6022 6024 6026 6028 6030 6032 6034 6036 6038 6040 6042 6044 6046 6048 6050 6052 6054 6056 6058 6060 6062 6064 6066 6068 6070 6072 6074 6076 6078 6080 6082 6084 6086 6088 </DataArray>
<DataArray  type="UInt8"  Name="types"  format="ascii">3 3 3 3 3 3 3 3 3 3 3 3 3 3 3 3 3 3 3 3 3 3 3 3 3 3 3 3 3 3 3 3 3 3 3 3 3 3 3 3 3 3 3 3 3 3 3 3 3 3 3 3 3 3 3 3 3 3 3 3 3 3 3 3 3 3 3 3 3 3 3 3 3 3 3 3 3 3 3 3 3 3 3 3 3 3 3 3 3 3 3 3 3 3 3 3 3 3 3 3 3 3 3 3 3 3 3 3 3 3 3 3 3 3 3 3 3 3 3 3 3 3 3 3 3 3 3 3 3 3 3 3 3 3 3 3 3 3 3 3 3 3 3 3 3 3 3 3 3 3 3 3 3 3 3 3 3 3 3 3 3 3 3 3 3 3 3 3 3 3 3 3 3 3 3 3 3 3 3 3 3 3 3 3 3 3 3 3 3 3 3 3 3 3 3 3 3 3 3 3 3 3 3 3 3 3 3 3 3 3 3 3 3 3 3 3 3 3 3 3 3 3 3 3 3 3 3 3 3 3 3 3 3 3 3 3 3 3 3 3 3 3 3 3 3 3 3 3 3 3 3 3 3 3 3 3 3 3 3 3 3 3 3 3 3 3 3 3 3 3 3 3 3 3 3 3 3 3 3 3 3 3 3 3 3 3 3 3 3 3 3 3 3 3 3 3 3 3 3 3 3 3 3 3 3 3 3 3 3 3 3 3 3 3 3 3 3 3 3 3 3 3 3 3 3 3 3 3 3 3 3 3 3 3 3 3 3 3 3 3 3 3 3 3 3 3 3 3 3 3 3 3 3 3 3 3 3 3 3 3 3 3 3 3 3 3 3 3 3 3 3 3 3 3 3 3 3 3 3 3 3 3 3 3 3 3 3 3 3 3 3 3 3 3 3 3 3 3 3 3 3 3 3 3 3 3 3 3 3 3 3 3 3 3 3 3 3 3 3 3 3 3 3 3 3 3 3 3 3 3 3 3 3 3 3 3 3 3 3 3 3 3 3 3 3 3 3 3 3 3 3 3 3 3 3 3 3 3 3 3 3 3 3 3 3 3 3 3 3 3 3 3 3 3 3 3 3 3 3 3 3 3 3 3 3 3 3 3 3 3 3 3 3 3 3 3 3 3 3 3 3 3 3 3 3 3 3 3 3 3 3 3 3 3 3 3 3 3 3 3 3 3 3 3 3 3 3 3 3 3 3 3 3 3 3 3 3 3 3 3 3 3 3 3 3 3 3 3 3 3 3 3 3 3 3 3 3 3 3 3 3 3 3 3 3 3 3 3 3 3 3 3 3 3 3 3 3 3 3 3 3 3 3 3 3 3 3 3 3 3 3 3 3 3 3 3 3 3 3 3 3 3 3 3 3 3 3 3 3 3 3 3 3 3 3 3 3 3 3 3 3 3 3 3 3 3 3 3 3 3 3 3 3 3 3 3 3 3 3 3 3 3 3 3 3 3 3 3 3 3 3 3 3 3 3 3 3 3 3 3 3 3 3 3 3 3 3 3 3 3 3 3 3 3 3 3 3 3 3 3 3 3 3 3 3 3 3 3 3 3 3 3 3 3 3 3 3 3 3 3 3 3 3 3 3 3 3 3 3 3 3 3 3 3 3 3 3 3 3 3 3 3 3 3 3 3 3 3 3 3 3 3 3 3 3 3 3 3 3 3 3 3 3 3 3 3 3 3 3 3 3 3 3 3 3 3 3 3 3 3 3 3 3 3 3 3 3 3 3 3 3 3 3 3 3 3 3 3 3 3 3 3 3 3 3 3 3 3 3 3 3 3 3 3 3 3 3 3 3 3 3 3 3 3 3 3 3 3 3 3 3 3 3 3 3 3 3 3 3 3 3 3 3 3 3 3 3 3 3 3 3 3 3 3 3 3 3 3 3 3 3 3 3 3 3 3 3 3 3 3 3 3 3 3 3 3 3 3 3 3 3 3 3 3 3 3 3 3 3 3 3 3 3 3 3 3 3 3 3 3 3 3 3 3 3 3 3 3 3 3 3 3 3 3 3 3 3 3 3 3 3 3 3 3 3 3 3 3 3 3 3 3 3 3 3 3 3 3 3 3 3 3 3 3 3 3 3 3 3 3 3 3 3 3 3 3 3 3 3 3 3 3 3 3 3 3 3 3 3 3 3 3 3 3 3 3 3 3 3 3 3 3 3 3 3 3 3 3 3 3 3 3 3 3 3 3 3 3 3 3 3 3 3 3 3 3 3 3 3 3 3 3 3 3 3 3 3 3 3 3 3 3 3 3 3 3 3 3 3 3 3 3 3 3 3 3 3 3 3 3 3 3 3 3 3 3 3 3 3 3 3 3 3 3 3 3 3 3 3 3 3 3 3 3 3 3 3 3 3 3 3 3 3 3 3 3 3 3 3 3 3 3 3 3 3 3 3 3 3 3 3 3 3 3 3 3 3 3 3 3 3 3 3 3 3 3 3 3 3 3 3 3 3 3 3 3 3 3 3 3 3 3 3 3 3 3 3 3 3 3 3 3 3 3 3 3 3 3 3 3 3 3 3 3 3 3 3 3 3 3 3 3 3 3 3 3 3 3 3 3 3 3 3 3 3 3 3 3 3 3 3 3 3 3 3 3 3 3 3 3 3 3 3 3 3 3 3 3 3 3 3 3 3 3 3 3 3 3 3 3 3 3 3 3 3 3 3 3 3 3 3 3 3 3 3 3 3 3 3 3 3 3 3 3 3 3 3 3 3 3 3 3 3 3 3 3 3 3 3 3 3 3 3 3 3 3 3 3 3 3 3 3 3 3 3 3 3 3 3 3 3 3 3 3 3 3 3 3 3 3 3 3 3 3 3 3 3 3 3 3 3 3 3 3 3 3 3 3 3 3 3 3 3 3 3 3 3 3 3 3 3 3 3 3 3 3 3 3 3 3 3 3 3 3 3 3 3 3 3 3 3 3 3 3 3 3 3 3 3 3 3 3 3 3 3 3 3 3 3 3 3 3 3 3 3 3 3 3 3 3 3 3 3 3 3 3 3 3 3 3 3 3 3 3 3 3 3 3 3 3 3 3 3 3 3 3 3 3 3 3 3 3 3 3 3 3 3 3 3 3 3 3 3 3 3 3 3 3 3 3 3 3 3 3 3 3 3 3 3 3 3 3 3 3 3 3 3 3 3 3 3 3 3 3 3 3 3 3 3 3 3 3 3 3 3 3 3 3 3 3 3 3 3 3 3 3 3 3 3 3 3 3 3 3 3 3 3 3 3 3 3 3 3 3 3 3 3 3 3 3 3 3 3 3 3 3 3 3 3 3 3 3 3 3 3 3 3 3 3 3 3 3 3 3 3 3 3 3 3 3 3 3 3 3 3 3 3 3 3 3 3 3 3 3 3 3 3 3 3 3 3 3 3 3 3 3 3 3 3 3 3 3 3 3 3 3 3 3 3 3 3 3 3 3 3 3 3 3 3 3 3 3 3 3 3 3 3 3 3 3 3 3 3 3 3 3 3 3 3 3 3 3 3 3 3 3 3 3 3 3 3 3 3 3 3 3 3 3 3 3 3 3 3 3 3 3 3 3 3 3 3 3 3 3 3 3 3 3 3 3 3 3 3 3 3 3 3 3 3 3 3 3 3 3 3 3 3 3 3 3 3 3 3 3 3 3 3 3 3 3 3 3 3 3 3 3 3 3 3 3 3 3 3 3 3 3 3 3 3 3 3 3 3 3 3 3 3 3 3 3 3 3 3 3 3 3 3 3 3 3 3 3 3 3 3 3 3 3 3 3 3 3 3 3 3 3 3 3 3 3 3 3 3 3 3 3 3 3 3 3 3 3 3 3 3 3 3 3 3 3 3 3 3 3 3 3 3 3 3 3 3 3 3 3 3 3 3 3 3 3 3 3 3 3 3 3 3 3 3 3 3 3 3 3 3 3 3 3 3 3 3 3 3 3 3 3 3 3 3 3 3 3 3 3 3 3 3 3 3 3 3 3 3 3 3 3 3 3 3 3 3 3 3 3 3 3 3 3 3 3 3 3 3 3 3 3 3 3 3 3 3 3 3 3 3 3 3 3 3 3 3 3 3 3 3 3 3 3 3 3 3 3 3 3 3 3 3 3 3 3 3 3 3 3 3 3 3 3 3 3 3 3 3 3 3 3 3 3 3 3 3 3 3 3 3 3 3 3 3 3 3 3 3 3 3 3 3 3 3 3 3 3 3 3 3 3 3 3 3 3 3 3 3 3 3 3 3 3 3 3 3 3 3 3 3 3 3 3 3 3 3 3 3 3 3 3 3 3 3 3 3 3 3 3 3 3 3 3 3 3 3 3 3 3 3 3 3 3 3 3 3 3 3 3 3 3 3 3 3 3 3 3 3 3 3 3 3 3 3 3 3 3 3 3 3 3 3 3 3 3 3 3 3 3 3 3 3 3 3 3 3 3 3 3 3 3 3 3 3 3 3 3 3 3 3 3 3 3 3 3 3 3 3 3 3 3 3 3 3 3 3 3 3 3 3 3 3 3 3 3 3 3 3 3 3 3 3 3 3 3 3 3 3 3 3 3 3 3 3 3 3 3 3 3 3 3 3 3 3 3 3 3 3 3 3 3 3 3 3 3 3 3 3 3 3 3 3 3 3 3 3 3 3 3 3 3 3 3 3 3 3 3 3 3 3 3 3 3 3 3 3 3 3 3 3 3 3 3 3 3 3 3 3 3 3 3 3 3 3 3 3 3 3 3 3 3 3 3 3 3 3 3 3 3 3 3 3 3 3 3 3 3 3 3 3 3 3 3 3 3 3 3 3 3 3 3 3 3 3 3 3 3 3 3 3 3 3 3 3 3 3 3 3 3 3 3 3 3 3 3 3 3 3 3 3 3 3 3 3 3 3 3 3 3 3 3 3 3 3 3 3 3 3 3 3 3 3 3 3 3 3 3 3 3 3 3 3 3 3 3 3 3 3 3 3 3 3 3 3 3 3 3 3 3 3 3 3 3 3 3 3 3 3 3 3 3 3 3 3 3 3 3 3 3 3 3 3 3 3 3 3 3 3 3 3 3 3 3 3 3 3 3 3 3 3 3 3 3 3 3 3 3 3 3 3 3 3 3 3 3 3 3 3 3 3 3 3 3 3 3 3 3 3 3 3 3 3 3 3 3 3 3 3 3 3 3 3 3 3 3 3 3 3 3 3 3 3 3 3 3 3 3 3 3 3 3 3 3 3 3 3 3 3 3 3 3 3 3 3 3 3 3 3 3 3 3 3 3 3 3 3 3 3 3 3 3 3 3 3 3 3 3 3 3 3 3 3 3 3 3 3 3 3 3 3 3 3 3 3 3 3 3 3 3 3 3 3 3 3 3 3 3 3 3 3 3 3 3 3 3 3 3 3 3 3 3 3 3 3 3 3 3 3 3 3 3 3 3 3 3 3 3 3 3 3 3 3 3 3 3 3 3 3 3 3 3 3 3 3 3 3 3 3 3 3 3 3 3 3 3 3 3 3 3 3 3 3 3 3 3 3 3 3 3 3 3 3 3 3 3 3 3 3 3 3 3 3 3 3 3 3 3 3 3 3 3 3 3 3 3 3 3 3 3 3 3 3 3 3 3 3 3 3 3 3 3 3 3 3 3 3 3 3 3 3 3 3 3 3 3 3 3 3 3 3 3 3 3 3 3 3 3 3 3 3 3 3 3 3 3 3 3 3 3 3 3 3 3 3 3 3 3 3 3 3 3 3 3 3 3 3 3 3 3 3 3 3 3 3 3 3 3 3 3 3 3 3 3 3 3 3 3 3 3 3 3 3 3 3 3 3 3 3 3 3 3 3 3 3 3 3 3 3 3 3 3 3 3 3 3 3 3 3 3 3 3 3 3 3 3 3 3 3 3 3 3 3 3 3 3 3 3 3 3 3 3 3 3 3 3 3 3 3 3 3 3 3 3 3 3 3 3 3 3 3 3 3 3 3 3 3 3 3 3 3 3 3 3 3 3 3 3 3 3 3 3 3 3 3 3 3 3 3 3 3 3 3 3 3 3 3 3 3 3 3 3 3 3 3 3 3 3 3 3 3 3 3 3 3 3 3 3 3 3 3 3 3 3 3 3 3 3 3 3 3 3 3 3 3 3 3 3 3 3 3 3 3 3 3 3 3 3 3 3 3 3 3 3 3 3 3 3 3 3 3 3 3 3 3 3 3 3 3 3 3 3 3 3 3 3 3 3 3 3 3 3 3 3 3 3 3 3 3 3 3 3 3 3 3 3 3 3 3 3 3 3 3 3 3 3 3 3 3 3 3 3 3 3 3 3 3 3 3 3 3 3 3 3 3 3 3 3 3 3 3 3 3 3 3 3 3 3 3 3 3 3 3 3 3 3 3 3 3 3 3 3 3 3 3 3 3 3 3 3 3 3 3 3 3 3 3 3 3 3 3 3 3 3 3 3 3 3 3 3 3 3 3 3 3 3 3 3 3 3 3 3 3 3 3 3 3 3 3 3 3 3 3 3 3 3 3 3 3 3 3 3 3 3 3 3 3 3 3 3 3 3 3 3 3 3 3 3 3 3 3 3 3 3 3 3 3 3 3 3 3 3 3 3 3 3 3 3 3 3 3 3 3 3 3 3 3 3 3 3 3 3 3 3 3 3 3 3 3 3 3 3 3 3 3 3 3 3 3 3 3 3 3 3 3 3 3 3 3 3 3 3 3 3 3 3 3 3 3 3 3 3 3 3 3 3 3 3 3 3 3 3 3 3 3 3 3 3 3 3 3 3 3 3 3 3 3 3 3 3 3 3 3 3 3 3 3 3 3 3 3 3 3 3 3 3 3 3 3 3 3 3 3 3 3 3 3 3 3 3 3 3 3 3 3 3 3 3 3 3 </DataArray>
</Cells>
<CellData  Scalars="f">
<DataArray  type="Float64"  Name="f"  format="ascii">0 0 0 0 0 0 0 0 0 0 0 0 0 0 0 0 0 0 0 0 0 0 0 0 0 0 0 0 0 0 0 0 0 0 0 0 0 0 0 0 0 0 0 0 0 0 0 0 0 0 0 0 0 0 0 0 0 0 0 0 0 0 0 0 0 0 0 0 0 0 0 0 0 0 0 0 0 0 0 0 0 0 0 0 0 0 0 0 0 0 0 0 0 0 0 0 0 0 0 0 0 0 0 0 0 0 0 0 0 0 0 0 0 0 0 0 0 0 0 0 0 0 0 0 0 0 0 0 0 0 0 0 0 0 0 0 0 0 0 0 0 0 0 0 0 0 0 0 0 0 0 0 0 0 0 0 0 0 0 0 0 0 0 0 0 0 0 0 0 0 0 0 0 0 0 0 0 0 0 0 0 0 0 0 0 0 0 0 0 0 0 0 0 0 0 0 0 0 0 0 0 0 0 0 0 0 0 0 0 0 0 0 0 0 0 0 0 0 0 0 0 0 0 0 0 0 0 0 0 0 0 0 0 0 0 0 0 0 0 0 0 0 0 0 0 0 0 0 0 0 0 0 0 0 0 0 0 0 0 0 0 0 0 0 0 0 0 0 0 0 0 0 0 0 0 0 0 0 0 0 0 0 0 0 0 0 0 0 0 0 0 0 0 0 0 0 0 0 0 0 0 0 0 0 0 0 0 0 0 0 0 0 0 0 0 0 0 0 0 0 0 0 0 0 0 0 0 0 0 0 0 0 0 0 0 0 0 0 0 0 0 0 0 0 0 0 0 0 0 0 0 0 0 0 0 0 0 0 0 0 0 0 0 0 0 0 0 0 0 0 0 0 0 0 0 0 0 0 0 0 0 0 0 0 0 0 0 0 0 0 0 0 0 0 0 0 0 0 0 0 0 0 0 0 0 0 0 0 0 0 0 0 0 0 0 0 0 0 0 0 0 0 0 0 0 0 0 0 0 0 0 0 0 0 0 0 0 0 0 0 0 0 0 0 0 0 0 0 0 0 0 0 0 0 0 0 0 0 0 0 0 0 0 0 0 0 0 0 0 0 0 0 0 0 0 0 0 0 0 0 0 0 0 0 0 0 0 0 0 0 0 0 0 0 0 0 0 0 0 0 0 0 0 0 0 0 0 0 0 0 0 0 0 0 0 0 0 0 0 0 0 0 0 0 0 0 0 0 0 0 0 0 0 0 0 0 0 0 0 0 0 0 0 0 0 0 0 0 0 0 0 0 0 0 0 0 0 0 0 0 0 0 0 0 0 0 0 0 0 0 0 0 0 0 0 0 0 0 0 0 0 0 0 0 0 0 0 0 0 0 0 0 0 0 0 0 0 0 0 0 0 0 0 0 0 0 0 0 0 0 0 0 0 0 0 0 0 0 0 0 0 0 0 0 0 0 0 0 0 0 0 0 0 0 0 0 0 0 0 0 0 0 0 0 0 0 0 0 0 0 0 0 0 0 0 0 0 0 0 0 0 0 0 0 0 0 0 0 0 0 0 0 0 0 0 0 0 0 0 0 0 0 0 0 0 0 0 0 0 0 0 0 0 0 0 0 0 0 0 0 0 0 0 0 0 0 0 0 0 0 0 0 0 0 0 0 0 0 0 0 0 0 0 0 0 0 0 0 0 0 0 0 0 0 0 0 0 0 0 0 0 0 0 0 0 0 0 0 0 0 0 0 0 0 0 0 0 0 0 0 0 0 0 0 0 0 0 0 0 0 0 0 0 0 0 0 0 0 0 0 0 0 0 0 0 0 0 0 0 0 0 0 0 0 0 0 0 0 0 0 0 0 0 0 0 0 0 0 0 0 0 0 0 0 0 0 0 0 0 0 0 0 0 0 0 0 0 0 0 0 0 0 0 0 0 0 0 0 0 0 0 0 0 0 0 0 0 0 0 0 0 0 0 0 0 0 0 0 0 0 0 0 0 0 0 0 0 0 0 0 0 0 0 0 0 0 0 0 0 0 0 0 0 0 0 0 0 0 0 0 0 0 0 0 0 0 0 0 0 0 0 1 1 0 0 0 0 0 0 0 0 0 0 0 0 0 0 0 0 0 0 0 0 0 0 0 0 0 0 0 0 0 0 0 0 0 0 0 0 0 0 0 0 0 0 0 0 0 0 0 0 0 0 0 0 0 0 0 0 0 0 0 0 0 0 0 0 0 0 0 0 0 0 0 0 0 0 0 0 0 0 0 0 0 0 0 0 0 0 0 0 0 0 0 0 0 0 0 0 0 0 0 0 0 0 0 0 0 0 0 0 0 0 0 0 0 0 0 0 0 0 0 0 0 0 0 0 0 0 0 0 0 0 0 0 0 0 0 0 0 0 0 0 0 0 0 0 0 0 0 0 0 0 0 0 0 0 0 0 0 0 0 0 0 0 0 0 0 0 0 0 0 0 0 0 0 0 0 0 0 0 0 0 0 0 0 0 0 0 0 0 0 0 0 0 0 0 0 0 0 0 0 0 0 0 0 0 0 0 0 0 0 0 0 0 0 0 0 0 0 0 0 0 0 0 0 0 0 0 0 0 0 0 0 0 0 0 0 0 0 0 0 0 0 0 0 0 0 0 0 0 0 0 0 0 0 0 0 0 0 0 0 0 0 0 0 0 0 0 0 0 0 0 0 0 0 0 0 0 0 0 0 0 0 0 0 0 0 0 0 0 0 0 0 0 0 0 0 0 0 0 0 0 0 0 0 0 0 0 0 0 0 0 0 0 0 0 0 0 0 0 0 0 0 0 0 0 0 0 0 0 0 0 0 0 0 0 0 0 0 0 0 0 0 0 0 0 0 0 0 0 0 0 0 0 0 0 0 0 0 0 0 0 0 0 0 0 0 0 0 0 0 0 0 0 0 0 0 0 0 0 0 0 0 0 0 0 0 0 0 0 0 0 0 0 0 0 0 0 0 0 0 0 0 0 0 0 0 0 0 0 0 0 0 0 0 0 0 0 0 0 0 0 0 0 0 0 0 0 0 0 0 0 0 0 0 0 0 0 0 0 0 0 0 0 0 0 0 0 0 0 0 0 0 0 0 0 0 0 0 0 0 0 0 0 0 0 0 0 0 0 0 0 0 0 0 0 0 0 0 0 0 0 1 0 1 0 0 0 0 0 0 0 0 0 0 0 0 0 0 0 0 0 0 0 0 0 0 0 0 0 0 0 1 1 0 0 0 0 0 0 0 0 0 1 0 0 0 0 0 0 0 0 0 0 0 0 0 0 0 0 0 0 0 0 0 0 0 0 0 0 0 0 0 0 0 0 0 0 0 0 0 0 0 0 0 0 0 0 0 0 0 0 0 0 0 0 0 0 0 0 0 0 0 0 0 0 0 0 0 0 0 0 0 0 0 0 0 0 0 0 0 0 0 0 0 0 0 0 0 0 0 0 0 0 0 0 0 0 0 0 0 0 0 0 0 0 0 0 0 0 0 0 0 0 0 0 0 0 0 0 0 0 0 0 0 0 0 0 0 0 0 0 0 0 0 0 0 0 0 0 0 0 0 0 0 0 0 0 0 0 0 0 0 0 0 0 0 0 0 0 0 0 0 0 0 0 0 0 0 0 0 0 1 0 1 0 0 0 0 0 0 0 0 0 0 0 0 0 0 0 0 0 0 0 0 0 0 0 0 0 0 0 0 0 0 0 0 0 0 0 0 0 0 0 0 0 0 0 0 0 0 0 0 0 0 0 0 0 0 0 0 0 0 0 0 0 0 0 0 0 0 0 0 0 0 0 0 0 0 0 0 0 0 0 0 0 0 0 0 0 0 0 0 0 0 0 0 0 0 0 0 0 0 0 0 0 0 0 0 0 0 0 0 0 0 0 0 0 0 0 0 0 0 0 0 0 0 0 0 0 0 0 0 0 0 0 0 0 0 0 0 0 0 0 0 0 0 0 0 0 0 0 0 0 0 0 0 0 0 0 0 0 0 0 0 0 0 0 0 0 0 0 0 0 0 0 0 0 0 0 0 0 0 0 0 0 0 0 0 0 0 0 0 0 0 0 0 0 0 0 0 0 0 0 0 0 0 0 0 0 0 0 0 0 0 0 0 0 0 0 0 0 0 0 0 0 0 0 0 0 0 0 0 0 0 0 0 0 0 0 0 0 0 0 0 0 0 0 0 0 0 0 0 0 0 0 0 0 0 0 0 0 0 0 0 0 0 0 0 0 0 0 0 0 0 0 0 0 0 0 0 0 0 0 0 0 0 0 0 0 0 1 0 0 1 1 0 0 0 0 0 0 0 0 0 0 0 0 0 0 0 0 0 0 0 0 0 0 0 0 0 0 0 0 0 0 0 0 0 0 1 0 1 0 0 0 0 0 0 0 1 0 0 0 0 0 0 0 0 0 0 0 0 0 0 0 0 0 0 0 0 0 0 0 0 0 0 0 0 0 0 0 0 0 0 0 0 0 0 0 0 0 0 0 0 0 0 0 0 0 0 0 0 0 0 0 0 0 0 0 0 0 0 0 0 0 0 0 0 0 0 0 0 0 0 0 0 0 0 0 0 0 0 0 0 0 0 0 0 0 0 0 0 0 0 0 0 0 0 0 0 0 0 0 0 0 0 0 0 0 0 0 0 0 0 0 0 0 0 0 0 0 0 0 0 0 0 0 0 0 0 0 0 0 0 0 0 0 0 0 0 0 0 0 0 0 0 0 0 0 0 0 0 0 0 0 0 0 0 0 0 0 0 0 0 0 0 0 0 0 0 0 0 0 0 0 0 0 0 0 0 0 0 0 0 0 0 0 0 0 0 0 0 0 0 0 0 0 0 0 0 0 0 0 0 0 0 0 0 0 0 0 0 0 0 0 0 0 0 0 0 0 0 0 0 0 0 0 0 0 0 0 0 0 0 0 0 0 0 0 0 0 0 0 0 0 0 0 0 0 0 0 0 0 1 1 1 0 0 0 0 0 1 0 1 0 1 0 0 0 0 0 0 0 0 0 0 0 0 0 0 0 1 1 0 0 0 0 0 0 0 0 0 0 0 0 0 0 0 0 0 0 0 0 0 0 1 1 0 0 0 0 0 0 0 0 0 0 0 0 0 0 0 0 0 0 0 0 0 0 0 0 0 0 0 0 0 0 0 0 0 0 0 0 0 0 0 0 0 0 0 0 0 0 0 0 0 0 0 0 0 0 0 0 0 0 0 0 0 0 0 0 0 0 0 0 0 0 0 0 0 0 0 0 0 0 0 0 0 0 0 1 1 0 0 0 0 0 0 0 0 0 0 0 0 0 0 0 0 0 0 0 0 0 0 0 0 0 0 0 0 0 0 0 0 0 0 0 0 0 0 0 0 0 0 0 0 0 0 0 0 0 0 0 0 0 0 0 0 0 0 0 0 0 0 0 0 0 0 0 0 0 0 0 0 0 0 0 0 0 0 0 0 0 0 0 0 0 0 0 0 0 0 0 0 0 0 0 0 0 1 0 1 0 0 1 0 0 0 0 0 0 0 0 0 0 0 0 0 0 0 0 0 0 0 0 0 0 0 0 0 0 0 0 0 0 0 0 0 0 0 0 0 0 0 0 0 0 0 0 0 0 0 0 0 0 0 0 0 0 0 0 0 0 0 0 0 0 0 0 0 0 0 0 0 0 0 0 0 0 0 0 0 0 0 0 0 0 0 0 0 0 0 0 0 0 0 0 0 0 0 0 0 1 0 1 0 0 0 0 0 0 0 0 0 0 0 0 0 0 0 0 0 0 1 0 0 0 0 0 0 0 0 0 0 0 0 0 0 0 0 0 0 0 0 0 0 0 0 0 0 0 0 0 0 0 0 0 0 0 0 0 0 0 0 0 0 0 0 0 0 0 0 0 0 0 0 0 1 1 0 0 0 0 0 0 0 0 0 0 0 0 0 0 0 0 0 0 0 0 0 0 0 0 0 0 0 0 0 1 0 1 0 1 1 0 0 0 0 0 0 0 0 0 0 0 0 0 0 0 0 0 0 0 0 0 0 0 0 0 0 0 0 0 0 0 0 0 0 0 0 0 0 0 0 0 0 0 0 0 0 0 0 0 0 1 1 0 0 0 0 0 0 0 0 0 0 0 0 0 0 0 0 0 0 1 0 1 0 0 0 0 0 0 0 0 0 0 0 0 0 0 0 0 0 0 0 0 0 0 0 0 0 0 0 0 0 0 0 0 0 0 0 0 0 0 0 0 0 0 0 0 0 0 0 0 0 0 0 0 0 0 0 0 0 0 0 0 0 0 0 0 0 0 0 0 0 0 0 0 0 0 0 0 0 0 0 0 0 0 0 0 0 0 0 0 0 0 0 0 0 0 0 0 1 0 1 0 0 0 0 1 0 0 0 0 0 0 0 0 0 0 0 0 0 0 0 0 0 0 0 0 0 0 0 0 0 0 0 0 1 0 1 0 0 0 0 0 0 0 0 0 0 0 0 0 0 1 1 0 0 0 0 0 0 0 0 0 0 0 0 0 0 0 0 0 0 0 0 0 0 0 0 0 0 0 0 0 0 0 0 0 0 0 1 1 0 0 0 0 0 0 0 0 0 0 0 1 0 0 0 0 0 1 0 0 0 0 0 0 0 0 0 1 1 1 1 0 0 0 0 0 0 0 0 0 0 0 0 0 0 0 0 0 0 0 1 1 1 1 0 0 0 0 0 0 0 0 0 0 0 0 0 0 0 0 0 0 0 0 0 0 0 0 0 0 0 0 0 0 0 0 1 0 1 0 0 0 0 0 0 0 0 0 0 0 0 0 1 0 0 1 1 0 0 1 0 0 1 0 1 1 0 0 0 0 0 0 0 0 0 0 0 0 0 1 0 1 0 0 0 0 0 0 0 1 0 0 0 0 1 0 1 </DataArray>
</CellData>
</Piece>
</UnstructuredGrid>
</VTKFile>