<?xml version="1.0"?>
<VTKFile type="UnstructuredGrid"  version="0.1"  >
<UnstructuredGrid>
<Piece  NumberOfPoints="23" NumberOfCells="49">
<Points>
<DataArray  type="Float64"  NumberOfComponents="3"  format="ascii">-1 -0.5 0  -0.625 -0.625 0  -0.71875 -0.28125 0  -0.25 -0.5 0  0 0 0  -0.5 0 0  -0.5 -1 0  0.5 0 0  0.5 -0.5 0  0.25 0 0  1 -0.5 0  1 -0.75 0  0.75 0 0  0 -1 0  0.125 -0.375 0  0.125 -0.7 0  0.5 -1 0  1 0 0  -1 -1 0  0.25 -1 0  1 -1 0  0.75 -1 0  -1 0 0  </DataArray>
</Points>
<Cells>
<DataArray  type="UInt32"  Name="connectivity"  format="ascii">0 1  0 2  0 18  0 22  1 2  1 3  1 6  1 18  2 3  2 5  2 22  3 4  3 5  3 6  3 13  3 14  3 15  4 5  4 9  4 14  5 22  6 13  6 18  7 8  7 9  7 12  8 9  8 10  8 11  8 12  8 14  8 15  8 16  8 21  9 14  10 11  10 12  10 17  11 20  11 21  12 17  13 15  13 19  14 15  15 16  15 19  16 19  16 21  20 21  </DataArray>
<DataArray  type="UInt32"  Name="offsets"  format="ascii">2 4 6 8 10 12 14 16 18 20 22 24 26 28 30 32 34 36 38 40 42 44 46 48 50 52 54 56 58 60 62 64 66 68 70 72 74 76 78 80 82 84 86 88 90 92 94 96 98 </DataArray>
<DataArray  type="UInt8"  Name="types"  format="ascii">3 3 3 3 3 3 3 3 3 3 3 3 3 3 3 3 3 3 3 3 3 3 3 3 3 3 3 3 3 3 3 3 3 3 3 3 3 3 3 3 3 3 3 3 3 3 3 3 3 </DataArray>
</Cells>
<CellData  Scalars="f">
<DataArray  type="Float64"  Name="f"  format="ascii">0 0 1 1 0 0 0 0 0 0 0 0 0 0 0 0 0 0 0 0 0 1 1 0 0 0 0 0 0 0 0 0 0 0 0 1 0 1 1 0 0 0 1 0 0 0 1 1 1 </DataArray>
</CellData>
</Piece>
</UnstructuredGrid>
</VTKFile>